# WaveFront *.mtl file (generated by CINEMA 4D)

newmtl dynamiet
Ka 1 1 1
Kd 0.80000001192093 0.80000001192093 0.80000001192093
map_Kd .\\Homenas\PROJECTEN\_LESSEN\CINEMA 4D\__C4D_MODELS_UPLOAD\TICKING TIME BOMB\TICKING_TIME_BOMBSurface_Color.tif
Ks 1 1 1
Ns 50
illum 7

