{"objects" : [
{"mainType":"Geometry","id":5,"subtype":"Cube","position":[-35.70686721801758,0.8077383041381836,-18.666370391845704],"size":[0.10000002384185791,0.10000002384185791,0.10000002384185791],"rotation":[-0.04038744792342186,0.18373242020606996,-0.03020165115594864,0.9816818237304688],"visible":true,"color":[1.0,1.0,1.0,1.0]}, 
{"mainType":"Geometry","id":4,"subtype":"Sphere","position":[-35.758689880371097,0.8032562732696533,-18.95102882385254],"size":[0.09999994933605194,0.1000000387430191,0.09999994933605194],"rotation":[-0.2514214813709259,-0.19928871095180512,0.07237415760755539,0.9443692564964294],"visible":true,"color":[1.0,1.0,1.0,1.0]}, 
{"mainType":"Geometry","id":3,"subtype":"Cube","position":[-36.1883544921875,1.06496262550354,-18.738914489746095],"size":[0.10000001639127732,0.10000000149011612,0.09999994933605194],"rotation":[0.007306676357984543,0.17645439505577088,-0.04190070927143097,0.9833894968032837],"visible":true,"color":[1.0,1.0,1.0,1.0]} 
], 
 "events": []}