{"objects" : [
{"mainType":"Geometry","id":3,"subtype":"Capsule","position":[-36.2929801940918,1.0527517795562745,-19.658571243286134],"size":[0.09999998658895493,0.09999999403953552,0.09999998658895493],"rotation":[-0.041842009872198108,0.20922569930553437,0.014873117208480835,0.9768585562705994],"visible":true,"color":[1.0,1.0,1.0,1.0]} 
], 
 "events": [{"mainType":"Color","id":36,"target":3,"animations":[],"previousIcon":35,"nextIcon":-1,"color":[0.8141090273857117,0.4301331043243408,0.4301331043243408,1.0],"holdingHand":-1,"trajectory":"","rotations":"","collided":-1,"followDirection":false}, 
{"mainType":"Color","id":35,"target":3,"animations":[],"previousIcon":34,"nextIcon":36,"color":[0.8141090273857117,0.4301331043243408,0.4301331043243408,1.0],"holdingHand":-1,"trajectory":"","rotations":"","collided":-1,"followDirection":false}, 
{"mainType":"Color","id":34,"target":3,"animations":[],"previousIcon":33,"nextIcon":35,"color":[0.8141090273857117,0.4301331043243408,0.4301331043243408,1.0],"holdingHand":-1,"trajectory":"","rotations":"","collided":-1,"followDirection":false}, 
{"mainType":"Color","id":33,"target":3,"animations":[],"previousIcon":32,"nextIcon":34,"color":[0.8141090273857117,0.4301331043243408,0.4301331043243408,1.0],"holdingHand":-1,"trajectory":"","rotations":"","collided":-1,"followDirection":false}, 
{"mainType":"Color","id":32,"target":3,"animations":[],"previousIcon":31,"nextIcon":33,"color":[0.8141090273857117,0.4301331043243408,0.4301331043243408,1.0],"holdingHand":-1,"trajectory":"","rotations":"","collided":-1,"followDirection":false}, 
{"mainType":"Color","id":31,"target":3,"animations":[],"previousIcon":30,"nextIcon":32,"color":[0.8141090273857117,0.4301331043243408,0.4301331043243408,1.0],"holdingHand":-1,"trajectory":"","rotations":"","collided":-1,"followDirection":false}, 
{"mainType":"Color","id":30,"target":3,"animations":[],"previousIcon":29,"nextIcon":31,"color":[0.8141090273857117,0.4301331043243408,0.4301331043243408,1.0],"holdingHand":-1,"trajectory":"","rotations":"","collided":-1,"followDirection":false}, 
{"mainType":"Color","id":29,"target":3,"animations":[],"previousIcon":28,"nextIcon":30,"color":[0.8141090273857117,0.4301331043243408,0.4301331043243408,1.0],"holdingHand":-1,"trajectory":"","rotations":"","collided":-1,"followDirection":false}, 
{"mainType":"Color","id":28,"target":3,"animations":[],"previousIcon":27,"nextIcon":29,"color":[0.8141090273857117,0.4301331043243408,0.4301331043243408,1.0],"holdingHand":-1,"trajectory":"","rotations":"","collided":-1,"followDirection":false}, 
{"mainType":"Color","id":27,"target":3,"animations":[],"previousIcon":26,"nextIcon":28,"color":[0.8141090273857117,0.4301331043243408,0.4301331043243408,1.0],"holdingHand":-1,"trajectory":"","rotations":"","collided":-1,"followDirection":false}, 
{"mainType":"Color","id":26,"target":3,"animations":[],"previousIcon":25,"nextIcon":27,"color":[0.8141090273857117,0.4301331043243408,0.4301331043243408,1.0],"holdingHand":-1,"trajectory":"","rotations":"","collided":-1,"followDirection":false}, 
{"mainType":"Color","id":25,"target":3,"animations":[],"previousIcon":24,"nextIcon":26,"color":[0.8141090273857117,0.4301331043243408,0.4301331043243408,1.0],"holdingHand":-1,"trajectory":"","rotations":"","collided":-1,"followDirection":false}, 
{"mainType":"Color","id":24,"target":3,"animations":[],"previousIcon":23,"nextIcon":25,"color":[0.8141090273857117,0.4301331043243408,0.4301331043243408,1.0],"holdingHand":-1,"trajectory":"","rotations":"","collided":-1,"followDirection":false}, 
{"mainType":"Color","id":23,"target":3,"animations":[],"previousIcon":22,"nextIcon":24,"color":[0.8141090273857117,0.4301331043243408,0.4301331043243408,1.0],"holdingHand":-1,"trajectory":"","rotations":"","collided":-1,"followDirection":false}, 
{"mainType":"Color","id":22,"target":3,"animations":[],"previousIcon":21,"nextIcon":23,"color":[0.8141090273857117,0.4301331043243408,0.4301331043243408,1.0],"holdingHand":-1,"trajectory":"","rotations":"","collided":-1,"followDirection":false}, 
{"mainType":"Color","id":21,"target":3,"animations":[],"previousIcon":20,"nextIcon":22,"color":[0.8141090273857117,0.4301331043243408,0.4301331043243408,1.0],"holdingHand":-1,"trajectory":"","rotations":"","collided":-1,"followDirection":false}, 
{"mainType":"Color","id":20,"target":3,"animations":[],"previousIcon":19,"nextIcon":21,"color":[0.8141090273857117,0.4301331043243408,0.4301331043243408,1.0],"holdingHand":-1,"trajectory":"","rotations":"","collided":-1,"followDirection":false}, 
{"mainType":"Color","id":19,"target":3,"animations":[],"previousIcon":18,"nextIcon":20,"color":[0.8141090273857117,0.4301331043243408,0.4301331043243408,1.0],"holdingHand":-1,"trajectory":"","rotations":"","collided":-1,"followDirection":false}, 
{"mainType":"Color","id":18,"target":3,"animations":[],"previousIcon":17,"nextIcon":19,"color":[0.8141090273857117,0.4301331043243408,0.4301331043243408,1.0],"holdingHand":-1,"trajectory":"","rotations":"","collided":-1,"followDirection":false}, 
{"mainType":"Color","id":17,"target":3,"animations":[],"previousIcon":16,"nextIcon":18,"color":[0.8141090273857117,0.4301331043243408,0.4301331043243408,1.0],"holdingHand":-1,"trajectory":"","rotations":"","collided":-1,"followDirection":false}, 
{"mainType":"Color","id":16,"target":3,"animations":[],"previousIcon":15,"nextIcon":17,"color":[0.8141090273857117,0.4301331043243408,0.4301331043243408,1.0],"holdingHand":-1,"trajectory":"","rotations":"","collided":-1,"followDirection":false}, 
{"mainType":"Color","id":15,"target":3,"animations":[],"previousIcon":14,"nextIcon":16,"color":[0.8141090273857117,0.4301331043243408,0.4301331043243408,1.0],"holdingHand":-1,"trajectory":"","rotations":"","collided":-1,"followDirection":false}, 
{"mainType":"Color","id":14,"target":3,"animations":[],"previousIcon":13,"nextIcon":15,"color":[0.8141090273857117,0.4301331043243408,0.4301331043243408,1.0],"holdingHand":-1,"trajectory":"","rotations":"","collided":-1,"followDirection":false}, 
{"mainType":"Color","id":13,"target":3,"animations":[],"previousIcon":12,"nextIcon":14,"color":[0.8141090273857117,0.4301331043243408,0.4301331043243408,1.0],"holdingHand":-1,"trajectory":"","rotations":"","collided":-1,"followDirection":false}, 
{"mainType":"Color","id":12,"target":3,"animations":[],"previousIcon":11,"nextIcon":13,"color":[0.8141090273857117,0.4301331043243408,0.4301331043243408,1.0],"holdingHand":-1,"trajectory":"","rotations":"","collided":-1,"followDirection":false}, 
{"mainType":"Color","id":11,"target":3,"animations":[],"previousIcon":10,"nextIcon":12,"color":[0.8141090273857117,0.4301331043243408,0.4301331043243408,1.0],"holdingHand":-1,"trajectory":"","rotations":"","collided":-1,"followDirection":false}, 
{"mainType":"Color","id":10,"target":3,"animations":[],"previousIcon":9,"nextIcon":11,"color":[0.8141090273857117,0.4301331043243408,0.4301331043243408,1.0],"holdingHand":-1,"trajectory":"","rotations":"","collided":-1,"followDirection":false}, 
{"mainType":"Color","id":9,"target":3,"animations":[],"previousIcon":8,"nextIcon":10,"color":[0.8141090273857117,0.4301331043243408,0.4301331043243408,1.0],"holdingHand":-1,"trajectory":"","rotations":"","collided":-1,"followDirection":false}, 
{"mainType":"Color","id":8,"target":3,"animations":[],"previousIcon":7,"nextIcon":9,"color":[0.8141090273857117,0.4301331043243408,0.4301331043243408,1.0],"holdingHand":-1,"trajectory":"","rotations":"","collided":-1,"followDirection":false}, 
{"mainType":"Color","id":7,"target":3,"animations":[],"previousIcon":6,"nextIcon":8,"color":[0.8141090273857117,0.4301331043243408,0.4301331043243408,1.0],"holdingHand":-1,"trajectory":"","rotations":"","collided":-1,"followDirection":false}, 
{"mainType":"Color","id":6,"target":3,"animations":[],"previousIcon":5,"nextIcon":7,"color":[0.8141090273857117,0.4301331043243408,0.4301331043243408,1.0],"holdingHand":-1,"trajectory":"","rotations":"","collided":-1,"followDirection":false}, 
{"mainType":"Color","id":5,"target":3,"animations":[],"previousIcon":4,"nextIcon":6,"color":[0.8141090273857117,0.4301331043243408,0.4301331043243408,1.0],"holdingHand":-1,"trajectory":"","rotations":"","collided":-1,"followDirection":false}, 
{"mainType":"Color","id":4,"target":3,"animations":[],"previousIcon":3,"nextIcon":5,"color":[0.8141090273857117,0.4301331043243408,0.4301331043243408,1.0],"holdingHand":-1,"trajectory":"","rotations":"","collided":-1,"followDirection":false}, 
{"mainType":"Color","id":3,"target":3,"animations":[],"previousIcon":2,"nextIcon":4,"color":[0.580601692199707,0.07603912055492401,0.07603912055492401,1.0],"holdingHand":-1,"trajectory":"","rotations":"","collided":-1,"followDirection":false}, 
{"mainType":"Color","id":2,"target":3,"animations":[],"previousIcon":1,"nextIcon":3,"color":[0.915621280670166,0.07256225496530533,0.07256225496530533,1.0],"holdingHand":-1,"trajectory":"","rotations":"","collided":-1,"followDirection":false}, 
{"mainType":"Color","id":1,"target":3,"animations":[],"previousIcon":0,"nextIcon":2,"color":[0.9297431707382202,0.7406646013259888,0.7406646013259888,1.0],"holdingHand":-1,"trajectory":"","rotations":"","collided":-1,"followDirection":false}, 
{"mainType":"Color","id":0,"target":3,"animations":[],"previousIcon":-1,"nextIcon":1,"color":[0.6459774374961853,0.14262109994888307,0.14262109994888307,1.0],"holdingHand":-1,"trajectory":"","rotations":"","collided":-1,"followDirection":false}]}