{"objects" : [
{"mainType":"Geometry","id":3,"subtype":"Capsule","position":[-35.949745178222659,1.0510685443878174,-19.746713638305665],"size":[0.10000000894069672,0.10000000894069672,0.10000000149011612],"rotation":[-0.004471105523407459,0.04170510545372963,-0.051157280802726749,0.9978094696998596],"visible":true,"color":[1.0,1.0,1.0,1.0]} 
], 
 "events": []}