{"objects" : [
{"mainType":"Geometry","id":3,"subtype":"Cube","position":[-35.76976013183594,0.9736064672470093,-19.585756301879884],"size":[0.10000000149011612,0.09999999403953552,0.09999999403953552],"rotation":[0.0,0.0,4.656612873077393e-10,1.0],"visible":true,"color":[0.034715939313173297,0.5596404075622559,0.1944999247789383,1.0]} 
], 
 "events": [{"mainType":"Color","id":15,"target":3,"animations":[],"previousIcon":14,"nextIcon":-1,"color":[0.200967475771904,0.6404671669006348,0.23138202726840974,1.0],"holdingHand":-1,"trajectory":"","rotations":"","collided":-1,"followDirection":false}, 
{"mainType":"Color","id":14,"target":3,"animations":[],"previousIcon":13,"nextIcon":15,"color":[0.5162748694419861,0.200967475771904,0.6404671669006348,1.0],"holdingHand":-1,"trajectory":"","rotations":"","collided":-1,"followDirection":false}, 
{"mainType":"Color","id":13,"target":3,"animations":[],"previousIcon":12,"nextIcon":14,"color":[0.5761497020721436,0.4171578586101532,0.6387729644775391,1.0],"holdingHand":-1,"trajectory":"","rotations":"","collided":-1,"followDirection":false}, 
{"mainType":"Color","id":12,"target":3,"animations":[],"previousIcon":11,"nextIcon":13,"color":[0.6387729644775391,0.5042120814323425,0.4171578586101532,1.0],"holdingHand":-1,"trajectory":"","rotations":"","collided":-1,"followDirection":false}, 
{"mainType":"Color","id":11,"target":3,"animations":[],"previousIcon":10,"nextIcon":12,"color":[0.8359146118164063,0.6294462084770203,0.49587133526802065,1.0],"holdingHand":-1,"trajectory":"","rotations":"","collided":-1,"followDirection":false}, 
{"mainType":"Color","id":10,"target":3,"animations":[],"previousIcon":9,"nextIcon":11,"color":[0.5712987184524536,0.8359146118164063,0.49587133526802065,1.0],"holdingHand":-1,"trajectory":"","rotations":"","collided":-1,"followDirection":false}, 
{"mainType":"Color","id":9,"target":3,"animations":[],"previousIcon":8,"nextIcon":10,"color":[0.2888660132884979,0.7136560082435608,0.16778182983398438,1.0],"holdingHand":-1,"trajectory":"","rotations":"","collided":-1,"followDirection":false}, 
{"mainType":"Color","id":8,"target":3,"animations":[],"previousIcon":7,"nextIcon":9,"color":[0.7136560082435608,0.38680651783943179,0.16778182983398438,1.0],"holdingHand":-1,"trajectory":"","rotations":"","collided":-1,"followDirection":false}, 
{"mainType":"Color","id":7,"target":3,"animations":[],"previousIcon":6,"nextIcon":8,"color":[0.7245827913284302,0.5362016558647156,0.4099658131599426,1.0],"holdingHand":-1,"trajectory":"","rotations":"","collided":-1,"followDirection":false}, 
{"mainType":"Color","id":6,"target":3,"animations":[],"previousIcon":5,"nextIcon":7,"color":[0.7245827913284302,0.4099658131599426,0.6601155996322632,1.0],"holdingHand":-1,"trajectory":"","rotations":"","collided":-1,"followDirection":false}, 
{"mainType":"Color","id":5,"target":3,"animations":[],"previousIcon":4,"nextIcon":6,"color":[0.4099658131599426,0.7245827913284302,0.589690089225769,1.0],"holdingHand":-1,"trajectory":"","rotations":"","collided":-1,"followDirection":false}, 
{"mainType":"Color","id":4,"target":3,"animations":[],"previousIcon":3,"nextIcon":5,"color":[0.034715939313173297,0.5596404075622559,0.33457788825035097,1.0],"holdingHand":-1,"trajectory":"","rotations":"","collided":-1,"followDirection":false}, 
{"mainType":"Color","id":3,"target":3,"animations":[],"previousIcon":2,"nextIcon":4,"color":[0.034715939313173297,0.21414373815059663,0.5596404075622559,1.0],"holdingHand":-1,"trajectory":"","rotations":"","collided":-1,"followDirection":false}, 
{"mainType":"Color","id":2,"target":3,"animations":[],"previousIcon":1,"nextIcon":3,"color":[0.4012743830680847,0.034715939313173297,0.5596404075622559,1.0],"holdingHand":-1,"trajectory":"","rotations":"","collided":-1,"followDirection":false}, 
{"mainType":"Color","id":1,"target":3,"animations":[],"previousIcon":0,"nextIcon":2,"color":[0.5596404075622559,0.3673684000968933,0.034715939313173297,1.0],"holdingHand":-1,"trajectory":"","rotations":"","collided":-1,"followDirection":false}, 
{"mainType":"Color","id":0,"target":3,"animations":[],"previousIcon":-1,"nextIcon":1,"color":[0.5596404075622559,0.034715939313173297,0.10105287283658982,1.0],"holdingHand":-1,"trajectory":"","rotations":"","collided":-1,"followDirection":false}]}