{"objects" : [
{"mainType":"","id":15,"subtype":"","position":[-35.55481719970703,0.8300830721855164,-16.570310592651368],"size":[0.0010000001639127732,0.0010000000474974514,0.0010000001639127732],"rotation":[-0.11479021608829498,0.5881720781326294,-0.08990810066461563,-0.7954831719398499],"visible":false,"color":[0.0,0.0,0.0,0.0]} 
], 
 "events": []}