{"objects" : [
{"mainType":"Geometry","id":17,"subtype":"Sphere","position":[-30.275943756103517,1.2760576009750367,-24.56399154663086],"size":[0.10000000149011612,0.10000000149011612,0.10000003129243851],"rotation":[0.5293198823928833,0.23335331678390504,-0.5944374799728394,0.5585792660713196],"visible":true,"color":[1.0,1.0,1.0,1.0]}, 
{"mainType":"Geometry","id":16,"subtype":"Sphere","position":[-31.0924072265625,1.2912676334381104,-24.58999252319336],"size":[0.09999993443489075,0.1000000536441803,0.09999991953372956],"rotation":[-0.22001224756240846,-0.18953311443328858,-0.10174467414617539,-0.9514830112457275],"visible":true,"color":[1.0,1.0,1.0,1.0]}, 
{"mainType":"Geometry","id":15,"subtype":"Sphere","position":[-30.571847915649415,1.2859618663787842,-24.589813232421876],"size":[0.1000000387430191,0.09999999403953552,0.09999998658895493],"rotation":[-0.4949342906475067,-0.3820478022098541,0.18916094303131104,-0.7571642994880676],"visible":true,"color":[1.0,1.0,1.0,1.0]}, 
{"mainType":"Geometry","id":14,"subtype":"Sphere","position":[-31.387880325317384,1.3057891130447388,-24.577495574951173],"size":[0.09999995678663254,0.10000001639127732,0.09999995678663254],"rotation":[-0.35161274671554568,-0.4561958312988281,-0.10874943435192108,-0.8102021217346191],"visible":true,"color":[1.0,1.0,1.0,1.0]}, 
{"mainType":"Geometry","id":13,"subtype":"Sphere","position":[-30.82923126220703,1.2769410610198975,-24.590274810791017],"size":[0.1000000387430191,0.1000000536441803,0.1000000536441803],"rotation":[0.5886145234107971,0.1267165094614029,0.1986117959022522,0.7733235359191895],"visible":true,"color":[1.0,1.0,1.0,1.0]}, 
{"mainType":"Images","id":12,"subtype":"Napoleaon Chronology 3","position":[-30.361042022705079,0.6787663102149963,-24.221206665039064],"size":[0.0005258870078250766,0.0005258861347101629,0.000525886716786772],"rotation":[0.07774777710437775,0.8651899695396423,-0.47974249720573428,0.1234857439994812],"visible":true,"color":[0.0,0.0,0.0,0.0]}, 
{"mainType":"Images","id":11,"subtype":"Napoleaon Chronology 2","position":[-30.80290412902832,0.7215458154678345,-24.233074188232423],"size":[0.00047510972945019603,0.00047511025331914425,0.0004751095548272133],"rotation":[0.031216904520988466,0.887782871723175,-0.452848881483078,0.07612508535385132],"visible":true,"color":[0.0,0.0,0.0,0.0]}, 
{"mainType":"Images","id":10,"subtype":"Napoleaon Chronology 1","position":[-31.380964279174806,0.7212954759597778,-24.227224349975587],"size":[0.0005569214117713273,0.0005569214117713273,0.0005569215281866491],"rotation":[0.018312988802790643,0.8875695466995239,-0.45949554443359377,-0.027365751564502717],"visible":true,"color":[0.0,0.0,0.0,0.0]}, 
{"mainType":"Images","id":9,"subtype":"PlaceHolder5","position":[-31.389217376708986,1.1185247898101807,-24.54047203063965],"size":[0.0004601134860422462,0.00046011374797672033,0.0004601134860422462],"rotation":[-0.024670153856277467,-0.9994671940803528,-0.004410486668348312,0.020912252366542817],"visible":true,"color":[0.0,0.0,0.0,0.0]}, 
{"mainType":"Images","id":8,"subtype":"PlaceHolder4","position":[-31.09720230102539,1.109872579574585,-24.556856155395509],"size":[0.0004496292385738343,0.0004496291221585125,0.00044962941319681704],"rotation":[-0.0195654034614563,-0.999755322933197,0.009828377515077591,0.0031512118875980379],"visible":true,"color":[0.0,0.0,0.0,0.0]}, 
{"mainType":"Images","id":7,"subtype":"PlaceHolder3","position":[-30.823564529418947,1.110161304473877,-24.55780601501465],"size":[0.00043485633796080947,0.0004348568618297577,0.0004348563670646399],"rotation":[-0.015802063047885896,-0.9997031688690186,0.003612455213442445,-0.018193382769823076],"visible":true,"color":[0.0,0.0,0.0,0.0]}, 
{"mainType":"Images","id":6,"subtype":"Napoleaon Chronology 5","position":[-30.176891326904298,0.7447582483291626,-24.113933563232423],"size":[0.0004646062443498522,0.0004646067100111395,0.0004646063316613436],"rotation":[0.06533318758010864,0.861564576625824,-0.47515344619750979,0.16633504629135133],"visible":true,"color":[0.0,0.0,0.0,0.0]}, 
{"mainType":"Images","id":5,"subtype":"Napoleaon Chronology 4","position":[-31.090587615966798,0.702924370765686,-24.24226951599121],"size":[0.0004285649920348078,0.0004285643226467073,0.0004285649338271469],"rotation":[-0.009390592575073243,0.9039061069488525,-0.4275050163269043,0.010256260633468628],"visible":true,"color":[0.0,0.0,0.0,0.0]}, 
{"mainType":"Images","id":4,"subtype":"PlaceHolder2","position":[-30.5651798248291,1.100441336631775,-24.551349639892579],"size":[0.0004477319307625294,0.0004477319307625294,0.00044773187255486846],"rotation":[0.013176439329981804,0.998779296875,-0.013317359611392022,0.04570464417338371],"visible":true,"color":[0.0,0.0,0.0,0.0]}, 
{"mainType":"Images","id":3,"subtype":"PlaceHolder1","position":[-30.281721115112306,1.0969555377960206,-24.526681900024415],"size":[0.000455911475000903,0.000455911475000903,0.0004559118242468685],"rotation":[0.011515386402606964,0.999066948890686,-0.008513190783560276,0.040744930505752566],"visible":true,"color":[0.0,0.0,0.0,0.0]} 
], 
 "events": [{"mainType":"Drop","id":87,"target":-1,"animations":[],"previousIcon":86,"nextIcon":-1,"color":[],"holdingHand":1,"trajectory":"[[-30.60401,0.6135024,-24.09265]]","rotations":"","collided":-1,"followDirection":false}, 
{"mainType":"Drop","id":86,"target":-1,"animations":[],"previousIcon":85,"nextIcon":87,"color":[],"holdingHand":1,"trajectory":"[[-30.60426,0.6137112,-24.09285]]","rotations":"","collided":-1,"followDirection":false}, 
{"mainType":"Drop","id":85,"target":-1,"animations":[],"previousIcon":84,"nextIcon":86,"color":[],"holdingHand":1,"trajectory":"[[-30.604,0.6137637,-24.09245]]","rotations":"","collided":-1,"followDirection":false}, 
{"mainType":"Drop","id":84,"target":-1,"animations":[],"previousIcon":83,"nextIcon":85,"color":[],"holdingHand":1,"trajectory":"[[-30.60384,0.6142753,-24.09232]]","rotations":"","collided":-1,"followDirection":false}, 
{"mainType":"Drop","id":83,"target":-1,"animations":[],"previousIcon":82,"nextIcon":84,"color":[],"holdingHand":1,"trajectory":"[[-30.60352,0.6145093,-24.09222]]","rotations":"","collided":-1,"followDirection":false}, 
{"mainType":"Drop","id":82,"target":-1,"animations":[],"previousIcon":81,"nextIcon":83,"color":[],"holdingHand":1,"trajectory":"[[-30.60365,0.6145184,-24.09212]]","rotations":"","collided":-1,"followDirection":false}, 
{"mainType":"Drop","id":81,"target":-1,"animations":[],"previousIcon":80,"nextIcon":82,"color":[],"holdingHand":1,"trajectory":"[[-30.60318,0.6153811,-24.09179]]","rotations":"","collided":-1,"followDirection":false}, 
{"mainType":"Drop","id":80,"target":-1,"animations":[],"previousIcon":79,"nextIcon":81,"color":[],"holdingHand":1,"trajectory":"[[-30.60357,0.6155828,-24.0917]]","rotations":"","collided":-1,"followDirection":false}, 
{"mainType":"Drop","id":79,"target":-1,"animations":[],"previousIcon":78,"nextIcon":80,"color":[],"holdingHand":1,"trajectory":"[[-30.60358,0.6160651,-24.09189]]","rotations":"","collided":-1,"followDirection":false}, 
{"mainType":"Drop","id":78,"target":-1,"animations":[],"previousIcon":77,"nextIcon":79,"color":[],"holdingHand":1,"trajectory":"[[-30.60321,0.6167126,-24.09148]]","rotations":"","collided":-1,"followDirection":false}, 
{"mainType":"Collision","id":77,"target":1,"animations":[],"previousIcon":76,"nextIcon":78,"color":[],"holdingHand":-1,"trajectory":"","rotations":"","collided":-1,"followDirection":false}, 
{"mainType":"Drop","id":76,"target":-1,"animations":[],"previousIcon":-1,"nextIcon":77,"color":[],"holdingHand":1,"trajectory":"[[-30.60616,0.6167545,-24.0968]]","rotations":"","collided":-1,"followDirection":false}, 
{"mainType":"Drag","id":73,"target":12,"animations":[],"previousIcon":-1,"nextIcon":-1,"color":[],"holdingHand":0,"trajectory":"[[-30.36104,0.6787663,-24.22121], [-30.88465,1.058048,-24.26577], [-30.88245,1.075505,-24.30521], [-30.88047,1.090061,-24.34554], [-30.87885,1.098056,-24.38288], [-30.87194,1.101779,-24.41976], [-30.86739,1.105403,-24.45024], [-30.86548,1.107236,-24.47275], [-30.86684,1.110561,-24.49066], [-30.86107,1.112226,-24.49956], [-30.85612,1.109031,-24.52072], [-30.85758,1.109028,-24.52736], [-30.85368,1.108276,-24.5287]]","rotations":"[[0.02506814,0.9437269,0.3035215,0.1289414], [0.01356794,0.9066589,0.3942895,0.1494035], [0.001831055,0.8803595,0.4460172,0.1613462], [-0.007952391,0.8574997,0.4895352,0.1580704], [-0.004032018,0.8312894,0.5367562,0.1443419], [0.00366516,0.8112414,0.571511,0.1234875], [0.01938402,0.7896147,0.6071553,0.08657639], [0.03439194,0.7764104,0.627097,0.05247309], [0.04539539,0.7630859,0.643612,0.0374555], [0.05537406,0.755706,0.6516898,0.03380334], [0.06280443,0.744324,0.6642324,0.02885718], [0.06173606,0.7385117,0.6709551,0.02466523], [0.0684057,0.7303531,0.6795129,0.0129365], [0.07225729,0.7236194,0.6863854,0.005389011], [-0.0779276,-0.7207621,-0.688777,0.003950465], [-0.08857941,-0.7192347,-0.6890905,0.003071379], [-0.092173,-0.7190374,-0.6887941,0.007213971], [-0.1009308,-0.7144759,-0.6922912,0.008365463], [-0.0923264,-0.7159952,-0.6919591,0.004406331], [0.09616677,0.7139348,0.6935661,0.003902791], [-0.1028033,-0.7190349,-0.687323,0.002743359], [-0.1033125,-0.7179066,-0.6883978,0.006714873], [-0.1085023,-0.7140962,-0.6915873,0.0008941703]]","collided":-1,"followDirection":false}, 
{"mainType":"Drag","id":68,"target":11,"animations":[30],"previousIcon":-1,"nextIcon":-1,"color":[],"holdingHand":0,"trajectory":"[[-30.8029,0.7215458,-24.23307], [-30.57872,1.103036,-24.52876], [-30.57512,1.110429,-24.53995]]","rotations":"[[0.06729264,0.9625298,0.2598727,0.03839592], [0.07769332,0.9622297,0.2596691,0.02549254], [0.07295507,0.9691067,0.2330486,0.03461356], [0.0745261,0.9635435,0.2483703,0.06589378], [0.06791544,0.9491329,0.3012702,0.06140392], [0.051517,0.9276518,0.3631937,0.06998973], [0.04520048,0.9027741,0.4241099,0.05555836], [0.05082275,0.8749824,0.4803059,0.03360217], [0.04795212,0.8549153,0.5163205,0.01528538], [0.05080105,0.8287766,0.5572427,0.005405662], [0.04705894,0.8174649,0.5740527,0.0001930101], [-0.05042915,-0.7941254,-0.605572,0.01021715], [-0.03885256,-0.7791067,-0.6256182,0.00922883], [-0.02585918,-0.7730578,-0.6336814,0.01268269], [-0.02636754,-0.7732632,-0.6334454,0.01075657], [-0.02090033,-0.7729208,-0.6338888,0.01848197], [-0.03770649,-0.7660601,-0.6414441,0.01672141], [-0.05082774,-0.7568454,-0.6515223,0.01096936], [-0.03806197,-0.762849,-0.6453759,0.01013882]]","collided":-1,"followDirection":false}, 
{"mainType":"Drag","id":64,"target":10,"animations":[26],"previousIcon":-1,"nextIcon":-1,"color":[],"holdingHand":0,"trajectory":"[[-31.38096,0.7212955,-24.22722], [-30.27867,1.08953,-24.50399], [-30.28303,1.094943,-24.51919]]","rotations":"[[-0.2671791,-0.8792821,-0.3092259,0.2446584], [-0.2324259,-0.8858314,-0.2835647,0.2843802], [-0.2279966,-0.8750008,-0.3233525,0.2789878], [-0.2597881,-0.8489834,-0.3672434,0.2772537], [-0.2200994,-0.8231564,-0.4301294,0.298259], [-0.2120218,-0.8084173,-0.4728417,0.2791575], [-0.1941001,-0.7937788,-0.5131767,0.2624691], [-0.1668828,-0.7774835,-0.5481095,0.2593176], [-0.1343392,-0.7804627,-0.5609797,0.2411074], [-0.1235679,-0.7592493,-0.5976914,0.2259125], [-0.1061322,-0.7533415,-0.6185126,0.1966084], [-0.08514977,-0.7568491,-0.62485,0.1717308], [-0.07016987,-0.7536362,-0.6339405,0.1588337], [-0.05734652,-0.7514853,-0.6414127,0.1434259], [-0.05610423,-0.7493964,-0.6438661,0.1438535], [-0.05095931,-0.7444846,-0.6503012,0.1423174], [-0.05775847,-0.7419953,-0.656067,0.1252317], [-0.0615824,-0.7299743,-0.6692721,0.1241772], [-0.04125674,-0.7318016,-0.6651599,0.1425721], [-0.03246256,-0.7233241,-0.6745446,0.1440078], [-0.03095954,-0.7132417,-0.6817054,0.1600175], [-0.03787518,-0.7167263,-0.6748927,0.1714313], [-0.04884672,-0.7094398,-0.677737,0.1870342], [-0.0565149,-0.7030419,-0.6849135,0.1828434], [-0.05620852,-0.7012478,-0.686161,0.1851357], [-0.06460918,-0.6979998,-0.6875582,0.189435], [-0.07385081,-0.6901027,-0.6914697,0.2004347]]","collided":-1,"followDirection":false}, 
{"mainType":"Color","id":62,"target":14,"animations":[],"previousIcon":-1,"nextIcon":-1,"color":[0.7823564410209656,0.16273242235183717,0.24678215384483338,1.0],"holdingHand":-1,"trajectory":"","rotations":"","collided":-1,"followDirection":false}, 
{"mainType":"Color","id":60,"target":16,"animations":[],"previousIcon":-1,"nextIcon":-1,"color":[0.7859101295471191,0.1660684496164322,0.2865268588066101,1.0],"holdingHand":-1,"trajectory":"","rotations":"","collided":-1,"followDirection":false}, 
{"mainType":"Color","id":58,"target":15,"animations":[],"previousIcon":-1,"nextIcon":-1,"color":[0.7713171243667603,0.15875467658042909,0.24744506180286408,1.0],"holdingHand":-1,"trajectory":"","rotations":"","collided":-1,"followDirection":false}, 
{"mainType":"Color","id":50,"target":13,"animations":[],"previousIcon":-1,"nextIcon":-1,"color":[0.6922229528427124,0.11309003829956055,0.1812957376241684,1.0],"holdingHand":-1,"trajectory":"","rotations":"","collided":-1,"followDirection":false}, 
{"mainType":"Color","id":36,"target":17,"animations":[],"previousIcon":-1,"nextIcon":-1,"color":[0.6074540019035339,0.13528704643249513,0.07453621923923493,1.0],"holdingHand":-1,"trajectory":"","rotations":"","collided":-1,"followDirection":false}, 
{"mainType":"Color","id":34,"target":14,"animations":[],"previousIcon":-1,"nextIcon":-1,"color":[0.0026799323968589308,0.6191636323928833,0.0693664625287056,1.0],"holdingHand":-1,"trajectory":"","rotations":"","collided":-1,"followDirection":false}, 
{"mainType":"Color","id":30,"target":15,"animations":[],"previousIcon":-1,"nextIcon":-1,"color":[0.07586914300918579,0.614952802658081,0.15494674444198609,1.0],"holdingHand":-1,"trajectory":"","rotations":"","collided":-1,"followDirection":false}, 
{"mainType":"Color","id":27,"target":16,"animations":[],"previousIcon":-1,"nextIcon":-1,"color":[0.016166312620043756,0.6147775650024414,0.09061094373464585,1.0],"holdingHand":-1,"trajectory":"","rotations":"","collided":-1,"followDirection":false}, 
{"mainType":"Color","id":26,"target":17,"animations":[],"previousIcon":-1,"nextIcon":-1,"color":[0.3012506067752838,0.7625054717063904,0.11132032424211502,1.0],"holdingHand":-1,"trajectory":"","rotations":"","collided":-1,"followDirection":false}, 
{"mainType":"Color","id":19,"target":13,"animations":[],"previousIcon":-1,"nextIcon":-1,"color":[0.1274338662624359,0.6442183256149292,0.15496881306171418,1.0],"holdingHand":-1,"trajectory":"","rotations":"","collided":-1,"followDirection":false}, 
{"mainType":"Grab","id":16,"target":10,"animations":[],"previousIcon":-1,"nextIcon":-1,"color":[],"holdingHand":0,"trajectory":"","rotations":"","collided":-1,"followDirection":false}, 
{"mainType":"Grab","id":13,"target":5,"animations":[],"previousIcon":-1,"nextIcon":-1,"color":[],"holdingHand":0,"trajectory":"","rotations":"","collided":-1,"followDirection":false}, 
{"mainType":"Grab","id":10,"target":11,"animations":[],"previousIcon":-1,"nextIcon":-1,"color":[],"holdingHand":0,"trajectory":"","rotations":"","collided":-1,"followDirection":false}, 
{"mainType":"Grab","id":5,"target":12,"animations":[],"previousIcon":-1,"nextIcon":-1,"color":[],"holdingHand":0,"trajectory":"","rotations":"","collided":-1,"followDirection":false}, 
{"mainType":"Grab","id":1,"target":6,"animations":[],"previousIcon":-1,"nextIcon":-1,"color":[],"holdingHand":0,"trajectory":"","rotations":"","collided":-1,"followDirection":false}]}