{"objects" : [
{"mainType":"Geometry","id":17,"subtype":"Sphere","position":[-30.25639533996582,1.7742047309875489,-24.29588508605957],"size":[0.09999999403953552,0.10000000149011612,0.10000000149011612],"rotation":[0.5855183601379395,0.20393790304660798,-0.28401827812194826,0.7313762307167053],"visible":true,"color":[1.0,1.0,1.0,1.0]}, 
{"mainType":"Geometry","id":16,"subtype":"Sphere","position":[-31.11421775817871,1.3844194412231446,-24.459375381469728],"size":[0.09999996423721314,0.1000000461935997,0.09999995678663254],"rotation":[-0.28725433349609377,-0.20704546570777894,-0.10020533204078675,-0.9298257827758789],"visible":true,"color":[1.0,1.0,1.0,1.0]}, 
{"mainType":"Geometry","id":15,"subtype":"Sphere","position":[-30.218469619750978,1.1685799360275269,-24.23910140991211],"size":[0.1000000610947609,0.09999999403953552,0.10000000894069672],"rotation":[-0.32615789771080019,-0.05246627330780029,0.04606112465262413,-0.9427337050437927],"visible":true,"color":[1.0,1.0,1.0,1.0]}, 
{"mainType":"Geometry","id":14,"subtype":"Sphere","position":[-31.3419189453125,1.6227686405181885,-24.32653045654297],"size":[0.09999994933605194,0.10000000149011612,0.10000000149011612],"rotation":[-0.40360110998153689,-0.3661130368709564,-0.10272850096225739,-0.8321743607521057],"visible":true,"color":[1.0,1.0,1.0,1.0]}, 
{"mainType":"Geometry","id":13,"subtype":"Sphere","position":[-30.38283920288086,1.4394477605819703,-24.369247436523439],"size":[0.10000003129243851,0.1000000387430191,0.10000003129243851],"rotation":[0.5860806703567505,-0.07440346479415894,0.29023438692092898,0.752819836139679],"visible":true,"color":[1.0,1.0,1.0,1.0]}, 
{"mainType":"Images","id":12,"subtype":"Napoleaon Chronology 3","position":[-30.50145149230957,0.7267022132873535,-24.2026424407959],"size":[0.0005258864839561284,0.0005258863093331456,0.0005258865421637893],"rotation":[0.03910275921225548,0.878268837928772,-0.46631133556365969,0.0983293354511261],"visible":true,"color":[0.0,0.0,0.0,0.0]}, 
{"mainType":"Images","id":11,"subtype":"Napoleaon Chronology 2","position":[-30.766712188720704,0.7236070036888123,-24.259544372558595],"size":[0.00047510972945019603,0.0004751101660076529,0.00047510970034636557],"rotation":[0.02764788269996643,0.881162703037262,-0.4694077968597412,0.04943902790546417],"visible":true,"color":[0.0,0.0,0.0,0.0]}, 
{"mainType":"Images","id":10,"subtype":"Napoleaon Chronology 1","position":[-31.428173065185548,0.71284419298172,-24.23027801513672],"size":[0.0005569215281866491,0.0005569212953560054,0.0005569212371483445],"rotation":[-0.0007736459374427795,-0.8841181993484497,0.4555923342704773,0.10377906262874603],"visible":true,"color":[0.0,0.0,0.0,0.0]}, 
{"mainType":"Images","id":9,"subtype":"PlaceHolder5","position":[-31.389217376708986,1.1185247898101807,-24.54047203063965],"size":[0.0004601134860422462,0.00046011374797672033,0.0004601134860422462],"rotation":[-0.024670153856277467,-0.9994671940803528,-0.004410486668348312,0.020912252366542817],"visible":true,"color":[0.0,0.0,0.0,0.0]}, 
{"mainType":"Images","id":8,"subtype":"PlaceHolder4","position":[-31.09720230102539,1.109872579574585,-24.556856155395509],"size":[0.0004496292385738343,0.0004496291221585125,0.00044962941319681704],"rotation":[-0.0195654034614563,-0.999755322933197,0.009828377515077591,0.0031512118875980379],"visible":true,"color":[0.0,0.0,0.0,0.0]}, 
{"mainType":"Images","id":7,"subtype":"PlaceHolder3","position":[-30.823564529418947,1.110161304473877,-24.55780601501465],"size":[0.00043485633796080947,0.0004348568618297577,0.0004348563670646399],"rotation":[-0.015802063047885896,-0.9997031688690186,0.003612455213442445,-0.018193382769823076],"visible":true,"color":[0.0,0.0,0.0,0.0]}, 
{"mainType":"Images","id":6,"subtype":"Napoleaon Chronology 5","position":[-30.176891326904298,0.7447582483291626,-24.113933563232423],"size":[0.0004646062443498522,0.0004646067100111395,0.0004646063316613436],"rotation":[0.06533318758010864,0.861564576625824,-0.47515344619750979,0.16633504629135133],"visible":true,"color":[0.0,0.0,0.0,0.0]}, 
{"mainType":"Images","id":5,"subtype":"Napoleaon Chronology 4","position":[-31.090587615966798,0.702924370765686,-24.24226951599121],"size":[0.0004285649920348078,0.0004285643226467073,0.0004285649338271469],"rotation":[-0.009390592575073243,0.9039061069488525,-0.4275050163269043,0.010256260633468628],"visible":true,"color":[0.0,0.0,0.0,0.0]}, 
{"mainType":"Images","id":4,"subtype":"PlaceHolder2","position":[-30.553831100463868,1.0977795124053956,-24.548093795776368],"size":[0.0004477317852433771,0.00044773195986635983,0.00044773161062039435],"rotation":[0.01688547618687153,0.99844890832901,-0.009797520935535431,0.05214252695441246],"visible":true,"color":[0.0,0.0,0.0,0.0]}, 
{"mainType":"Images","id":3,"subtype":"PlaceHolder1","position":[-30.281721115112306,1.0969555377960206,-24.526681900024415],"size":[0.000455911475000903,0.000455911475000903,0.0004559118242468685],"rotation":[0.011515386402606964,0.999066948890686,-0.008513190783560276,0.040744930505752566],"visible":true,"color":[0.0,0.0,0.0,0.0]} 
], 
 "events": [{"mainType":"Color","id":58,"target":15,"animations":[],"previousIcon":-1,"nextIcon":-1,"color":[0.7713171243667603,0.15875467658042909,0.24744506180286408,1.0],"holdingHand":-1,"trajectory":"","rotations":"","collided":-1,"followDirection":false}, 
{"mainType":"Color","id":50,"target":13,"animations":[],"previousIcon":-1,"nextIcon":-1,"color":[0.6922229528427124,0.11309003829956055,0.1812957376241684,1.0],"holdingHand":-1,"trajectory":"","rotations":"","collided":-1,"followDirection":false}, 
{"mainType":"Color","id":36,"target":17,"animations":[],"previousIcon":-1,"nextIcon":-1,"color":[0.6074540019035339,0.13528704643249513,0.07453621923923493,1.0],"holdingHand":-1,"trajectory":"","rotations":"","collided":-1,"followDirection":false}, 
{"mainType":"Color","id":34,"target":14,"animations":[],"previousIcon":-1,"nextIcon":-1,"color":[0.0026799323968589308,0.6191636323928833,0.0693664625287056,1.0],"holdingHand":-1,"trajectory":"","rotations":"","collided":-1,"followDirection":false}, 
{"mainType":"Color","id":30,"target":15,"animations":[],"previousIcon":-1,"nextIcon":-1,"color":[0.07586914300918579,0.614952802658081,0.15494674444198609,1.0],"holdingHand":-1,"trajectory":"","rotations":"","collided":-1,"followDirection":false}, 
{"mainType":"Color","id":27,"target":16,"animations":[],"previousIcon":-1,"nextIcon":-1,"color":[0.016166312620043756,0.6147775650024414,0.09061094373464585,1.0],"holdingHand":-1,"trajectory":"","rotations":"","collided":-1,"followDirection":false}, 
{"mainType":"Color","id":26,"target":17,"animations":[],"previousIcon":-1,"nextIcon":-1,"color":[0.3012506067752838,0.7625054717063904,0.11132032424211502,1.0],"holdingHand":-1,"trajectory":"","rotations":"","collided":-1,"followDirection":false}, 
{"mainType":"Color","id":19,"target":13,"animations":[],"previousIcon":-1,"nextIcon":-1,"color":[0.1274338662624359,0.6442183256149292,0.15496881306171418,1.0],"holdingHand":-1,"trajectory":"","rotations":"","collided":-1,"followDirection":false}, 
{"mainType":"Grab","id":16,"target":10,"animations":[],"previousIcon":-1,"nextIcon":-1,"color":[],"holdingHand":0,"trajectory":"","rotations":"","collided":-1,"followDirection":false}, 
{"mainType":"Grab","id":13,"target":5,"animations":[],"previousIcon":-1,"nextIcon":-1,"color":[],"holdingHand":0,"trajectory":"","rotations":"","collided":-1,"followDirection":false}, 
{"mainType":"Grab","id":10,"target":11,"animations":[],"previousIcon":-1,"nextIcon":-1,"color":[],"holdingHand":0,"trajectory":"","rotations":"","collided":-1,"followDirection":false}, 
{"mainType":"Grab","id":5,"target":12,"animations":[],"previousIcon":-1,"nextIcon":-1,"color":[],"holdingHand":0,"trajectory":"","rotations":"","collided":-1,"followDirection":false}, 
{"mainType":"Grab","id":1,"target":6,"animations":[],"previousIcon":-1,"nextIcon":-1,"color":[],"holdingHand":0,"trajectory":"","rotations":"","collided":-1,"followDirection":false}]}