{"objects" : [
{"mainType":"Images","id":12,"subtype":"Napoleaon Chronology 3","position":[-30.50145149230957,0.7267022132873535,-24.2026424407959],"size":[0.0005258864839561284,0.0005258863093331456,0.0005258865421637893],"rotation":[0.03910275921225548,0.878268837928772,-0.46631133556365969,0.0983293354511261],"visible":true,"color":[0.0,0.0,0.0,0.0]}, 
{"mainType":"Images","id":11,"subtype":"Napoleaon Chronology 2","position":[-30.766712188720704,0.7236070036888123,-24.259544372558595],"size":[0.00047510970034636557,0.0004751101369038224,0.00047510972945019603],"rotation":[0.02764788269996643,0.881162703037262,-0.4694077968597412,0.04943902790546417],"visible":true,"color":[0.0,0.0,0.0,0.0]}, 
{"mainType":"Images","id":10,"subtype":"Napoleaon Chronology 1","position":[-31.578248977661134,0.7485617995262146,-24.11249542236328],"size":[0.0005569214699789882,0.0005569212953560054,0.0005569212953560054],"rotation":[0.0511753186583519,-0.8681718707084656,0.40015360713005068,0.28902557492256167],"visible":true,"color":[0.0,0.0,0.0,0.0]}, 
{"mainType":"Images","id":9,"subtype":"PlaceHolder5","position":[-31.389217376708986,1.1185247898101807,-24.54047203063965],"size":[0.0004601134860422462,0.00046011374797672033,0.0004601134860422462],"rotation":[-0.024670153856277467,-0.9994671940803528,-0.004410486668348312,0.020912252366542817],"visible":true,"color":[0.0,0.0,0.0,0.0]}, 
{"mainType":"Images","id":8,"subtype":"PlaceHolder4","position":[-31.09720230102539,1.109872579574585,-24.556856155395509],"size":[0.0004496292385738343,0.0004496291221585125,0.00044962941319681704],"rotation":[-0.0195654034614563,-0.999755322933197,0.009828377515077591,0.0031512118875980379],"visible":true,"color":[0.0,0.0,0.0,0.0]}, 
{"mainType":"Images","id":7,"subtype":"PlaceHolder3","position":[-30.823564529418947,1.110161304473877,-24.55780601501465],"size":[0.00043485633796080947,0.0004348568618297577,0.0004348563670646399],"rotation":[-0.015802063047885896,-0.9997031688690186,0.003612455213442445,-0.018193382769823076],"visible":true,"color":[0.0,0.0,0.0,0.0]}, 
{"mainType":"Images","id":6,"subtype":"Napoleaon Chronology 5","position":[-30.176891326904298,0.7447582483291626,-24.113933563232423],"size":[0.0004646062443498522,0.0004646067100111395,0.0004646063316613436],"rotation":[0.06533318758010864,0.8615645170211792,-0.47515344619750979,0.16633503139019013],"visible":true,"color":[0.0,0.0,0.0,0.0]}, 
{"mainType":"Images","id":5,"subtype":"Napoleaon Chronology 4","position":[-31.090587615966798,0.702924370765686,-24.24226951599121],"size":[0.0004285649920348078,0.0004285643226467073,0.0004285649338271469],"rotation":[-0.009390592575073243,0.9039061069488525,-0.4275050163269043,0.010256260633468628],"visible":true,"color":[0.0,0.0,0.0,0.0]}, 
{"mainType":"Images","id":4,"subtype":"PlaceHolder2","position":[-30.553831100463868,1.0977795124053956,-24.548093795776368],"size":[0.0004477317852433771,0.00044773195986635983,0.00044773161062039435],"rotation":[0.016885478049516679,0.99844890832901,-0.009797521866858006,0.05214252695441246],"visible":true,"color":[0.0,0.0,0.0,0.0]}, 
{"mainType":"Images","id":3,"subtype":"PlaceHolder1","position":[-30.281721115112306,1.0969555377960206,-24.526681900024415],"size":[0.000455911475000903,0.000455911475000903,0.0004559118242468685],"rotation":[0.011515386402606964,0.999066948890686,-0.008513190783560276,0.040744930505752566],"visible":true,"color":[0.0,0.0,0.0,0.0]} 
], 
 "events": [{"mainType":"Drop","id":18,"target":10,"animations":[],"previousIcon":17,"nextIcon":-1,"color":[],"holdingHand":0,"trajectory":"","rotations":"","collided":-1,"followDirection":false}, 
{"mainType":"Collision","id":17,"target":0,"animations":[],"previousIcon":16,"nextIcon":18,"color":[],"holdingHand":-1,"trajectory":"","rotations":"","collided":10,"followDirection":false}, 
{"mainType":"Grab","id":16,"target":10,"animations":[],"previousIcon":-1,"nextIcon":17,"color":[],"holdingHand":0,"trajectory":"","rotations":"","collided":-1,"followDirection":false}, 
{"mainType":"Grab","id":13,"target":5,"animations":[],"previousIcon":-1,"nextIcon":-1,"color":[],"holdingHand":0,"trajectory":"","rotations":"","collided":-1,"followDirection":false}, 
{"mainType":"Grab","id":10,"target":11,"animations":[],"previousIcon":-1,"nextIcon":-1,"color":[],"holdingHand":0,"trajectory":"","rotations":"","collided":-1,"followDirection":false}, 
{"mainType":"Grab","id":5,"target":12,"animations":[],"previousIcon":-1,"nextIcon":-1,"color":[],"holdingHand":0,"trajectory":"","rotations":"","collided":-1,"followDirection":false}, 
{"mainType":"Grab","id":1,"target":6,"animations":[],"previousIcon":-1,"nextIcon":-1,"color":[],"holdingHand":0,"trajectory":"","rotations":"","collided":-1,"followDirection":false}]}