{"objects" : [
{"mainType":"Images","id":6,"subtype":"Napoleaon Chronology 5","position":[-30.785844802856447,0.7204073667526245,-24.253368377685548],"size":[0.0004646062443498522,0.0004646065935958177,0.0004646061861421913],"rotation":[-0.0014099478721618653,0.9097975492477417,-0.4138109087944031,0.03204764798283577],"visible":true,"color":[0.0,0.0,0.0,0.0]}, 
{"mainType":"Images","id":5,"subtype":"Napoleaon Chronology 4","position":[-31.08892822265625,0.6930386424064636,-24.23841667175293],"size":[0.00042856502113863826,0.00042856429354287684,0.0004285649338271469],"rotation":[-0.0034383535385131838,0.9085054993629456,-0.4178399443626404,-0.0039769187569618229],"visible":true,"color":[0.0,0.0,0.0,0.0]}, 
{"mainType":"Images","id":4,"subtype":"PlaceHolder2","position":[-30.743824005126954,1.0986634492874146,-24.543170928955079],"size":[0.0004477316979318857,0.00044773181434720755,0.00044773166882805526],"rotation":[0.008256644941866398,0.9995833039283752,-0.01228373870253563,0.02478324994444847],"visible":true,"color":[0.0,0.0,0.0,0.0]}, 
{"mainType":"Images","id":3,"subtype":"PlaceHolder1","position":[-30.441650390625,1.086679458618164,-24.52484893798828],"size":[0.0004559112130664289,0.0004559114167932421,0.0004559115623123944],"rotation":[0.008708633482456208,0.9987483024597168,-0.011262957938015461,0.04795132577419281],"visible":true,"color":[0.0,0.0,0.0,0.0]} 
], 
 "events": []}