{"objects" : [
{"mainType":"Geometry","id":5,"subtype":"Cylinder","position":[-32.77337646484375,0.9422297477722168,-17.63802719116211],"size":[0.09999998658895493,0.09999999403953552,0.09999999403953552],"rotation":[0.013696938753128052,0.00831681489944458,0.017701800912618638,0.9997150897979736],"visible":true,"color":[1.0,1.0,1.0,1.0]}, 
{"mainType":"Geometry","id":4,"subtype":"Sphere","position":[-32.77394104003906,0.9201537370681763,-17.645566940307618],"size":[0.10000000149011612,0.10000000149011612,0.10000000894069672],"rotation":[-5.2683555296084709e-9,5.960463766996327e-8,-5.26835641778689e-9,1.0],"visible":true,"color":[1.0,1.0,1.0,1.0]}, 
{"mainType":"Geometry","id":3,"subtype":"Cube","position":[-32.770484924316409,0.9013636112213135,-17.602941513061525],"size":[0.10000000894069672,0.09999999403953552,0.10000000149011612],"rotation":[1.05367137237522e-8,0.0,-1.053671194739536e-8,1.0],"visible":true,"color":[1.0,1.0,1.0,1.0]} 
], 
 "events": []}