{"objects" : [
{"mainType":"Geometry","id":3,"subtype":"Sphere","position":[-34.87207794189453,0.8377752900123596,-16.92643928527832],"size":[0.09999999403953552,0.10000002384185791,0.09999998658895493],"rotation":[-0.13762223720550538,0.8039934635162354,0.054533377289772037,0.5759173631668091],"visible":true,"color":[1.0,1.0,1.0,1.0]} 
], 
 "events": []}