{"objects" : [
{"mainType":"Geometry","id":3,"subtype":"Sphere","position":[-33.38446807861328,1.1328572034835816,-18.02554702758789],"size":[0.09999998658895493,0.10000002384185791,0.10000002384185791],"rotation":[-0.044341109693050387,0.2170727401971817,0.06699696183204651,0.9728436470031738],"visible":true,"color":[1.0,1.0,1.0,1.0]} 
], 
 "events": [{"mainType":"Move","id":4,"target":2,"animations":[],"previousIcon":3,"nextIcon":-1,"color":[],"holdingHand":-1,"trajectory":"[[-33.86454,0.9224635,-18.66374], [-33.9441,0.9566459,-18.71307], [-34.10688,1.063199,-18.77591], [-34.32445,1.156138,-18.81629], [-34.5412,1.200182,-18.82025], [-34.68963,1.187381,-18.80338], [-34.69479,1.153333,-18.79679], [-34.70681,1.129313,-18.78444], [-34.71646,1.125557,-18.7724], [-34.74578,1.114175,-18.75975], [-34.77516,1.111226,-18.73957], [-34.84002,1.103762,-18.70988], [-34.92598,1.099245,-18.66235], [-34.98446,1.085874,-18.62772], [-35.00654,1.072659,-18.61683]]","rotations":"[[0.002359111,-0.1508482,-0.01869289,0.9883773], [0.01305048,-0.1101432,-0.01640051,0.9936948], [0.06840683,-0.02451372,-0.01170884,0.9972876], [0.1185737,0.08289012,-0.0183943,0.9893084], [0.1388477,0.1883711,-0.03248648,0.9716905], [0.1311019,0.254503,-0.03371932,0.9575509], [0.1189439,0.2454742,-0.04659575,0.9609492], [0.1112819,0.2541963,-0.05272662,0.9592811], [0.1137091,0.2616208,-0.04758861,0.9572671], [0.1093929,0.2806371,-0.04785483,0.9523581], [0.1118466,0.3033513,-0.06340465,0.9441653], [0.1061819,0.3474943,-0.07315499,0.9287742], [0.09866197,0.4110407,-0.09421998,0.9013512], [0.0879341,0.4523378,-0.1064485,0.8810941], [0.08309194,0.4624512,-0.08809645,0.8783356], [0.08309194,0.4624513,-0.08809645,0.8783357], [0.08309194,0.4624513,-0.08809645,0.8783357]]","collided":-1,"followDirection":false}, 
{"mainType":"Move","id":3,"target":2,"animations":[],"previousIcon":-1,"nextIcon":4,"color":[],"holdingHand":-1,"trajectory":"[[-33.52748,0.9956,-17.77737], [-33.52155,0.9978775,-17.81658], [-33.51478,1.016615,-17.91656], [-33.53247,1.054267,-18.08839], [-33.5899,1.059427,-18.29453], [-33.68892,1.033733,-18.47691], [-33.79004,0.988591,-18.60231], [-33.82581,0.8974479,-18.65163], [-33.8478,0.8989409,-18.65768], [-33.86031,0.9170421,-18.6631], [-33.86449,0.9314181,-18.66175]]","rotations":"[[0,-0.6406749,0,0.7678123], [-0.01228378,-0.6283708,0.003814123,0.7778077], [-0.01086307,-0.5886415,0.01809445,0.8081186], [0.02358428,-0.5092078,0.03168029,0.8597369], [0.03494551,-0.4027375,0.0396789,0.9137871], [0.04420686,-0.2858633,0.01860422,0.9570693], [0.0400332,-0.1920161,-0.006170808,0.9805555], [0.007081225,-0.1606732,-0.04292903,0.9860482], [0.001971067,-0.1532789,-0.0250457,0.9878636], [0.003668509,-0.1495946,-0.01515015,0.9886246], [0.01114525,-0.1487337,-0.01807289,0.9886493]]","collided":-1,"followDirection":false}, 
{"mainType":"Move","id":2,"target":3,"animations":[],"previousIcon":1,"nextIcon":-1,"color":[],"holdingHand":-1,"trajectory":"[[-33.38447,1.132857,-18.02555], [-33.40195,1.124637,-18.08916], [-33.45258,1.091033,-18.25745], [-33.55748,1.013092,-18.4773], [-33.73896,0.9847632,-18.70167], [-33.89011,0.8810512,-18.83677], [-33.95456,0.7874771,-18.88719], [-33.96672,0.7600028,-18.89927], [-33.87777,0.8201323,-18.85021], [-33.65401,0.9378709,-18.63661], [-33.47673,0.9974191,-18.3494], [-33.38365,1.02286,-18.09596], [-33.34159,1.011655,-17.91977], [-33.33202,1.005074,-17.89785]]","rotations":"[[-0.04434111,0.2170727,0.06699696,0.9728436], [-0.05688626,0.24632,0.06172724,0.9655466], [-0.05431366,0.3263211,0.05264303,0.942228], [-0.07628436,0.4318414,0.02649829,0.8983271], [-0.09933265,0.549986,0.04001435,0.8282797], [-0.1466545,0.6244045,0.01756085,0.7670091], [-0.1844733,0.6501821,-0.005526591,0.7370226], [-0.2035153,0.6570913,-0.007555664,0.7257793], [-0.1931939,0.6195217,0.009503365,0.7607751], [-0.1715009,0.4930323,0.03045552,0.8523961], [-0.1221941,0.3492641,0.02716573,0.9286255], [-0.09461252,0.2282282,0.02719374,0.9686181], [-0.09764692,0.1443002,0.01574413,0.9845784], [-0.09199316,0.1359041,0.01393089,0.9863434], [-0.09199316,0.1359041,0.01393089,0.9863434], [-0.09199316,0.1359041,0.01393089,0.9863434]]","collided":-1,"followDirection":false}, 
{"mainType":"ExitZone","id":1,"target":3,"animations":[],"previousIcon":0,"nextIcon":2,"color":[],"holdingHand":-1,"trajectory":"","rotations":"","collided":-1,"followDirection":false}, 
{"mainType":"EnterZone","id":0,"target":3,"animations":[],"previousIcon":-1,"nextIcon":1,"color":[],"holdingHand":-1,"trajectory":"","rotations":"","collided":-1,"followDirection":false}]}