{"objects" : [
{"mainType":"Geometry","id":5,"subtype":"Capsule","position":[-34.94498825073242,0.7821090817451477,-17.791202545166017],"size":[0.10000002384185791,0.09999997168779373,0.09999999403953552],"rotation":[-0.18696388602256776,0.30692732334136965,-0.11945369839668274,0.9255111813545227],"visible":true,"color":[1.0,1.0,1.0,1.0]}, 
{"mainType":"Geometry","id":4,"subtype":"Cube","position":[-35.11957931518555,1.1394507884979249,-18.006122589111329],"size":[0.10000000149011612,0.10000001639127732,0.10000000149011612],"rotation":[0.07628626376390457,0.6651468276977539,0.05619630962610245,0.740676760673523],"visible":true,"color":[1.0,1.0,1.0,1.0]}, 
{"mainType":"Geometry","id":3,"subtype":"Sphere","position":[-34.103607177734378,1.1788513660430909,-17.41654396057129],"size":[0.09999999403953552,0.10000000149011612,0.10000000894069672],"rotation":[0.07131709903478623,-0.08747458457946778,0.06200525909662247,0.9916740655899048],"visible":true,"color":[1.0,1.0,1.0,1.0]} 
], 
 "events": []}