{"objects" : [
{"mainType":"Geometry","id":3,"subtype":"Sphere","position":[-33.43756866455078,0.7299113273620606,-17.51656723022461],"size":[0.09999999403953552,0.10000000894069672,0.10000000149011612],"rotation":[0.11398035287857056,0.30139201879501345,-0.11752703040838242,0.9393395185470581],"visible":true,"color":[1.0,1.0,1.0,1.0]} 
], 
 "events": []}