{"objects" : [
{"mainType":"Geometry","id":7,"subtype":"Cube","position":[-35.51148223876953,1.1643507480621338,-16.905452728271486],"size":[0.09999995678663254,0.10000003129243851,0.10000003129243851],"rotation":[-0.07341056317090988,0.19026252627372743,-0.0493977926671505,0.9777376651763916],"visible":true,"color":[1.0,1.0,1.0,1.0]}, 
{"mainType":"Geometry","id":6,"subtype":"Sphere","position":[-35.498626708984378,0.9009050130844116,-17.1978816986084],"size":[0.09999999403953552,0.10000000894069672,0.10000000894069672],"rotation":[0.0,0.0,0.0,1.0],"visible":true,"color":[1.0,1.0,1.0,1.0]}, 
{"mainType":"Geometry","id":5,"subtype":"Sphere","position":[-35.00355911254883,1.0501434803009034,-16.248985290527345],"size":[0.10000000894069672,0.09999999403953552,0.10000000894069672],"rotation":[0.09318385273218155,0.40458783507347109,-0.11104132235050202,0.9029370546340942],"visible":true,"color":[1.0,1.0,1.0,1.0]}, 
{"mainType":"Geometry","id":4,"subtype":"Sphere","position":[-35.34249496459961,0.957205057144165,-16.726232528686525],"size":[0.09999999403953552,0.10000000894069672,0.10000000894069672],"rotation":[0.0,0.0,0.0,1.0],"visible":true,"color":[1.0,1.0,1.0,1.0]}, 
{"mainType":"Geometry","id":3,"subtype":"Cube","position":[-35.3553466796875,1.2206506729125977,-16.43380355834961],"size":[0.09999995678663254,0.10000003129243851,0.10000003129243851],"rotation":[-0.07341056317090988,0.19026252627372743,-0.0493977926671505,0.9777376651763916],"visible":true,"color":[1.0,1.0,1.0,1.0]} 
], 
 "events": [{"mainType":"Collision","id":4,"target":0,"animations":[3,3],"previousIcon":-1,"nextIcon":-1,"color":[],"holdingHand":-1,"trajectory":"","rotations":"","collided":7,"followDirection":false}, 
{"mainType":"Color","id":3,"target":6,"animations":[],"previousIcon":-1,"nextIcon":-1,"color":[0.9293965697288513,0.1891605406999588,0.1891605406999588,1.0],"holdingHand":-1,"trajectory":"","rotations":"","collided":-1,"followDirection":false}, 
{"mainType":"Collision","id":2,"target":0,"animations":[1,0],"previousIcon":-1,"nextIcon":-1,"color":[],"holdingHand":-1,"trajectory":"","rotations":"","collided":3,"followDirection":false}, 
{"mainType":"Color","id":1,"target":4,"animations":[],"previousIcon":-1,"nextIcon":-1,"color":[0.9293965697288513,0.1891605406999588,0.1891605406999588,1.0],"holdingHand":-1,"trajectory":"","rotations":"","collided":-1,"followDirection":false}, 
{"mainType":"Hide","id":0,"target":5,"animations":[],"previousIcon":-1,"nextIcon":-1,"color":[],"holdingHand":-1,"trajectory":"","rotations":"","collided":-1,"followDirection":false}]}