{"objects" : [
{"mainType":"Geometry","id":4,"subtype":"Sphere","position":[-35.209232330322269,1.0668920278549195,-16.747299194335939],"size":[0.09999997168779373,0.10000001639127732,0.09999997913837433],"rotation":[-0.08670303225517273,0.040590643882751468,-0.03926200047135353,0.994632363319397],"visible":true,"color":[1.0,1.0,1.0,1.0]} 
], 
 "events": [{"mainType":"Move","id":3,"target":-1,"animations":[],"previousIcon":-1,"nextIcon":-1,"color":[],"holdingHand":-1,"trajectory":"[[-34.99893,1.040318,-16.40775], [-34.98831,1.015576,-16.39808], [-34.98,0.9917423,-16.39086], [-34.96797,0.9497222,-16.38283], [-34.94919,0.8833441,-16.38212], [-34.92772,0.8179126,-16.39247], [-34.90335,0.7724494,-16.40336], [-34.87229,0.7313161,-16.41859], [-34.83183,0.6928585,-16.43141], [-34.77709,0.6822546,-16.43378], [-34.70918,0.6718433,-16.43473], [-34.62689,0.6687704,-16.43861], [-34.52206,0.672541,-16.44985], [-34.40913,0.6590068,-16.47622], [-34.29604,0.6526135,-16.5195], [-34.20238,0.6273596,-16.57826], [-34.13517,0.5817855,-16.64625], [-34.1021,0.5366111,-16.69201], [-34.0628,0.4458941,-16.76493], [-34.05349,0.3359452,-16.85295], [-34.08139,0.2302621,-16.88411], [-34.10078,0.1306476,-16.92373], [-34.12225,0.07869607,-16.93569], [-34.11643,0.05667892,-16.93063]]","rotations":"[[-0.01842965,0.3360552,0.004706212,0.9416502], [0.008800641,0.3384311,0.01423834,0.9408424], [0.02461319,0.3444852,0.02462448,0.938146], [0.0575081,0.3482603,0.0372583,0.9348902], [0.09526902,0.3579657,0.06803846,0.9263667], [0.1333204,0.3644115,0.09585805,0.9166467], [0.1528975,0.3738105,0.1237891,0.9064019], [0.1667887,0.3856825,0.1579039,0.8935866], [0.1810116,0.4109132,0.1878887,0.8735463], [0.1979795,0.4486748,0.1843661,0.8517655], [0.2198266,0.4907537,0.1787525,0.8239446], [0.2320218,0.5422492,0.1691974,0.7896227], [0.2371264,0.6046836,0.154118,0.7445647], [0.252152,0.6642283,0.1419197,0.6892597], [0.2566815,0.7247033,0.1328331,0.6255199], [0.2741082,0.7724334,0.1179894,0.5606157], [0.2959438,0.8025514,0.1317964,0.5009574], [0.3248421,0.8114662,0.1341508,0.4669089], [0.3802435,0.8195271,0.1222463,0.4109088], [0.451796,0.8112008,0.1261093,0.3491851], [0.5086704,0.7798001,0.1234271,0.3434126], [0.5478139,0.7520232,0.1517248,0.3336776], [0.5643656,0.7350006,0.1674519,0.3364902], [0.5551619,0.7414626,0.1604334,0.3410126], [0.5551619,0.7414626,0.1604334,0.3410126], [0.5551619,0.7414626,0.1604334,0.3410126]]","collided":-1,"followDirection":false}, 
{"mainType":"Collision","id":1,"target":0,"animations":[3],"previousIcon":-1,"nextIcon":-1,"color":[],"holdingHand":-1,"trajectory":"","rotations":"","collided":4,"followDirection":false}]}