{"objects" : [
{"mainType":"Geometry","id":7,"subtype":"Cylinder","position":[-35.55351257324219,1.2906959056854249,-17.23402976989746],"size":[0.10000000894069672,0.10000003129243851,0.09999997913837433],"rotation":[-0.03129412233829498,-0.01405268907546997,-0.04395380616188049,0.9984444379806519],"visible":true,"color":[1.0,1.0,1.0,1.0]}, 
{"mainType":"Geometry","id":6,"subtype":"Cube","position":[-35.51176452636719,1.0156333446502686,-17.25143051147461],"size":[0.10000000149011612,0.10000000149011612,0.09999999403953552],"rotation":[0.0,0.0,4.656612873077393e-10,1.0],"visible":true,"color":[1.0,1.0,1.0,1.0]}, 
{"mainType":"Geometry","id":5,"subtype":"Cylinder","position":[-35.33051300048828,1.291847586631775,-16.786514282226564],"size":[0.10000000149011612,0.10000002384185791,0.09999998658895493],"rotation":[-0.03129412233829498,-0.01405268907546997,-0.04395380616188049,0.9984444379806519],"visible":true,"color":[1.0,1.0,1.0,1.0]}, 
{"mainType":"Geometry","id":4,"subtype":"Sphere","position":[-34.976295471191409,1.1617431640625,-16.458415985107423],"size":[0.10000000149011612,0.09999998658895493,0.09999999403953552],"rotation":[0.00835405196994543,0.2559460401535034,-0.12480922043323517,0.9585637450218201],"visible":true,"color":[1.0,1.0,1.0,1.0]}, 
{"mainType":"Geometry","id":3,"subtype":"Cube","position":[-35.28876495361328,1.0167850255966187,-16.80391502380371],"size":[0.10000000149011612,0.10000000149011612,0.09999999403953552],"rotation":[0.0,0.0,4.656612873077393e-10,1.0],"visible":true,"color":[1.0,1.0,1.0,1.0]} 
], 
 "events": [{"mainType":"Color","id":4,"target":7,"animations":[],"previousIcon":-1,"nextIcon":-1,"color":[0.6657529473304749,0.713337779045105,0.3492755591869354,1.0],"holdingHand":-1,"trajectory":"","rotations":"","collided":-1,"followDirection":false}, 
{"mainType":"Collision","id":3,"target":0,"animations":[],"previousIcon":-1,"nextIcon":-1,"color":[],"holdingHand":-1,"trajectory":"","rotations":"","collided":6,"followDirection":false}, 
{"mainType":"Collision","id":2,"target":0,"animations":[1,0],"previousIcon":-1,"nextIcon":-1,"color":[],"holdingHand":-1,"trajectory":"","rotations":"","collided":3,"followDirection":false}, 
{"mainType":"Color","id":1,"target":5,"animations":[],"previousIcon":-1,"nextIcon":-1,"color":[0.6657529473304749,0.713337779045105,0.3492755591869354,1.0],"holdingHand":-1,"trajectory":"","rotations":"","collided":-1,"followDirection":false}, 
{"mainType":"Color","id":0,"target":4,"animations":[],"previousIcon":-1,"nextIcon":-1,"color":[0.6546975374221802,0.08075796812772751,0.08075796812772751,1.0],"holdingHand":-1,"trajectory":"","rotations":"","collided":-1,"followDirection":false}]}