{"objects" : [
{"mainType":"Geometry","id":7,"subtype":"Sphere","position":[-35.44248580932617,1.3840742111206055,-17.075654983520509],"size":[0.09999999403953552,0.10000000894069672,0.10000002384185791],"rotation":[-0.047850314527750018,0.062053196132183078,-0.15197189152240754,0.9852737188339233],"visible":true,"color":[0.8703011274337769,0.17378906905651093,0.17378906905651093,1.0]}, 
{"mainType":"Geometry","id":6,"subtype":"Cube","position":[-35.47346115112305,0.9891842603683472,-17.23664093017578],"size":[0.09999999403953552,0.10000000149011612,0.10000000894069672],"rotation":[0.0,0.0,4.6566123179658805e-10,1.0],"visible":true,"color":[1.0,1.0,1.0,1.0]}, 
{"mainType":"Geometry","id":5,"subtype":"Capsule","position":[-34.91507339477539,0.9203814268112183,-16.497966766357423],"size":[0.10000001639127732,0.10000000149011612,0.10000000894069672],"rotation":[0.08730387687683106,0.1965656578540802,0.07113634049892426,0.9740018844604492],"visible":true,"color":[1.0,1.0,1.0,1.0]}, 
{"mainType":"Geometry","id":4,"subtype":"Sphere","position":[-35.22035598754883,1.421973466873169,-16.629310607910158],"size":[0.09999999403953552,0.10000000894069672,0.10000000894069672],"rotation":[-0.04785030707716942,0.062053196132183078,-0.15197186172008515,0.9852737188339233],"visible":true,"color":[1.0,1.0,1.0,1.0]}, 
{"mainType":"Geometry","id":3,"subtype":"Cube","position":[-35.2513313293457,1.0270836353302003,-16.79029655456543],"size":[0.09999999403953552,0.10000000149011612,0.10000000894069672],"rotation":[0.0,0.0,4.6566123179658805e-10,1.0],"visible":true,"color":[1.0,1.0,1.0,1.0]} 
], 
 "events": [{"mainType":"Hide","id":4,"target":7,"animations":[],"previousIcon":-1,"nextIcon":-1,"color":[],"holdingHand":-1,"trajectory":"","rotations":"","collided":-1,"followDirection":false}, 
{"mainType":"Collision","id":3,"target":0,"animations":[],"previousIcon":-1,"nextIcon":-1,"color":[],"holdingHand":-1,"trajectory":"","rotations":"","collided":6,"followDirection":false}, 
{"mainType":"Collision","id":2,"target":0,"animations":[0,1],"previousIcon":-1,"nextIcon":-1,"color":[],"holdingHand":-1,"trajectory":"","rotations":"","collided":3,"followDirection":false}, 
{"mainType":"Color","id":1,"target":5,"animations":[],"previousIcon":-1,"nextIcon":-1,"color":[0.8047466278076172,0.05554104968905449,0.05554104968905449,1.0],"holdingHand":-1,"trajectory":"","rotations":"","collided":-1,"followDirection":false}, 
{"mainType":"Hide","id":0,"target":4,"animations":[],"previousIcon":-1,"nextIcon":-1,"color":[],"holdingHand":-1,"trajectory":"","rotations":"","collided":-1,"followDirection":false}]}