{"objects" : [
 
], 
 "events": [{"mainType":"Move","id":0,"target":-1,"animations":[],"previousIcon":-1,"nextIcon":-1,"color":[],"holdingHand":-1,"trajectory":"[[-35.09237,1.103773,-16.73842], [-35.05293,1.147506,-16.74105], [-34.95157,1.159847,-16.66975], [-34.78052,1.175552,-16.61557], [-34.57881,1.218144,-16.65907], [-34.45138,1.209165,-16.69565], [-34.3983,1.188882,-16.70071], [-34.38381,1.180941,-16.70668]]","rotations":"[[-0.05919891,-0.02140757,-0.03740043,0.9973156], [-0.04450677,0.0288505,-0.06183024,0.9966764], [-0.03105332,0.1234451,-0.08955189,0.9878145], [-0.03830138,0.2741941,-0.1247309,0.9527817], [-0.1142501,0.4698908,-0.1369201,0.8645245], [-0.109602,0.5685748,-0.1613085,0.7991807], [-0.09138077,0.6086427,-0.1683657,0.769972], [-0.08962958,0.6309341,-0.1632943,0.7531425], [-0.08962958,0.6309341,-0.1632943,0.7531425], [-0.08962958,0.6309341,-0.1632943,0.7531425]]","collided":-1,"followDirection":false}]}