{"objects" : [
{"mainType":"Geometry","id":5,"subtype":"Capsule","position":[-35.185340881347659,0.9879319667816162,-17.1556339263916],"size":[0.10000000894069672,0.10000000894069672,0.10000000894069672],"rotation":[0.0,0.0,0.0,1.0],"visible":true,"color":[0.1901167929172516,0.47401708364486697,0.8455734252929688,0.4000000059604645]}, 
{"mainType":"Geometry","id":4,"subtype":"Capsule","position":[-35.00273132324219,1.0345814228057862,-16.692516326904298],"size":[0.10000000894069672,0.10000000894069672,0.10000000894069672],"rotation":[0.0,0.0,0.0,1.0],"visible":true,"color":[0.19011685252189637,0.47401711344718935,0.8455734252929688,1.0]} 
], 
 "events": []}