{"objects" : [
{"mainType":"Geometry","id":4,"subtype":"Cylinder","position":[-35.30027770996094,0.9403765201568604,-16.891578674316408],"size":[0.10000006854534149,0.10000000894069672,0.09999997168779373],"rotation":[-0.01911275088787079,0.15998387336730958,-0.0444507896900177,0.9859330654144287],"visible":true,"color":[1.0,1.0,1.0,1.0]}, 
{"mainType":"Geometry","id":3,"subtype":"Cylinder","position":[-35.14510726928711,0.9718024730682373,-16.417306900024415],"size":[0.1000000536441803,0.10000000894069672,0.09999997168779373],"rotation":[-0.01911275088787079,0.15998387336730958,-0.0444507896900177,0.9859330654144287],"visible":true,"color":[1.0,1.0,1.0,1.0]} 
], 
 "events": []}