{"objects" : [
{"mainType":"Geometry","id":3,"subtype":"Cube","position":[-34.036293029785159,1.0248793363571168,-17.197216033935548],"size":[0.1000000387430191,0.09999998658895493,0.1000000387430191],"rotation":[-0.035587377846241,-0.04154098033905029,0.1143714040517807,0.9919310212135315],"visible":true,"color":[1.0,1.0,1.0,1.0]} 
], 
 "events": [{"mainType":"Color","id":0,"target":3,"animations":[],"previousIcon":-1,"nextIcon":-1,"color":[0.6489202380180359,0.07683233171701431,0.07683233171701431,1.0],"holdingHand":-1,"trajectory":"","rotations":"","collided":-1,"followDirection":false}]}