{"objects" : [
{"mainType":"Geometry","id":3,"subtype":"Cube","position":[-35.36997985839844,0.999085545539856,-17.000823974609376],"size":[0.09999997913837433,0.09999999403953552,0.10000000894069672],"rotation":[-0.014091761782765389,-0.21688807010650636,0.004056156147271395,0.9760863780975342],"visible":true,"color":[1.0,1.0,1.0,1.0]} 
], 
 "events": [{"mainType":"","id":0,"target":0,"animations":[],"previousIcon":0,"nextIcon":0,"color":[],"holdingHand":0,"trajectory":"","rotations":"","collided":0,"followDirection":false}, 
{"mainType":"Drag","id":3,"target":-1,"animations":[],"previousIcon":-1,"nextIcon":-1,"color":[],"holdingHand":0,"trajectory":"[[-35.35359,0.9807577,-16.98809], [-34.95532,1.100581,-16.52307], [-34.94,1.070832,-16.52156], [-34.91734,1.028154,-16.52068], [-34.89654,0.9877263,-16.54127], [-34.89536,0.9624025,-16.59686], [-34.90392,0.9934657,-16.66057], [-34.91156,1.069827,-16.70227], [-34.93627,1.134192,-16.73095], [-34.98014,1.170656,-16.75914], [-35.03293,1.177367,-16.7819], [-35.08762,1.147816,-16.79799], [-35.135,1.098774,-16.80948], [-35.17472,1.056573,-16.81683], [-35.20094,1.031581,-16.82525]]","rotations":"[[-0.5589231,-0.1386001,0.06861661,0.8146698], [-0.5621626,-0.1668942,0.1785499,0.7900883], [-0.5500618,-0.1818756,0.2164462,0.7858144], [-0.5216316,-0.2032387,0.2475373,0.7907717], [-0.4854512,-0.2455601,0.2399169,0.8040381], [-0.4666207,-0.3230671,0.2198513,0.793447], [-0.4784704,-0.3874572,0.1511151,0.773374], [-0.5487408,-0.3683035,0.08846685,0.7452582], [-0.5942304,-0.3505504,0.04013803,0.7227681], [-0.6231544,-0.3487482,0.01504575,0.6998764], [-0.6330482,-0.3566025,0.006182653,0.6870564], [-0.6173524,-0.3915547,0.02133823,0.6819865], [-0.6011846,-0.4236628,0.04653251,0.6759598], [-0.5735258,-0.450888,0.05297025,0.6818814], [-0.5526633,-0.4692951,0.05752747,0.6863061]]","collided":-1,"followDirection":false}]}