{"objects" : [
{"mainType":"Geometry","id":5,"subtype":"Cube","position":[-35.003265380859378,0.9709608554840088,-16.6558895111084],"size":[0.09999998658895493,0.10000001639127732,0.09999998658895493],"rotation":[0.0051032304763793949,0.07137611508369446,0.025473538786172868,0.9971110820770264],"visible":true,"color":[0.0,0.0,0.0,0.0]} 
], 
 "events": [{"mainType":"Collision","id":6,"target":0,"animations":[],"previousIcon":-1,"nextIcon":-1,"color":[],"holdingHand":-1,"trajectory":"","rotations":"","collided":5,"followDirection":false}]}