{"objects" : [
{"mainType":"Geometry","id":5,"subtype":"Sphere","position":[-35.37870788574219,1.0094856023788453,-17.182941436767579],"size":[0.09999999403953552,0.10000000894069672,0.10000001639127732],"rotation":[0.0,0.0,0.0,1.0],"visible":false,"color":[0.16646593809127809,0.675250232219696,0.13227400183677674,0.4000000059604645]}, 
{"mainType":"Geometry","id":4,"subtype":"Sphere","position":[-35.36188507080078,1.0698530673980713,-16.6868839263916],"size":[0.09999999403953552,0.10000000894069672,0.10000001639127732],"rotation":[0.0,0.0,0.0,1.0],"visible":true,"color":[0.16646602749824525,0.675250232219696,0.1322740912437439,1.0]} 
], 
 "events": []}