{"objects" : [
{"mainType":"Geometry","id":5,"subtype":"Cylinder","position":[-33.243804931640628,1.0054508447647095,-17.860239028930665],"size":[0.10000000894069672,0.10000000894069672,0.10000008344650269],"rotation":[-0.03737800195813179,-0.09474695473909378,-0.005026612430810928,0.9947867393493652],"visible":true,"color":[0.39931008219718935,0.7119984030723572,0.2398805320262909,1.0]}, 
{"mainType":"Geometry","id":4,"subtype":"Sphere","position":[-33.427818298339847,1.1206910610198975,-17.671918869018556],"size":[0.10000000894069672,0.09999999403953552,0.09999996423721314],"rotation":[0.8647199869155884,0.41344431042671206,0.05728434398770332,0.27935948967933657],"visible":true,"color":[1.0,1.0,1.0,1.0]}, 
{"mainType":"Geometry","id":3,"subtype":"Cube","position":[-33.299957275390628,0.9365134239196777,-17.657127380371095],"size":[0.10000000894069672,0.09999999403953552,0.09999999403953552],"rotation":[-3.3306690738754698e-16,0.0,3.725290298461914e-9,1.0],"visible":true,"color":[1.0,1.0,1.0,1.0]} 
], 
 "events": [{"mainType":"Grab","id":15,"target":5,"animations":[],"previousIcon":-1,"nextIcon":-1,"color":[],"holdingHand":0,"trajectory":"","rotations":"","collided":-1,"followDirection":false}, 
{"mainType":"Color","id":12,"target":5,"animations":[],"previousIcon":-1,"nextIcon":-1,"color":[0.2398805320262909,0.6398348808288574,0.7119984030723572,1.0],"holdingHand":-1,"trajectory":"","rotations":"","collided":-1,"followDirection":false}, 
{"mainType":"Color","id":10,"target":4,"animations":[],"previousIcon":-1,"nextIcon":-1,"color":[0.11900270730257034,0.5927983522415161,0.14300797879695893,1.0],"holdingHand":-1,"trajectory":"","rotations":"","collided":-1,"followDirection":false}, 
{"mainType":"Color","id":9,"target":4,"animations":[],"previousIcon":-1,"nextIcon":-1,"color":[0.5843666195869446,0.015568570233881474,0.015568570233881474,1.0],"holdingHand":-1,"trajectory":"","rotations":"","collided":-1,"followDirection":false}, 
{"mainType":"ExitZone","id":7,"target":4,"animations":[10],"previousIcon":5,"nextIcon":-1,"color":[],"holdingHand":-1,"trajectory":"","rotations":"","collided":-1,"followDirection":false}, 
{"mainType":"EnterZone","id":5,"target":4,"animations":[9],"previousIcon":-1,"nextIcon":7,"color":[],"holdingHand":-1,"trajectory":"","rotations":"","collided":-1,"followDirection":false}, 
{"mainType":"EnterZone","id":0,"target":5,"animations":[12],"previousIcon":-1,"nextIcon":-1,"color":[],"holdingHand":-1,"trajectory":"","rotations":"","collided":-1,"followDirection":false}]}