{"objects" : [
{"mainType":"Geometry","id":5,"subtype":"Cylinder","position":[-33.158447265625,0.9353488683700562,-17.938215255737306],"size":[0.10000003129243851,0.09999996423721314,0.10000001639127732],"rotation":[0.026017608121037484,0.026020973920822145,-0.020091889426112176,0.9991207718849182],"visible":true,"color":[0.39931008219718935,0.7119984030723572,0.2398805320262909,1.0]}, 
{"mainType":"Geometry","id":4,"subtype":"Sphere","position":[-33.385528564453128,1.186415195465088,-17.80706024169922],"size":[0.10000000894069672,0.10000000894069672,0.09999997913837433],"rotation":[0.8402326703071594,0.4568099081516266,-0.021457910537719728,0.29133039712905886],"visible":true,"color":[1.0,1.0,1.0,1.0]}, 
{"mainType":"Geometry","id":3,"subtype":"Cube","position":[-33.299957275390628,0.9365134239196777,-17.657127380371095],"size":[0.10000000894069672,0.09999999403953552,0.09999999403953552],"rotation":[-3.3306690738754698e-16,0.0,3.725290298461914e-9,1.0],"visible":true,"color":[1.0,1.0,1.0,1.0]} 
], 
 "events": [{"mainType":"Color","id":12,"target":5,"animations":[],"previousIcon":-1,"nextIcon":-1,"color":[0.2398805320262909,0.6398348808288574,0.7119984030723572,1.0],"holdingHand":-1,"trajectory":"","rotations":"","collided":-1,"followDirection":false}, 
{"mainType":"Color","id":10,"target":4,"animations":[],"previousIcon":-1,"nextIcon":-1,"color":[0.11900270730257034,0.5927983522415161,0.14300797879695893,1.0],"holdingHand":-1,"trajectory":"","rotations":"","collided":-1,"followDirection":false}, 
{"mainType":"Color","id":9,"target":4,"animations":[],"previousIcon":-1,"nextIcon":-1,"color":[0.5843666195869446,0.015568570233881474,0.015568570233881474,1.0],"holdingHand":-1,"trajectory":"","rotations":"","collided":-1,"followDirection":false}, 
{"mainType":"ExitZone","id":7,"target":4,"animations":[10],"previousIcon":5,"nextIcon":-1,"color":[],"holdingHand":-1,"trajectory":"","rotations":"","collided":-1,"followDirection":false}, 
{"mainType":"EnterZone","id":5,"target":4,"animations":[9],"previousIcon":-1,"nextIcon":7,"color":[],"holdingHand":-1,"trajectory":"","rotations":"","collided":-1,"followDirection":false}, 
{"mainType":"EnterZone","id":0,"target":5,"animations":[12],"previousIcon":-1,"nextIcon":-1,"color":[],"holdingHand":-1,"trajectory":"","rotations":"","collided":-1,"followDirection":false}]}