{"objects" : [
{"mainType":"Geometry","id":3,"subtype":"Cube","position":[-34.08798599243164,1.006279706954956,-17.12888526916504],"size":[0.09999999403953552,0.09999999403953552,0.10000000894069672],"rotation":[-0.0013393070548772812,0.04746773838996887,0.05840318277478218,0.9971630573272705],"visible":true,"color":[1.0,1.0,1.0,1.0]} 
], 
 "events": [{"mainType":"Color","id":2,"target":3,"animations":[],"previousIcon":-1,"nextIcon":-1,"color":[0.7541048526763916,0.07124403119087219,0.07124403119087219,1.0],"holdingHand":-1,"trajectory":"","rotations":"","collided":-1,"followDirection":false}, 
{"mainType":"EnterZone","id":0,"target":2,"animations":[2],"previousIcon":-1,"nextIcon":-1,"color":[],"holdingHand":-1,"trajectory":"","rotations":"","collided":-1,"followDirection":false}]}