{"objects" : [
{"mainType":"Geometry","id":5,"subtype":"Cube","position":[-35.058128356933597,0.9589606523513794,-16.739151000976564],"size":[0.10000000149011612,0.09999998658895493,0.09999998658895493],"rotation":[-0.003002837300300598,-0.025251150131225587,-0.11848589777946472,0.992630124092102],"visible":true,"color":[1.0,1.0,1.0,1.0]} 
], 
 "events": [{"mainType":"","id":0,"target":0,"animations":[],"previousIcon":0,"nextIcon":0,"color":[],"holdingHand":0,"trajectory":"","rotations":"","collided":0,"followDirection":false}, 
{"mainType":"","id":0,"target":0,"animations":[],"previousIcon":0,"nextIcon":0,"color":[],"holdingHand":0,"trajectory":"","rotations":"","collided":0,"followDirection":false}, 
{"mainType":"","id":0,"target":0,"animations":[],"previousIcon":0,"nextIcon":0,"color":[],"holdingHand":0,"trajectory":"","rotations":"","collided":0,"followDirection":false}, 
{"mainType":"","id":0,"target":0,"animations":[],"previousIcon":0,"nextIcon":0,"color":[],"holdingHand":0,"trajectory":"","rotations":"","collided":0,"followDirection":false}, 
{"mainType":"","id":0,"target":0,"animations":[],"previousIcon":0,"nextIcon":0,"color":[],"holdingHand":0,"trajectory":"","rotations":"","collided":0,"followDirection":false}, 
{"mainType":"","id":0,"target":0,"animations":[],"previousIcon":0,"nextIcon":0,"color":[],"holdingHand":0,"trajectory":"","rotations":"","collided":0,"followDirection":false}, 
{"mainType":"","id":0,"target":0,"animations":[],"previousIcon":0,"nextIcon":0,"color":[],"holdingHand":0,"trajectory":"","rotations":"","collided":0,"followDirection":false}, 
{"mainType":"","id":0,"target":0,"animations":[],"previousIcon":0,"nextIcon":0,"color":[],"holdingHand":0,"trajectory":"","rotations":"","collided":0,"followDirection":false}, 
{"mainType":"","id":0,"target":0,"animations":[],"previousIcon":0,"nextIcon":0,"color":[],"holdingHand":0,"trajectory":"","rotations":"","collided":0,"followDirection":false}, 
{"mainType":"","id":0,"target":0,"animations":[],"previousIcon":0,"nextIcon":0,"color":[],"holdingHand":0,"trajectory":"","rotations":"","collided":0,"followDirection":false}, 
{"mainType":"","id":0,"target":0,"animations":[],"previousIcon":0,"nextIcon":0,"color":[],"holdingHand":0,"trajectory":"","rotations":"","collided":0,"followDirection":false}, 
{"mainType":"","id":0,"target":0,"animations":[],"previousIcon":0,"nextIcon":0,"color":[],"holdingHand":0,"trajectory":"","rotations":"","collided":0,"followDirection":false}, 
{"mainType":"","id":0,"target":0,"animations":[],"previousIcon":0,"nextIcon":0,"color":[],"holdingHand":0,"trajectory":"","rotations":"","collided":0,"followDirection":false}, 
{"mainType":"","id":0,"target":0,"animations":[],"previousIcon":0,"nextIcon":0,"color":[],"holdingHand":0,"trajectory":"","rotations":"","collided":0,"followDirection":false}, 
{"mainType":"","id":0,"target":0,"animations":[],"previousIcon":0,"nextIcon":0,"color":[],"holdingHand":0,"trajectory":"","rotations":"","collided":0,"followDirection":false}, 
{"mainType":"","id":0,"target":0,"animations":[],"previousIcon":0,"nextIcon":0,"color":[],"holdingHand":0,"trajectory":"","rotations":"","collided":0,"followDirection":false}, 
{"mainType":"","id":0,"target":0,"animations":[],"previousIcon":0,"nextIcon":0,"color":[],"holdingHand":0,"trajectory":"","rotations":"","collided":0,"followDirection":false}, 
{"mainType":"","id":0,"target":0,"animations":[],"previousIcon":0,"nextIcon":0,"color":[],"holdingHand":0,"trajectory":"","rotations":"","collided":0,"followDirection":false}, 
{"mainType":"","id":0,"target":0,"animations":[],"previousIcon":0,"nextIcon":0,"color":[],"holdingHand":0,"trajectory":"","rotations":"","collided":0,"followDirection":false}, 
{"mainType":"","id":0,"target":0,"animations":[],"previousIcon":0,"nextIcon":0,"color":[],"holdingHand":0,"trajectory":"","rotations":"","collided":0,"followDirection":false}, 
{"mainType":"","id":0,"target":0,"animations":[],"previousIcon":0,"nextIcon":0,"color":[],"holdingHand":0,"trajectory":"","rotations":"","collided":0,"followDirection":false}, 
{"mainType":"","id":0,"target":0,"animations":[],"previousIcon":0,"nextIcon":0,"color":[],"holdingHand":0,"trajectory":"","rotations":"","collided":0,"followDirection":false}, 
{"mainType":"","id":0,"target":0,"animations":[],"previousIcon":0,"nextIcon":0,"color":[],"holdingHand":0,"trajectory":"","rotations":"","collided":0,"followDirection":false}, 
{"mainType":"","id":0,"target":0,"animations":[],"previousIcon":0,"nextIcon":0,"color":[],"holdingHand":0,"trajectory":"","rotations":"","collided":0,"followDirection":false}, 
{"mainType":"","id":0,"target":0,"animations":[],"previousIcon":0,"nextIcon":0,"color":[],"holdingHand":0,"trajectory":"","rotations":"","collided":0,"followDirection":false}, 
{"mainType":"","id":0,"target":0,"animations":[],"previousIcon":0,"nextIcon":0,"color":[],"holdingHand":0,"trajectory":"","rotations":"","collided":0,"followDirection":false}, 
{"mainType":"","id":0,"target":0,"animations":[],"previousIcon":0,"nextIcon":0,"color":[],"holdingHand":0,"trajectory":"","rotations":"","collided":0,"followDirection":false}, 
{"mainType":"","id":0,"target":0,"animations":[],"previousIcon":0,"nextIcon":0,"color":[],"holdingHand":0,"trajectory":"","rotations":"","collided":0,"followDirection":false}, 
{"mainType":"","id":0,"target":0,"animations":[],"previousIcon":0,"nextIcon":0,"color":[],"holdingHand":0,"trajectory":"","rotations":"","collided":0,"followDirection":false}, 
{"mainType":"","id":0,"target":0,"animations":[],"previousIcon":0,"nextIcon":0,"color":[],"holdingHand":0,"trajectory":"","rotations":"","collided":0,"followDirection":false}, 
{"mainType":"","id":0,"target":0,"animations":[],"previousIcon":0,"nextIcon":0,"color":[],"holdingHand":0,"trajectory":"","rotations":"","collided":0,"followDirection":false}, 
{"mainType":"","id":0,"target":0,"animations":[],"previousIcon":0,"nextIcon":0,"color":[],"holdingHand":0,"trajectory":"","rotations":"","collided":0,"followDirection":false}, 
{"mainType":"","id":0,"target":0,"animations":[],"previousIcon":0,"nextIcon":0,"color":[],"holdingHand":0,"trajectory":"","rotations":"","collided":0,"followDirection":false}, 
{"mainType":"","id":0,"target":0,"animations":[],"previousIcon":0,"nextIcon":0,"color":[],"holdingHand":0,"trajectory":"","rotations":"","collided":0,"followDirection":false}, 
{"mainType":"","id":0,"target":0,"animations":[],"previousIcon":0,"nextIcon":0,"color":[],"holdingHand":0,"trajectory":"","rotations":"","collided":0,"followDirection":false}, 
{"mainType":"","id":0,"target":0,"animations":[],"previousIcon":0,"nextIcon":0,"color":[],"holdingHand":0,"trajectory":"","rotations":"","collided":0,"followDirection":false}, 
{"mainType":"","id":0,"target":0,"animations":[],"previousIcon":0,"nextIcon":0,"color":[],"holdingHand":0,"trajectory":"","rotations":"","collided":0,"followDirection":false}, 
{"mainType":"","id":0,"target":0,"animations":[],"previousIcon":0,"nextIcon":0,"color":[],"holdingHand":0,"trajectory":"","rotations":"","collided":0,"followDirection":false}, 
{"mainType":"","id":0,"target":0,"animations":[],"previousIcon":0,"nextIcon":0,"color":[],"holdingHand":0,"trajectory":"","rotations":"","collided":0,"followDirection":false}, 
{"mainType":"","id":0,"target":0,"animations":[],"previousIcon":0,"nextIcon":0,"color":[],"holdingHand":0,"trajectory":"","rotations":"","collided":0,"followDirection":false}, 
{"mainType":"","id":0,"target":0,"animations":[],"previousIcon":0,"nextIcon":0,"color":[],"holdingHand":0,"trajectory":"","rotations":"","collided":0,"followDirection":false}, 
{"mainType":"","id":0,"target":0,"animations":[],"previousIcon":0,"nextIcon":0,"color":[],"holdingHand":0,"trajectory":"","rotations":"","collided":0,"followDirection":false}, 
{"mainType":"","id":0,"target":0,"animations":[],"previousIcon":0,"nextIcon":0,"color":[],"holdingHand":0,"trajectory":"","rotations":"","collided":0,"followDirection":false}, 
{"mainType":"","id":0,"target":0,"animations":[],"previousIcon":0,"nextIcon":0,"color":[],"holdingHand":0,"trajectory":"","rotations":"","collided":0,"followDirection":false}, 
{"mainType":"","id":0,"target":0,"animations":[],"previousIcon":0,"nextIcon":0,"color":[],"holdingHand":0,"trajectory":"","rotations":"","collided":0,"followDirection":false}, 
{"mainType":"","id":0,"target":0,"animations":[],"previousIcon":0,"nextIcon":0,"color":[],"holdingHand":0,"trajectory":"","rotations":"","collided":0,"followDirection":false}, 
{"mainType":"","id":0,"target":0,"animations":[],"previousIcon":0,"nextIcon":0,"color":[],"holdingHand":0,"trajectory":"","rotations":"","collided":0,"followDirection":false}, 
{"mainType":"","id":0,"target":0,"animations":[],"previousIcon":0,"nextIcon":0,"color":[],"holdingHand":0,"trajectory":"","rotations":"","collided":0,"followDirection":false}, 
{"mainType":"","id":0,"target":0,"animations":[],"previousIcon":0,"nextIcon":0,"color":[],"holdingHand":0,"trajectory":"","rotations":"","collided":0,"followDirection":false}, 
{"mainType":"","id":0,"target":0,"animations":[],"previousIcon":0,"nextIcon":0,"color":[],"holdingHand":0,"trajectory":"","rotations":"","collided":0,"followDirection":false}, 
{"mainType":"","id":0,"target":0,"animations":[],"previousIcon":0,"nextIcon":0,"color":[],"holdingHand":0,"trajectory":"","rotations":"","collided":0,"followDirection":false}, 
{"mainType":"","id":0,"target":0,"animations":[],"previousIcon":0,"nextIcon":0,"color":[],"holdingHand":0,"trajectory":"","rotations":"","collided":0,"followDirection":false}, 
{"mainType":"","id":0,"target":0,"animations":[],"previousIcon":0,"nextIcon":0,"color":[],"holdingHand":0,"trajectory":"","rotations":"","collided":0,"followDirection":false}, 
{"mainType":"","id":0,"target":0,"animations":[],"previousIcon":0,"nextIcon":0,"color":[],"holdingHand":0,"trajectory":"","rotations":"","collided":0,"followDirection":false}, 
{"mainType":"","id":0,"target":0,"animations":[],"previousIcon":0,"nextIcon":0,"color":[],"holdingHand":0,"trajectory":"","rotations":"","collided":0,"followDirection":false}, 
{"mainType":"","id":0,"target":0,"animations":[],"previousIcon":0,"nextIcon":0,"color":[],"holdingHand":0,"trajectory":"","rotations":"","collided":0,"followDirection":false}, 
{"mainType":"","id":0,"target":0,"animations":[],"previousIcon":0,"nextIcon":0,"color":[],"holdingHand":0,"trajectory":"","rotations":"","collided":0,"followDirection":false}, 
{"mainType":"","id":0,"target":0,"animations":[],"previousIcon":0,"nextIcon":0,"color":[],"holdingHand":0,"trajectory":"","rotations":"","collided":0,"followDirection":false}, 
{"mainType":"","id":0,"target":0,"animations":[],"previousIcon":0,"nextIcon":0,"color":[],"holdingHand":0,"trajectory":"","rotations":"","collided":0,"followDirection":false}, 
{"mainType":"","id":0,"target":0,"animations":[],"previousIcon":0,"nextIcon":0,"color":[],"holdingHand":0,"trajectory":"","rotations":"","collided":0,"followDirection":false}, 
{"mainType":"","id":0,"target":0,"animations":[],"previousIcon":0,"nextIcon":0,"color":[],"holdingHand":0,"trajectory":"","rotations":"","collided":0,"followDirection":false}, 
{"mainType":"","id":0,"target":0,"animations":[],"previousIcon":0,"nextIcon":0,"color":[],"holdingHand":0,"trajectory":"","rotations":"","collided":0,"followDirection":false}, 
{"mainType":"","id":0,"target":0,"animations":[],"previousIcon":0,"nextIcon":0,"color":[],"holdingHand":0,"trajectory":"","rotations":"","collided":0,"followDirection":false}, 
{"mainType":"","id":0,"target":0,"animations":[],"previousIcon":0,"nextIcon":0,"color":[],"holdingHand":0,"trajectory":"","rotations":"","collided":0,"followDirection":false}, 
{"mainType":"","id":0,"target":0,"animations":[],"previousIcon":0,"nextIcon":0,"color":[],"holdingHand":0,"trajectory":"","rotations":"","collided":0,"followDirection":false}, 
{"mainType":"","id":0,"target":0,"animations":[],"previousIcon":0,"nextIcon":0,"color":[],"holdingHand":0,"trajectory":"","rotations":"","collided":0,"followDirection":false}, 
{"mainType":"","id":0,"target":0,"animations":[],"previousIcon":0,"nextIcon":0,"color":[],"holdingHand":0,"trajectory":"","rotations":"","collided":0,"followDirection":false}, 
{"mainType":"","id":0,"target":0,"animations":[],"previousIcon":0,"nextIcon":0,"color":[],"holdingHand":0,"trajectory":"","rotations":"","collided":0,"followDirection":false}, 
{"mainType":"","id":0,"target":0,"animations":[],"previousIcon":0,"nextIcon":0,"color":[],"holdingHand":0,"trajectory":"","rotations":"","collided":0,"followDirection":false}, 
{"mainType":"","id":0,"target":0,"animations":[],"previousIcon":0,"nextIcon":0,"color":[],"holdingHand":0,"trajectory":"","rotations":"","collided":0,"followDirection":false}, 
{"mainType":"","id":0,"target":0,"animations":[],"previousIcon":0,"nextIcon":0,"color":[],"holdingHand":0,"trajectory":"","rotations":"","collided":0,"followDirection":false}, 
{"mainType":"","id":0,"target":0,"animations":[],"previousIcon":0,"nextIcon":0,"color":[],"holdingHand":0,"trajectory":"","rotations":"","collided":0,"followDirection":false}, 
{"mainType":"","id":0,"target":0,"animations":[],"previousIcon":0,"nextIcon":0,"color":[],"holdingHand":0,"trajectory":"","rotations":"","collided":0,"followDirection":false}, 
{"mainType":"","id":0,"target":0,"animations":[],"previousIcon":0,"nextIcon":0,"color":[],"holdingHand":0,"trajectory":"","rotations":"","collided":0,"followDirection":false}, 
{"mainType":"","id":0,"target":0,"animations":[],"previousIcon":0,"nextIcon":0,"color":[],"holdingHand":0,"trajectory":"","rotations":"","collided":0,"followDirection":false}, 
{"mainType":"","id":0,"target":0,"animations":[],"previousIcon":0,"nextIcon":0,"color":[],"holdingHand":0,"trajectory":"","rotations":"","collided":0,"followDirection":false}, 
{"mainType":"","id":0,"target":0,"animations":[],"previousIcon":0,"nextIcon":0,"color":[],"holdingHand":0,"trajectory":"","rotations":"","collided":0,"followDirection":false}, 
{"mainType":"","id":0,"target":0,"animations":[],"previousIcon":0,"nextIcon":0,"color":[],"holdingHand":0,"trajectory":"","rotations":"","collided":0,"followDirection":false}, 
{"mainType":"","id":0,"target":0,"animations":[],"previousIcon":0,"nextIcon":0,"color":[],"holdingHand":0,"trajectory":"","rotations":"","collided":0,"followDirection":false}, 
{"mainType":"","id":0,"target":0,"animations":[],"previousIcon":0,"nextIcon":0,"color":[],"holdingHand":0,"trajectory":"","rotations":"","collided":0,"followDirection":false}, 
{"mainType":"","id":0,"target":0,"animations":[],"previousIcon":0,"nextIcon":0,"color":[],"holdingHand":0,"trajectory":"","rotations":"","collided":0,"followDirection":false}, 
{"mainType":"","id":0,"target":0,"animations":[],"previousIcon":0,"nextIcon":0,"color":[],"holdingHand":0,"trajectory":"","rotations":"","collided":0,"followDirection":false}, 
{"mainType":"","id":0,"target":0,"animations":[],"previousIcon":0,"nextIcon":0,"color":[],"holdingHand":0,"trajectory":"","rotations":"","collided":0,"followDirection":false}, 
{"mainType":"","id":0,"target":0,"animations":[],"previousIcon":0,"nextIcon":0,"color":[],"holdingHand":0,"trajectory":"","rotations":"","collided":0,"followDirection":false}, 
{"mainType":"","id":0,"target":0,"animations":[],"previousIcon":0,"nextIcon":0,"color":[],"holdingHand":0,"trajectory":"","rotations":"","collided":0,"followDirection":false}, 
{"mainType":"","id":0,"target":0,"animations":[],"previousIcon":0,"nextIcon":0,"color":[],"holdingHand":0,"trajectory":"","rotations":"","collided":0,"followDirection":false}, 
{"mainType":"","id":0,"target":0,"animations":[],"previousIcon":0,"nextIcon":0,"color":[],"holdingHand":0,"trajectory":"","rotations":"","collided":0,"followDirection":false}, 
{"mainType":"","id":0,"target":0,"animations":[],"previousIcon":0,"nextIcon":0,"color":[],"holdingHand":0,"trajectory":"","rotations":"","collided":0,"followDirection":false}, 
{"mainType":"","id":0,"target":0,"animations":[],"previousIcon":0,"nextIcon":0,"color":[],"holdingHand":0,"trajectory":"","rotations":"","collided":0,"followDirection":false}, 
{"mainType":"","id":0,"target":0,"animations":[],"previousIcon":0,"nextIcon":0,"color":[],"holdingHand":0,"trajectory":"","rotations":"","collided":0,"followDirection":false}, 
{"mainType":"","id":0,"target":0,"animations":[],"previousIcon":0,"nextIcon":0,"color":[],"holdingHand":0,"trajectory":"","rotations":"","collided":0,"followDirection":false}, 
{"mainType":"","id":0,"target":0,"animations":[],"previousIcon":0,"nextIcon":0,"color":[],"holdingHand":0,"trajectory":"","rotations":"","collided":0,"followDirection":false}, 
{"mainType":"","id":0,"target":0,"animations":[],"previousIcon":0,"nextIcon":0,"color":[],"holdingHand":0,"trajectory":"","rotations":"","collided":0,"followDirection":false}, 
{"mainType":"","id":0,"target":0,"animations":[],"previousIcon":0,"nextIcon":0,"color":[],"holdingHand":0,"trajectory":"","rotations":"","collided":0,"followDirection":false}, 
{"mainType":"","id":0,"target":0,"animations":[],"previousIcon":0,"nextIcon":0,"color":[],"holdingHand":0,"trajectory":"","rotations":"","collided":0,"followDirection":false}, 
{"mainType":"","id":0,"target":0,"animations":[],"previousIcon":0,"nextIcon":0,"color":[],"holdingHand":0,"trajectory":"","rotations":"","collided":0,"followDirection":false}, 
{"mainType":"","id":0,"target":0,"animations":[],"previousIcon":0,"nextIcon":0,"color":[],"holdingHand":0,"trajectory":"","rotations":"","collided":0,"followDirection":false}, 
{"mainType":"","id":0,"target":0,"animations":[],"previousIcon":0,"nextIcon":0,"color":[],"holdingHand":0,"trajectory":"","rotations":"","collided":0,"followDirection":false}, 
{"mainType":"","id":0,"target":0,"animations":[],"previousIcon":0,"nextIcon":0,"color":[],"holdingHand":0,"trajectory":"","rotations":"","collided":0,"followDirection":false}, 
{"mainType":"","id":0,"target":0,"animations":[],"previousIcon":0,"nextIcon":0,"color":[],"holdingHand":0,"trajectory":"","rotations":"","collided":0,"followDirection":false}, 
{"mainType":"","id":0,"target":0,"animations":[],"previousIcon":0,"nextIcon":0,"color":[],"holdingHand":0,"trajectory":"","rotations":"","collided":0,"followDirection":false}, 
{"mainType":"","id":0,"target":0,"animations":[],"previousIcon":0,"nextIcon":0,"color":[],"holdingHand":0,"trajectory":"","rotations":"","collided":0,"followDirection":false}, 
{"mainType":"","id":0,"target":0,"animations":[],"previousIcon":0,"nextIcon":0,"color":[],"holdingHand":0,"trajectory":"","rotations":"","collided":0,"followDirection":false}, 
{"mainType":"","id":0,"target":0,"animations":[],"previousIcon":0,"nextIcon":0,"color":[],"holdingHand":0,"trajectory":"","rotations":"","collided":0,"followDirection":false}, 
{"mainType":"","id":0,"target":0,"animations":[],"previousIcon":0,"nextIcon":0,"color":[],"holdingHand":0,"trajectory":"","rotations":"","collided":0,"followDirection":false}, 
{"mainType":"","id":0,"target":0,"animations":[],"previousIcon":0,"nextIcon":0,"color":[],"holdingHand":0,"trajectory":"","rotations":"","collided":0,"followDirection":false}, 
{"mainType":"","id":0,"target":0,"animations":[],"previousIcon":0,"nextIcon":0,"color":[],"holdingHand":0,"trajectory":"","rotations":"","collided":0,"followDirection":false}, 
{"mainType":"","id":0,"target":0,"animations":[],"previousIcon":0,"nextIcon":0,"color":[],"holdingHand":0,"trajectory":"","rotations":"","collided":0,"followDirection":false}, 
{"mainType":"","id":0,"target":0,"animations":[],"previousIcon":0,"nextIcon":0,"color":[],"holdingHand":0,"trajectory":"","rotations":"","collided":0,"followDirection":false}, 
{"mainType":"","id":0,"target":0,"animations":[],"previousIcon":0,"nextIcon":0,"color":[],"holdingHand":0,"trajectory":"","rotations":"","collided":0,"followDirection":false}, 
{"mainType":"","id":0,"target":0,"animations":[],"previousIcon":0,"nextIcon":0,"color":[],"holdingHand":0,"trajectory":"","rotations":"","collided":0,"followDirection":false}, 
{"mainType":"","id":0,"target":0,"animations":[],"previousIcon":0,"nextIcon":0,"color":[],"holdingHand":0,"trajectory":"","rotations":"","collided":0,"followDirection":false}, 
{"mainType":"","id":0,"target":0,"animations":[],"previousIcon":0,"nextIcon":0,"color":[],"holdingHand":0,"trajectory":"","rotations":"","collided":0,"followDirection":false}, 
{"mainType":"","id":0,"target":0,"animations":[],"previousIcon":0,"nextIcon":0,"color":[],"holdingHand":0,"trajectory":"","rotations":"","collided":0,"followDirection":false}, 
{"mainType":"","id":0,"target":0,"animations":[],"previousIcon":0,"nextIcon":0,"color":[],"holdingHand":0,"trajectory":"","rotations":"","collided":0,"followDirection":false}, 
{"mainType":"","id":0,"target":0,"animations":[],"previousIcon":0,"nextIcon":0,"color":[],"holdingHand":0,"trajectory":"","rotations":"","collided":0,"followDirection":false}, 
{"mainType":"","id":0,"target":0,"animations":[],"previousIcon":0,"nextIcon":0,"color":[],"holdingHand":0,"trajectory":"","rotations":"","collided":0,"followDirection":false}, 
{"mainType":"","id":0,"target":0,"animations":[],"previousIcon":0,"nextIcon":0,"color":[],"holdingHand":0,"trajectory":"","rotations":"","collided":0,"followDirection":false}, 
{"mainType":"","id":0,"target":0,"animations":[],"previousIcon":0,"nextIcon":0,"color":[],"holdingHand":0,"trajectory":"","rotations":"","collided":0,"followDirection":false}, 
{"mainType":"","id":0,"target":0,"animations":[],"previousIcon":0,"nextIcon":0,"color":[],"holdingHand":0,"trajectory":"","rotations":"","collided":0,"followDirection":false}, 
{"mainType":"","id":0,"target":0,"animations":[],"previousIcon":0,"nextIcon":0,"color":[],"holdingHand":0,"trajectory":"","rotations":"","collided":0,"followDirection":false}, 
{"mainType":"","id":0,"target":0,"animations":[],"previousIcon":0,"nextIcon":0,"color":[],"holdingHand":0,"trajectory":"","rotations":"","collided":0,"followDirection":false}, 
{"mainType":"","id":0,"target":0,"animations":[],"previousIcon":0,"nextIcon":0,"color":[],"holdingHand":0,"trajectory":"","rotations":"","collided":0,"followDirection":false}, 
{"mainType":"","id":0,"target":0,"animations":[],"previousIcon":0,"nextIcon":0,"color":[],"holdingHand":0,"trajectory":"","rotations":"","collided":0,"followDirection":false}, 
{"mainType":"","id":0,"target":0,"animations":[],"previousIcon":0,"nextIcon":0,"color":[],"holdingHand":0,"trajectory":"","rotations":"","collided":0,"followDirection":false}, 
{"mainType":"","id":0,"target":0,"animations":[],"previousIcon":0,"nextIcon":0,"color":[],"holdingHand":0,"trajectory":"","rotations":"","collided":0,"followDirection":false}, 
{"mainType":"","id":0,"target":0,"animations":[],"previousIcon":0,"nextIcon":0,"color":[],"holdingHand":0,"trajectory":"","rotations":"","collided":0,"followDirection":false}, 
{"mainType":"","id":0,"target":0,"animations":[],"previousIcon":0,"nextIcon":0,"color":[],"holdingHand":0,"trajectory":"","rotations":"","collided":0,"followDirection":false}, 
{"mainType":"","id":0,"target":0,"animations":[],"previousIcon":0,"nextIcon":0,"color":[],"holdingHand":0,"trajectory":"","rotations":"","collided":0,"followDirection":false}, 
{"mainType":"","id":0,"target":0,"animations":[],"previousIcon":0,"nextIcon":0,"color":[],"holdingHand":0,"trajectory":"","rotations":"","collided":0,"followDirection":false}, 
{"mainType":"","id":0,"target":0,"animations":[],"previousIcon":0,"nextIcon":0,"color":[],"holdingHand":0,"trajectory":"","rotations":"","collided":0,"followDirection":false}, 
{"mainType":"","id":0,"target":0,"animations":[],"previousIcon":0,"nextIcon":0,"color":[],"holdingHand":0,"trajectory":"","rotations":"","collided":0,"followDirection":false}, 
{"mainType":"","id":0,"target":0,"animations":[],"previousIcon":0,"nextIcon":0,"color":[],"holdingHand":0,"trajectory":"","rotations":"","collided":0,"followDirection":false}, 
{"mainType":"","id":0,"target":0,"animations":[],"previousIcon":0,"nextIcon":0,"color":[],"holdingHand":0,"trajectory":"","rotations":"","collided":0,"followDirection":false}, 
{"mainType":"","id":0,"target":0,"animations":[],"previousIcon":0,"nextIcon":0,"color":[],"holdingHand":0,"trajectory":"","rotations":"","collided":0,"followDirection":false}, 
{"mainType":"","id":0,"target":0,"animations":[],"previousIcon":0,"nextIcon":0,"color":[],"holdingHand":0,"trajectory":"","rotations":"","collided":0,"followDirection":false}, 
{"mainType":"","id":0,"target":0,"animations":[],"previousIcon":0,"nextIcon":0,"color":[],"holdingHand":0,"trajectory":"","rotations":"","collided":0,"followDirection":false}, 
{"mainType":"","id":0,"target":0,"animations":[],"previousIcon":0,"nextIcon":0,"color":[],"holdingHand":0,"trajectory":"","rotations":"","collided":0,"followDirection":false}, 
{"mainType":"","id":0,"target":0,"animations":[],"previousIcon":0,"nextIcon":0,"color":[],"holdingHand":0,"trajectory":"","rotations":"","collided":0,"followDirection":false}, 
{"mainType":"","id":0,"target":0,"animations":[],"previousIcon":0,"nextIcon":0,"color":[],"holdingHand":0,"trajectory":"","rotations":"","collided":0,"followDirection":false}, 
{"mainType":"","id":0,"target":0,"animations":[],"previousIcon":0,"nextIcon":0,"color":[],"holdingHand":0,"trajectory":"","rotations":"","collided":0,"followDirection":false}, 
{"mainType":"","id":0,"target":0,"animations":[],"previousIcon":0,"nextIcon":0,"color":[],"holdingHand":0,"trajectory":"","rotations":"","collided":0,"followDirection":false}, 
{"mainType":"","id":0,"target":0,"animations":[],"previousIcon":0,"nextIcon":0,"color":[],"holdingHand":0,"trajectory":"","rotations":"","collided":0,"followDirection":false}, 
{"mainType":"","id":0,"target":0,"animations":[],"previousIcon":0,"nextIcon":0,"color":[],"holdingHand":0,"trajectory":"","rotations":"","collided":0,"followDirection":false}, 
{"mainType":"","id":0,"target":0,"animations":[],"previousIcon":0,"nextIcon":0,"color":[],"holdingHand":0,"trajectory":"","rotations":"","collided":0,"followDirection":false}, 
{"mainType":"","id":0,"target":0,"animations":[],"previousIcon":0,"nextIcon":0,"color":[],"holdingHand":0,"trajectory":"","rotations":"","collided":0,"followDirection":false}, 
{"mainType":"","id":0,"target":0,"animations":[],"previousIcon":0,"nextIcon":0,"color":[],"holdingHand":0,"trajectory":"","rotations":"","collided":0,"followDirection":false}, 
{"mainType":"","id":0,"target":0,"animations":[],"previousIcon":0,"nextIcon":0,"color":[],"holdingHand":0,"trajectory":"","rotations":"","collided":0,"followDirection":false}, 
{"mainType":"","id":0,"target":0,"animations":[],"previousIcon":0,"nextIcon":0,"color":[],"holdingHand":0,"trajectory":"","rotations":"","collided":0,"followDirection":false}, 
{"mainType":"","id":0,"target":0,"animations":[],"previousIcon":0,"nextIcon":0,"color":[],"holdingHand":0,"trajectory":"","rotations":"","collided":0,"followDirection":false}, 
{"mainType":"","id":0,"target":0,"animations":[],"previousIcon":0,"nextIcon":0,"color":[],"holdingHand":0,"trajectory":"","rotations":"","collided":0,"followDirection":false}, 
{"mainType":"","id":0,"target":0,"animations":[],"previousIcon":0,"nextIcon":0,"color":[],"holdingHand":0,"trajectory":"","rotations":"","collided":0,"followDirection":false}, 
{"mainType":"","id":0,"target":0,"animations":[],"previousIcon":0,"nextIcon":0,"color":[],"holdingHand":0,"trajectory":"","rotations":"","collided":0,"followDirection":false}, 
{"mainType":"","id":0,"target":0,"animations":[],"previousIcon":0,"nextIcon":0,"color":[],"holdingHand":0,"trajectory":"","rotations":"","collided":0,"followDirection":false}, 
{"mainType":"","id":0,"target":0,"animations":[],"previousIcon":0,"nextIcon":0,"color":[],"holdingHand":0,"trajectory":"","rotations":"","collided":0,"followDirection":false}, 
{"mainType":"","id":0,"target":0,"animations":[],"previousIcon":0,"nextIcon":0,"color":[],"holdingHand":0,"trajectory":"","rotations":"","collided":0,"followDirection":false}, 
{"mainType":"","id":0,"target":0,"animations":[],"previousIcon":0,"nextIcon":0,"color":[],"holdingHand":0,"trajectory":"","rotations":"","collided":0,"followDirection":false}, 
{"mainType":"","id":0,"target":0,"animations":[],"previousIcon":0,"nextIcon":0,"color":[],"holdingHand":0,"trajectory":"","rotations":"","collided":0,"followDirection":false}, 
{"mainType":"","id":0,"target":0,"animations":[],"previousIcon":0,"nextIcon":0,"color":[],"holdingHand":0,"trajectory":"","rotations":"","collided":0,"followDirection":false}, 
{"mainType":"","id":0,"target":0,"animations":[],"previousIcon":0,"nextIcon":0,"color":[],"holdingHand":0,"trajectory":"","rotations":"","collided":0,"followDirection":false}, 
{"mainType":"","id":0,"target":0,"animations":[],"previousIcon":0,"nextIcon":0,"color":[],"holdingHand":0,"trajectory":"","rotations":"","collided":0,"followDirection":false}, 
{"mainType":"","id":0,"target":0,"animations":[],"previousIcon":0,"nextIcon":0,"color":[],"holdingHand":0,"trajectory":"","rotations":"","collided":0,"followDirection":false}, 
{"mainType":"","id":0,"target":0,"animations":[],"previousIcon":0,"nextIcon":0,"color":[],"holdingHand":0,"trajectory":"","rotations":"","collided":0,"followDirection":false}, 
{"mainType":"","id":0,"target":0,"animations":[],"previousIcon":0,"nextIcon":0,"color":[],"holdingHand":0,"trajectory":"","rotations":"","collided":0,"followDirection":false}, 
{"mainType":"","id":0,"target":0,"animations":[],"previousIcon":0,"nextIcon":0,"color":[],"holdingHand":0,"trajectory":"","rotations":"","collided":0,"followDirection":false}, 
{"mainType":"","id":0,"target":0,"animations":[],"previousIcon":0,"nextIcon":0,"color":[],"holdingHand":0,"trajectory":"","rotations":"","collided":0,"followDirection":false}, 
{"mainType":"","id":0,"target":0,"animations":[],"previousIcon":0,"nextIcon":0,"color":[],"holdingHand":0,"trajectory":"","rotations":"","collided":0,"followDirection":false}, 
{"mainType":"","id":0,"target":0,"animations":[],"previousIcon":0,"nextIcon":0,"color":[],"holdingHand":0,"trajectory":"","rotations":"","collided":0,"followDirection":false}, 
{"mainType":"","id":0,"target":0,"animations":[],"previousIcon":0,"nextIcon":0,"color":[],"holdingHand":0,"trajectory":"","rotations":"","collided":0,"followDirection":false}, 
{"mainType":"","id":0,"target":0,"animations":[],"previousIcon":0,"nextIcon":0,"color":[],"holdingHand":0,"trajectory":"","rotations":"","collided":0,"followDirection":false}, 
{"mainType":"","id":0,"target":0,"animations":[],"previousIcon":0,"nextIcon":0,"color":[],"holdingHand":0,"trajectory":"","rotations":"","collided":0,"followDirection":false}, 
{"mainType":"","id":0,"target":0,"animations":[],"previousIcon":0,"nextIcon":0,"color":[],"holdingHand":0,"trajectory":"","rotations":"","collided":0,"followDirection":false}, 
{"mainType":"","id":0,"target":0,"animations":[],"previousIcon":0,"nextIcon":0,"color":[],"holdingHand":0,"trajectory":"","rotations":"","collided":0,"followDirection":false}, 
{"mainType":"","id":0,"target":0,"animations":[],"previousIcon":0,"nextIcon":0,"color":[],"holdingHand":0,"trajectory":"","rotations":"","collided":0,"followDirection":false}, 
{"mainType":"","id":0,"target":0,"animations":[],"previousIcon":0,"nextIcon":0,"color":[],"holdingHand":0,"trajectory":"","rotations":"","collided":0,"followDirection":false}, 
{"mainType":"","id":0,"target":0,"animations":[],"previousIcon":0,"nextIcon":0,"color":[],"holdingHand":0,"trajectory":"","rotations":"","collided":0,"followDirection":false}, 
{"mainType":"","id":0,"target":0,"animations":[],"previousIcon":0,"nextIcon":0,"color":[],"holdingHand":0,"trajectory":"","rotations":"","collided":0,"followDirection":false}, 
{"mainType":"","id":0,"target":0,"animations":[],"previousIcon":0,"nextIcon":0,"color":[],"holdingHand":0,"trajectory":"","rotations":"","collided":0,"followDirection":false}, 
{"mainType":"","id":0,"target":0,"animations":[],"previousIcon":0,"nextIcon":0,"color":[],"holdingHand":0,"trajectory":"","rotations":"","collided":0,"followDirection":false}, 
{"mainType":"","id":0,"target":0,"animations":[],"previousIcon":0,"nextIcon":0,"color":[],"holdingHand":0,"trajectory":"","rotations":"","collided":0,"followDirection":false}, 
{"mainType":"","id":0,"target":0,"animations":[],"previousIcon":0,"nextIcon":0,"color":[],"holdingHand":0,"trajectory":"","rotations":"","collided":0,"followDirection":false}, 
{"mainType":"","id":0,"target":0,"animations":[],"previousIcon":0,"nextIcon":0,"color":[],"holdingHand":0,"trajectory":"","rotations":"","collided":0,"followDirection":false}, 
{"mainType":"","id":0,"target":0,"animations":[],"previousIcon":0,"nextIcon":0,"color":[],"holdingHand":0,"trajectory":"","rotations":"","collided":0,"followDirection":false}, 
{"mainType":"","id":0,"target":0,"animations":[],"previousIcon":0,"nextIcon":0,"color":[],"holdingHand":0,"trajectory":"","rotations":"","collided":0,"followDirection":false}, 
{"mainType":"","id":0,"target":0,"animations":[],"previousIcon":0,"nextIcon":0,"color":[],"holdingHand":0,"trajectory":"","rotations":"","collided":0,"followDirection":false}, 
{"mainType":"","id":0,"target":0,"animations":[],"previousIcon":0,"nextIcon":0,"color":[],"holdingHand":0,"trajectory":"","rotations":"","collided":0,"followDirection":false}, 
{"mainType":"","id":0,"target":0,"animations":[],"previousIcon":0,"nextIcon":0,"color":[],"holdingHand":0,"trajectory":"","rotations":"","collided":0,"followDirection":false}, 
{"mainType":"","id":0,"target":0,"animations":[],"previousIcon":0,"nextIcon":0,"color":[],"holdingHand":0,"trajectory":"","rotations":"","collided":0,"followDirection":false}, 
{"mainType":"","id":0,"target":0,"animations":[],"previousIcon":0,"nextIcon":0,"color":[],"holdingHand":0,"trajectory":"","rotations":"","collided":0,"followDirection":false}, 
{"mainType":"","id":0,"target":0,"animations":[],"previousIcon":0,"nextIcon":0,"color":[],"holdingHand":0,"trajectory":"","rotations":"","collided":0,"followDirection":false}, 
{"mainType":"","id":0,"target":0,"animations":[],"previousIcon":0,"nextIcon":0,"color":[],"holdingHand":0,"trajectory":"","rotations":"","collided":0,"followDirection":false}, 
{"mainType":"","id":0,"target":0,"animations":[],"previousIcon":0,"nextIcon":0,"color":[],"holdingHand":0,"trajectory":"","rotations":"","collided":0,"followDirection":false}, 
{"mainType":"","id":0,"target":0,"animations":[],"previousIcon":0,"nextIcon":0,"color":[],"holdingHand":0,"trajectory":"","rotations":"","collided":0,"followDirection":false}, 
{"mainType":"","id":0,"target":0,"animations":[],"previousIcon":0,"nextIcon":0,"color":[],"holdingHand":0,"trajectory":"","rotations":"","collided":0,"followDirection":false}, 
{"mainType":"","id":0,"target":0,"animations":[],"previousIcon":0,"nextIcon":0,"color":[],"holdingHand":0,"trajectory":"","rotations":"","collided":0,"followDirection":false}, 
{"mainType":"","id":0,"target":0,"animations":[],"previousIcon":0,"nextIcon":0,"color":[],"holdingHand":0,"trajectory":"","rotations":"","collided":0,"followDirection":false}, 
{"mainType":"","id":0,"target":0,"animations":[],"previousIcon":0,"nextIcon":0,"color":[],"holdingHand":0,"trajectory":"","rotations":"","collided":0,"followDirection":false}, 
{"mainType":"","id":0,"target":0,"animations":[],"previousIcon":0,"nextIcon":0,"color":[],"holdingHand":0,"trajectory":"","rotations":"","collided":0,"followDirection":false}, 
{"mainType":"","id":0,"target":0,"animations":[],"previousIcon":0,"nextIcon":0,"color":[],"holdingHand":0,"trajectory":"","rotations":"","collided":0,"followDirection":false}, 
{"mainType":"","id":0,"target":0,"animations":[],"previousIcon":0,"nextIcon":0,"color":[],"holdingHand":0,"trajectory":"","rotations":"","collided":0,"followDirection":false}, 
{"mainType":"","id":0,"target":0,"animations":[],"previousIcon":0,"nextIcon":0,"color":[],"holdingHand":0,"trajectory":"","rotations":"","collided":0,"followDirection":false}, 
{"mainType":"","id":0,"target":0,"animations":[],"previousIcon":0,"nextIcon":0,"color":[],"holdingHand":0,"trajectory":"","rotations":"","collided":0,"followDirection":false}, 
{"mainType":"","id":0,"target":0,"animations":[],"previousIcon":0,"nextIcon":0,"color":[],"holdingHand":0,"trajectory":"","rotations":"","collided":0,"followDirection":false}, 
{"mainType":"","id":0,"target":0,"animations":[],"previousIcon":0,"nextIcon":0,"color":[],"holdingHand":0,"trajectory":"","rotations":"","collided":0,"followDirection":false}, 
{"mainType":"","id":0,"target":0,"animations":[],"previousIcon":0,"nextIcon":0,"color":[],"holdingHand":0,"trajectory":"","rotations":"","collided":0,"followDirection":false}, 
{"mainType":"","id":0,"target":0,"animations":[],"previousIcon":0,"nextIcon":0,"color":[],"holdingHand":0,"trajectory":"","rotations":"","collided":0,"followDirection":false}, 
{"mainType":"","id":0,"target":0,"animations":[],"previousIcon":0,"nextIcon":0,"color":[],"holdingHand":0,"trajectory":"","rotations":"","collided":0,"followDirection":false}, 
{"mainType":"","id":0,"target":0,"animations":[],"previousIcon":0,"nextIcon":0,"color":[],"holdingHand":0,"trajectory":"","rotations":"","collided":0,"followDirection":false}, 
{"mainType":"","id":0,"target":0,"animations":[],"previousIcon":0,"nextIcon":0,"color":[],"holdingHand":0,"trajectory":"","rotations":"","collided":0,"followDirection":false}, 
{"mainType":"","id":0,"target":0,"animations":[],"previousIcon":0,"nextIcon":0,"color":[],"holdingHand":0,"trajectory":"","rotations":"","collided":0,"followDirection":false}]}