{"objects" : [
{"mainType":"Geometry","id":3,"subtype":"Sphere","position":[-33.51160430908203,1.0931183099746705,-17.76888656616211],"size":[0.09999997168779373,0.09999994933605194,0.10000002384185791],"rotation":[0.14952373504638673,-0.10251511633396149,0.3050972819328308,0.9349058270454407],"visible":true,"color":[1.0,1.0,1.0,1.0]} 
], 
 "events": [{"mainType":"Grab","id":5,"target":3,"animations":[],"previousIcon":-1,"nextIcon":-1,"color":[],"holdingHand":0,"trajectory":"","rotations":"","collided":-1,"followDirection":false}, 
{"mainType":"EnterZone","id":0,"target":3,"animations":[2],"previousIcon":-1,"nextIcon":-1,"color":[],"holdingHand":-1,"trajectory":"","rotations":"","collided":-1,"followDirection":false}]}