{"objects" : [
{"mainType":"Geometry","id":3,"subtype":"Sphere","position":[-33.642974853515628,1.0453075170516968,-17.724140167236329],"size":[0.09999996423721314,0.09999997168779373,0.10000002384185791],"rotation":[0.11899412423372269,-0.3017094135284424,-0.022164497524499894,0.9456852674484253],"visible":true,"color":[1.0,1.0,1.0,1.0]} 
], 
 "events": [{"mainType":"Grab","id":5,"target":3,"animations":[],"previousIcon":-1,"nextIcon":-1,"color":[],"holdingHand":0,"trajectory":"","rotations":"","collided":-1,"followDirection":false}, 
{"mainType":"Color","id":2,"target":3,"animations":[],"previousIcon":-1,"nextIcon":-1,"color":[0.4311043322086334,0.35214096307754519,0.6078120470046997,1.0],"holdingHand":-1,"trajectory":"","rotations":"","collided":-1,"followDirection":false}, 
{"mainType":"EnterZone","id":0,"target":3,"animations":[2],"previousIcon":-1,"nextIcon":-1,"color":[],"holdingHand":-1,"trajectory":"","rotations":"","collided":-1,"followDirection":false}]}