{"objects" : [
{"mainType":"Geometry","id":3,"subtype":"Sphere","position":[-34.02433776855469,1.2792447805404664,-18.985414505004884],"size":[0.09999999403953552,0.09999998658895493,0.09999997168779373],"rotation":[0.07944399118423462,0.14825084805488587,0.051069535315036777,0.9844299554824829],"visible":true,"color":[1.0,1.0,1.0,1.0]} 
], 
 "events": [{"mainType":"Color","id":9,"target":3,"animations":[],"previousIcon":-1,"nextIcon":-1,"color":[0.8285081386566162,0.6966564059257507,0.3191258907318115,1.0],"holdingHand":-1,"trajectory":"","rotations":"","collided":-1,"followDirection":false}, 
{"mainType":"Grab","id":5,"target":3,"animations":[],"previousIcon":-1,"nextIcon":-1,"color":[],"holdingHand":0,"trajectory":"","rotations":"","collided":-1,"followDirection":false}]}