{"objects" : [
{"mainType":"Geometry","id":5,"subtype":"Cube","position":[-35.31814193725586,0.9110662937164307,-16.683279037475587],"size":[0.09999999403953552,0.09999999403953552,0.09999999403953552],"rotation":[0.0,0.0,0.0,1.0],"visible":true,"color":[1.0,1.0,1.0,1.0]} 
], 
 "events": [{"mainType":"","id":0,"target":0,"animations":[],"previousIcon":0,"nextIcon":0,"color":[],"holdingHand":0,"trajectory":"","rotations":"","collided":0,"followDirection":false}, 
{"mainType":"","id":0,"target":0,"animations":[],"previousIcon":0,"nextIcon":0,"color":[],"holdingHand":0,"trajectory":"","rotations":"","collided":0,"followDirection":false}, 
{"mainType":"","id":0,"target":0,"animations":[],"previousIcon":0,"nextIcon":0,"color":[],"holdingHand":0,"trajectory":"","rotations":"","collided":0,"followDirection":false}, 
{"mainType":"","id":0,"target":0,"animations":[],"previousIcon":0,"nextIcon":0,"color":[],"holdingHand":0,"trajectory":"","rotations":"","collided":0,"followDirection":false}, 
{"mainType":"","id":0,"target":0,"animations":[],"previousIcon":0,"nextIcon":0,"color":[],"holdingHand":0,"trajectory":"","rotations":"","collided":0,"followDirection":false}, 
{"mainType":"","id":0,"target":0,"animations":[],"previousIcon":0,"nextIcon":0,"color":[],"holdingHand":0,"trajectory":"","rotations":"","collided":0,"followDirection":false}, 
{"mainType":"","id":0,"target":0,"animations":[],"previousIcon":0,"nextIcon":0,"color":[],"holdingHand":0,"trajectory":"","rotations":"","collided":0,"followDirection":false}, 
{"mainType":"","id":0,"target":0,"animations":[],"previousIcon":0,"nextIcon":0,"color":[],"holdingHand":0,"trajectory":"","rotations":"","collided":0,"followDirection":false}, 
{"mainType":"","id":0,"target":0,"animations":[],"previousIcon":0,"nextIcon":0,"color":[],"holdingHand":0,"trajectory":"","rotations":"","collided":0,"followDirection":false}, 
{"mainType":"","id":0,"target":0,"animations":[],"previousIcon":0,"nextIcon":0,"color":[],"holdingHand":0,"trajectory":"","rotations":"","collided":0,"followDirection":false}, 
{"mainType":"","id":0,"target":0,"animations":[],"previousIcon":0,"nextIcon":0,"color":[],"holdingHand":0,"trajectory":"","rotations":"","collided":0,"followDirection":false}, 
{"mainType":"","id":0,"target":0,"animations":[],"previousIcon":0,"nextIcon":0,"color":[],"holdingHand":0,"trajectory":"","rotations":"","collided":0,"followDirection":false}, 
{"mainType":"","id":0,"target":0,"animations":[],"previousIcon":0,"nextIcon":0,"color":[],"holdingHand":0,"trajectory":"","rotations":"","collided":0,"followDirection":false}, 
{"mainType":"","id":0,"target":0,"animations":[],"previousIcon":0,"nextIcon":0,"color":[],"holdingHand":0,"trajectory":"","rotations":"","collided":0,"followDirection":false}, 
{"mainType":"","id":0,"target":0,"animations":[],"previousIcon":0,"nextIcon":0,"color":[],"holdingHand":0,"trajectory":"","rotations":"","collided":0,"followDirection":false}, 
{"mainType":"","id":0,"target":0,"animations":[],"previousIcon":0,"nextIcon":0,"color":[],"holdingHand":0,"trajectory":"","rotations":"","collided":0,"followDirection":false}, 
{"mainType":"","id":0,"target":0,"animations":[],"previousIcon":0,"nextIcon":0,"color":[],"holdingHand":0,"trajectory":"","rotations":"","collided":0,"followDirection":false}, 
{"mainType":"","id":0,"target":0,"animations":[],"previousIcon":0,"nextIcon":0,"color":[],"holdingHand":0,"trajectory":"","rotations":"","collided":0,"followDirection":false}, 
{"mainType":"","id":0,"target":0,"animations":[],"previousIcon":0,"nextIcon":0,"color":[],"holdingHand":0,"trajectory":"","rotations":"","collided":0,"followDirection":false}, 
{"mainType":"","id":0,"target":0,"animations":[],"previousIcon":0,"nextIcon":0,"color":[],"holdingHand":0,"trajectory":"","rotations":"","collided":0,"followDirection":false}, 
{"mainType":"","id":0,"target":0,"animations":[],"previousIcon":0,"nextIcon":0,"color":[],"holdingHand":0,"trajectory":"","rotations":"","collided":0,"followDirection":false}, 
{"mainType":"","id":0,"target":0,"animations":[],"previousIcon":0,"nextIcon":0,"color":[],"holdingHand":0,"trajectory":"","rotations":"","collided":0,"followDirection":false}, 
{"mainType":"","id":0,"target":0,"animations":[],"previousIcon":0,"nextIcon":0,"color":[],"holdingHand":0,"trajectory":"","rotations":"","collided":0,"followDirection":false}, 
{"mainType":"","id":0,"target":0,"animations":[],"previousIcon":0,"nextIcon":0,"color":[],"holdingHand":0,"trajectory":"","rotations":"","collided":0,"followDirection":false}, 
{"mainType":"","id":0,"target":0,"animations":[],"previousIcon":0,"nextIcon":0,"color":[],"holdingHand":0,"trajectory":"","rotations":"","collided":0,"followDirection":false}, 
{"mainType":"","id":0,"target":0,"animations":[],"previousIcon":0,"nextIcon":0,"color":[],"holdingHand":0,"trajectory":"","rotations":"","collided":0,"followDirection":false}, 
{"mainType":"","id":0,"target":0,"animations":[],"previousIcon":0,"nextIcon":0,"color":[],"holdingHand":0,"trajectory":"","rotations":"","collided":0,"followDirection":false}, 
{"mainType":"","id":0,"target":0,"animations":[],"previousIcon":0,"nextIcon":0,"color":[],"holdingHand":0,"trajectory":"","rotations":"","collided":0,"followDirection":false}, 
{"mainType":"","id":0,"target":0,"animations":[],"previousIcon":0,"nextIcon":0,"color":[],"holdingHand":0,"trajectory":"","rotations":"","collided":0,"followDirection":false}, 
{"mainType":"","id":0,"target":0,"animations":[],"previousIcon":0,"nextIcon":0,"color":[],"holdingHand":0,"trajectory":"","rotations":"","collided":0,"followDirection":false}, 
{"mainType":"","id":0,"target":0,"animations":[],"previousIcon":0,"nextIcon":0,"color":[],"holdingHand":0,"trajectory":"","rotations":"","collided":0,"followDirection":false}, 
{"mainType":"","id":0,"target":0,"animations":[],"previousIcon":0,"nextIcon":0,"color":[],"holdingHand":0,"trajectory":"","rotations":"","collided":0,"followDirection":false}, 
{"mainType":"","id":0,"target":0,"animations":[],"previousIcon":0,"nextIcon":0,"color":[],"holdingHand":0,"trajectory":"","rotations":"","collided":0,"followDirection":false}, 
{"mainType":"","id":0,"target":0,"animations":[],"previousIcon":0,"nextIcon":0,"color":[],"holdingHand":0,"trajectory":"","rotations":"","collided":0,"followDirection":false}, 
{"mainType":"","id":0,"target":0,"animations":[],"previousIcon":0,"nextIcon":0,"color":[],"holdingHand":0,"trajectory":"","rotations":"","collided":0,"followDirection":false}, 
{"mainType":"","id":0,"target":0,"animations":[],"previousIcon":0,"nextIcon":0,"color":[],"holdingHand":0,"trajectory":"","rotations":"","collided":0,"followDirection":false}, 
{"mainType":"","id":0,"target":0,"animations":[],"previousIcon":0,"nextIcon":0,"color":[],"holdingHand":0,"trajectory":"","rotations":"","collided":0,"followDirection":false}, 
{"mainType":"","id":0,"target":0,"animations":[],"previousIcon":0,"nextIcon":0,"color":[],"holdingHand":0,"trajectory":"","rotations":"","collided":0,"followDirection":false}, 
{"mainType":"","id":0,"target":0,"animations":[],"previousIcon":0,"nextIcon":0,"color":[],"holdingHand":0,"trajectory":"","rotations":"","collided":0,"followDirection":false}, 
{"mainType":"","id":0,"target":0,"animations":[],"previousIcon":0,"nextIcon":0,"color":[],"holdingHand":0,"trajectory":"","rotations":"","collided":0,"followDirection":false}, 
{"mainType":"","id":0,"target":0,"animations":[],"previousIcon":0,"nextIcon":0,"color":[],"holdingHand":0,"trajectory":"","rotations":"","collided":0,"followDirection":false}, 
{"mainType":"","id":0,"target":0,"animations":[],"previousIcon":0,"nextIcon":0,"color":[],"holdingHand":0,"trajectory":"","rotations":"","collided":0,"followDirection":false}, 
{"mainType":"","id":0,"target":0,"animations":[],"previousIcon":0,"nextIcon":0,"color":[],"holdingHand":0,"trajectory":"","rotations":"","collided":0,"followDirection":false}, 
{"mainType":"","id":0,"target":0,"animations":[],"previousIcon":0,"nextIcon":0,"color":[],"holdingHand":0,"trajectory":"","rotations":"","collided":0,"followDirection":false}, 
{"mainType":"","id":0,"target":0,"animations":[],"previousIcon":0,"nextIcon":0,"color":[],"holdingHand":0,"trajectory":"","rotations":"","collided":0,"followDirection":false}, 
{"mainType":"","id":0,"target":0,"animations":[],"previousIcon":0,"nextIcon":0,"color":[],"holdingHand":0,"trajectory":"","rotations":"","collided":0,"followDirection":false}, 
{"mainType":"","id":0,"target":0,"animations":[],"previousIcon":0,"nextIcon":0,"color":[],"holdingHand":0,"trajectory":"","rotations":"","collided":0,"followDirection":false}, 
{"mainType":"","id":0,"target":0,"animations":[],"previousIcon":0,"nextIcon":0,"color":[],"holdingHand":0,"trajectory":"","rotations":"","collided":0,"followDirection":false}, 
{"mainType":"","id":0,"target":0,"animations":[],"previousIcon":0,"nextIcon":0,"color":[],"holdingHand":0,"trajectory":"","rotations":"","collided":0,"followDirection":false}, 
{"mainType":"","id":0,"target":0,"animations":[],"previousIcon":0,"nextIcon":0,"color":[],"holdingHand":0,"trajectory":"","rotations":"","collided":0,"followDirection":false}, 
{"mainType":"","id":0,"target":0,"animations":[],"previousIcon":0,"nextIcon":0,"color":[],"holdingHand":0,"trajectory":"","rotations":"","collided":0,"followDirection":false}, 
{"mainType":"","id":0,"target":0,"animations":[],"previousIcon":0,"nextIcon":0,"color":[],"holdingHand":0,"trajectory":"","rotations":"","collided":0,"followDirection":false}, 
{"mainType":"","id":0,"target":0,"animations":[],"previousIcon":0,"nextIcon":0,"color":[],"holdingHand":0,"trajectory":"","rotations":"","collided":0,"followDirection":false}, 
{"mainType":"","id":0,"target":0,"animations":[],"previousIcon":0,"nextIcon":0,"color":[],"holdingHand":0,"trajectory":"","rotations":"","collided":0,"followDirection":false}, 
{"mainType":"","id":0,"target":0,"animations":[],"previousIcon":0,"nextIcon":0,"color":[],"holdingHand":0,"trajectory":"","rotations":"","collided":0,"followDirection":false}, 
{"mainType":"","id":0,"target":0,"animations":[],"previousIcon":0,"nextIcon":0,"color":[],"holdingHand":0,"trajectory":"","rotations":"","collided":0,"followDirection":false}, 
{"mainType":"","id":0,"target":0,"animations":[],"previousIcon":0,"nextIcon":0,"color":[],"holdingHand":0,"trajectory":"","rotations":"","collided":0,"followDirection":false}, 
{"mainType":"","id":0,"target":0,"animations":[],"previousIcon":0,"nextIcon":0,"color":[],"holdingHand":0,"trajectory":"","rotations":"","collided":0,"followDirection":false}, 
{"mainType":"","id":0,"target":0,"animations":[],"previousIcon":0,"nextIcon":0,"color":[],"holdingHand":0,"trajectory":"","rotations":"","collided":0,"followDirection":false}, 
{"mainType":"","id":0,"target":0,"animations":[],"previousIcon":0,"nextIcon":0,"color":[],"holdingHand":0,"trajectory":"","rotations":"","collided":0,"followDirection":false}, 
{"mainType":"","id":0,"target":0,"animations":[],"previousIcon":0,"nextIcon":0,"color":[],"holdingHand":0,"trajectory":"","rotations":"","collided":0,"followDirection":false}, 
{"mainType":"","id":0,"target":0,"animations":[],"previousIcon":0,"nextIcon":0,"color":[],"holdingHand":0,"trajectory":"","rotations":"","collided":0,"followDirection":false}, 
{"mainType":"","id":0,"target":0,"animations":[],"previousIcon":0,"nextIcon":0,"color":[],"holdingHand":0,"trajectory":"","rotations":"","collided":0,"followDirection":false}, 
{"mainType":"","id":0,"target":0,"animations":[],"previousIcon":0,"nextIcon":0,"color":[],"holdingHand":0,"trajectory":"","rotations":"","collided":0,"followDirection":false}, 
{"mainType":"","id":0,"target":0,"animations":[],"previousIcon":0,"nextIcon":0,"color":[],"holdingHand":0,"trajectory":"","rotations":"","collided":0,"followDirection":false}, 
{"mainType":"","id":0,"target":0,"animations":[],"previousIcon":0,"nextIcon":0,"color":[],"holdingHand":0,"trajectory":"","rotations":"","collided":0,"followDirection":false}, 
{"mainType":"","id":0,"target":0,"animations":[],"previousIcon":0,"nextIcon":0,"color":[],"holdingHand":0,"trajectory":"","rotations":"","collided":0,"followDirection":false}, 
{"mainType":"","id":0,"target":0,"animations":[],"previousIcon":0,"nextIcon":0,"color":[],"holdingHand":0,"trajectory":"","rotations":"","collided":0,"followDirection":false}, 
{"mainType":"","id":0,"target":0,"animations":[],"previousIcon":0,"nextIcon":0,"color":[],"holdingHand":0,"trajectory":"","rotations":"","collided":0,"followDirection":false}, 
{"mainType":"","id":0,"target":0,"animations":[],"previousIcon":0,"nextIcon":0,"color":[],"holdingHand":0,"trajectory":"","rotations":"","collided":0,"followDirection":false}, 
{"mainType":"","id":0,"target":0,"animations":[],"previousIcon":0,"nextIcon":0,"color":[],"holdingHand":0,"trajectory":"","rotations":"","collided":0,"followDirection":false}, 
{"mainType":"","id":0,"target":0,"animations":[],"previousIcon":0,"nextIcon":0,"color":[],"holdingHand":0,"trajectory":"","rotations":"","collided":0,"followDirection":false}, 
{"mainType":"","id":0,"target":0,"animations":[],"previousIcon":0,"nextIcon":0,"color":[],"holdingHand":0,"trajectory":"","rotations":"","collided":0,"followDirection":false}, 
{"mainType":"","id":0,"target":0,"animations":[],"previousIcon":0,"nextIcon":0,"color":[],"holdingHand":0,"trajectory":"","rotations":"","collided":0,"followDirection":false}, 
{"mainType":"","id":0,"target":0,"animations":[],"previousIcon":0,"nextIcon":0,"color":[],"holdingHand":0,"trajectory":"","rotations":"","collided":0,"followDirection":false}, 
{"mainType":"","id":0,"target":0,"animations":[],"previousIcon":0,"nextIcon":0,"color":[],"holdingHand":0,"trajectory":"","rotations":"","collided":0,"followDirection":false}, 
{"mainType":"","id":0,"target":0,"animations":[],"previousIcon":0,"nextIcon":0,"color":[],"holdingHand":0,"trajectory":"","rotations":"","collided":0,"followDirection":false}, 
{"mainType":"","id":0,"target":0,"animations":[],"previousIcon":0,"nextIcon":0,"color":[],"holdingHand":0,"trajectory":"","rotations":"","collided":0,"followDirection":false}, 
{"mainType":"","id":0,"target":0,"animations":[],"previousIcon":0,"nextIcon":0,"color":[],"holdingHand":0,"trajectory":"","rotations":"","collided":0,"followDirection":false}, 
{"mainType":"","id":0,"target":0,"animations":[],"previousIcon":0,"nextIcon":0,"color":[],"holdingHand":0,"trajectory":"","rotations":"","collided":0,"followDirection":false}, 
{"mainType":"","id":0,"target":0,"animations":[],"previousIcon":0,"nextIcon":0,"color":[],"holdingHand":0,"trajectory":"","rotations":"","collided":0,"followDirection":false}, 
{"mainType":"","id":0,"target":0,"animations":[],"previousIcon":0,"nextIcon":0,"color":[],"holdingHand":0,"trajectory":"","rotations":"","collided":0,"followDirection":false}, 
{"mainType":"","id":0,"target":0,"animations":[],"previousIcon":0,"nextIcon":0,"color":[],"holdingHand":0,"trajectory":"","rotations":"","collided":0,"followDirection":false}, 
{"mainType":"","id":0,"target":0,"animations":[],"previousIcon":0,"nextIcon":0,"color":[],"holdingHand":0,"trajectory":"","rotations":"","collided":0,"followDirection":false}, 
{"mainType":"","id":0,"target":0,"animations":[],"previousIcon":0,"nextIcon":0,"color":[],"holdingHand":0,"trajectory":"","rotations":"","collided":0,"followDirection":false}, 
{"mainType":"","id":0,"target":0,"animations":[],"previousIcon":0,"nextIcon":0,"color":[],"holdingHand":0,"trajectory":"","rotations":"","collided":0,"followDirection":false}, 
{"mainType":"","id":0,"target":0,"animations":[],"previousIcon":0,"nextIcon":0,"color":[],"holdingHand":0,"trajectory":"","rotations":"","collided":0,"followDirection":false}, 
{"mainType":"","id":0,"target":0,"animations":[],"previousIcon":0,"nextIcon":0,"color":[],"holdingHand":0,"trajectory":"","rotations":"","collided":0,"followDirection":false}, 
{"mainType":"","id":0,"target":0,"animations":[],"previousIcon":0,"nextIcon":0,"color":[],"holdingHand":0,"trajectory":"","rotations":"","collided":0,"followDirection":false}, 
{"mainType":"","id":0,"target":0,"animations":[],"previousIcon":0,"nextIcon":0,"color":[],"holdingHand":0,"trajectory":"","rotations":"","collided":0,"followDirection":false}, 
{"mainType":"","id":0,"target":0,"animations":[],"previousIcon":0,"nextIcon":0,"color":[],"holdingHand":0,"trajectory":"","rotations":"","collided":0,"followDirection":false}, 
{"mainType":"","id":0,"target":0,"animations":[],"previousIcon":0,"nextIcon":0,"color":[],"holdingHand":0,"trajectory":"","rotations":"","collided":0,"followDirection":false}, 
{"mainType":"","id":0,"target":0,"animations":[],"previousIcon":0,"nextIcon":0,"color":[],"holdingHand":0,"trajectory":"","rotations":"","collided":0,"followDirection":false}, 
{"mainType":"","id":0,"target":0,"animations":[],"previousIcon":0,"nextIcon":0,"color":[],"holdingHand":0,"trajectory":"","rotations":"","collided":0,"followDirection":false}, 
{"mainType":"","id":0,"target":0,"animations":[],"previousIcon":0,"nextIcon":0,"color":[],"holdingHand":0,"trajectory":"","rotations":"","collided":0,"followDirection":false}, 
{"mainType":"","id":0,"target":0,"animations":[],"previousIcon":0,"nextIcon":0,"color":[],"holdingHand":0,"trajectory":"","rotations":"","collided":0,"followDirection":false}, 
{"mainType":"","id":0,"target":0,"animations":[],"previousIcon":0,"nextIcon":0,"color":[],"holdingHand":0,"trajectory":"","rotations":"","collided":0,"followDirection":false}, 
{"mainType":"","id":0,"target":0,"animations":[],"previousIcon":0,"nextIcon":0,"color":[],"holdingHand":0,"trajectory":"","rotations":"","collided":0,"followDirection":false}, 
{"mainType":"","id":0,"target":0,"animations":[],"previousIcon":0,"nextIcon":0,"color":[],"holdingHand":0,"trajectory":"","rotations":"","collided":0,"followDirection":false}, 
{"mainType":"","id":0,"target":0,"animations":[],"previousIcon":0,"nextIcon":0,"color":[],"holdingHand":0,"trajectory":"","rotations":"","collided":0,"followDirection":false}, 
{"mainType":"","id":0,"target":0,"animations":[],"previousIcon":0,"nextIcon":0,"color":[],"holdingHand":0,"trajectory":"","rotations":"","collided":0,"followDirection":false}, 
{"mainType":"","id":0,"target":0,"animations":[],"previousIcon":0,"nextIcon":0,"color":[],"holdingHand":0,"trajectory":"","rotations":"","collided":0,"followDirection":false}, 
{"mainType":"","id":0,"target":0,"animations":[],"previousIcon":0,"nextIcon":0,"color":[],"holdingHand":0,"trajectory":"","rotations":"","collided":0,"followDirection":false}, 
{"mainType":"","id":0,"target":0,"animations":[],"previousIcon":0,"nextIcon":0,"color":[],"holdingHand":0,"trajectory":"","rotations":"","collided":0,"followDirection":false}, 
{"mainType":"","id":0,"target":0,"animations":[],"previousIcon":0,"nextIcon":0,"color":[],"holdingHand":0,"trajectory":"","rotations":"","collided":0,"followDirection":false}, 
{"mainType":"","id":0,"target":0,"animations":[],"previousIcon":0,"nextIcon":0,"color":[],"holdingHand":0,"trajectory":"","rotations":"","collided":0,"followDirection":false}, 
{"mainType":"","id":0,"target":0,"animations":[],"previousIcon":0,"nextIcon":0,"color":[],"holdingHand":0,"trajectory":"","rotations":"","collided":0,"followDirection":false}, 
{"mainType":"","id":0,"target":0,"animations":[],"previousIcon":0,"nextIcon":0,"color":[],"holdingHand":0,"trajectory":"","rotations":"","collided":0,"followDirection":false}, 
{"mainType":"","id":0,"target":0,"animations":[],"previousIcon":0,"nextIcon":0,"color":[],"holdingHand":0,"trajectory":"","rotations":"","collided":0,"followDirection":false}, 
{"mainType":"","id":0,"target":0,"animations":[],"previousIcon":0,"nextIcon":0,"color":[],"holdingHand":0,"trajectory":"","rotations":"","collided":0,"followDirection":false}, 
{"mainType":"","id":0,"target":0,"animations":[],"previousIcon":0,"nextIcon":0,"color":[],"holdingHand":0,"trajectory":"","rotations":"","collided":0,"followDirection":false}, 
{"mainType":"","id":0,"target":0,"animations":[],"previousIcon":0,"nextIcon":0,"color":[],"holdingHand":0,"trajectory":"","rotations":"","collided":0,"followDirection":false}, 
{"mainType":"","id":0,"target":0,"animations":[],"previousIcon":0,"nextIcon":0,"color":[],"holdingHand":0,"trajectory":"","rotations":"","collided":0,"followDirection":false}, 
{"mainType":"","id":0,"target":0,"animations":[],"previousIcon":0,"nextIcon":0,"color":[],"holdingHand":0,"trajectory":"","rotations":"","collided":0,"followDirection":false}, 
{"mainType":"","id":0,"target":0,"animations":[],"previousIcon":0,"nextIcon":0,"color":[],"holdingHand":0,"trajectory":"","rotations":"","collided":0,"followDirection":false}, 
{"mainType":"","id":0,"target":0,"animations":[],"previousIcon":0,"nextIcon":0,"color":[],"holdingHand":0,"trajectory":"","rotations":"","collided":0,"followDirection":false}, 
{"mainType":"","id":0,"target":0,"animations":[],"previousIcon":0,"nextIcon":0,"color":[],"holdingHand":0,"trajectory":"","rotations":"","collided":0,"followDirection":false}, 
{"mainType":"","id":0,"target":0,"animations":[],"previousIcon":0,"nextIcon":0,"color":[],"holdingHand":0,"trajectory":"","rotations":"","collided":0,"followDirection":false}, 
{"mainType":"","id":0,"target":0,"animations":[],"previousIcon":0,"nextIcon":0,"color":[],"holdingHand":0,"trajectory":"","rotations":"","collided":0,"followDirection":false}, 
{"mainType":"","id":0,"target":0,"animations":[],"previousIcon":0,"nextIcon":0,"color":[],"holdingHand":0,"trajectory":"","rotations":"","collided":0,"followDirection":false}, 
{"mainType":"","id":0,"target":0,"animations":[],"previousIcon":0,"nextIcon":0,"color":[],"holdingHand":0,"trajectory":"","rotations":"","collided":0,"followDirection":false}, 
{"mainType":"","id":0,"target":0,"animations":[],"previousIcon":0,"nextIcon":0,"color":[],"holdingHand":0,"trajectory":"","rotations":"","collided":0,"followDirection":false}, 
{"mainType":"","id":0,"target":0,"animations":[],"previousIcon":0,"nextIcon":0,"color":[],"holdingHand":0,"trajectory":"","rotations":"","collided":0,"followDirection":false}, 
{"mainType":"","id":0,"target":0,"animations":[],"previousIcon":0,"nextIcon":0,"color":[],"holdingHand":0,"trajectory":"","rotations":"","collided":0,"followDirection":false}, 
{"mainType":"","id":0,"target":0,"animations":[],"previousIcon":0,"nextIcon":0,"color":[],"holdingHand":0,"trajectory":"","rotations":"","collided":0,"followDirection":false}, 
{"mainType":"","id":0,"target":0,"animations":[],"previousIcon":0,"nextIcon":0,"color":[],"holdingHand":0,"trajectory":"","rotations":"","collided":0,"followDirection":false}, 
{"mainType":"","id":0,"target":0,"animations":[],"previousIcon":0,"nextIcon":0,"color":[],"holdingHand":0,"trajectory":"","rotations":"","collided":0,"followDirection":false}, 
{"mainType":"","id":0,"target":0,"animations":[],"previousIcon":0,"nextIcon":0,"color":[],"holdingHand":0,"trajectory":"","rotations":"","collided":0,"followDirection":false}, 
{"mainType":"","id":0,"target":0,"animations":[],"previousIcon":0,"nextIcon":0,"color":[],"holdingHand":0,"trajectory":"","rotations":"","collided":0,"followDirection":false}, 
{"mainType":"","id":0,"target":0,"animations":[],"previousIcon":0,"nextIcon":0,"color":[],"holdingHand":0,"trajectory":"","rotations":"","collided":0,"followDirection":false}, 
{"mainType":"","id":0,"target":0,"animations":[],"previousIcon":0,"nextIcon":0,"color":[],"holdingHand":0,"trajectory":"","rotations":"","collided":0,"followDirection":false}, 
{"mainType":"","id":0,"target":0,"animations":[],"previousIcon":0,"nextIcon":0,"color":[],"holdingHand":0,"trajectory":"","rotations":"","collided":0,"followDirection":false}, 
{"mainType":"","id":0,"target":0,"animations":[],"previousIcon":0,"nextIcon":0,"color":[],"holdingHand":0,"trajectory":"","rotations":"","collided":0,"followDirection":false}, 
{"mainType":"","id":0,"target":0,"animations":[],"previousIcon":0,"nextIcon":0,"color":[],"holdingHand":0,"trajectory":"","rotations":"","collided":0,"followDirection":false}, 
{"mainType":"","id":0,"target":0,"animations":[],"previousIcon":0,"nextIcon":0,"color":[],"holdingHand":0,"trajectory":"","rotations":"","collided":0,"followDirection":false}, 
{"mainType":"","id":0,"target":0,"animations":[],"previousIcon":0,"nextIcon":0,"color":[],"holdingHand":0,"trajectory":"","rotations":"","collided":0,"followDirection":false}, 
{"mainType":"","id":0,"target":0,"animations":[],"previousIcon":0,"nextIcon":0,"color":[],"holdingHand":0,"trajectory":"","rotations":"","collided":0,"followDirection":false}, 
{"mainType":"","id":0,"target":0,"animations":[],"previousIcon":0,"nextIcon":0,"color":[],"holdingHand":0,"trajectory":"","rotations":"","collided":0,"followDirection":false}, 
{"mainType":"","id":0,"target":0,"animations":[],"previousIcon":0,"nextIcon":0,"color":[],"holdingHand":0,"trajectory":"","rotations":"","collided":0,"followDirection":false}, 
{"mainType":"","id":0,"target":0,"animations":[],"previousIcon":0,"nextIcon":0,"color":[],"holdingHand":0,"trajectory":"","rotations":"","collided":0,"followDirection":false}, 
{"mainType":"","id":0,"target":0,"animations":[],"previousIcon":0,"nextIcon":0,"color":[],"holdingHand":0,"trajectory":"","rotations":"","collided":0,"followDirection":false}, 
{"mainType":"","id":0,"target":0,"animations":[],"previousIcon":0,"nextIcon":0,"color":[],"holdingHand":0,"trajectory":"","rotations":"","collided":0,"followDirection":false}, 
{"mainType":"","id":0,"target":0,"animations":[],"previousIcon":0,"nextIcon":0,"color":[],"holdingHand":0,"trajectory":"","rotations":"","collided":0,"followDirection":false}, 
{"mainType":"","id":0,"target":0,"animations":[],"previousIcon":0,"nextIcon":0,"color":[],"holdingHand":0,"trajectory":"","rotations":"","collided":0,"followDirection":false}, 
{"mainType":"","id":0,"target":0,"animations":[],"previousIcon":0,"nextIcon":0,"color":[],"holdingHand":0,"trajectory":"","rotations":"","collided":0,"followDirection":false}, 
{"mainType":"","id":0,"target":0,"animations":[],"previousIcon":0,"nextIcon":0,"color":[],"holdingHand":0,"trajectory":"","rotations":"","collided":0,"followDirection":false}, 
{"mainType":"","id":0,"target":0,"animations":[],"previousIcon":0,"nextIcon":0,"color":[],"holdingHand":0,"trajectory":"","rotations":"","collided":0,"followDirection":false}, 
{"mainType":"","id":0,"target":0,"animations":[],"previousIcon":0,"nextIcon":0,"color":[],"holdingHand":0,"trajectory":"","rotations":"","collided":0,"followDirection":false}, 
{"mainType":"","id":0,"target":0,"animations":[],"previousIcon":0,"nextIcon":0,"color":[],"holdingHand":0,"trajectory":"","rotations":"","collided":0,"followDirection":false}, 
{"mainType":"","id":0,"target":0,"animations":[],"previousIcon":0,"nextIcon":0,"color":[],"holdingHand":0,"trajectory":"","rotations":"","collided":0,"followDirection":false}, 
{"mainType":"","id":0,"target":0,"animations":[],"previousIcon":0,"nextIcon":0,"color":[],"holdingHand":0,"trajectory":"","rotations":"","collided":0,"followDirection":false}, 
{"mainType":"","id":0,"target":0,"animations":[],"previousIcon":0,"nextIcon":0,"color":[],"holdingHand":0,"trajectory":"","rotations":"","collided":0,"followDirection":false}, 
{"mainType":"","id":0,"target":0,"animations":[],"previousIcon":0,"nextIcon":0,"color":[],"holdingHand":0,"trajectory":"","rotations":"","collided":0,"followDirection":false}, 
{"mainType":"","id":0,"target":0,"animations":[],"previousIcon":0,"nextIcon":0,"color":[],"holdingHand":0,"trajectory":"","rotations":"","collided":0,"followDirection":false}, 
{"mainType":"","id":0,"target":0,"animations":[],"previousIcon":0,"nextIcon":0,"color":[],"holdingHand":0,"trajectory":"","rotations":"","collided":0,"followDirection":false}, 
{"mainType":"","id":0,"target":0,"animations":[],"previousIcon":0,"nextIcon":0,"color":[],"holdingHand":0,"trajectory":"","rotations":"","collided":0,"followDirection":false}, 
{"mainType":"","id":0,"target":0,"animations":[],"previousIcon":0,"nextIcon":0,"color":[],"holdingHand":0,"trajectory":"","rotations":"","collided":0,"followDirection":false}, 
{"mainType":"","id":0,"target":0,"animations":[],"previousIcon":0,"nextIcon":0,"color":[],"holdingHand":0,"trajectory":"","rotations":"","collided":0,"followDirection":false}, 
{"mainType":"","id":0,"target":0,"animations":[],"previousIcon":0,"nextIcon":0,"color":[],"holdingHand":0,"trajectory":"","rotations":"","collided":0,"followDirection":false}, 
{"mainType":"","id":0,"target":0,"animations":[],"previousIcon":0,"nextIcon":0,"color":[],"holdingHand":0,"trajectory":"","rotations":"","collided":0,"followDirection":false}, 
{"mainType":"","id":0,"target":0,"animations":[],"previousIcon":0,"nextIcon":0,"color":[],"holdingHand":0,"trajectory":"","rotations":"","collided":0,"followDirection":false}, 
{"mainType":"","id":0,"target":0,"animations":[],"previousIcon":0,"nextIcon":0,"color":[],"holdingHand":0,"trajectory":"","rotations":"","collided":0,"followDirection":false}, 
{"mainType":"","id":0,"target":0,"animations":[],"previousIcon":0,"nextIcon":0,"color":[],"holdingHand":0,"trajectory":"","rotations":"","collided":0,"followDirection":false}, 
{"mainType":"","id":0,"target":0,"animations":[],"previousIcon":0,"nextIcon":0,"color":[],"holdingHand":0,"trajectory":"","rotations":"","collided":0,"followDirection":false}, 
{"mainType":"","id":0,"target":0,"animations":[],"previousIcon":0,"nextIcon":0,"color":[],"holdingHand":0,"trajectory":"","rotations":"","collided":0,"followDirection":false}, 
{"mainType":"","id":0,"target":0,"animations":[],"previousIcon":0,"nextIcon":0,"color":[],"holdingHand":0,"trajectory":"","rotations":"","collided":0,"followDirection":false}, 
{"mainType":"","id":0,"target":0,"animations":[],"previousIcon":0,"nextIcon":0,"color":[],"holdingHand":0,"trajectory":"","rotations":"","collided":0,"followDirection":false}, 
{"mainType":"","id":0,"target":0,"animations":[],"previousIcon":0,"nextIcon":0,"color":[],"holdingHand":0,"trajectory":"","rotations":"","collided":0,"followDirection":false}, 
{"mainType":"","id":0,"target":0,"animations":[],"previousIcon":0,"nextIcon":0,"color":[],"holdingHand":0,"trajectory":"","rotations":"","collided":0,"followDirection":false}, 
{"mainType":"","id":0,"target":0,"animations":[],"previousIcon":0,"nextIcon":0,"color":[],"holdingHand":0,"trajectory":"","rotations":"","collided":0,"followDirection":false}, 
{"mainType":"","id":0,"target":0,"animations":[],"previousIcon":0,"nextIcon":0,"color":[],"holdingHand":0,"trajectory":"","rotations":"","collided":0,"followDirection":false}, 
{"mainType":"","id":0,"target":0,"animations":[],"previousIcon":0,"nextIcon":0,"color":[],"holdingHand":0,"trajectory":"","rotations":"","collided":0,"followDirection":false}, 
{"mainType":"","id":0,"target":0,"animations":[],"previousIcon":0,"nextIcon":0,"color":[],"holdingHand":0,"trajectory":"","rotations":"","collided":0,"followDirection":false}, 
{"mainType":"","id":0,"target":0,"animations":[],"previousIcon":0,"nextIcon":0,"color":[],"holdingHand":0,"trajectory":"","rotations":"","collided":0,"followDirection":false}, 
{"mainType":"","id":0,"target":0,"animations":[],"previousIcon":0,"nextIcon":0,"color":[],"holdingHand":0,"trajectory":"","rotations":"","collided":0,"followDirection":false}, 
{"mainType":"","id":0,"target":0,"animations":[],"previousIcon":0,"nextIcon":0,"color":[],"holdingHand":0,"trajectory":"","rotations":"","collided":0,"followDirection":false}, 
{"mainType":"","id":0,"target":0,"animations":[],"previousIcon":0,"nextIcon":0,"color":[],"holdingHand":0,"trajectory":"","rotations":"","collided":0,"followDirection":false}, 
{"mainType":"","id":0,"target":0,"animations":[],"previousIcon":0,"nextIcon":0,"color":[],"holdingHand":0,"trajectory":"","rotations":"","collided":0,"followDirection":false}, 
{"mainType":"","id":0,"target":0,"animations":[],"previousIcon":0,"nextIcon":0,"color":[],"holdingHand":0,"trajectory":"","rotations":"","collided":0,"followDirection":false}, 
{"mainType":"","id":0,"target":0,"animations":[],"previousIcon":0,"nextIcon":0,"color":[],"holdingHand":0,"trajectory":"","rotations":"","collided":0,"followDirection":false}, 
{"mainType":"","id":0,"target":0,"animations":[],"previousIcon":0,"nextIcon":0,"color":[],"holdingHand":0,"trajectory":"","rotations":"","collided":0,"followDirection":false}, 
{"mainType":"","id":0,"target":0,"animations":[],"previousIcon":0,"nextIcon":0,"color":[],"holdingHand":0,"trajectory":"","rotations":"","collided":0,"followDirection":false}, 
{"mainType":"","id":0,"target":0,"animations":[],"previousIcon":0,"nextIcon":0,"color":[],"holdingHand":0,"trajectory":"","rotations":"","collided":0,"followDirection":false}, 
{"mainType":"","id":0,"target":0,"animations":[],"previousIcon":0,"nextIcon":0,"color":[],"holdingHand":0,"trajectory":"","rotations":"","collided":0,"followDirection":false}, 
{"mainType":"","id":0,"target":0,"animations":[],"previousIcon":0,"nextIcon":0,"color":[],"holdingHand":0,"trajectory":"","rotations":"","collided":0,"followDirection":false}, 
{"mainType":"","id":0,"target":0,"animations":[],"previousIcon":0,"nextIcon":0,"color":[],"holdingHand":0,"trajectory":"","rotations":"","collided":0,"followDirection":false}, 
{"mainType":"","id":0,"target":0,"animations":[],"previousIcon":0,"nextIcon":0,"color":[],"holdingHand":0,"trajectory":"","rotations":"","collided":0,"followDirection":false}, 
{"mainType":"","id":0,"target":0,"animations":[],"previousIcon":0,"nextIcon":0,"color":[],"holdingHand":0,"trajectory":"","rotations":"","collided":0,"followDirection":false}, 
{"mainType":"","id":0,"target":0,"animations":[],"previousIcon":0,"nextIcon":0,"color":[],"holdingHand":0,"trajectory":"","rotations":"","collided":0,"followDirection":false}, 
{"mainType":"","id":0,"target":0,"animations":[],"previousIcon":0,"nextIcon":0,"color":[],"holdingHand":0,"trajectory":"","rotations":"","collided":0,"followDirection":false}, 
{"mainType":"","id":0,"target":0,"animations":[],"previousIcon":0,"nextIcon":0,"color":[],"holdingHand":0,"trajectory":"","rotations":"","collided":0,"followDirection":false}, 
{"mainType":"","id":0,"target":0,"animations":[],"previousIcon":0,"nextIcon":0,"color":[],"holdingHand":0,"trajectory":"","rotations":"","collided":0,"followDirection":false}, 
{"mainType":"","id":0,"target":0,"animations":[],"previousIcon":0,"nextIcon":0,"color":[],"holdingHand":0,"trajectory":"","rotations":"","collided":0,"followDirection":false}, 
{"mainType":"","id":0,"target":0,"animations":[],"previousIcon":0,"nextIcon":0,"color":[],"holdingHand":0,"trajectory":"","rotations":"","collided":0,"followDirection":false}, 
{"mainType":"","id":0,"target":0,"animations":[],"previousIcon":0,"nextIcon":0,"color":[],"holdingHand":0,"trajectory":"","rotations":"","collided":0,"followDirection":false}, 
{"mainType":"","id":0,"target":0,"animations":[],"previousIcon":0,"nextIcon":0,"color":[],"holdingHand":0,"trajectory":"","rotations":"","collided":0,"followDirection":false}, 
{"mainType":"","id":0,"target":0,"animations":[],"previousIcon":0,"nextIcon":0,"color":[],"holdingHand":0,"trajectory":"","rotations":"","collided":0,"followDirection":false}, 
{"mainType":"","id":0,"target":0,"animations":[],"previousIcon":0,"nextIcon":0,"color":[],"holdingHand":0,"trajectory":"","rotations":"","collided":0,"followDirection":false}, 
{"mainType":"","id":0,"target":0,"animations":[],"previousIcon":0,"nextIcon":0,"color":[],"holdingHand":0,"trajectory":"","rotations":"","collided":0,"followDirection":false}, 
{"mainType":"","id":0,"target":0,"animations":[],"previousIcon":0,"nextIcon":0,"color":[],"holdingHand":0,"trajectory":"","rotations":"","collided":0,"followDirection":false}, 
{"mainType":"","id":0,"target":0,"animations":[],"previousIcon":0,"nextIcon":0,"color":[],"holdingHand":0,"trajectory":"","rotations":"","collided":0,"followDirection":false}, 
{"mainType":"","id":0,"target":0,"animations":[],"previousIcon":0,"nextIcon":0,"color":[],"holdingHand":0,"trajectory":"","rotations":"","collided":0,"followDirection":false}, 
{"mainType":"","id":0,"target":0,"animations":[],"previousIcon":0,"nextIcon":0,"color":[],"holdingHand":0,"trajectory":"","rotations":"","collided":0,"followDirection":false}, 
{"mainType":"","id":0,"target":0,"animations":[],"previousIcon":0,"nextIcon":0,"color":[],"holdingHand":0,"trajectory":"","rotations":"","collided":0,"followDirection":false}, 
{"mainType":"","id":0,"target":0,"animations":[],"previousIcon":0,"nextIcon":0,"color":[],"holdingHand":0,"trajectory":"","rotations":"","collided":0,"followDirection":false}, 
{"mainType":"","id":0,"target":0,"animations":[],"previousIcon":0,"nextIcon":0,"color":[],"holdingHand":0,"trajectory":"","rotations":"","collided":0,"followDirection":false}, 
{"mainType":"","id":0,"target":0,"animations":[],"previousIcon":0,"nextIcon":0,"color":[],"holdingHand":0,"trajectory":"","rotations":"","collided":0,"followDirection":false}, 
{"mainType":"","id":0,"target":0,"animations":[],"previousIcon":0,"nextIcon":0,"color":[],"holdingHand":0,"trajectory":"","rotations":"","collided":0,"followDirection":false}, 
{"mainType":"","id":0,"target":0,"animations":[],"previousIcon":0,"nextIcon":0,"color":[],"holdingHand":0,"trajectory":"","rotations":"","collided":0,"followDirection":false}, 
{"mainType":"","id":0,"target":0,"animations":[],"previousIcon":0,"nextIcon":0,"color":[],"holdingHand":0,"trajectory":"","rotations":"","collided":0,"followDirection":false}]}