{"objects" : [
{"mainType":"Geometry","id":5,"subtype":"Cylinder","position":[-33.39881134033203,1.160653829574585,-18.016551971435548],"size":[0.09999997913837433,0.09999998658895493,0.09999999403953552],"rotation":[-0.022106967866420747,0.1103375181555748,0.08945222198963165,0.9896137118339539],"visible":true,"color":[1.0,1.0,1.0,1.0]}, 
{"mainType":"Geometry","id":4,"subtype":"Sphere","position":[-33.36830139160156,0.999606728553772,-17.785913467407228],"size":[0.10000000894069672,0.09999999403953552,0.09999999403953552],"rotation":[1.862645149230957e-9,0.0,1.6653345369377349e-16,1.0],"visible":true,"color":[1.0,1.0,1.0,1.0]}, 
{"mainType":"Geometry","id":3,"subtype":"Cube","position":[-33.299957275390628,0.9365134239196777,-17.657127380371095],"size":[0.10000000894069672,0.09999999403953552,0.09999999403953552],"rotation":[-3.3306690738754698e-16,0.0,3.725290298461914e-9,1.0],"visible":true,"color":[1.0,1.0,1.0,1.0]} 
], 
 "events": [{"mainType":"EnterZone","id":0,"target":5,"animations":[],"previousIcon":-1,"nextIcon":-1,"color":[],"holdingHand":-1,"trajectory":"","rotations":"","collided":-1,"followDirection":false}]}