{"objects" : [
{"mainType":"Geometry","id":4,"subtype":"Sphere","position":[-35.43445587158203,1.016116738319397,-17.065107345581056],"size":[0.10000000894069672,0.09999998658895493,0.10000000894069672],"rotation":[0.0,0.0,0.0,1.0],"visible":true,"color":[0.8657022714614868,0.0562918521463871,0.0562918521463871,1.0]}, 
{"mainType":"Geometry","id":3,"subtype":"Sphere","position":[-35.31064987182617,1.1127578020095826,-16.590415954589845],"size":[0.10000000894069672,0.09999998658895493,0.10000000894069672],"rotation":[0.0,0.0,0.0,1.0],"visible":true,"color":[0.8657022714614868,0.0562918521463871,0.0562918521463871,1.0]} 
], 
 "events": []}