{"objects" : [
{"mainType":"Geometry","id":7,"subtype":"Cylinder","position":[-35.460205078125,1.361070156097412,-17.280542373657228],"size":[0.09999999403953552,0.09999998658895493,0.09999999403953552],"rotation":[-0.06863043457269669,-0.008281291462481022,-0.01600647158920765,0.9974793791770935],"visible":true,"color":[1.0,1.0,1.0,1.0]}, 
{"mainType":"Geometry","id":6,"subtype":"Cube","position":[-35.41848373413086,1.0344915390014649,-17.313827514648439],"size":[0.10000000894069672,0.09999999403953552,0.10000000149011612],"rotation":[0.0,0.0,-9.313224635931761e-10,1.0],"visible":true,"color":[1.0,1.0,1.0,1.0]}, 
{"mainType":"Geometry","id":5,"subtype":"Cylinder","position":[-35.34028625488281,1.3988219499588013,-16.796606063842775],"size":[0.09999999403953552,0.09999998658895493,0.10000000894069672],"rotation":[-0.06863043457269669,-0.008281291462481022,-0.01600647158920765,0.9974793791770935],"visible":true,"color":[1.0,1.0,1.0,1.0]}, 
{"mainType":"Geometry","id":4,"subtype":"Sphere","position":[-34.996925354003909,1.0573078393936158,-16.4500675201416],"size":[0.09999998658895493,0.10000000894069672,0.09999997913837433],"rotation":[0.08169903606176377,0.24932020902633668,-0.058117859065532687,0.9632170796394348],"visible":true,"color":[1.0,1.0,1.0,1.0]}, 
{"mainType":"Geometry","id":3,"subtype":"Cube","position":[-35.29856491088867,1.0722432136535645,-16.829891204833986],"size":[0.10000000894069672,0.09999999403953552,0.10000000149011612],"rotation":[0.0,0.0,-9.313224635931761e-10,1.0],"visible":true,"color":[1.0,1.0,1.0,1.0]} 
], 
 "events": [{"mainType":"Color","id":4,"target":7,"animations":[],"previousIcon":-1,"nextIcon":-1,"color":[0.13638117909431458,0.6482851505279541,0.15555739402770997,1.0],"holdingHand":-1,"trajectory":"","rotations":"","collided":-1,"followDirection":false}, 
{"mainType":"Collision","id":3,"target":0,"animations":[],"previousIcon":-1,"nextIcon":-1,"color":[],"holdingHand":-1,"trajectory":"","rotations":"","collided":6,"followDirection":false}, 
{"mainType":"Collision","id":2,"target":0,"animations":[1,0],"previousIcon":-1,"nextIcon":-1,"color":[],"holdingHand":-1,"trajectory":"","rotations":"","collided":3,"followDirection":false}, 
{"mainType":"Color","id":1,"target":5,"animations":[],"previousIcon":-1,"nextIcon":-1,"color":[0.13638117909431458,0.6482851505279541,0.15555739402770997,1.0],"holdingHand":-1,"trajectory":"","rotations":"","collided":-1,"followDirection":false}, 
{"mainType":"Color","id":0,"target":4,"animations":[],"previousIcon":-1,"nextIcon":-1,"color":[0.6665282249450684,0.057905130088329318,0.057905130088329318,1.0],"holdingHand":-1,"trajectory":"","rotations":"","collided":-1,"followDirection":false}]}