{"objects" : [
 
], 
 "events": [{"mainType":"Move","id":0,"target":-1,"animations":[],"previousIcon":-1,"nextIcon":-1,"color":[],"holdingHand":-1,"trajectory":"[[-35.10929,1.065802,-16.49538], [-35.0876,1.076264,-16.48476], [-35.01429,1.115797,-16.46506], [-34.84358,1.156299,-16.42613], [-34.59258,1.155459,-16.4193], [-34.32552,1.148868,-16.50755], [-34.07247,1.049474,-16.66305], [-33.91053,0.8347035,-16.83818], [-33.87097,0.5899393,-16.93597], [-33.89351,0.4005167,-16.97355], [-33.93502,0.2803091,-17.03326], [-33.9902,0.18401,-17.02228], [-33.97148,0.2134175,-16.99995]]","rotations":"[[-0.03397867,0.1865838,-0.01331601,0.981761], [-0.04267542,0.2053059,-0.01329294,0.9776766], [-0.07487954,0.2584376,-0.02029649,0.9629077], [-0.1081177,0.3847313,-0.02398464,0.9163609], [-0.09573366,0.5471539,-0.0269763,0.8311018], [-0.1055103,0.7073544,-0.01853288,0.6986945], [-0.04322049,0.8445902,-0.01878096,0.5333356], [0.09830646,0.9172208,-0.06926413,0.3797953], [0.2461947,0.9182172,-0.09842332,0.2942421], [0.35369,0.8925883,-0.09007622,0.2647186], [0.4198953,0.8785791,-0.07619701,0.2144314], [0.4928464,0.8379161,-0.0887422,0.2170804], [0.4705848,0.8462147,-0.07360914,0.2388568], [0.4705848,0.8462147,-0.07360914,0.2388568], [0.4705848,0.8462147,-0.07360914,0.2388568], [0.4705848,0.8462147,-0.07360914,0.2388568]]","collided":-1,"followDirection":false}]}