{"objects" : [
{"mainType":"Geometry","id":5,"subtype":"Sphere","position":[-34.76237869262695,1.1568809747695923,-18.02314567565918],"size":[0.09999999403953552,0.09999999403953552,0.10000000149011612],"rotation":[-0.0397723987698555,0.1607646495103836,0.026690773665905,0.9858298301696777],"visible":true,"color":[1.0,1.0,1.0,1.0]}, 
{"mainType":"Geometry","id":4,"subtype":"Capsule","position":[-35.03120803833008,1.3584905862808228,-18.095027923583986],"size":[0.10000000149011612,0.10000001639127732,0.10000001639127732],"rotation":[-0.011551094241440297,-0.5321999192237854,0.049848511815071109,-0.8450708985328674],"visible":true,"color":[0.7648488879203796,0.324211061000824,0.324211061000824,1.0]}, 
{"mainType":"Geometry","id":3,"subtype":"Cube","position":[-34.68247604370117,1.5461628437042237,-18.611255645751954],"size":[0.10000001639127732,0.10000000149011612,0.1000000461935997],"rotation":[0.04258536547422409,0.05097852647304535,-0.0425586998462677,0.9968833923339844],"visible":true,"color":[0.2826344072818756,0.7715902328491211,0.0860510915517807,1.0]} 
], 
 "events": [{"mainType":"Collision","id":1,"target":0,"animations":[0],"previousIcon":-1,"nextIcon":-1,"color":[],"holdingHand":-1,"trajectory":"","rotations":"","collided":3,"followDirection":false}, 
{"mainType":"Color","id":0,"target":4,"animations":[],"previousIcon":-1,"nextIcon":-1,"color":[0.7054431438446045,0.324211061000824,0.7648488879203796,1.0],"holdingHand":-1,"trajectory":"","rotations":"","collided":-1,"followDirection":false}]}