{"objects" : [
{"mainType":"Geometry","id":3,"subtype":"Cube","position":[-32.786231994628909,1.0806576013565064,-18.039443969726564],"size":[0.09999998658895493,0.10000000149011612,0.09999999403953552],"rotation":[0.011268123053014279,0.14196264743804933,0.006258659530431032,0.9897881150245667],"visible":true,"color":[0.0,0.0,0.0,0.0]} 
], 
 "events": [{"mainType":"Move","id":2,"target":3,"animations":[],"previousIcon":1,"nextIcon":-1,"color":[],"holdingHand":-1,"trajectory":"[[-32.78623,1.080658,-18.03944], [-32.80686,1.091287,-18.07111], [-32.83643,1.077823,-18.1466], [-32.88212,1.057636,-18.26637], [-32.93155,1.04374,-18.36455], [-33.0246,1.039393,-18.48081], [-33.0769,1.012934,-18.54962], [-33.14609,0.9787833,-18.61529], [-33.25628,0.9615926,-18.68155], [-33.39119,0.9595153,-18.73326], [-33.42268,1.016596,-18.723], [-33.52248,1.024966,-18.74614], [-33.65821,1.019049,-18.77023], [-33.83113,1.041699,-18.76494], [-33.96851,1.036119,-18.75028], [-34.17094,0.9848717,-18.70589], [-34.37986,0.9949495,-18.59111], [-34.55246,0.9983125,-18.43851], [-34.6505,0.9936864,-18.3095], [-34.73915,0.9940038,-18.11081], [-34.76481,1.04266,-17.80999], [-34.75727,1.049898,-17.75857]]","rotations":"[[0.01126812,0.1419626,0.006258659,0.9897881], [0.01659956,0.1619934,0.009872155,0.9866028], [-0.005659618,0.1901569,0.009303785,0.9816934], [-0.03160321,0.2355121,0.01280073,0.9712731], [-0.06325021,0.2693456,0.02011833,0.9607537], [-0.06435776,0.3309194,0.02047543,0.9412392], [-0.07186279,0.3619049,0.01203587,0.9293631], [-0.0523836,0.4094622,-0.01435638,0.9107089], [-0.0790262,0.4534353,0.001456607,0.8877776], [-0.08341628,0.5093426,0.005304392,0.856495], [-0.06891233,0.5120715,0.02575532,0.8557865], [-0.07726773,0.5451554,0.04157248,0.8337308], [-0.1016947,0.5868931,0.06929519,0.800258], [-0.104733,0.640812,0.1054493,0.7531742], [-0.09966329,0.6885948,0.1130378,0.7093144], [-0.1293269,0.7446836,0.1461689,0.6382443], [-0.1220948,0.7991204,0.1985032,0.5541624], [-0.1109725,0.8391811,0.2553051,0.4672039], [-0.09997049,0.8596782,0.2970352,0.4033975], [-0.06919064,0.8861547,0.3362515,0.3112518], [0.009062347,0.9110669,0.3692712,0.183068], [0.01593411,0.9309728,0.3332946,0.1481573], [0.01593411,0.9309728,0.3332946,0.1481573], [0.01593411,0.9309728,0.3332946,0.1481573], [0.01593411,0.9309728,0.3332946,0.1481573]]","collided":-1,"followDirection":false}, 
{"mainType":"ExitZone","id":1,"target":3,"animations":[],"previousIcon":0,"nextIcon":2,"color":[],"holdingHand":-1,"trajectory":"","rotations":"","collided":-1,"followDirection":false}, 
{"mainType":"EnterZone","id":0,"target":3,"animations":[],"previousIcon":-1,"nextIcon":1,"color":[],"holdingHand":-1,"trajectory":"","rotations":"","collided":-1,"followDirection":false}]}