{"objects" : [
{"mainType":"Geometry","id":5,"subtype":"Capsule","position":[-34.71327590942383,1.1555554866790772,-17.584457397460939],"size":[0.10000000149011612,0.10000000894069672,0.10000001639127732],"rotation":[-0.030079351738095285,-0.05355602502822876,0.02793881483376026,0.9977206587791443],"visible":true,"color":[1.0,1.0,1.0,1.0]}, 
{"mainType":"Geometry","id":4,"subtype":"Sphere","position":[-34.17849349975586,1.1743699312210084,-17.075090408325197],"size":[0.10000000149011612,0.09999994933605194,0.10000003129243851],"rotation":[-0.06836467981338501,0.08043580502271652,-0.013637850061058998,0.9943190813064575],"visible":true,"color":[1.0,1.0,1.0,1.0]}, 
{"mainType":"Geometry","id":3,"subtype":"Cube","position":[-35.10912322998047,1.1734354496002198,-16.409568786621095],"size":[0.10000002384185791,0.10000000894069672,0.10000001639127732],"rotation":[0.044174544513225558,-0.1518147587776184,-0.022569742053747178,0.9871633648872376],"visible":true,"color":[1.0,1.0,1.0,1.0]} 
], 
 "events": [{"mainType":"Grab","id":7,"target":4,"animations":[2],"previousIcon":-1,"nextIcon":-1,"color":[],"holdingHand":0,"trajectory":"","rotations":"","collided":-1,"followDirection":false}, 
{"mainType":"Color","id":2,"target":4,"animations":[],"previousIcon":-1,"nextIcon":-1,"color":[0.7100412249565125,0.5195951461791992,0.6823965907096863,1.0],"holdingHand":-1,"trajectory":"","rotations":"","collided":-1,"followDirection":false}, 
{"mainType":"Move","id":1,"target":3,"animations":[],"previousIcon":-1,"nextIcon":-1,"color":[],"holdingHand":-1,"trajectory":"[[-35.10912,1.173435,-16.40957], [-35.17112,1.217507,-16.46816], [-35.09769,1.313382,-16.43039], [-34.99422,1.340408,-16.36044], [-34.89767,1.27893,-16.28802], [-34.81004,1.184274,-16.23965], [-34.69887,1.128505,-16.21567], [-34.56842,1.154264,-16.2199], [-34.43264,1.214166,-16.2507], [-34.3221,1.228791,-16.28402], [-34.2313,1.215338,-16.32456], [-34.15784,1.186373,-16.37158], [-34.08428,1.152555,-16.42665], [-34.01997,1.197659,-16.50922], [-33.98029,1.248667,-16.58762], [-33.93835,1.266696,-16.65967], [-33.89228,1.244013,-16.73339], [-33.85337,1.193611,-16.79597], [-33.80443,1.139604,-16.89547], [-33.76949,1.136582,-17.0133], [-33.75153,1.169887,-17.12126], [-33.73792,1.196278,-17.24281], [-33.7376,1.185218,-17.36168], [-33.74532,1.139403,-17.47819], [-33.77316,1.134781,-17.61297], [-33.81496,1.181113,-17.69676]]","rotations":"[[0,0,-9.313226E-10,1], [-0.05521053,0.02460107,0.002201542,0.9981693], [-0.09031034,0.07905132,-0.03714672,0.9920762], [-0.1005095,0.1625647,-0.04322845,0.9806131], [-0.06093018,0.2356813,-0.0303288,0.9694442], [-0.009826653,0.2958016,-0.005331732,0.955184], [0.01646839,0.3642319,0.01056525,0.9311028], [0.005523875,0.4387549,0.009942193,0.8985348], [-0.02961664,0.5187014,0.009712029,0.8543872], [-0.03295191,0.5798863,0.01051013,0.8139629], [-0.02333201,0.6284392,0.01206154,0.7774152], [-0.003211789,0.6634891,-0.006447088,0.7481514], [0.01308069,0.7036107,0.002473315,0.710461], [-0.01212602,0.7446275,-0.003860526,0.667359], [-0.03517453,0.7736373,-0.00302434,0.6326444], [-0.0408371,0.7994152,-0.0004114304,0.5993894], [-0.02660622,0.8270875,0.0121404,0.5613118], [0.002760636,0.847223,0.0094524,0.5311463], [0.03104111,0.8756692,-0.004961943,0.4818872], [0.03457279,0.9065415,0.004911503,0.4206701], [0.02601396,0.9297068,0.01550663,0.3670532], [0.0145095,0.9511708,0.004641857,0.3082892], [0.01932141,0.9685257,-0.004657764,0.248119], [0.03989546,0.9810475,-0.01815655,0.1887445], [0.03718321,0.9929668,-0.01671368,0.1111538], [0.02080695,0.9984416,0.01829134,0.04844555], [0.02080695,0.9984416,0.01829134,0.04844555], [0.02080695,0.9984416,0.01829134,0.04844555], [0.02080695,0.9984416,0.01829134,0.04844555]]","collided":-1,"followDirection":false}, 
{"mainType":"Look","id":0,"target":3,"animations":[1],"previousIcon":-1,"nextIcon":-1,"color":[],"holdingHand":-1,"trajectory":"","rotations":"","collided":-1,"followDirection":false}]}