{"objects" : [
{"mainType":"Geometry","id":4,"subtype":"Cube","position":[-39.746864318847659,0.7194782495498657,-20.990753173828126],"size":[0.09999996423721314,0.10000002384185791,0.09999999403953552],"rotation":[0.21963129937648774,0.3044533133506775,0.42059946060180666,0.8259336948394775],"visible":true,"color":[0.0,0.0,0.0,0.0]}, 
{"mainType":"Geometry","id":3,"subtype":"Cube","position":[-32.786231994628909,1.0806576013565064,-18.039443969726564],"size":[0.09999998658895493,0.10000000149011612,0.09999999403953552],"rotation":[0.011268123053014279,0.14196264743804933,0.006258659530431032,0.9897881150245667],"visible":true,"color":[0.0,0.0,0.0,0.0]} 
], 
 "events": [{"mainType":"Move","id":7,"target":4,"animations":[],"previousIcon":6,"nextIcon":-1,"color":[],"holdingHand":-1,"trajectory":"[[-39.74686,0.7194782,-20.99075], [-39.44147,0.4102128,-19.77231], [-39.47475,0.3287557,-19.89633], [-39.58701,0.1822762,-20.35988], [-39.58768,0.1197288,-20.74011], [-39.56199,0.08901836,-20.90473], [-39.55661,0.0776564,-20.91399]]","rotations":"[[0.455595,0.7063727,0.2944093,0.4547461], [0.4561453,0.6953672,0.3043972,0.4644766], [0.4294556,0.6878407,0.3360908,0.4790472], [0.40788,0.6091745,0.4442259,0.5149795], [0.369015,0.54983,0.5089605,0.5499767], [0.3437743,0.5261391,0.5334721,0.5660429], [0.339947,0.5262132,0.5361563,0.5657492], [0.339947,0.5262132,0.5361563,0.5657492], [0.339947,0.5262132,0.5361563,0.5657492]]","collided":-1,"followDirection":false}, 
{"mainType":"Move","id":6,"target":4,"animations":[],"previousIcon":5,"nextIcon":7,"color":[],"holdingHand":-1,"trajectory":"[[-39.74686,0.7194782,-20.99075], [-39.98531,0.2081891,-19.32649], [-39.84304,0.2287609,-19.26687], [-39.7193,0.3509933,-19.16352], [-39.56558,0.3859549,-19.13501], [-39.47671,0.3843608,-19.19534], [-39.44579,0.2958842,-19.41719], [-39.44181,0.2440567,-19.59634], [-39.5975,0.2579012,-19.70533], [-39.48814,0.3384143,-19.71249], [-39.41393,0.4090065,-19.71392]]","rotations":"[[0.3185497,0.6824788,0.3917755,0.5284514], [0.3479275,0.6777374,0.3778566,0.5261589], [0.3724753,0.695607,0.3588678,0.4986053], [0.3978619,0.7194935,0.3076057,0.4789719], [0.4237654,0.7321942,0.286009,0.450015], [0.4380566,0.7320087,0.2793859,0.4406965], [0.4240956,0.7248539,0.310349,0.4454366], [0.4098057,0.7224442,0.3266608,0.4510286], [0.4127589,0.7105281,0.333388,0.4622039], [0.4260805,0.7143174,0.3088301,0.4613354], [0.455595,0.7063727,0.2944093,0.4547461], [0.455595,0.7063727,0.2944093,0.4547461], [0.455595,0.7063727,0.2944093,0.4547461], [0.455595,0.7063727,0.2944093,0.4547461]]","collided":-1,"followDirection":false}, 
{"mainType":"ExitZone","id":5,"target":4,"animations":[],"previousIcon":4,"nextIcon":6,"color":[],"holdingHand":-1,"trajectory":"","rotations":"","collided":-1,"followDirection":false}, 
{"mainType":"Move","id":4,"target":4,"animations":[],"previousIcon":3,"nextIcon":5,"color":[],"holdingHand":-1,"trajectory":"[[-39.74686,0.7194782,-20.99075], [-39.75994,0.6862727,-20.97697], [-39.90618,0.7178639,-20.77239], [-40.01244,0.7445322,-20.57658], [-40.10721,0.7428149,-20.32528], [-40.16548,0.7211948,-20.04532], [-40.17924,0.6855779,-19.91566], [-40.17974,0.6051924,-19.70759], [-40.1639,0.5267334,-19.56483], [-40.14584,0.4527533,-19.53677], [-40.11092,0.3519348,-19.45411], [-40.08014,0.2612507,-19.40975], [-40.0531,0.1851003,-19.36862], [-40.03004,0.1143425,-19.34976], [-40.03329,0.1331658,-19.31354]]","rotations":"[[0.2196313,0.3044533,0.4205995,0.8259337], [0.213756,0.3109788,0.4242676,0.8231634], [0.2378054,0.3643681,0.3940018,0.8095969], [0.271211,0.4042414,0.3850838,0.7840562], [0.3060127,0.4538704,0.3742864,0.7485105], [0.3378602,0.5070648,0.3596887,0.7066541], [0.3621246,0.525833,0.3673395,0.6763338], [0.3732333,0.5699235,0.3614998,0.6365548], [0.3715698,0.6032232,0.3568353,0.6088733], [0.3531756,0.6194483,0.3600796,0.601576], [0.323162,0.6509113,0.35749,0.586585], [0.3031674,0.6684893,0.3652971,0.572512], [0.2902052,0.6817748,0.3731925,0.5582935], [0.2914795,0.6854041,0.3899369,0.541489], [0.3185497,0.6824789,0.3917755,0.5284514], [0.3185497,0.6824788,0.3917755,0.5284514], [0.3185497,0.6824788,0.3917755,0.5284514], [0.3185497,0.6824788,0.3917755,0.5284514]]","collided":-1,"followDirection":false}, 
{"mainType":"EnterZone","id":3,"target":4,"animations":[],"previousIcon":-1,"nextIcon":4,"color":[],"holdingHand":-1,"trajectory":"","rotations":"","collided":-1,"followDirection":false}, 
{"mainType":"Move","id":2,"target":3,"animations":[],"previousIcon":1,"nextIcon":-1,"color":[],"holdingHand":-1,"trajectory":"[[-32.78623,1.080658,-18.03944], [-32.80686,1.091287,-18.07111], [-32.83643,1.077823,-18.1466], [-32.88212,1.057636,-18.26637], [-32.93155,1.04374,-18.36455], [-33.0246,1.039393,-18.48081], [-33.0769,1.012934,-18.54962], [-33.14609,0.9787833,-18.61529], [-33.25628,0.9615926,-18.68155], [-33.39119,0.9595153,-18.73326], [-33.42268,1.016596,-18.723], [-33.52248,1.024966,-18.74614], [-33.65821,1.019049,-18.77023], [-33.83113,1.041699,-18.76494], [-33.96851,1.036119,-18.75028], [-34.17094,0.9848717,-18.70589], [-34.37986,0.9949495,-18.59111], [-34.55246,0.9983125,-18.43851], [-34.6505,0.9936864,-18.3095], [-34.73915,0.9940038,-18.11081], [-34.76481,1.04266,-17.80999], [-34.75727,1.049898,-17.75857]]","rotations":"[[0.01126812,0.1419626,0.006258659,0.9897881], [0.01659956,0.1619934,0.009872155,0.9866028], [-0.005659618,0.1901569,0.009303785,0.9816934], [-0.03160321,0.2355121,0.01280073,0.9712731], [-0.06325021,0.2693456,0.02011833,0.9607537], [-0.06435776,0.3309194,0.02047543,0.9412392], [-0.07186279,0.3619049,0.01203587,0.9293631], [-0.0523836,0.4094622,-0.01435638,0.9107089], [-0.0790262,0.4534353,0.001456607,0.8877776], [-0.08341628,0.5093426,0.005304392,0.856495], [-0.06891233,0.5120715,0.02575532,0.8557865], [-0.07726773,0.5451554,0.04157248,0.8337308], [-0.1016947,0.5868931,0.06929519,0.800258], [-0.104733,0.640812,0.1054493,0.7531742], [-0.09966329,0.6885948,0.1130378,0.7093144], [-0.1293269,0.7446836,0.1461689,0.6382443], [-0.1220948,0.7991204,0.1985032,0.5541624], [-0.1109725,0.8391811,0.2553051,0.4672039], [-0.09997049,0.8596782,0.2970352,0.4033975], [-0.06919064,0.8861547,0.3362515,0.3112518], [0.009062347,0.9110669,0.3692712,0.183068], [0.01593411,0.9309728,0.3332946,0.1481573], [0.01593411,0.9309728,0.3332946,0.1481573], [0.01593411,0.9309728,0.3332946,0.1481573], [0.01593411,0.9309728,0.3332946,0.1481573]]","collided":-1,"followDirection":false}, 
{"mainType":"ExitZone","id":1,"target":3,"animations":[],"previousIcon":0,"nextIcon":2,"color":[],"holdingHand":-1,"trajectory":"","rotations":"","collided":-1,"followDirection":false}, 
{"mainType":"EnterZone","id":0,"target":3,"animations":[],"previousIcon":-1,"nextIcon":1,"color":[],"holdingHand":-1,"trajectory":"","rotations":"","collided":-1,"followDirection":false}]}