{"objects" : [
{"mainType":"Geometry","id":3,"subtype":"Cube","position":[-32.80355453491211,1.1152814626693726,-17.97903823852539],"size":[0.09999998658895493,0.1000000387430191,0.1000000461935997],"rotation":[0.0014000346418470145,0.07420295476913452,-0.03953441232442856,0.9964582920074463],"visible":true,"color":[1.0,1.0,1.0,1.0]} 
], 
 "events": [{"mainType":"ExitZone","id":2,"target":3,"animations":[],"previousIcon":0,"nextIcon":-1,"color":[],"holdingHand":-1,"trajectory":"","rotations":"","collided":-1,"followDirection":false}, 
{"mainType":"EnterZone","id":0,"target":3,"animations":[],"previousIcon":-1,"nextIcon":2,"color":[],"holdingHand":-1,"trajectory":"","rotations":"","collided":-1,"followDirection":false}]}