{"objects" : [
{"mainType":"Geometry","id":4,"subtype":"Cube","position":[-37.01554870605469,0.9891010522842407,-18.80500030517578],"size":[0.09999999403953552,0.10000000894069672,0.09999999403953552],"rotation":[0.010829648934304715,0.06857329607009888,0.007386797107756138,0.9975599646568298],"visible":true,"color":[1.0,1.0,1.0,1.0]}, 
{"mainType":"Geometry","id":3,"subtype":"Cube","position":[-33.50716781616211,0.7765409350395203,-18.3959903717041],"size":[0.10000000149011612,0.10000003129243851,0.10000000894069672],"rotation":[-0.01238484401255846,0.2438257336616516,-0.07086323946714401,0.9671474695205689],"visible":true,"color":[1.0,1.0,1.0,1.0]} 
], 
 "events": [{"mainType":"ExitZone","id":1,"target":3,"animations":[],"previousIcon":0,"nextIcon":-1,"color":[],"holdingHand":-1,"trajectory":"","rotations":"","collided":-1,"followDirection":false}, 
{"mainType":"EnterZone","id":0,"target":3,"animations":[],"previousIcon":-1,"nextIcon":1,"color":[],"holdingHand":-1,"trajectory":"","rotations":"","collided":-1,"followDirection":false}]}