{"objects" : [
{"mainType":"Geometry","id":4,"subtype":"Sphere","position":[-33.35000991821289,1.0305562019348145,-17.806236267089845],"size":[0.09999997168779373,0.10000001639127732,0.10000002384185791],"rotation":[0.008832544088363648,0.16380912065505982,0.0035783282946795227,0.9864460229873657],"visible":true,"color":[1.0,1.0,1.0,1.0]}, 
{"mainType":"Geometry","id":3,"subtype":"Cube","position":[-32.95586395263672,1.298079013824463,-17.975069046020509],"size":[0.10000006854534149,0.10000001639127732,0.09999997913837433],"rotation":[0.013190977275371552,0.44693171977996828,0.09781340509653092,0.8891066312789917],"visible":true,"color":[1.0,1.0,1.0,1.0]} 
], 
 "events": [{"mainType":"ExitZone","id":6,"target":4,"animations":[],"previousIcon":4,"nextIcon":-1,"color":[],"holdingHand":-1,"trajectory":"","rotations":"","collided":-1,"followDirection":false}, 
{"mainType":"EnterZone","id":4,"target":4,"animations":[],"previousIcon":-1,"nextIcon":6,"color":[],"holdingHand":-1,"trajectory":"","rotations":"","collided":-1,"followDirection":false}, 
{"mainType":"ExitZone","id":2,"target":3,"animations":[],"previousIcon":0,"nextIcon":-1,"color":[],"holdingHand":-1,"trajectory":"","rotations":"","collided":-1,"followDirection":false}, 
{"mainType":"EnterZone","id":0,"target":3,"animations":[],"previousIcon":-1,"nextIcon":2,"color":[],"holdingHand":-1,"trajectory":"","rotations":"","collided":-1,"followDirection":false}]}