{"objects" : [
{"mainType":"Geometry","id":4,"subtype":"Sphere","position":[-34.32939147949219,1.1484800577163697,-17.476825714111329],"size":[0.09999997913837433,0.09999999403953552,0.09999999403953552],"rotation":[0.08442782610654831,0.2964071035385132,-0.01097796205431223,0.9512593150138855],"visible":true,"color":[1.0,1.0,1.0,1.0]}, 
{"mainType":"Geometry","id":3,"subtype":"Cube","position":[-34.184852600097659,1.1191480159759522,-16.976318359375],"size":[0.1000000461935997,0.10000002384185791,0.10000000149011612],"rotation":[-0.013376371003687382,0.008275836706161499,0.032373640686273578,0.9993520975112915],"visible":true,"color":[1.0,1.0,1.0,1.0]} 
], 
 "events": [{"mainType":"Move","id":0,"target":3,"animations":[],"previousIcon":-1,"nextIcon":-1,"color":[],"holdingHand":-1,"trajectory":"[[-34.18485,1.119148,-16.97632], [-34.1763,1.122445,-17.00454], [-34.16128,1.119729,-17.06737], [-34.1427,1.088431,-17.16408], [-34.13884,1.027251,-17.30212], [-34.15732,0.9439483,-17.39549], [-34.20275,0.8876586,-17.50373], [-34.27677,0.8780307,-17.65507], [-34.43472,0.8539914,-17.84795], [-34.62436,0.9155347,-17.98665], [-34.71907,1.021486,-18.01511], [-34.70506,1.156927,-17.98107], [-34.62481,1.278217,-17.90122], [-34.49374,1.375795,-17.76248], [-34.35023,1.380175,-17.61798], [-34.23804,1.337555,-17.47448], [-34.16567,1.268609,-17.3349], [-34.1202,1.184333,-17.20264], [-34.10464,1.116996,-17.06613], [-34.11012,1.155036,-16.98563], [-34.10367,1.186999,-16.93474], [-34.08559,1.147974,-16.88767], [-34.08611,1.152975,-16.88572]]","rotations":"[[-0.01337637,0.008275836,0.03237364,0.999352], [-0.01910541,0.026335,0.03165328,0.9989693], [-0.04075862,0.06315231,0.02144597,0.9969407], [-0.0711661,0.1199991,-0.00438961,0.9902103], [-0.09935363,0.2033004,-0.04182051,0.9731645], [-0.08400919,0.2557774,-0.09847242,0.9580313], [-0.01657157,0.3190126,-0.1444578,0.9365301], [0.00610837,0.4072106,-0.164054,0.8984591], [0.02254136,0.5401776,-0.197418,0.817757], [0.007747743,0.6703629,-0.1561313,0.7253803], [0.02579378,0.732967,-0.08603638,0.6743087], [0.05869231,0.7366867,0.001196744,0.6736815], [0.07696429,0.6927485,0.08817322,0.7116191], [0.1203515,0.6118329,0.1568523,0.7658809], [0.1873387,0.5198249,0.1590168,0.8181688], [0.2050478,0.4145837,0.1444958,0.8747553], [0.18386,0.3055183,0.1175953,0.9268363], [0.1776741,0.2143837,0.09243254,0.9559957], [0.08973227,0.09730339,0.0447578,0.9901905], [-0.01748149,0.02850413,0.04777195,0.9982985], [-0.08905362,-0.01685837,0.04116641,0.995033], [-0.04092547,-0.03199765,0.01630808,0.9985166], [-0.0455588,-0.03563156,0.01970651,0.9981315], [-0.0455588,-0.03563156,0.01970651,0.9981315], [-0.0455588,-0.03563156,0.01970651,0.9981315]]","collided":-1,"followDirection":false}]}