{"objects" : [
{"mainType":"Geometry","id":3,"subtype":"Cube","position":[-33.61742401123047,1.1138321161270142,-17.63766098022461],"size":[0.10000001639127732,0.09999997168779373,0.10000000894069672],"rotation":[0.040340475738048556,0.11499097943305969,0.0011622569290921093,0.9925464391708374],"visible":true,"color":[1.0,1.0,1.0,1.0]} 
], 
 "events": [{"mainType":"Move","id":3,"target":3,"animations":[],"previousIcon":2,"nextIcon":-1,"color":[],"holdingHand":-1,"trajectory":"[[-33.61742,1.113832,-17.63766], [-33.95416,0.7292303,-18.56297], [-33.92715,0.7803332,-18.60752], [-33.86294,0.7792764,-18.63878], [-33.87976,0.7547943,-18.73536], [-33.93409,0.7333179,-18.82898], [-34.03095,0.7587889,-18.92483], [-34.18861,0.7377751,-19.0155], [-34.36822,0.7803155,-19.07967], [-34.54584,0.8275399,-19.10741], [-34.80789,0.8826693,-19.1151], [-35.14273,0.9057853,-19.07665], [-35.48697,0.9367774,-18.97111], [-35.55089,0.9708434,-18.92963]]","rotations":"[[-0.09476546,0.4707778,-0.09108853,0.8724051], [-0.09031978,0.4572214,-0.09675525,0.8794484], [-0.08039025,0.4582234,-0.08563196,0.8810425], [-0.094763,0.4492342,-0.08120495,0.8846549], [-0.1025271,0.4726216,-0.08591969,0.8710538], [-0.1247298,0.5004728,-0.08044855,0.8529347], [-0.122588,0.5369142,-0.06636442,0.8320404], [-0.1262503,0.5830743,-0.06905918,0.7995725], [-0.1319454,0.6243071,-0.04418548,0.7686864], [-0.13868,0.6560975,-0.01424364,0.741688], [-0.1284017,0.7068631,0.01310121,0.6954754], [-0.1328714,0.7687634,0.04674812,0.6238289], [-0.1000793,0.8377686,0.04606085,0.5347955], [-0.08100972,0.8498981,0.04545002,0.5186954], [-0.08100972,0.8498981,0.04545002,0.5186954], [-0.08100972,0.8498981,0.04545002,0.5186954], [-0.08100972,0.8498981,0.04545002,0.5186954]]","collided":-1,"followDirection":false}, 
{"mainType":"ExitZone","id":2,"target":3,"animations":[],"previousIcon":1,"nextIcon":3,"color":[],"holdingHand":-1,"trajectory":"","rotations":"","collided":-1,"followDirection":false}, 
{"mainType":"Move","id":1,"target":3,"animations":[],"previousIcon":0,"nextIcon":2,"color":[],"holdingHand":-1,"trajectory":"[[-33.61742,1.113832,-17.63766], [-33.62645,1.109292,-17.70386], [-33.64836,1.090667,-17.83636], [-33.69469,1.049742,-18.02695], [-33.76763,0.9946186,-18.21429], [-33.86251,0.938061,-18.38774], [-33.95434,0.8989162,-18.51617], [-34.0003,0.8709202,-18.57918], [-34.00163,0.7281218,-18.57138]]","rotations":"[[0.04034048,0.114991,0.001162257,0.9925464], [0.01743113,0.1347859,-0.001024938,0.9907209], [0.01073856,0.1833559,-0.009398363,0.9829429], [-0.0109301,0.2506657,-0.02435862,0.9677055], [-0.02887947,0.3211341,-0.04368864,0.9455845], [-0.048973,0.388227,-0.06061409,0.9182633], [-0.06663319,0.4406072,-0.06961594,0.8925128], [-0.07943696,0.4633003,-0.07438204,0.8794942], [-0.09476546,0.4707778,-0.09108853,0.8724051], [-0.09476546,0.4707778,-0.09108853,0.8724051], [-0.09476546,0.4707778,-0.09108853,0.8724051], [-0.09476546,0.4707778,-0.09108853,0.8724051]]","collided":-1,"followDirection":false}, 
{"mainType":"EnterZone","id":0,"target":3,"animations":[],"previousIcon":-1,"nextIcon":1,"color":[],"holdingHand":-1,"trajectory":"","rotations":"","collided":-1,"followDirection":false}]}