{"objects" : [
{"mainType":"Geometry","id":3,"subtype":"Cube","position":[-34.24672317504883,0.8807070851325989,-19.706079483032228],"size":[0.10000000894069672,0.10000003129243851,0.10000001639127732],"rotation":[-0.009122640825808049,0.5904456377029419,-0.0036355331540107729,0.8070176839828491],"visible":true,"color":[1.0,1.0,1.0,1.0]} 
], 
 "events": [{"mainType":"ExitZone","id":2,"target":3,"animations":[],"previousIcon":0,"nextIcon":-1,"color":[],"holdingHand":-1,"trajectory":"","rotations":"","collided":-1,"followDirection":false}, 
{"mainType":"EnterZone","id":0,"target":3,"animations":[],"previousIcon":-1,"nextIcon":2,"color":[],"holdingHand":-1,"trajectory":"","rotations":"","collided":-1,"followDirection":false}]}