{"objects" : [
{"mainType":"Geometry","id":4,"subtype":"Cylinder","position":[-33.98052215576172,0.7729498147964478,-17.457040786743165],"size":[0.09999999403953552,0.10000000149011612,0.09999999403953552],"rotation":[-0.016544122248888017,0.26527416706085207,-0.10477159917354584,0.9583208560943604],"visible":true,"color":[1.0,1.0,1.0,1.0]}, 
{"mainType":"Geometry","id":3,"subtype":"Sphere","position":[-33.66581344604492,1.0238335132598878,-17.681161880493165],"size":[0.09999999403953552,0.10000000894069672,0.09999997913837433],"rotation":[-0.08555229753255844,0.308415949344635,0.011103030294179917,0.9473316073417664],"visible":true,"color":[1.0,1.0,1.0,1.0]} 
], 
 "events": []}