{"objects" : [
{"mainType":"Geometry","id":4,"subtype":"Cylinder","position":[-32.527488708496097,1.0453649759292603,-17.347976684570314],"size":[0.09999998658895493,0.09999997913837433,0.10000000149011612],"rotation":[-0.03521683067083359,0.11971086263656616,0.002232298720628023,0.9921814799308777],"visible":true,"color":[1.0,1.0,1.0,1.0]}, 
{"mainType":"Geometry","id":3,"subtype":"Cube","position":[-32.469635009765628,0.7136645317077637,-17.294109344482423],"size":[0.10000003129243851,0.10000000149011612,0.10000001639127732],"rotation":[-0.15308637917041779,0.15361838042736054,-0.08975958079099655,0.9720644354820252],"visible":true,"color":[1.0,1.0,1.0,1.0]} 
], 
 "events": [{"mainType":"ExitZone","id":2,"target":4,"animations":[],"previousIcon":0,"nextIcon":-1,"color":[],"holdingHand":-1,"trajectory":"","rotations":"","collided":-1,"followDirection":false}, 
{"mainType":"EnterZone","id":0,"target":4,"animations":[],"previousIcon":-1,"nextIcon":2,"color":[],"holdingHand":-1,"trajectory":"","rotations":"","collided":-1,"followDirection":false}]}