{"objects" : [
{"mainType":"Images","id":6,"subtype":"Game Over","position":[-32.42318344116211,1.5689871311187745,-19.610353469848634],"size":[0.0010000001639127732,0.0010000001639127732,0.0010000001639127732],"rotation":[-0.04482291638851166,-0.21415990591049195,0.006519644521176815,-0.9757478833198547],"visible":true,"color":[0.0,0.0,0.0,0.0]}, 
{"mainType":"3DProps","id":5,"subtype":"Plant","position":[-31.866670608520509,1.2749323844909669,-21.488616943359376],"size":[1.000000238418579,1.0000001192092896,1.0000001192092896],"rotation":[-0.05743122100830078,0.9923197031021118,0.04968780279159546,0.09764380753040314],"visible":true,"color":[0.0,0.0,0.0,0.0]}, 
{"mainType":"Geometry","id":4,"subtype":"Sphere","position":[-31.979616165161134,1.5104897022247315,-20.589323043823243],"size":[0.10000000894069672,0.10000002384185791,0.10000002384185791],"rotation":[-0.03234471008181572,0.18212412297725678,0.01410283986479044,0.9826422333717346],"visible":true,"color":[1.0,1.0,1.0,1.0]}, 
{"mainType":"Geometry","id":3,"subtype":"Cube","position":[-32.169498443603519,1.4450243711471558,-20.107412338256837],"size":[0.10000000149011612,0.10000000149011612,0.10000000894069672],"rotation":[0.0,0.0,0.0,1.0],"visible":true,"color":[1.0,1.0,1.0,1.0]} 
], 
 "events": []}