{"objects" : [
{"mainType":"3DProps","id":8,"subtype":"cable1Red","position":[-33.21662139892578,1.023001790046692,-19.49578857421875],"size":[0.9999997019767761,1.0,0.9999997615814209],"rotation":[0.2565877139568329,0.858413815498352,-0.28859564661979678,0.33764034509658816],"visible":true,"color":[0.0,0.0,0.0,0.0]}, 
{"mainType":"3DProps","id":7,"subtype":"cable1Blue","position":[-33.25161361694336,1.0208935737609864,-19.50737762451172],"size":[0.9999999403953552,1.000000238418579,0.9999997615814209],"rotation":[0.12491217255592346,0.8744528889656067,-0.3487948477268219,0.3131633996963501],"visible":true,"color":[0.0,0.0,0.0,0.0]}, 
{"mainType":"3DProps","id":5,"subtype":"cable1Green","position":[-33.241920471191409,1.086710810661316,-19.528274536132814],"size":[0.9999995827674866,0.9999998807907105,0.9999996423721314],"rotation":[0.11066494137048722,0.8892708420753479,-0.30808717012405398,0.3194260895252228],"visible":true,"color":[0.0,0.0,0.0,0.0]}, 
{"mainType":"3DProps","id":3,"subtype":"BombBall","position":[-33.19464874267578,0.9953449964523315,-19.548851013183595],"size":[0.9999997615814209,1.0,1.0],"rotation":[0.13254447281360627,0.8650819659233093,-0.3747928738594055,0.3059338331222534],"visible":true,"color":[0.0,0.0,0.0,0.0]} 
], 
 "events": []}