{"objects" : [
{"mainType":"3DProps","id":9,"subtype":"WireCutters","position":[-33.164398193359378,1.1070996522903443,-19.16120719909668],"size":[1.0000003576278687,1.0,1.0000005960464478],"rotation":[0.135555699467659,0.7565534114837647,0.19036521017551423,0.6107476353645325],"visible":true,"color":[0.0,0.0,0.0,0.0]}, 
{"mainType":"3DProps","id":8,"subtype":"cable1Red","position":[-33.235076904296878,0.9766566753387451,-19.47780418395996],"size":[0.9999995231628418,0.9999998211860657,0.9999997615814209],"rotation":[0.5898743867874146,0.7724486589431763,-0.05447625741362572,0.2289184331893921],"visible":true,"color":[0.0,0.0,0.0,0.0]}, 
{"mainType":"3DProps","id":7,"subtype":"cable1Blue","position":[-33.240020751953128,1.0107405185699463,-19.494312286376954],"size":[1.0000001192092896,1.0000004768371583,0.9999998211860657],"rotation":[0.14560158550739289,0.8699100017547607,-0.34632521867752077,0.319555401802063],"visible":true,"color":[0.0,0.0,0.0,0.0]}, 
{"mainType":"3DProps","id":5,"subtype":"cable1Green","position":[-33.27328872680664,1.033786654472351,-19.482830047607423],"size":[0.9999997019767761,0.9999997019767761,0.9999998211860657],"rotation":[-0.3731240928173065,0.6442631483078003,-0.5650578141212463,0.35554611682891848],"visible":true,"color":[0.0,0.0,0.0,0.0]}, 
{"mainType":"3DProps","id":3,"subtype":"BombBall","position":[-33.19464874267578,0.9953449964523315,-19.548851013183595],"size":[0.9999997615814209,1.0,1.0],"rotation":[0.13254447281360627,0.8650819659233093,-0.3747928738594055,0.3059338331222534],"visible":true,"color":[0.0,0.0,0.0,0.0]} 
], 
 "events": [{"mainType":"Grab","id":4,"target":9,"animations":[],"previousIcon":-1,"nextIcon":-1,"color":[],"holdingHand":0,"trajectory":"","rotations":"","collided":-1,"followDirection":false}]}