{"objects" : [
{"mainType":"Geometry","id":5,"subtype":"Cylinder","position":[-31.44389533996582,1.389270305633545,-18.079212188720704],"size":[0.10000001639127732,0.10000000894069672,0.10000000149011612],"rotation":[0.004192835185676813,-0.013052523136138916,0.019860979169607164,0.9997087717056274],"visible":true,"color":[1.0,1.0,1.0,1.0]}, 
{"mainType":"Geometry","id":4,"subtype":"Cube","position":[-30.355201721191408,1.3305140733718873,-18.544416427612306],"size":[0.09999999403953552,0.09999999403953552,0.09999999403953552],"rotation":[-0.026207437738776208,0.18729513883590699,0.02880867011845112,0.9815313816070557],"visible":true,"color":[1.0,1.0,1.0,1.0]}, 
{"mainType":"Geometry","id":3,"subtype":"Sphere","position":[-28.498031616210939,1.1943827867507935,-19.224655151367189],"size":[0.10000002384185791,0.09999998658895493,0.10000000894069672],"rotation":[-0.026495477184653283,0.33938363194465639,-0.11184036731719971,0.9335997104644775],"visible":true,"color":[1.0,1.0,1.0,1.0]} 
], 
 "events": []}