{"objects" : [
{"mainType":"Geometry","id":7,"subtype":"Sphere","position":[-31.917064666748048,0.6913890242576599,-20.623247146606447],"size":[0.10000003129243851,0.10000000894069672,0.10000003129243851],"rotation":[0.011094748973846436,-0.00649261474609375,-0.3425213098526001,0.9394221305847168],"visible":true,"color":[1.0,1.0,1.0,1.0]}, 
{"mainType":"Images","id":6,"subtype":"Game Over","position":[-32.42318344116211,1.5689871311187745,-19.610353469848634],"size":[0.0010000001639127732,0.0010000001639127732,0.0010000001639127732],"rotation":[-0.04482291638851166,-0.21415990591049195,0.006519644521176815,-0.9757478833198547],"visible":true,"color":[0.0,0.0,0.0,0.0]}, 
{"mainType":"Geometry","id":3,"subtype":"Cube","position":[-32.39876174926758,1.2894173860549927,-20.1713924407959],"size":[0.10000002384185791,0.10000000894069672,0.10000000149011612],"rotation":[0.01933380775153637,-0.13835425674915315,-0.02835138887166977,0.9897881150245667],"visible":true,"color":[1.0,1.0,1.0,1.0]} 
], 
 "events": [{"mainType":"Move","id":2,"target":7,"animations":[],"previousIcon":-1,"nextIcon":-1,"color":[],"holdingHand":-1,"trajectory":"[[-31.91706,0.691389,-20.62325], [-32.01536,1.396421,-20.58707], [-31.95765,1.175583,-20.56506], [-31.91837,0.9090804,-20.57945], [-31.91685,0.6776723,-20.62587], [-31.95194,0.4605605,-20.6361], [-31.98685,0.3073626,-20.64102], [-32.02495,0.1933935,-20.63513], [-32.05727,0.1185256,-20.61194], [-32.0592,0.1107795,-20.62345]]","rotations":"[[0.008626759,-0.02548701,-0.03149462,0.9991417], [0.003119454,-0.02120721,-0.04801334,0.9986167], [-0.005741023,-0.03709891,-0.1469974,0.9884243], [0.00161422,-0.03071871,-0.2532346,0.9669158], [0.01109475,-0.006492615,-0.3425213,0.9394221], [0.00734207,0.0007531643,-0.4247617,0.9052752], [0.00736928,0.009416282,-0.4794344,0.8774962], [0.003344551,0.01501295,-0.5201073,0.8539625], [-0.0007835776,0.00851053,-0.5475905,0.8367029], [-0.01146659,0.02045548,-0.5490063,0.8354892], [-0.01146659,0.02045548,-0.5490063,0.8354892], [-0.01146659,0.02045548,-0.5490063,0.8354892]]","collided":-1,"followDirection":false}, 
{"mainType":"Collision","id":1,"target":0,"animations":[2],"previousIcon":-1,"nextIcon":-1,"color":[],"holdingHand":-1,"trajectory":"","rotations":"","collided":3,"followDirection":false}]}