{"objects" : [
{"mainType":"Images","id":6,"subtype":"Game Over","position":[-32.42318344116211,1.5689871311187745,-19.610353469848634],"size":[0.0010000001639127732,0.0010000001639127732,0.0010000001639127732],"rotation":[-0.04482291638851166,-0.21415990591049195,0.006519644521176815,-0.9757478833198547],"visible":true,"color":[0.0,0.0,0.0,0.0]}, 
{"mainType":"3DProps","id":5,"subtype":"Plant","position":[-31.866670608520509,1.2749323844909669,-21.488616943359376],"size":[1.000000238418579,1.0000001192092896,1.0000001192092896],"rotation":[-0.05743122100830078,0.9923197031021118,0.04968780279159546,0.09764380753040314],"visible":true,"color":[0.0,0.0,0.0,0.0]}, 
{"mainType":"Geometry","id":4,"subtype":"Sphere","position":[-32.01289367675781,1.4139336347579957,-20.460556030273439],"size":[0.10000000149011612,0.1000000387430191,0.10000001639127732],"rotation":[-0.03206229209899902,0.08197968453168869,-0.043338216841220859,0.9951748847961426],"visible":true,"color":[1.0,1.0,1.0,1.0]}, 
{"mainType":"Geometry","id":3,"subtype":"Cube","position":[-32.151546478271487,1.4216054677963257,-20.18013572692871],"size":[0.10000001639127732,0.10000000894069672,0.10000000894069672],"rotation":[-0.009460389614105225,0.0022091567516326906,-0.008665993809700013,0.9999153017997742],"visible":true,"color":[1.0,1.0,1.0,1.0]} 
], 
 "events": []}