{"objects" : [
{"mainType":"3DProps","id":9,"subtype":"WireCutters","position":[-33.096553802490237,1.1077964305877686,-19.240619659423829],"size":[1.0000001192092896,1.0,1.000000238418579],"rotation":[0.13861389458179475,0.8602803349494934,0.16205334663391114,0.4630795419216156],"visible":true,"color":[0.0,0.0,0.0,0.0]}, 
{"mainType":"3DProps","id":8,"subtype":"cable1Red","position":[-33.235076904296878,0.9766566753387451,-19.47780418395996],"size":[0.9999995231628418,0.9999998211860657,0.9999997615814209],"rotation":[0.5898743867874146,0.7724486589431763,-0.05447625741362572,0.2289184331893921],"visible":true,"color":[0.0,0.0,0.0,0.0]}, 
{"mainType":"3DProps","id":7,"subtype":"cable1Blue","position":[-33.240020751953128,1.0107405185699463,-19.494312286376954],"size":[1.0000001192092896,1.0000004768371583,0.9999998211860657],"rotation":[0.14560158550739289,0.8699100017547607,-0.34632521867752077,0.319555401802063],"visible":true,"color":[0.0,0.0,0.0,0.0]}, 
{"mainType":"3DProps","id":5,"subtype":"cable1Green","position":[-33.27328872680664,1.033786654472351,-19.482830047607423],"size":[0.9999997019767761,0.9999997019767761,0.9999998211860657],"rotation":[-0.3731240928173065,0.6442631483078003,-0.5650578141212463,0.35554611682891848],"visible":true,"color":[0.0,0.0,0.0,0.0]}, 
{"mainType":"3DProps","id":3,"subtype":"BombBall","position":[-33.19464874267578,0.9953449964523315,-19.548851013183595],"size":[0.9999997615814209,1.0,1.0],"rotation":[0.13254447281360627,0.8650819659233093,-0.3747928738594055,0.3059338331222534],"visible":true,"color":[0.0,0.0,0.0,0.0]} 
], 
 "events": [{"mainType":"Move","id":16,"target":9,"animations":[],"previousIcon":15,"nextIcon":-1,"color":[],"holdingHand":-1,"trajectory":"[[-33.09655,1.107796,-19.24062], [-33.32455,1.08441,-19.52171], [-33.32129,1.109807,-19.49736], [-33.29683,1.137664,-19.45635], [-33.2639,1.157845,-19.42209], [-33.2304,1.168352,-19.40032], [-33.1986,1.166517,-19.38622], [-33.17548,1.152713,-19.39027], [-33.15792,1.137818,-19.4], [-33.14768,1.133785,-19.40936], [-33.14952,1.12916,-19.42674]]","rotations":"[[0.2232014,0.891002,0.1466457,0.36714], [0.2208293,0.8914161,0.1626651,0.3607658], [0.2098188,0.8899213,0.1754692,0.3650025], [0.1973286,0.8795712,0.1959322,0.3860398], [0.189677,0.8670616,0.2132918,0.4083305], [0.1852798,0.8569519,0.2244897,0.4253345], [0.1871796,0.8474638,0.2297965,0.4404118], [0.1898502,0.8450769,0.2227626,0.4474134], [0.1953762,0.843558,0.2166503,0.450889], [0.2035889,0.8410082,0.2195622,0.4506098], [0.2102654,0.8440979,0.2166908,0.443094]]","collided":-1,"followDirection":false}, 
{"mainType":"Move","id":15,"target":9,"animations":[],"previousIcon":14,"nextIcon":16,"color":[],"holdingHand":-1,"trajectory":"[[-33.09655,1.107796,-19.24062], [-33.08423,1.011906,-19.29081], [-33.09812,1.018267,-19.28853], [-33.1275,1.027595,-19.29344], [-33.16489,1.041494,-19.30619], [-33.2081,1.056251,-19.33353], [-33.24955,1.065418,-19.3707], [-33.28376,1.067203,-19.41401], [-33.30019,1.07165,-19.45019], [-33.30295,1.072536,-19.47712], [-33.29929,1.062467,-19.49728], [-33.30103,1.053417,-19.52134], [-33.30454,1.054448,-19.53753]]","rotations":"[[0.1814745,0.82903,0.1434009,0.5091293], [0.1870722,0.8385914,0.14194,0.4915502], [0.1937097,0.8391361,0.147427,0.4864078], [0.1909268,0.8481369,0.1454535,0.4722861], [0.1890827,0.8589885,0.1456803,0.4529502], [0.1914748,0.8710299,0.1472336,0.4277461], [0.2026816,0.880018,0.1491815,0.4027822], [0.218673,0.8863745,0.1489205,0.3799278], [0.2313692,0.887783,0.1543162,0.3667375], [0.2339281,0.8880562,0.1559279,0.3637589], [0.2180452,0.8923466,0.1429265,0.3684373], [0.2191182,0.8933688,0.1391322,0.3667721], [0.2218544,0.8932215,0.1423782,0.3642314]]","collided":-1,"followDirection":false}, 
{"mainType":"Collision","id":14,"target":9,"animations":[],"previousIcon":13,"nextIcon":15,"color":[],"holdingHand":-1,"trajectory":"","rotations":"","collided":3,"followDirection":false}, 
{"mainType":"Collision","id":13,"target":9,"animations":[],"previousIcon":12,"nextIcon":14,"color":[],"holdingHand":-1,"trajectory":"","rotations":"","collided":5,"followDirection":false}, 
{"mainType":"Collision","id":12,"target":9,"animations":[],"previousIcon":11,"nextIcon":13,"color":[],"holdingHand":-1,"trajectory":"","rotations":"","collided":7,"followDirection":false}, 
{"mainType":"Collision","id":11,"target":9,"animations":[],"previousIcon":-1,"nextIcon":12,"color":[],"holdingHand":-1,"trajectory":"","rotations":"","collided":8,"followDirection":false}, 
{"mainType":"Grab","id":4,"target":9,"animations":[],"previousIcon":-1,"nextIcon":-1,"color":[],"holdingHand":0,"trajectory":"","rotations":"","collided":-1,"followDirection":false}]}