{"objects" : [
{"mainType":"3DProps","id":6,"subtype":"Plant","position":[-29.620023727416993,0.6322444677352905,-17.96596908569336],"size":[1.0000001192092896,1.0000001192092896,0.9999998807907105],"rotation":[-0.37781447172164919,-0.8029887676239014,-0.04037820175290108,-0.4591676890850067],"visible":true,"color":[0.0,0.0,0.0,0.0]}, 
{"mainType":"Geometry","id":5,"subtype":"Cylinder","position":[-31.44389533996582,1.389270305633545,-18.079212188720704],"size":[0.10000001639127732,0.10000000894069672,0.10000000149011612],"rotation":[0.004192835185676813,-0.013052523136138916,0.019860979169607164,0.9997087717056274],"visible":true,"color":[1.0,1.0,1.0,1.0]}, 
{"mainType":"Geometry","id":4,"subtype":"Cube","position":[-30.355201721191408,1.3305140733718873,-18.544416427612306],"size":[0.10000000894069672,0.09999998658895493,0.10000000149011612],"rotation":[-0.026207437738776208,0.18729513883590699,0.02880867011845112,0.9815313816070557],"visible":true,"color":[1.0,1.0,1.0,1.0]}, 
{"mainType":"Geometry","id":3,"subtype":"Sphere","position":[-28.498031616210939,1.1943827867507935,-19.224655151367189],"size":[0.10000002384185791,0.09999998658895493,0.10000000894069672],"rotation":[-0.026495477184653283,0.33938363194465639,-0.11184036731719971,0.9335997104644775],"visible":true,"color":[1.0,1.0,1.0,1.0]} 
], 
 "events": [{"mainType":"Move","id":1,"target":4,"animations":[],"previousIcon":-1,"nextIcon":-1,"color":[],"holdingHand":-1,"trajectory":"[[-30.3552,1.330514,-18.54442], [-30.37409,1.337625,-18.52212], [-30.3881,1.302085,-18.48427], [-30.4045,1.271075,-18.4473], [-30.42853,1.249529,-18.394], [-30.44789,1.23961,-18.35593], [-30.46517,1.229548,-18.32517], [-30.4812,1.230273,-18.30077], [-30.49948,1.214397,-18.27132], [-30.53009,1.206961,-18.21988], [-30.58031,1.20687,-18.13436], [-30.64469,1.195054,-18.03211], [-30.70646,1.163961,-17.94304], [-30.772,1.108018,-17.85502], [-30.85001,1.024676,-17.76217], [-30.91703,0.9466297,-17.6904], [-30.98504,0.8501729,-17.6288], [-31.06006,0.7595471,-17.56929], [-31.11459,0.6900895,-17.53118], [-31.16893,0.6113309,-17.50138], [-31.1868,0.5693896,-17.49509], [-31.21893,0.519531,-17.48232], [-31.27249,0.4468373,-17.46399], [-31.31125,0.3855611,-17.45686], [-31.34763,0.3211974,-17.4565], [-31.37107,0.2893695,-17.45248], [-31.41608,0.227521,-17.44866], [-31.4677,0.1628512,-17.4434], [-31.49034,0.1299505,-17.44269], [-31.51585,0.09688486,-17.44138], [-31.54013,0.05728068,-17.4461], [-31.57631,0.01676347,-17.4459], [-31.5705,-0.009775143,-17.46315], [-31.5708,-0.02931951,-17.47445], [-31.58179,-0.04599808,-17.47873], [-31.59124,-0.05673276,-17.48009]]","rotations":"[[-0.0256859,0.1778176,0.03903968,0.9829533], [0.005466423,0.1819296,0.04650469,0.982196], [0.01327852,0.1729593,0.04270292,0.9839132], [0.02393092,0.1635912,0.04173203,0.9853545], [0.02023812,0.1504909,0.03488199,0.9877884], [0.0266723,0.1408857,0.03618203,0.9890049], [0.02972439,0.1328488,0.0357066,0.9900468], [0.03228067,0.1260914,0.03743595,0.9907863], [0.03835277,0.1179315,0.03755978,0.9915696], [0.04852809,0.1046245,0.04284778,0.9924026], [0.06534094,0.08342367,0.05518409,0.9928373], [0.08387291,0.0573734,0.06765276,0.9925203], [0.1018158,0.03358608,0.07583283,0.99134], [0.1220683,0.008618952,0.08027755,0.9892323], [0.1518194,-0.02009991,0.08683448,0.9843813], [0.1790126,-0.0443826,0.09338804,0.9783983], [0.211545,-0.06871033,0.1009458,0.96971], [0.237189,-0.0936985,0.1057513,0.9611341], [0.2552972,-0.1117747,0.1086876,0.95421], [0.2739038,-0.1295669,0.109309,0.9466999], [0.2870897,-0.136701,0.1122365,0.9414325], [0.2989961,-0.1469219,0.1129558,0.9360856], [0.314219,-0.1626171,0.1126132,0.9285152], [0.3263677,-0.1740332,0.1110262,0.922426], [0.3420923,-0.1856874,0.111922,0.9143121], [0.3534249,-0.1937598,0.1172557,0.9076338], [0.3691134,-0.2076077,0.1207862,0.8978113], [0.3846857,-0.2231929,0.1248016,0.8869196], [0.3916484,-0.230415,0.1254107,0.8819256], [0.4065543,-0.2403456,0.1366416,0.8707909], [0.4243232,-0.250526,0.149547,0.8572177], [0.4402669,-0.2630671,0.1623092,0.8429807], [0.4639472,-0.2680064,0.185231,0.823781], [0.4739951,-0.2706424,0.1922465,0.8155505], [0.4836458,-0.2755417,0.2020944,0.8058048], [0.488937,-0.2788862,0.2076467,0.8000287]]","collided":-1,"followDirection":false}]}