{"objects" : [
{"mainType":"3DProps","id":9,"subtype":"WireCutters","position":[-32.8863639831543,1.1800599098205567,-19.02080535888672],"size":[1.0000003576278687,1.0000003576278687,1.000000238418579],"rotation":[0.13944756984710694,0.7520026564598084,0.2958851456642151,0.5722748041152954],"visible":true,"color":[0.0,0.0,0.0,0.0]}, 
{"mainType":"3DProps","id":8,"subtype":"cable1Red","position":[-33.21727752685547,0.9261054992675781,-19.41907501220703],"size":[0.9999995231628418,0.9999998211860657,0.9999996423721314],"rotation":[0.6055318713188171,0.74767005443573,-0.05333525687456131,0.26735010743141177],"visible":true,"color":[0.0,0.0,0.0,0.0]}, 
{"mainType":"3DProps","id":7,"subtype":"cable1Blue","position":[-33.21730422973633,1.11378014087677,-19.580598831176759],"size":[1.0,1.0000003576278687,0.9999996423721314],"rotation":[0.05847067013382912,0.9131078124046326,-0.29561784863471987,0.2746370732784271],"visible":true,"color":[0.0,0.0,0.0,0.0]}, 
{"mainType":"3DProps","id":5,"subtype":"cable1Green","position":[-33.36634063720703,1.0326151847839356,-19.608905792236329],"size":[0.9999996423721314,0.9999997019767761,1.0],"rotation":[-0.41653764247894289,0.6946209073066711,-0.5123440027236939,0.28548523783683779],"visible":true,"color":[0.0,0.0,0.0,0.0]}, 
{"mainType":"3DProps","id":3,"subtype":"BombBall","position":[-33.19464874267578,0.9953449964523315,-19.548851013183595],"size":[0.9999997615814209,1.0,1.0],"rotation":[0.13254447281360627,0.8650819659233093,-0.3747928738594055,0.3059338331222534],"visible":true,"color":[0.0,0.0,0.0,0.0]} 
], 
 "events": [{"mainType":"Hide","id":23,"target":5,"animations":[],"previousIcon":-1,"nextIcon":-1,"color":[],"holdingHand":-1,"trajectory":"","rotations":"","collided":-1,"followDirection":false}, 
{"mainType":"Collision","id":22,"target":0,"animations":[],"previousIcon":21,"nextIcon":-1,"color":[],"holdingHand":-1,"trajectory":"","rotations":"","collided":-1,"followDirection":false}, 
{"mainType":"Grab","id":21,"target":-1,"animations":[],"previousIcon":-1,"nextIcon":22,"color":[],"holdingHand":0,"trajectory":"[[-33.69989,1.09999,-18.65419]]","rotations":"","collided":-1,"followDirection":false}, 
{"mainType":"Hide","id":20,"target":8,"animations":[],"previousIcon":-1,"nextIcon":-1,"color":[],"holdingHand":-1,"trajectory":"","rotations":"","collided":-1,"followDirection":false}, 
{"mainType":"Collision","id":13,"target":9,"animations":[-1,-1],"previousIcon":12,"nextIcon":-1,"color":[],"holdingHand":-1,"trajectory":"","rotations":"","collided":5,"followDirection":false}, 
{"mainType":"Collision","id":12,"target":9,"animations":[23],"previousIcon":11,"nextIcon":13,"color":[],"holdingHand":-1,"trajectory":"","rotations":"","collided":7,"followDirection":false}, 
{"mainType":"Collision","id":11,"target":9,"animations":[20],"previousIcon":-1,"nextIcon":12,"color":[],"holdingHand":-1,"trajectory":"","rotations":"","collided":8,"followDirection":false}, 
{"mainType":"Grab","id":4,"target":9,"animations":[11],"previousIcon":-1,"nextIcon":-1,"color":[],"holdingHand":0,"trajectory":"","rotations":"","collided":-1,"followDirection":false}]}