{"objects" : [
{"mainType":"Geometry","id":7,"subtype":"Sphere","position":[-32.032596588134769,1.4337018728256226,-20.57654571533203],"size":[0.10000001639127732,0.10000000149011612,0.10000001639127732],"rotation":[0.008626759052276612,-0.025487005710601808,-0.0314946249127388,0.9991416931152344],"visible":true,"color":[1.0,1.0,1.0,1.0]}, 
{"mainType":"Images","id":6,"subtype":"Game Over","position":[-32.42318344116211,1.5689871311187745,-19.610353469848634],"size":[0.0010000001639127732,0.0010000001639127732,0.0010000001639127732],"rotation":[-0.04482291638851166,-0.21415990591049195,0.006519644521176815,-0.9757478833198547],"visible":true,"color":[0.0,0.0,0.0,0.0]}, 
{"mainType":"3DProps","id":5,"subtype":"Plant","position":[-31.866670608520509,1.2749323844909669,-21.488616943359376],"size":[1.000000238418579,1.0000001192092896,1.0000001192092896],"rotation":[-0.05743122100830078,0.9923197031021118,0.04968780279159546,0.09764380753040314],"visible":true,"color":[0.0,0.0,0.0,0.0]}, 
{"mainType":"Geometry","id":3,"subtype":"Cube","position":[-32.39876174926758,1.2894173860549927,-20.1713924407959],"size":[0.10000002384185791,0.10000000894069672,0.10000000149011612],"rotation":[0.01933380775153637,-0.13835425674915315,-0.02835138887166977,0.9897881150245667],"visible":true,"color":[1.0,1.0,1.0,1.0]} 
], 
 "events": [{"mainType":"Collision","id":1,"target":0,"animations":[],"previousIcon":-1,"nextIcon":-1,"color":[],"holdingHand":-1,"trajectory":"","rotations":"","collided":3,"followDirection":false}]}