{"objects" : [
{"mainType":"Geometry","id":3,"subtype":"Cylinder","position":[-34.03014373779297,1.0160093307495118,-17.157094955444337],"size":[0.09999994933605194,0.1000000387430191,0.09999994933605194],"rotation":[-7.38131153421584e-11,-2.9802318834981635e-8,-1.0386306259491108e-9,1.0],"visible":true,"color":[1.0,1.0,1.0,1.0]} 
], 
 "events": [{"mainType":"ZoneCollider","id":0,"target":-1,"animations":[],"previousIcon":-1,"nextIcon":-1,"color":[],"holdingHand":-1,"trajectory":"[[0,0.05,0], [-0.8732796,0,-0.3631382], [-0.8041534,0,-1.228029], [0.3043747,0,-0.9419632], [0,0.05,0]]","rotations":"","collided":-1,"followDirection":false}, 
{"mainType":"Move","id":4,"target":3,"animations":[],"previousIcon":3,"nextIcon":-1,"color":[],"holdingHand":-1,"trajectory":"[[-34.03014,1.016009,-17.15709], [-33.77044,0.7820192,-18.14191], [-33.80493,0.7782969,-18.2508], [-33.91736,0.8090446,-18.42234], [-34.14034,0.8670425,-18.6031], [-34.4028,0.8732142,-18.70852], [-34.54301,0.8259084,-18.73645], [-34.53351,0.8228664,-18.73552]]","rotations":"[[-0.1296375,0.5208597,-0.1501893,0.8302666], [-0.1501796,0.5254951,-0.1620091,0.8216169], [-0.1850982,0.5682148,-0.1545483,0.7867564], [-0.2359787,0.6436242,-0.1139337,0.7190837], [-0.3050577,0.7298451,-0.03152988,0.6109599], [-0.3490683,0.8013651,0.0366754,0.4843763], [-0.3507724,0.8428559,0.03922781,0.4062192], [-0.3249528,0.8517562,0.0255693,0.4101992], [-0.3249528,0.8517562,0.0255693,0.4101992], [-0.3249528,0.8517562,0.0255693,0.4101992]]","collided":-1,"followDirection":false}, 
{"mainType":"ExitZone","id":3,"target":3,"animations":[],"previousIcon":1,"nextIcon":4,"color":[],"holdingHand":-1,"trajectory":"","rotations":"","collided":0,"followDirection":false}, 
{"mainType":"EnterZone","id":1,"target":3,"animations":[],"previousIcon":-1,"nextIcon":3,"color":[],"holdingHand":-1,"trajectory":"","rotations":"","collided":0,"followDirection":false}]}