{"objects" : [
{"mainType":"3DProps","id":20,"subtype":"bonhomme","position":[-31.480207443237306,0.6504871845245361,-21.32320785522461],"size":[0.30000001192092898,0.30000001192092898,0.2999999225139618],"rotation":[0.005142414942383766,0.9119279980659485,-0.02477364055812359,0.40956947207450869],"visible":true,"color":[0.0,0.0,0.0,0.0]}, 
{"mainType":"3DProps","id":19,"subtype":"small-watermelon","position":[-31.379430770874025,1.2337371110916138,-20.77358055114746],"size":[99.99999237060547,100.00000762939453,99.9999771118164],"rotation":[0.08306219428777695,0.6124191284179688,-0.1652761697769165,0.7685878276824951],"visible":true,"color":[0.800000011920929,0.800000011920929,0.800000011920929,1.0]}, 
{"mainType":"3DProps","id":18,"subtype":"grape_highpoly","position":[-31.458730697631837,1.434203863143921,-21.135374069213868],"size":[0.9999998807907105,1.0000001192092896,0.9999998807907105],"rotation":[-0.2618240714073181,0.7536765336990356,-0.158308744430542,0.5816856622695923],"visible":true,"color":[0.0,0.0,0.0,0.0]}, 
{"mainType":"Geometry","id":13,"subtype":"Capsule","position":[-32.08384323120117,1.0931529998779297,-19.96671485900879],"size":[0.09999997913837433,0.10000000894069672,0.09999998658895493],"rotation":[-0.0002352692827116698,0.08049564808607102,0.006449737586081028,0.996734082698822],"visible":true,"color":[1.0,1.0,1.0,1.0]}, 
{"mainType":"Geometry","id":12,"subtype":"Cylinder","position":[-32.70560073852539,1.167079210281372,-19.493940353393556],"size":[0.10000002384185791,0.10000000894069672,0.1000000536441803],"rotation":[-0.019133446738123895,-0.25127413868904116,-0.029864272102713586,-0.9672659635543823],"visible":true,"color":[1.0,1.0,1.0,1.0]}, 
{"mainType":"Geometry","id":11,"subtype":"Sphere","position":[-33.089324951171878,1.1276942491531373,-18.95522117614746],"size":[0.10000000894069672,0.10000000149011612,0.09999999403953552],"rotation":[-0.0428321547806263,-0.37035641074180605,0.0026761291082948448,-0.9278978109359741],"visible":true,"color":[1.0,1.0,1.0,1.0]}, 
{"mainType":"Geometry","id":10,"subtype":"Cube","position":[-33.20927047729492,1.140293836593628,-18.389074325561525],"size":[0.10000007599592209,0.10000000149011612,0.1000000461935997],"rotation":[0.013880054466426373,0.10225186496973038,-0.0029587203171104194,0.9946573376655579],"visible":true,"color":[1.0,1.0,1.0,1.0]}, 
{"mainType":"Images","id":9,"subtype":"PlaceHolder5","position":[-31.882183074951173,0.04398912191390991,-20.815752029418947],"size":[0.0009999999310821295,0.0010000001639127732,0.0009999998146668077],"rotation":[-0.3164176940917969,-0.6386743783950806,0.6354308128356934,-0.2969893217086792],"visible":true,"color":[0.0,0.0,0.0,0.0]}, 
{"mainType":"Images","id":8,"subtype":"PlaceHolder4","position":[-32.439029693603519,0.04495018720626831,-20.37419319152832],"size":[0.0009999996982514859,0.001000000280328095,0.0010000006295740605],"rotation":[0.31294000148773196,0.6504169702529907,-0.6345206499099731,0.27642345428466799],"visible":true,"color":[0.0,0.0,0.0,0.0]}, 
{"mainType":"Images","id":7,"subtype":"PlaceHolder3","position":[-33.17647171020508,0.05011492967605591,-19.97431182861328],"size":[0.0010000005131587387,0.0010000007459893823,0.0010000001639127732],"rotation":[0.2490311712026596,0.6714262962341309,-0.6676694750785828,0.2034398317337036],"visible":true,"color":[0.0,0.0,0.0,0.0]}, 
{"mainType":"Images","id":6,"subtype":"PlaceHolder3","position":[-33.06776809692383,-0.0290755033493042,-20.06857681274414],"size":[0.0009999996982514859,0.0010000000474974514,0.0009999996982514859],"rotation":[0.2610618770122528,0.6704303622245789,-0.6579765677452087,0.22234399616718293],"visible":true,"color":[0.0,0.0,0.0,0.0]}, 
{"mainType":"Images","id":5,"subtype":"PlaceHolder2","position":[-33.571311950683597,0.021103382110595704,-19.30434799194336],"size":[0.0010000000474974514,0.0010000005131587387,0.001000000280328095],"rotation":[0.05604629963636398,0.7098636031150818,-0.6993016600608826,0.06268840283155441],"visible":true,"color":[0.0,0.0,0.0,0.0]}, 
{"mainType":"Images","id":4,"subtype":"PlaceHolder1","position":[-33.724735260009769,0.04927253723144531,-18.465084075927736],"size":[0.001000000280328095,0.0010000005131587387,0.0009999999310821295],"rotation":[-0.06720016896724701,-0.7017000913619995,0.7064736485481262,-0.06321452558040619],"visible":true,"color":[0.0,0.0,0.0,0.0]} 
], 
 "events": []}