{"objects" : [
{"mainType":"3DProps","id":20,"subtype":"bonhomme","position":[-31.480207443237306,0.6504871845245361,-21.32320785522461],"size":[0.30000001192092898,0.30000001192092898,0.2999999225139618],"rotation":[0.005142414942383766,0.9119279980659485,-0.02477364055812359,0.40956947207450869],"visible":true,"color":[0.0,0.0,0.0,0.0]}, 
{"mainType":"3DProps","id":19,"subtype":"small-watermelon","position":[-31.379430770874025,1.2337371110916138,-20.77358055114746],"size":[99.99999237060547,100.00000762939453,99.9999771118164],"rotation":[0.08306219428777695,0.6124191284179688,-0.1652761697769165,0.7685878276824951],"visible":true,"color":[0.800000011920929,0.800000011920929,0.800000011920929,1.0]}, 
{"mainType":"3DProps","id":18,"subtype":"grape_highpoly","position":[-31.458730697631837,1.434203863143921,-21.135374069213868],"size":[0.9999998807907105,1.0000001192092896,0.9999998807907105],"rotation":[-0.2618240714073181,0.7536765336990356,-0.158308744430542,0.5816856622695923],"visible":true,"color":[0.0,0.0,0.0,0.0]}, 
{"mainType":"Geometry","id":13,"subtype":"Capsule","position":[-32.08384323120117,1.0931529998779297,-19.96671485900879],"size":[0.09999997913837433,0.10000000894069672,0.09999998658895493],"rotation":[-0.0002352692827116698,0.08049564808607102,0.006449737586081028,0.996734082698822],"visible":true,"color":[1.0,1.0,1.0,1.0]}, 
{"mainType":"Geometry","id":12,"subtype":"Cylinder","position":[-32.70560073852539,1.167079210281372,-19.493940353393556],"size":[0.10000002384185791,0.10000000894069672,0.1000000536441803],"rotation":[-0.019133446738123895,-0.25127413868904116,-0.029864272102713586,-0.9672659635543823],"visible":true,"color":[1.0,1.0,1.0,1.0]}, 
{"mainType":"Geometry","id":11,"subtype":"Sphere","position":[-33.089324951171878,1.1276942491531373,-18.95522117614746],"size":[0.10000000894069672,0.10000000149011612,0.09999999403953552],"rotation":[-0.0428321547806263,-0.37035641074180605,0.0026761291082948448,-0.9278978109359741],"visible":true,"color":[1.0,1.0,1.0,1.0]}, 
{"mainType":"Geometry","id":10,"subtype":"Cube","position":[-33.20927047729492,1.140293836593628,-18.389074325561525],"size":[0.10000007599592209,0.10000000149011612,0.1000000461935997],"rotation":[0.013880054466426373,0.10225186496973038,-0.0029587203171104194,0.9946573376655579],"visible":true,"color":[1.0,1.0,1.0,1.0]}, 
{"mainType":"Images","id":9,"subtype":"PlaceHolder5","position":[-31.882183074951173,0.04398912191390991,-20.815752029418947],"size":[0.0009999999310821295,0.0010000001639127732,0.0009999998146668077],"rotation":[-0.3164176940917969,-0.6386743783950806,0.6354308128356934,-0.2969893217086792],"visible":true,"color":[0.0,0.0,0.0,0.0]}, 
{"mainType":"Images","id":8,"subtype":"PlaceHolder4","position":[-32.439029693603519,0.04495018720626831,-20.37419319152832],"size":[0.0009999996982514859,0.001000000280328095,0.0010000006295740605],"rotation":[0.31294000148773196,0.6504169702529907,-0.6345206499099731,0.27642345428466799],"visible":true,"color":[0.0,0.0,0.0,0.0]}, 
{"mainType":"Images","id":7,"subtype":"PlaceHolder3","position":[-33.17647171020508,0.05011492967605591,-19.97431182861328],"size":[0.0010000005131587387,0.0010000007459893823,0.0010000001639127732],"rotation":[0.2490311712026596,0.6714262962341309,-0.6676694750785828,0.2034398317337036],"visible":true,"color":[0.0,0.0,0.0,0.0]}, 
{"mainType":"Images","id":6,"subtype":"PlaceHolder3","position":[-33.06776809692383,-0.0290755033493042,-20.06857681274414],"size":[0.0009999996982514859,0.0010000000474974514,0.0009999996982514859],"rotation":[0.2610618770122528,0.6704303622245789,-0.6579765677452087,0.22234399616718293],"visible":true,"color":[0.0,0.0,0.0,0.0]}, 
{"mainType":"Images","id":5,"subtype":"PlaceHolder2","position":[-33.571311950683597,0.021103382110595704,-19.30434799194336],"size":[0.0010000000474974514,0.0010000005131587387,0.001000000280328095],"rotation":[0.05604629963636398,0.7098636031150818,-0.6993016600608826,0.06268840283155441],"visible":true,"color":[0.0,0.0,0.0,0.0]}, 
{"mainType":"Images","id":4,"subtype":"PlaceHolder1","position":[-33.724735260009769,0.04927253723144531,-18.465084075927736],"size":[0.001000000280328095,0.0010000005131587387,0.0009999999310821295],"rotation":[-0.06720016896724701,-0.7017000913619995,0.7064736485481262,-0.06321452558040619],"visible":true,"color":[0.0,0.0,0.0,0.0]} 
], 
 "events": [{"mainType":"Move","id":8,"target":2,"animations":[],"previousIcon":6,"nextIcon":-1,"color":[],"holdingHand":-1,"trajectory":"[[-33.20626,1,-19.892], [-33.19008,1,-19.91239], [-33.16907,1,-19.92889], [-33.14534,1,-19.94491], [-33.10242,1,-19.99504], [-33.03783,1,-20.09001], [-33.01709,1,-20.11489], [-33.0101,1,-20.11172], [-32.99328,1,-20.13054], [-32.97117,1,-20.16514], [-32.93686,1,-20.23156], [-32.90157,1,-20.30862], [-32.88558,1,-20.30906], [-32.83014,1,-20.31072], [-32.7743,1,-20.3165], [-32.71926,1,-20.32454], [-32.65596,1,-20.35733], [-32.59223,1,-20.40123], [-32.52866,1,-20.4475], [-32.47313,1,-20.4583], [-32.41404,1,-20.48542], [-32.35167,1,-20.52691], [-32.28604,1,-20.58317], [-32.22314,1,-20.62821], [-32.15646,1,-20.69366], [-32.09406,1,-20.73752], [-32.03496,1,-20.75454], [-31.97846,1,-20.76133], [-31.92373,1,-20.76514], [-31.8898,1,-20.81285], [-31.88563,1,-20.88571]]","rotations":"[[0.001427385,0.719919,0.01266922,-0.693941], [-0.008029379,0.7150943,0.01693327,-0.6987768], [-0.001004847,0.7094184,0.007384471,-0.7047482], [-0.01573925,0.70346,0.004109245,-0.7105487], [-0.03887897,0.6881012,-0.0194269,-0.7243119], [-0.04138665,0.6613311,-0.03804338,-0.7479846], [-0.04796101,0.653536,-0.01340196,-0.7552556], [-0.04957216,0.6515274,-0.01506353,-0.7568538], [-0.04009484,0.6446163,-0.01924465,-0.7632115], [-0.02573648,0.6341084,-0.01706379,-0.7726274], [-0.02019968,0.615977,-0.02207947,-0.7871956], [-0.01211798,0.5961688,-0.01974535,-0.8025249], [-0.01823322,0.5942287,-0.02033513,-0.8038322], [-0.03554799,0.5891634,-0.02322126,-0.8068976], [-0.03676379,0.583843,-0.02685456,-0.8105891], [-0.03937861,0.5779991,-0.02794925,-0.8146074], [-0.03731887,0.5669417,-0.02828977,-0.8224257], [-0.03518311,0.5541893,-0.02578115,-0.8312471], [-0.03369229,0.5413897,-0.027093,-0.8396595], [-0.02768853,0.5370785,-0.02485442,-0.8427113], [-0.01979855,0.5293682,-0.02519415,-0.847787], [-0.02144941,0.5195482,-0.02329864,-0.8538541], [-0.02736243,0.5072998,-0.01749812,-0.8611573], [-0.0298215,0.4980163,-0.01412495,-0.8665397], [-0.03560732,0.4847167,-0.01799251,-0.8737609], [-0.03865849,0.475933,-0.01635984,-0.8784792], [-0.03608117,0.4722818,-0.01929821,-0.8804975], [-0.04028941,0.4702177,-0.02363603,-0.8813134], [-0.04254567,0.4689007,-0.02257178,-0.8819368], [-0.0340718,0.4600307,-0.02305396,-0.8869495], [-0.0237873,0.4470183,-0.01451697,-0.8940907], [-0.0237873,0.4470183,-0.01451697,-0.8940907]]","collided":-1,"followDirection":false}, 
{"mainType":"Move","id":6,"target":2,"animations":[],"previousIcon":0,"nextIcon":8,"color":[],"holdingHand":-1,"trajectory":"[[-33.57787,1,-18.9882], [-33.58046,1,-19.01741], [-33.55598,1,-19.08947], [-33.52892,1,-19.16846], [-33.4645,1,-19.27081], [-33.42959,1,-19.35855], [-33.44748,1,-19.40337], [-33.43238,1,-19.47978], [-33.37491,1,-19.5944], [-33.35725,1,-19.67327], [-33.31521,1,-19.77465], [-33.2737,1,-19.81544], [-33.23301,1,-19.85736]]","rotations":"[[-0.01722069,-0.8580661,-0.01714879,0.5129639], [-0.02399818,-0.8564685,-0.01808752,0.5153239], [-0.02285295,-0.8497853,-0.02240734,0.5261565], [-0.01852293,-0.8418229,-0.02425888,0.5388903], [-0.0141392,-0.827193,-0.01745734,0.5614686], [-0.01353638,-0.8153902,-0.01748164,0.5784895], [-0.01605527,-0.8127702,-0.01537618,0.5821601], [-0.01566709,-0.8032287,-0.02220703,0.5950505], [-0.02125934,-0.7829311,-0.02755672,0.621134], [-0.01631797,-0.7709106,-0.02245298,0.6363384], [-0.02592584,-0.7511205,-0.01038012,0.6595742], [0.02648208,0.7396477,-0.007745005,-0.6724285], [0.01433269,0.7282266,-0.005294833,-0.6851662]]","collided":-1,"followDirection":false}, 
{"mainType":"Move","id":0,"target":2,"animations":[],"previousIcon":-1,"nextIcon":6,"color":[],"holdingHand":-1,"trajectory":"[[-34.01953,1,-17.94296], [-33.99092,1,-17.98032], [-33.93085,1,-18.01507], [-33.91293,1,-18.04748], [-33.85163,1,-18.08792], [-33.74131,1,-18.13821]]","rotations":"[[0,-0.9160017,0,0.4011743], [0.009740169,-0.9139464,0.002372973,0.405711], [0.004514893,-0.9094659,0.0121917,0.4155754], [-0.0115714,-0.9081871,0.01378714,0.4181773], [-0.02448622,-0.9032769,0.02508523,0.4276238], [-0.01249635,-0.8947603,0.02515951,0.4456623]]","collided":-1,"followDirection":false}]}