{"objects" : [
{"mainType":"Geometry","id":3,"subtype":"Sphere","position":[-34.05830764770508,1.0252320766448975,-17.266843795776368],"size":[0.10000002384185791,0.09999996423721314,0.09999999403953552],"rotation":[3.15017491259173e-11,-5.960463766996327e-8,7.605197027693578e-11,1.0],"visible":true,"color":[1.0,1.0,1.0,1.0]} 
], 
 "events": [{"mainType":"ZoneCollider","id":0,"target":-1,"animations":[],"previousIcon":-1,"nextIcon":-1,"color":[],"holdingHand":-1,"trajectory":"[[0,0.05,0], [-1.058086,0,0.0935173], [-1.469128,0,-1.082798], [-0.03325653,0,-1.460493], [0,0.05,0]]","rotations":"","collided":-1,"followDirection":false}, 
{"mainType":"EnterZone","id":1,"target":3,"animations":[],"previousIcon":-1,"nextIcon":-1,"color":[],"holdingHand":-1,"trajectory":"","rotations":"","collided":0,"followDirection":false}]}