{"objects" : [
{"mainType":"Geometry","id":3,"subtype":"Cube","position":[-34.12392044067383,1.0531920194625855,-17.009708404541017],"size":[0.10000000894069672,0.10000000149011612,0.10000000894069672],"rotation":[0.019961629062891008,-0.11730039119720459,0.03843679651618004,0.9921516180038452],"visible":true,"color":[1.0,1.0,1.0,1.0]} 
], 
 "events": [{"mainType":"Collision","id":1,"target":0,"animations":[],"previousIcon":-1,"nextIcon":-1,"color":[],"holdingHand":-1,"trajectory":"","rotations":"","collided":3,"followDirection":false}]}