{"objects" : [
{"mainType":"Geometry","id":3,"subtype":"Sphere","position":[-33.493927001953128,1.0662240982055665,-17.247455596923829],"size":[0.10000000149011612,0.10000001639127732,0.10000001639127732],"rotation":[-0.36893075704574587,0.07603490352630615,-0.09128565341234207,0.9218328595161438],"visible":true,"color":[1.0,1.0,1.0,1.0]} 
], 
 "events": [{"mainType":"ZoneCollider","id":0,"target":-1,"animations":[],"previousIcon":-1,"nextIcon":-1,"color":[],"holdingHand":-1,"trajectory":"[[0,0.05,0], [-1.271099,0,0.1517868], [-1.503319,0,-1.102068], [0.3968506,0,-1.71895], [0,0.05,0]]","rotations":"","collided":-1,"followDirection":false}]}