{"objects" : [
{"mainType":"3DProps","id":20,"subtype":"bonhomme","position":[-31.480207443237306,0.6504871845245361,-21.32320785522461],"size":[0.30000004172325137,0.30000007152557375,0.2999999225139618],"rotation":[0.005142414942383766,0.9119279980659485,-0.02477364055812359,0.40956947207450869],"visible":true,"color":[0.0,0.0,0.0,0.0]}, 
{"mainType":"3DProps","id":19,"subtype":"small-watermelon","position":[-31.379430770874025,1.2337371110916138,-20.77358055114746],"size":[99.99996948242188,100.0,99.99994659423828],"rotation":[0.08306219428777695,0.6124191284179688,-0.1652761697769165,0.7685878276824951],"visible":true,"color":[0.800000011920929,0.800000011920929,0.800000011920929,1.0]}, 
{"mainType":"Geometry","id":13,"subtype":"Capsule","position":[-32.08384323120117,1.0931529998779297,-19.96671485900879],"size":[0.09999997913837433,0.10000000894069672,0.09999998658895493],"rotation":[-0.0002352692827116698,0.08049564808607102,0.006449737586081028,0.996734082698822],"visible":true,"color":[1.0,1.0,1.0,1.0]}, 
{"mainType":"Geometry","id":12,"subtype":"Cylinder","position":[-32.70560073852539,1.167079210281372,-19.493940353393556],"size":[0.10000002384185791,0.10000000894069672,0.1000000536441803],"rotation":[-0.019133446738123895,-0.25127413868904116,-0.029864272102713586,-0.9672659635543823],"visible":true,"color":[1.0,1.0,1.0,1.0]}, 
{"mainType":"Geometry","id":11,"subtype":"Sphere","position":[-33.089324951171878,1.1276942491531373,-18.95522117614746],"size":[0.10000000894069672,0.10000000149011612,0.09999999403953552],"rotation":[-0.0428321547806263,-0.37035641074180605,0.0026761291082948448,-0.9278978109359741],"visible":true,"color":[1.0,1.0,1.0,1.0]}, 
{"mainType":"Geometry","id":10,"subtype":"Cube","position":[-33.20650863647461,1.1538376808166505,-18.390892028808595],"size":[0.10000011324882508,0.10000000894069672,0.1000000610947609],"rotation":[0.009467115625739098,0.104458749294281,0.00338195962831378,0.9944784641265869],"visible":true,"color":[1.0,1.0,1.0,1.0]}, 
{"mainType":"Images","id":9,"subtype":"PlaceHolder5","position":[-31.882183074951173,0.04398912191390991,-20.815752029418947],"size":[0.0009999999310821295,0.0010000001639127732,0.0009999998146668077],"rotation":[-0.3164176940917969,-0.6386743783950806,0.6354308128356934,-0.2969893217086792],"visible":true,"color":[0.0,0.0,0.0,0.0]}, 
{"mainType":"Images","id":8,"subtype":"PlaceHolder4","position":[-32.439029693603519,0.04495018720626831,-20.37419319152832],"size":[0.0009999996982514859,0.001000000280328095,0.0010000006295740605],"rotation":[0.31294000148773196,0.6504169702529907,-0.6345206499099731,0.27642345428466799],"visible":true,"color":[0.0,0.0,0.0,0.0]}, 
{"mainType":"Images","id":7,"subtype":"PlaceHolder3","position":[-33.17647171020508,0.05011492967605591,-19.97431182861328],"size":[0.0010000005131587387,0.0010000007459893823,0.0010000001639127732],"rotation":[0.2490311712026596,0.6714262962341309,-0.6676694750785828,0.2034398317337036],"visible":true,"color":[0.0,0.0,0.0,0.0]}, 
{"mainType":"Images","id":6,"subtype":"PlaceHolder3","position":[-33.06776809692383,-0.0290755033493042,-20.06857681274414],"size":[0.0009999996982514859,0.0010000000474974514,0.0009999996982514859],"rotation":[0.2610618770122528,0.6704303622245789,-0.6579765677452087,0.22234399616718293],"visible":true,"color":[0.0,0.0,0.0,0.0]}, 
{"mainType":"Images","id":5,"subtype":"PlaceHolder2","position":[-33.571311950683597,0.021103382110595704,-19.30434799194336],"size":[0.0010000000474974514,0.0010000005131587387,0.001000000280328095],"rotation":[0.05604629963636398,0.7098636031150818,-0.6993016600608826,0.06268840283155441],"visible":true,"color":[0.0,0.0,0.0,0.0]}, 
{"mainType":"Images","id":4,"subtype":"PlaceHolder1","position":[-33.724735260009769,0.04927253723144531,-18.465084075927736],"size":[0.001000000280328095,0.0010000005131587387,0.0009999999310821295],"rotation":[-0.06720016896724701,-0.7017000913619995,0.7064736485481262,-0.06321452558040619],"visible":true,"color":[0.0,0.0,0.0,0.0]} 
], 
 "events": [{"mainType":"Move","id":26,"target":20,"animations":[],"previousIcon":-1,"nextIcon":-1,"color":[],"holdingHand":-1,"trajectory":"[[-31.48021,0.6504872,-21.32321], [-31.49925,0.6618627,-21.40975], [-31.5353,0.653984,-21.50406], [-31.60369,0.547953,-21.57936], [-31.66763,0.4134753,-21.59276], [-31.77065,0.2678903,-21.6138], [-31.80064,0.20955,-21.60028], [-31.79538,0.2103395,-21.60199]]","rotations":"[[0.005142415,0.911928,-0.02477364,0.4095695], [-0.09707551,0.9302993,-0.1232433,0.3315584], [-0.1773897,0.9311537,-0.1900644,0.2556587], [-0.2413122,0.9139609,-0.2847578,0.1592385], [-0.2834708,0.8787991,-0.3766951,0.07387358], [-0.3104776,0.8395961,-0.4443582,-0.03503928], [-0.3401755,0.8000506,-0.4862101,-0.08831495], [-0.3472869,0.7938969,-0.4908128,-0.09067752], [-0.3472869,0.7938969,-0.4908128,-0.09067752], [-0.3472869,0.7938969,-0.4908128,-0.09067752]]","collided":-1,"followDirection":false}, 
{"mainType":"Move","id":25,"target":19,"animations":[26],"previousIcon":23,"nextIcon":-1,"color":[],"holdingHand":-1,"trajectory":"[[-31.37943,1.233737,-20.77358], [-31.38685,1.161353,-21.0679], [-31.40461,1.121454,-21.17204], [-31.4257,1.054108,-21.24252], [-31.44265,0.9951796,-21.27147], [-31.45471,1.005232,-21.31678]]","rotations":"[[0.07081454,0.6728995,-0.1898873,0.7114314], [0.06847361,0.6961195,-0.2030356,0.6852048], [0.06987787,0.7252904,-0.2149508,0.6502824], [0.07652189,0.7409024,-0.2401504,0.6225238], [0.08468585,0.7447641,-0.2622298,0.607775], [0.08877387,0.7614489,-0.2502704,0.5913372], [0.08877387,0.7614489,-0.2502704,0.5913372], [0.08877387,0.7614489,-0.2502704,0.5913372], [0.08877387,0.7614489,-0.2502704,0.5913372]]","collided":-1,"followDirection":false}, 
{"mainType":"Collision","id":23,"target":19,"animations":[],"previousIcon":-1,"nextIcon":25,"color":[],"holdingHand":-1,"trajectory":"","rotations":"","collided":18,"followDirection":false}, 
{"mainType":"Hide","id":21,"target":18,"animations":[],"previousIcon":-1,"nextIcon":-1,"color":[],"holdingHand":-1,"trajectory":"","rotations":"","collided":-1,"followDirection":false}, 
{"mainType":"Color","id":20,"target":13,"animations":[],"previousIcon":19,"nextIcon":-1,"color":[0.0966695249080658,0.21752852201461793,0.29832589626312258,1.0],"holdingHand":-1,"trajectory":"","rotations":"","collided":-1,"followDirection":false}, 
{"mainType":"Color","id":19,"target":12,"animations":[],"previousIcon":18,"nextIcon":20,"color":[0.4696280360221863,0.800460934638977,0.1810838133096695,1.0],"holdingHand":-1,"trajectory":"","rotations":"","collided":-1,"followDirection":false}, 
{"mainType":"Color","id":18,"target":11,"animations":[],"previousIcon":17,"nextIcon":19,"color":[0.6472251415252686,0.9249207377433777,0.17539599537849427,1.0],"holdingHand":-1,"trajectory":"","rotations":"","collided":-1,"followDirection":false}, 
{"mainType":"Color","id":17,"target":10,"animations":[],"previousIcon":-1,"nextIcon":18,"color":[0.49166202545166018,0.34938353300094607,0.34938353300094607,1.0],"holdingHand":-1,"trajectory":"","rotations":"","collided":-1,"followDirection":false}, 
{"mainType":"Move","id":15,"target":2,"animations":[21],"previousIcon":14,"nextIcon":-1,"color":[],"holdingHand":-1,"trajectory":"[[-32.473,1,-20.30918], [-32.4081,1,-20.33901], [-32.31123,1,-20.39804], [-32.20685,1,-20.48217], [-32.12498,1,-20.56799], [-32.05231,1,-20.65172], [-32.00578,1,-20.70951], [-31.97754,1,-20.74674]]","rotations":"[[0.05244634,0.008217691,0.01386489,0.9984937], [0.04241397,0.04485664,0.0236456,0.9978124], [0.02923026,0.09943298,0.03212931,0.9940957], [0.02179221,0.1635121,0.03234541,0.9857701], [0.02274526,0.2188731,0.03125641,0.9749873], [-0.0269629,-0.2688234,-0.02868006,-0.9623848], [-0.02671074,-0.3011477,-0.03244739,-0.952651], [-0.03009292,-0.3210095,-0.04180028,-0.9456744]]","collided":-1,"followDirection":false}, 
{"mainType":"Move","id":14,"target":2,"animations":[20],"previousIcon":12,"nextIcon":15,"color":[],"holdingHand":-1,"trajectory":"[[-32.66223,1,-20.11995], [-32.6175,1,-20.15819], [-32.57397,1,-20.20311], [-32.52566,1,-20.25268], [-32.48687,1,-20.29281], [-32.473,1,-20.30918]]","rotations":"[[0.04087319,-0.1099247,0.001264522,0.9930984], [0.0413505,-0.08273488,0.004153146,0.9957048], [0.03746203,-0.05393532,0.005735366,0.997825], [0.03802619,-0.0232189,0.007110749,0.9989817], [0.03967997,0.0009221435,0.008423314,0.9991765], [0.05244634,0.008217691,0.01386489,0.9984937], [0.05244634,0.008217691,0.01386489,0.9984937], [0.05244634,0.008217691,0.01386489,0.9984937]]","collided":-1,"followDirection":false}, 
{"mainType":"Move","id":12,"target":2,"animations":[],"previousIcon":11,"nextIcon":14,"color":[],"holdingHand":-1,"trajectory":"[[-33.04677,1,-19.91584], [-33.01295,1,-19.9304], [-32.9276,1,-19.96838], [-32.8029,1,-20.02973], [-32.6926,1,-20.09729]]","rotations":"[[0.02899078,-0.3124426,-0.03302488,0.9489197], [0.03837151,-0.2946779,-0.03280582,0.9542623], [0.04671443,-0.252001,-0.02545608,0.9662637], [0.04657533,-0.1881106,-0.01274711,0.9809602], [0.04007897,-0.127804,-0.0004566954,0.9909893]]","collided":-1,"followDirection":false}, 
{"mainType":"Move","id":11,"target":2,"animations":[19],"previousIcon":10,"nextIcon":12,"color":[],"holdingHand":-1,"trajectory":"[[-33.57179,1,-19.1864], [-33.52598,1,-19.22496], [-33.46187,1,-19.28638], [-33.38371,1,-19.37264], [-33.29164,1,-19.48004], [-33.17827,1,-19.62559], [-33.11013,1,-19.74428], [-33.06955,1,-19.8357], [-33.05011,1,-19.88764], [-33.04297,1,-19.91063], [-33.04614,1,-19.91445], [-33.04677,1,-19.91584]]","rotations":"[[-0.04650516,0.6524174,0.01853549,-0.7562045], [-0.05143942,0.6334267,0.01676591,-0.7719092], [-0.04990982,0.6054419,0.02139648,-0.794035], [-0.05072438,0.5664241,0.03015071,-0.8219987], [-0.04855407,0.5149764,0.03555473,-0.8550894], [0.03561317,-0.4419361,-0.03623653,0.8956068], [0.01842365,-0.3855955,-0.03944665,0.9216402], [0.01699288,-0.3448735,-0.03219654,0.937943], [0.02416197,-0.3228292,-0.0354146,0.9454858], [0.0389214,-0.3142309,-0.03491982,0.9479055], [0.0358171,-0.3133316,-0.03374622,0.948368], [0.02899078,-0.3124426,-0.03302488,0.9489197]]","collided":-1,"followDirection":false}, 
{"mainType":"Move","id":10,"target":2,"animations":[18],"previousIcon":9,"nextIcon":11,"color":[],"holdingHand":-1,"trajectory":"[[-33.80871,1,-18.45584], [-33.78059,1,-18.49076], [-33.73385,1,-18.57301], [-33.68006,1,-18.6938], [-33.63294,1,-18.84239], [-33.60271,1,-18.98359], [-33.58509,1,-19.08932], [-33.58187,1,-19.14423], [-33.57306,1,-19.18252], [-33.57179,1,-19.1864]]","rotations":"[[-0.01839865,0.8754076,-0.0173492,-0.4827235], [-0.0221617,0.8642869,-0.01451512,-0.5023011], [-0.03112334,0.8410971,-0.01044055,-0.5398872], [-0.03342384,0.8057337,-0.01050408,-0.5912408], [-0.03531671,0.7602529,-0.005766569,-0.6486408], [-0.04338937,0.7152656,0.001586484,-0.6975028], [-0.05060785,0.6813184,0.01656594,-0.7300478], [-0.05380839,0.6654184,0.0180266,-0.7443105], [-0.06283758,0.6530546,0.02178271,-0.7543851], [-0.04650516,0.6524174,0.01853549,-0.7562045], [-0.04650516,0.6524174,0.01853549,-0.7562045], [-0.04650516,0.6524174,0.01853549,-0.7562045]]","collided":-1,"followDirection":false}, 
{"mainType":"Move","id":9,"target":2,"animations":[17],"previousIcon":-1,"nextIcon":10,"color":[],"holdingHand":-1,"trajectory":"[[-34.15554,1,-18.22328], [-34.11987,1,-18.22809], [-34.08478,1,-18.24613], [-34.03348,1,-18.272], [-33.98033,1,-18.30442], [-33.92134,1,-18.34972], [-33.8675,1,-18.39993], [-33.82571,1,-18.44138], [-33.81355,1,-18.45146], [-33.80871,1,-18.45584]]","rotations":"[[0,-0.9603871,0,0.2786695], [6.536441E-05,-0.9531947,0.01342017,0.3020594], [0.003723913,-0.9462856,0.01907261,0.3227476], [0.013063,-0.9354588,0.02620238,0.3522211], [0.01771446,-0.9232652,0.0254905,0.3829072], [0.02281953,-0.9084218,0.02112835,0.4168967], [-0.02992876,0.8929639,-0.01803068,-0.4487702], [-0.03291427,0.879928,-0.01676723,-0.473669], [-0.01934269,0.8772147,-0.01772785,-0.4793809], [-0.01839865,0.8754076,-0.0173492,-0.4827235], [-0.01839865,0.8754076,-0.0173492,-0.4827235]]","collided":-1,"followDirection":false}]}