{"objects" : [
{"mainType":"Geometry","id":3,"subtype":"Cube","position":[-33.52119827270508,1.0830872058868409,-17.694486618041993],"size":[0.09999997913837433,0.1000000461935997,0.10000001639127732],"rotation":[0.5026187896728516,0.3076917231082916,-0.04841218888759613,0.8064467906951904],"visible":true,"color":[1.0,1.0,1.0,1.0]} 
], 
 "events": [{"mainType":"ExitZone","id":3,"target":3,"animations":[],"previousIcon":1,"nextIcon":-1,"color":[],"holdingHand":-1,"trajectory":"","rotations":"","collided":0,"followDirection":false}, 
{"mainType":"EnterZone","id":1,"target":3,"animations":[],"previousIcon":-1,"nextIcon":3,"color":[],"holdingHand":-1,"trajectory":"","rotations":"","collided":0,"followDirection":false}]}