{"objects" : [
{"mainType":"Geometry","id":4,"subtype":"Sphere","position":[-35.72854232788086,0.9731961488723755,-19.918455123901368],"size":[0.10000000894069672,0.10000002384185791,0.09999997168779373],"rotation":[-0.032857831567525867,0.24444618821144105,0.04965919628739357,0.9678328633308411],"visible":true,"color":[1.0,1.0,1.0,1.0]}, 
{"mainType":"Geometry","id":3,"subtype":"Cube","position":[-34.12392044067383,1.0531920194625855,-17.009708404541017],"size":[0.10000000894069672,0.10000000149011612,0.10000000894069672],"rotation":[0.019961629062891008,-0.11730039119720459,0.03843679651618004,0.9921516180038452],"visible":true,"color":[1.0,1.0,1.0,1.0]} 
], 
 "events": [{"mainType":"ZoneCollider","id":6,"target":-1,"animations":[],"previousIcon":-1,"nextIcon":-1,"color":[],"holdingHand":-1,"trajectory":"[[0,0.05,0], [-1.211517,0,-3.331089], [-4.040756,0,-2.449999], [-1.442665,0,0.4438877], [-1.121738,0,0.1777306], [-2.483238,0,-1.586555], [-1.24596,0,-1.790035], [0,0.05,0]]","rotations":"","collided":-1,"followDirection":false}, 
{"mainType":"ZoneCollider","id":5,"target":-1,"animations":[],"previousIcon":-1,"nextIcon":-1,"color":[],"holdingHand":-1,"trajectory":"[[0,0.05,0], [-0.1392975,0,-1.319176], [-1.776577,0,0.06339645], [-1.224445,0,0.6934147], [0,0.05,0]]","rotations":"","collided":-1,"followDirection":false}, 
{"mainType":"EnterZone","id":10,"target":2,"animations":[],"previousIcon":-1,"nextIcon":-1,"color":[],"holdingHand":-1,"trajectory":"","rotations":"","collided":5,"followDirection":false}, 
{"mainType":"ExitZone","id":8,"target":4,"animations":[],"previousIcon":7,"nextIcon":-1,"color":[],"holdingHand":-1,"trajectory":"","rotations":"","collided":6,"followDirection":false}, 
{"mainType":"EnterZone","id":7,"target":4,"animations":[],"previousIcon":-1,"nextIcon":8,"color":[],"holdingHand":-1,"trajectory":"","rotations":"","collided":6,"followDirection":false}, 
{"mainType":"Color","id":4,"target":3,"animations":[],"previousIcon":-1,"nextIcon":-1,"color":[0.9051611423492432,0.13568998873233796,0.13568998873233796,1.0],"holdingHand":-1,"trajectory":"","rotations":"","collided":-1,"followDirection":false}, 
{"mainType":"Collision","id":1,"target":0,"animations":[4],"previousIcon":-1,"nextIcon":-1,"color":[],"holdingHand":-1,"trajectory":"","rotations":"","collided":3,"followDirection":false}]}