{"objects" : [
{"mainType":"Images","id":4,"subtype":"PlaceHolder1","position":[-33.547340393066409,0.8945422172546387,-17.863265991210939],"size":[0.0009999999310821295,0.0009999999310821295,0.0009999996982514859],"rotation":[0.2952389419078827,0.6436963677406311,-0.3692530393600464,0.6017819046974182],"visible":true,"color":[0.0,0.0,0.0,0.0]} 
], 
 "events": []}