{"objects" : [
{"mainType":"Geometry","id":3,"subtype":"Cube","position":[-34.07419967651367,1.026133418083191,-16.790258407592775],"size":[0.10000000149011612,0.10000000894069672,0.09999998658895493],"rotation":[0.036349453032016757,-0.10693320631980896,0.03747788816690445,0.9928945302963257],"visible":true,"color":[1.0,1.0,1.0,1.0]} 
], 
 "events": [{"mainType":"Color","id":3,"target":3,"animations":[],"previousIcon":-1,"nextIcon":-1,"color":[0.9206068515777588,0.6264252066612244,0.7061426639556885,1.0],"holdingHand":-1,"trajectory":"","rotations":"","collided":-1,"followDirection":false}, 
{"mainType":"Move","id":2,"target":2,"animations":[],"previousIcon":0,"nextIcon":-1,"color":[],"holdingHand":-1,"trajectory":"[[-34.29935,1,-18.1785], [-34.27282,1,-18.18954], [-34.23873,1,-18.19347], [-34.19881,1,-18.17051], [-34.16908,1,-18.13618], [-34.1476,1,-18.08953], [-34.15885,1,-18.03876], [-34.18725,1,-17.98339], [-34.2268,1,-17.92988], [-34.26019,1,-17.87496], [-34.30826,1,-17.85626], [-34.38517,1,-17.88408], [-34.49078,1,-17.93832], [-34.5933,1,-17.98654], [-34.69546,1,-18.00525], [-34.82143,1,-18.03871], [-34.91142,1,-18.04753], [-34.96826,1,-18.04334], [-34.99878,1,-18.03585], [-35.0963,1,-18.04963], [-35.15692,1,-18.05147], [-35.19079,1,-18.04844], [-35.22755,1,-18.04727], [-35.28397,1,-18.04295], [-35.31469,1,-18.04966], [-35.36488,1,-18.08974], [-35.39415,1,-18.12962], [-35.42326,1,-18.16873], [-35.44881,1,-18.20765], [-35.4736,1,-18.2442], [-35.49579,1,-18.28389], [-35.51873,1,-18.32642], [-35.54656,1,-18.36976], [-35.57877,1,-18.41223], [-35.61208,1,-18.45278], [-35.62871,1,-18.50083], [-35.64461,1,-18.54329], [-35.66983,1,-18.58201], [-35.6945,1,-18.62193], [-35.71213,1,-18.66534], [-35.72015,1,-18.71151], [-35.71548,1,-18.76505], [-35.72495,1,-18.81187], [-35.73236,1,-18.86026], [-35.74452,1,-18.90476], [-35.7592,1,-18.94917], [-35.77162,1,-18.98886], [-35.79556,1,-19.0271], [-35.84203,1,-19.06164], [-35.83052,1,-19.06347]]","rotations":"[[0.08487211,-0.1230302,0.03785654,0.9880421], [0.06423859,-0.1302198,0.05836394,0.9876792], [0.05902304,-0.1349903,0.03877005,0.9883273], [0.05140455,-0.1552525,0.03542298,0.9859003], [0.0605186,-0.1757627,0.01968016,0.9823735], [0.06103047,-0.2057117,0.01395408,0.9766082], [0.06480815,-0.2257183,-0.0007788464,0.9720343], [0.04723998,-0.2473816,-0.01449063,0.9676574], [0.03114715,-0.2591911,-0.05090901,0.9639804], [0.01343346,-0.2706509,-0.07271782,0.9598332], [0.01735413,-0.2524439,-0.08387491,0.9638133], [0.007586287,-0.2046966,-0.07621469,0.9758244], [0.03295657,-0.1303964,-0.06690547,0.9886529], [0.07694127,-0.05989644,-0.01875799,0.9950581], [0.1049041,-0.008607149,0.04381367,0.9934795], [0.07446651,0.0664165,0.04321792,0.9940704], [0.05480215,0.118211,0.01366205,0.991381], [0.08202278,0.1523548,-0.02610613,0.9845703], [0.1054461,0.1695473,-0.04435991,0.9788601], [0.06663089,0.216925,0.01482717,0.9737989], [0.05763556,0.2499648,0.002781799,0.9665341], [0.06809721,0.2669575,-0.03006334,0.9608293], [0.07522661,0.2827888,-0.03364026,0.9556359], [0.0698323,0.3153171,-0.03467036,0.9457784], [0.07140343,0.3309747,-0.06038616,0.9389947], [0.05581613,0.3480429,-0.07104816,0.9331146], [0.05467783,0.3531298,-0.05886553,0.9321184], [0.06047738,0.3593653,-0.05094961,0.9298404], [0.06960703,0.3634989,-0.0444916,0.9279245], [0.08206774,0.3665285,-0.03332318,0.9261811], [0.08961992,0.3685531,-0.03480044,0.9246221], [0.09134883,0.3699285,-0.02737281,0.9241532], [0.08849371,0.3741453,-0.02746811,0.9227296], [0.08434506,0.3793254,-0.02703935,0.9210142], [0.08362012,0.3846681,-0.02443308,0.9189349], [0.07872724,0.3829646,-0.01392718,0.9202969], [0.08184277,0.3832709,-0.02076389,0.9197686], [0.08670166,0.3871684,-0.04538257,0.916801], [0.08880454,0.3877385,-0.0292067,0.9170167], [0.08985201,0.3868167,-0.02586014,0.9174044], [0.09180553,0.3838169,-0.02999732,0.9183444], [0.09099382,0.3768884,-0.03053147,0.9212726], [0.09259726,0.3752066,-0.03305898,0.921712], [0.09214787,0.3723893,-0.03012533,0.9229991], [0.09515648,0.3711866,-0.03151547,0.9231319], [0.0951762,0.370768,-0.03298226,0.9232469], [0.09627837,0.3697932,-0.03014063,0.9236206], [0.09932247,0.3722157,-0.03137099,0.9222833], [0.09605873,0.379586,-0.0133147,0.9200598], [0.1017411,0.3766257,-0.00910537,0.9207166], [0.1017411,0.3766257,-0.00910537,0.9207166], [0.1017411,0.3766257,-0.00910537,0.9207166]]","collided":-1,"followDirection":false}, 
{"mainType":"Move","id":0,"target":2,"animations":[],"previousIcon":-1,"nextIcon":2,"color":[],"holdingHand":-1,"trajectory":"[[-33.98383,1,-17.05138], [-33.95705,1,-17.10444], [-33.92635,1,-17.16195], [-33.89034,1,-17.2693], [-33.87084,1,-17.39177], [-33.87617,1,-17.51858], [-33.90094,1,-17.63978], [-33.96101,1,-17.778], [-34.02979,1,-17.91045], [-34.10762,1,-18.00924], [-34.21395,1,-18.09663], [-34.32197,1,-18.16642], [-34.39058,1,-18.20402], [-34.4275,1,-18.23101], [-34.44068,1,-18.24845], [-34.43576,1,-18.25235], [-34.41551,1,-18.23853]]","rotations":"[[0,-0.7413913,0,0.671073], [0.02178736,-0.7143399,0.02459666,0.6990271], [0.002605911,-0.6894241,0.02680262,0.7238572], [0.01574072,-0.6379071,0.04341937,0.7687272], [0.01768162,-0.5794398,0.05489439,0.8129722], [0.01981901,-0.5200307,0.07058609,0.8509954], [0.02770172,-0.4598426,0.08318454,0.8836616], [0.06219548,-0.3826591,0.09741066,0.9166324], [0.05147691,-0.3080971,0.08958784,0.9457275], [0.04130518,-0.2490573,0.08438794,0.9639207], [0.06479933,-0.1836747,0.09254183,0.9764736], [0.09159655,-0.1178412,0.08872202,0.9848107], [0.1027707,-0.07992911,0.08247142,0.9880526], [0.09787469,-0.05760252,0.06841118,0.9911723], [0.0933203,-0.04635742,0.05629017,0.9929621], [0.09788871,-0.04487008,0.04726011,0.9930614], [0.1020709,-0.06212902,0.06447434,0.9907393]]","collided":-1,"followDirection":false}]}