{"objects" : [
 
], 
 "events": [{"mainType":"ZoneCollider","id":0,"target":-1,"animations":[],"previousIcon":-1,"nextIcon":-1,"color":[],"holdingHand":-1,"trajectory":"[[0,0,0]]","rotations":"","collided":-1,"followDirection":false}, 
{"mainType":"ZoneCollider","id":0,"target":-1,"animations":[],"previousIcon":-1,"nextIcon":-1,"color":[],"holdingHand":-1,"trajectory":"[[0,0,0]]","rotations":"","collided":-1,"followDirection":false}]}