{"objects" : [
 
], 
 "events": [{"mainType":"ZoneCollider","id":1,"target":-1,"animations":[],"previousIcon":-1,"nextIcon":-1,"color":[],"holdingHand":-1,"trajectory":"[[-33.03503,-0.001557015,-17.04267], [0,0.05,0], [0.561306,0,0.1967602], [0.4695206,0,-0.3849449], [0.06071091,0,-0.3203239], [0,0.05,0]]","rotations":"","collided":-1,"followDirection":false}, 
{"mainType":"ZoneCollider","id":0,"target":-1,"animations":[],"previousIcon":-1,"nextIcon":-1,"color":[],"holdingHand":-1,"trajectory":"[[-33.03503,-0.001557015,-17.04267], [0,0.05,0], [0.561306,0,0.1967602], [0.4695206,0,-0.3849449], [0.06071091,0,-0.3203239], [0,0.05,0]]","rotations":"","collided":-1,"followDirection":false}]}