{"objects" : [
{"mainType":"3DProps","id":6,"subtype":"cable1Red","position":[-34.09125900268555,1.311204195022583,-17.864967346191408],"size":[0.9999997019767761,1.0000001192092896,0.9999997019767761],"rotation":[-0.09960748255252838,0.8803958892822266,-0.21290726959705354,-0.41188833117485049],"visible":true,"color":[0.0,0.0,0.0,0.0]}, 
{"mainType":"3DProps","id":5,"subtype":"Hammer","position":[-33.79874801635742,1.46506667137146,-18.011775970458986],"size":[0.9999995827674866,0.9999998807907105,0.9999997019767761],"rotation":[-0.029033076018095018,0.9701591730117798,-0.14893445372581483,-0.1891215592622757],"visible":true,"color":[1.0,1.0,1.0,1.0]}, 
{"mainType":"3DProps","id":0,"subtype":"shoe","position":[-34.21744918823242,0.6357519626617432,-17.496007919311525],"size":[0.9999998211860657,0.9999999403953552,0.9999995827674866],"rotation":[-0.16559888422489167,0.803203821182251,-0.2612650692462921,-0.5090985894203186],"visible":false,"color":[0.0,0.0,0.0,0.0]}, 
{"mainType":"Images","id":0,"subtype":"Fortification","position":[-34.217262268066409,0.6407262682914734,-17.501968383789064],"size":[0.0010000000474974514,0.0010000000474974514,0.0009999999310821295],"rotation":[-0.13925540447235108,0.8247863054275513,-0.23114630579948426,-0.49689731001853945],"visible":false,"color":[0.0,0.0,0.0,0.0]}, 
{"mainType":"3DProps","id":4,"subtype":"shoe","position":[-34.28322982788086,1.2559622526168824,-17.726741790771486],"size":[0.9999998211860657,0.9999999403953552,0.9999995827674866],"rotation":[-0.16559888422489167,0.803203821182251,-0.2612650692462921,-0.5090985894203186],"visible":true,"color":[0.0,0.0,0.0,1.0]}, 
{"mainType":"Images","id":3,"subtype":"Fortification","position":[-34.281349182128909,1.3057054281234742,-17.78635025024414],"size":[0.0010000000474974514,0.0010000000474974514,0.0009999999310821295],"rotation":[-0.13925540447235108,0.8247863054275513,-0.23114630579948426,-0.49689731001853945],"visible":true,"color":[0.0,0.0,0.0,0.0]} 
], 
 "events": []}