{"objects" : [
{"mainType":"Geometry","id":9,"subtype":"Sphere","position":[-41.41289138793945,1.3218038082122803,-20.194467544555665],"size":[0.10000001639127732,0.10000003129243851,0.09999997168779373],"rotation":[-0.03860735520720482,0.22889074683189393,-0.06261911988258362,0.9706684947013855],"visible":false,"color":[0.6665029525756836,0.03852982446551323,0.03852982446551323,1.0]}, 
{"mainType":"3DProps","id":7,"subtype":"cable1Red","position":[-35.77694320678711,1.388993740081787,-21.97028350830078],"size":[1.0,1.0000001192092896,0.9999998807907105],"rotation":[-0.10891161859035492,0.7763302326202393,-0.13977594673633576,-0.6049067974090576],"visible":true,"color":[0.0,0.0,0.0,0.0]}, 
{"mainType":"3DProps","id":6,"subtype":"cable1Red","position":[-34.09125900268555,1.311204195022583,-17.864967346191408],"size":[0.9999997019767761,1.0000001192092896,0.9999997019767761],"rotation":[-0.09960748255252838,0.8803958892822266,-0.21290726959705354,-0.41188833117485049],"visible":true,"color":[0.0,0.0,0.0,0.0]}, 
{"mainType":"3DProps","id":5,"subtype":"Hammer","position":[-33.79874801635742,1.46506667137146,-18.011775970458986],"size":[0.9999995827674866,0.9999998807907105,0.9999997019767761],"rotation":[-0.029033076018095018,0.9701591730117798,-0.14893445372581483,-0.1891215592622757],"visible":true,"color":[1.0,1.0,1.0,1.0]}, 
{"mainType":"3DProps","id":0,"subtype":"shoe","position":[-34.21744918823242,0.6357519626617432,-17.496007919311525],"size":[0.9999998211860657,0.9999999403953552,0.9999995827674866],"rotation":[-0.16559888422489167,0.803203821182251,-0.2612650692462921,-0.5090985894203186],"visible":false,"color":[0.0,0.0,0.0,0.0]}, 
{"mainType":"Images","id":0,"subtype":"Fortification","position":[-34.217262268066409,0.6407262682914734,-17.501968383789064],"size":[0.0010000000474974514,0.0010000000474974514,0.0009999999310821295],"rotation":[-0.13925540447235108,0.8247863054275513,-0.23114630579948426,-0.49689731001853945],"visible":false,"color":[0.0,0.0,0.0,0.0]}, 
{"mainType":"3DProps","id":4,"subtype":"shoe","position":[-34.28322982788086,1.2559622526168824,-17.726741790771486],"size":[0.9999998211860657,0.9999999403953552,0.9999995827674866],"rotation":[-0.16559888422489167,0.803203821182251,-0.2612650692462921,-0.5090985894203186],"visible":true,"color":[0.0,0.0,0.0,1.0]}, 
{"mainType":"Images","id":3,"subtype":"Fortification","position":[-34.281349182128909,1.3057054281234742,-17.78635025024414],"size":[0.0010000000474974514,0.0010000000474974514,0.0009999999310821295],"rotation":[-0.13925540447235108,0.8247863054275513,-0.23114630579948426,-0.49689731001853945],"visible":true,"color":[0.0,0.0,0.0,0.0]} 
], 
 "events": [{"mainType":"Move","id":3,"target":0,"animations":[],"previousIcon":2,"nextIcon":-1,"color":[],"holdingHand":-1,"trajectory":"[[-41.39569,1.32916,-20.19981], [-41.41853,1.329176,-20.21109], [-41.42007,1.330709,-20.2143], [-41.41879,1.330878,-20.21783], [-41.41234,1.328709,-20.22315]]","rotations":"[[0.3000143,0.5734296,-0.3677615,-0.6677734], [0.3316921,0.574519,-0.3770684,-0.6463186], [0.3405083,0.5746088,-0.3803997,-0.6396677], [0.3475458,0.5764999,-0.383581,-0.6322384], [0.3545609,0.5791897,-0.3872594,-0.6235832]]","collided":-1,"followDirection":false}, 
{"mainType":"Collision","id":2,"target":0,"animations":[],"previousIcon":-1,"nextIcon":3,"color":[],"holdingHand":-1,"trajectory":"","rotations":"","collided":9,"followDirection":false}]}