{"objects" : [
{"mainType":"Geometry","id":3,"subtype":"Cube","position":[-31.179271697998048,0.9938524961471558,-18.719404220581056],"size":[0.10000006854534149,0.10000000149011612,0.09999998658895493],"rotation":[0.0001327411737293005,0.5033367872238159,-0.0023861867375671865,0.8640869855880737],"visible":true,"color":[1.0,1.0,1.0,1.0]} 
], 
 "events": []}