{"objects" : [
{"mainType":"Geometry","id":9,"subtype":"Sphere","position":[-41.41289138793945,1.3218038082122803,-20.194467544555665],"size":[0.10000001639127732,0.10000003129243851,0.09999997168779373],"rotation":[-0.03860735520720482,0.22889074683189393,-0.06261911988258362,0.9706684947013855],"visible":false,"color":[0.6665029525756836,0.03852982446551323,0.03852982446551323,1.0]}, 
{"mainType":"3DProps","id":7,"subtype":"cable1Red","position":[-35.77694320678711,1.388993740081787,-21.97028350830078],"size":[1.0,1.0000001192092896,0.9999998807907105],"rotation":[-0.10891161859035492,0.7763302326202393,-0.13977594673633576,-0.6049067974090576],"visible":true,"color":[0.0,0.0,0.0,0.0]}, 
{"mainType":"3DProps","id":6,"subtype":"cable1Red","position":[-34.09125900268555,1.311204195022583,-17.864967346191408],"size":[0.9999997019767761,1.0000001192092896,0.9999997019767761],"rotation":[-0.09960748255252838,0.8803958892822266,-0.21290726959705354,-0.41188833117485049],"visible":true,"color":[0.0,0.0,0.0,0.0]}, 
{"mainType":"3DProps","id":5,"subtype":"Hammer","position":[-33.79874801635742,1.46506667137146,-18.011775970458986],"size":[0.9999995827674866,0.9999998807907105,0.9999997019767761],"rotation":[-0.029033076018095018,0.9701591730117798,-0.14893445372581483,-0.1891215592622757],"visible":true,"color":[1.0,1.0,1.0,1.0]}, 
{"mainType":"3DProps","id":0,"subtype":"shoe","position":[-34.21744918823242,0.6357519626617432,-17.496007919311525],"size":[0.9999998211860657,0.9999999403953552,0.9999995827674866],"rotation":[-0.16559888422489167,0.803203821182251,-0.2612650692462921,-0.5090985894203186],"visible":false,"color":[0.0,0.0,0.0,0.0]}, 
{"mainType":"Images","id":0,"subtype":"Fortification","position":[-34.217262268066409,0.6407262682914734,-17.501968383789064],"size":[0.0010000000474974514,0.0010000000474974514,0.0009999999310821295],"rotation":[-0.13925540447235108,0.8247863054275513,-0.23114630579948426,-0.49689731001853945],"visible":false,"color":[0.0,0.0,0.0,0.0]}, 
{"mainType":"3DProps","id":4,"subtype":"shoe","position":[-34.28322982788086,1.2559622526168824,-17.726741790771486],"size":[0.9999998211860657,0.9999999403953552,0.9999995827674866],"rotation":[-0.16559888422489167,0.803203821182251,-0.2612650692462921,-0.5090985894203186],"visible":true,"color":[0.0,0.0,0.0,1.0]}, 
{"mainType":"Images","id":3,"subtype":"Fortification","position":[-34.281349182128909,1.3057054281234742,-17.78635025024414],"size":[0.0010000000474974514,0.0010000000474974514,0.0009999999310821295],"rotation":[-0.13925540447235108,0.8247863054275513,-0.23114630579948426,-0.49689731001853945],"visible":true,"color":[0.0,0.0,0.0,0.0]} 
], 
 "events": [{"mainType":"Move","id":7,"target":0,"animations":[],"previousIcon":6,"nextIcon":-1,"color":[],"holdingHand":-1,"trajectory":"[[-40.93143,1.341135,-20.53528]]","rotations":"[[0.3364721,0.8003042,-0.2258222,-0.4419322]]","collided":-1,"followDirection":false}, 
{"mainType":"Grab","id":6,"target":-1,"animations":[],"previousIcon":4,"nextIcon":7,"color":[],"holdingHand":0,"trajectory":"[[-40.92954,1.344661,-20.5455]]","rotations":"","collided":-1,"followDirection":false}, 
{"mainType":"Move","id":4,"target":0,"animations":[],"previousIcon":3,"nextIcon":6,"color":[],"holdingHand":-1,"trajectory":"[[-41.4019,1.328471,-20.22815], [-41.35963,1.33192,-20.23546], [-41.33158,1.33605,-20.23798], [-41.29903,1.346137,-20.24061], [-41.2651,1.357332,-20.24759], [-41.23142,1.365992,-20.25444], [-41.2028,1.370176,-20.25974], [-41.17073,1.372629,-20.26558], [-41.13903,1.377407,-20.26866], [-41.11036,1.378664,-20.27284], [-41.08538,1.377083,-20.28017], [-41.0638,1.377469,-20.28567], [-41.04493,1.379065,-20.29046], [-41.02798,1.381159,-20.29468]]","rotations":"[[0.3635773,0.5808629,-0.388972,-0.6157197], [0.3628373,0.5918362,-0.3726373,-0.6158087], [0.356218,0.596543,-0.3581654,-0.6236688], [0.3582786,0.5944851,-0.3423297,-0.6332726], [0.3614149,0.5987675,-0.3232642,-0.6374614], [0.3589155,0.5997587,-0.3065922,-0.6461195], [0.3510294,0.6026962,-0.2913946,-0.6546945], [0.3393493,0.6083948,-0.2736757,-0.6631738], [0.3330708,0.6041779,-0.2559751,-0.6771334], [0.3287029,0.6004744,-0.2420732,-0.687594], [0.3248237,0.6014313,-0.238063,-0.6899971], [0.3229997,0.5983505,-0.2333441,-0.6951247], [0.3207851,0.5975859,-0.2278785,-0.6986125], [0.3196267,0.5978054,-0.2224282,-0.700709]]","collided":-1,"followDirection":false}, 
{"mainType":"Move","id":3,"target":0,"animations":[],"previousIcon":2,"nextIcon":4,"color":[],"holdingHand":-1,"trajectory":"[[-41.39569,1.32916,-20.19981], [-41.41853,1.329176,-20.21109], [-41.42007,1.330709,-20.2143], [-41.41879,1.330878,-20.21783], [-41.41234,1.328709,-20.22315]]","rotations":"[[0.3000143,0.5734296,-0.3677615,-0.6677734], [0.3316921,0.574519,-0.3770684,-0.6463186], [0.3405083,0.5746088,-0.3803997,-0.6396677], [0.3475458,0.5764999,-0.383581,-0.6322384], [0.3545609,0.5791897,-0.3872594,-0.6235832]]","collided":-1,"followDirection":false}, 
{"mainType":"Collision","id":2,"target":0,"animations":[],"previousIcon":1,"nextIcon":3,"color":[],"holdingHand":-1,"trajectory":"","rotations":"","collided":9,"followDirection":false}, 
{"mainType":"Move","id":1,"target":0,"animations":[],"previousIcon":-1,"nextIcon":2,"color":[],"holdingHand":-1,"trajectory":"[[-40.99872,1.41311,-20.44728], [-41.00016,1.413519,-20.41257], [-41.01,1.41627,-20.38799], [-41.02934,1.414362,-20.35618], [-41.05302,1.409656,-20.32718], [-41.08213,1.398874,-20.30337], [-41.11767,1.390451,-20.27916], [-41.15469,1.38035,-20.25913], [-41.19102,1.373171,-20.24587], [-41.23015,1.365307,-20.23431], [-41.27088,1.359122,-20.22544], [-41.30547,1.353271,-20.21976], [-41.34298,1.34527,-20.21245], [-41.3736,1.337414,-20.20541]]","rotations":"[[0.3428543,0.7270682,-0.1754511,-0.5683658], [0.3294086,0.7102478,-0.1841455,-0.5942462], [0.3203385,0.6957281,-0.1907093,-0.6139835], [0.3033167,0.6743201,-0.205264,-0.6412162], [0.2945703,0.6491954,-0.2246291,-0.6643158], [0.2810992,0.6349668,-0.2507852,-0.6744681], [0.2802922,0.6126463,-0.2747078,-0.6860294], [0.2669104,0.6019883,-0.2926342,-0.69335], [0.2673915,0.5958089,-0.3079883,-0.6918502], [0.2714254,0.5888662,-0.3256819,-0.6881106], [0.2847043,0.5794684,-0.3372706,-0.6851339], [0.2929046,0.5788296,-0.3426679,-0.679516], [0.2993225,0.5750707,-0.3526501,-0.6747871], [0.3037827,0.5722494,-0.3630981,-0.6696315]]","collided":-1,"followDirection":false}]}