{"objects" : [
{"mainType":"3DProps","id":4,"subtype":"Rocket League Cup","position":[-34.5648078918457,1.448283314704895,-16.19776725769043],"size":[100.0,99.99998474121094,99.99996185302735],"rotation":[0.33389729261398318,-0.2661362588405609,0.18384841084480287,-0.8853722214698792],"visible":true,"color":[0.6382719874382019,0.3272486627101898,0.04545435309410095,1.0]}, 
{"mainType":"Images","id":3,"subtype":"Fortification","position":[-34.75135040283203,1.2515264749526978,-16.056533813476564],"size":[0.0009999998146668077,0.0010000000474974514,0.0010000000474974514],"rotation":[0.08810040354728699,-0.10544414073228836,0.2144499272108078,-0.9670218229293823],"visible":true,"color":[0.0,0.0,0.0,0.0]} 
], 
 "events": []}