{"objects" : [
{"mainType":"Geometry","id":9,"subtype":"Sphere","position":[-41.41289138793945,1.3218040466308594,-20.194467544555665],"size":[0.10000001639127732,0.10000003129243851,0.09999997168779373],"rotation":[-0.03860735520720482,0.2288907766342163,-0.06261911988258362,0.9706685543060303],"visible":false,"color":[0.6665029525756836,0.03852982446551323,0.03852982446551323,1.0]}, 
{"mainType":"3DProps","id":7,"subtype":"cable1Red","position":[-35.77694320678711,1.388993740081787,-21.97028350830078],"size":[1.0,1.0000001192092896,0.9999998807907105],"rotation":[-0.10891161859035492,0.7763302326202393,-0.13977594673633576,-0.6049067974090576],"visible":true,"color":[0.0,0.0,0.0,0.0]}, 
{"mainType":"3DProps","id":6,"subtype":"cable1Red","position":[-34.09125900268555,1.311204195022583,-17.864967346191408],"size":[0.9999997019767761,1.0000001192092896,0.9999997019767761],"rotation":[-0.09960748255252838,0.8803958892822266,-0.21290726959705354,-0.41188833117485049],"visible":true,"color":[0.0,0.0,0.0,0.0]}, 
{"mainType":"3DProps","id":5,"subtype":"Hammer","position":[-33.79874801635742,1.46506667137146,-18.011775970458986],"size":[0.9999995827674866,0.9999998807907105,0.9999997019767761],"rotation":[-0.029033076018095018,0.9701591730117798,-0.14893445372581483,-0.1891215592622757],"visible":true,"color":[1.0,1.0,1.0,1.0]}, 
{"mainType":"3DProps","id":0,"subtype":"shoe","position":[-34.21744918823242,0.6357519626617432,-17.496007919311525],"size":[0.9999998211860657,0.9999999403953552,0.9999995827674866],"rotation":[-0.16559888422489167,0.803203821182251,-0.2612650692462921,-0.5090985894203186],"visible":false,"color":[0.0,0.0,0.0,0.0]}, 
{"mainType":"Images","id":0,"subtype":"Fortification","position":[-34.217262268066409,0.6407262682914734,-17.501968383789064],"size":[0.0010000000474974514,0.0010000000474974514,0.0009999999310821295],"rotation":[-0.13925540447235108,0.8247863054275513,-0.23114630579948426,-0.49689731001853945],"visible":false,"color":[0.0,0.0,0.0,0.0]}, 
{"mainType":"3DProps","id":4,"subtype":"shoe","position":[-34.28322982788086,1.2559622526168824,-17.726741790771486],"size":[0.9999998211860657,0.9999999403953552,0.9999995827674866],"rotation":[-0.16559888422489167,0.803203821182251,-0.2612650692462921,-0.5090985894203186],"visible":true,"color":[0.0,0.0,0.0,1.0]}, 
{"mainType":"Images","id":3,"subtype":"Fortification","position":[-34.281349182128909,1.3057054281234742,-17.78635025024414],"size":[0.0010000000474974514,0.0010000000474974514,0.0009999999310821295],"rotation":[-0.13925540447235108,0.8247863054275513,-0.23114630579948426,-0.49689731001853945],"visible":true,"color":[0.0,0.0,0.0,0.0]} 
], 
 "events": [{"mainType":"Move","id":8,"target":9,"animations":[],"previousIcon":-1,"nextIcon":-1,"color":[],"holdingHand":-1,"trajectory":"[[-41.41289,1.321804,-20.19447], [-41.41578,1.290381,-20.19454], [-41.41024,1.271627,-20.19281], [-41.40703,1.24441,-20.19111], [-41.40667,1.20378,-20.18682], [-41.41011,1.16775,-20.18059], [-41.65992,1.162182,-20.12668], [-41.72192,1.183256,-20.06163], [-41.76848,1.219391,-20.05654], [-41.81572,1.26369,-20.05945], [-41.85459,1.306653,-20.07281], [-41.88421,1.333539,-20.09264], [-41.9059,1.336949,-20.11748], [-41.91898,1.315654,-20.15122], [-41.92402,1.254059,-20.18915], [-41.9279,1.155471,-20.2216], [-41.93122,1.03884,-20.24622], [-41.92836,0.8987771,-20.26282], [-41.91709,0.7725396,-20.27155], [-41.90191,0.6549141,-20.27816], [-41.88568,0.5464882,-20.28326], [-42.02811,0.4489954,-20.11717], [-42.26624,0.3604398,-20.00939], [-42.52037,0.3021032,-19.9265], [-42.78238,0.2725917,-19.84905], [-43.04474,0.2603947,-19.76938], [-43.30468,0.2616483,-19.69412], [-43.55829,0.2777951,-19.61208], [-43.79644,0.3269482,-19.47931], [-43.82087,0.4168608,-19.47776], [-43.84084,0.5135691,-19.47576], [-43.84894,0.5842757,-19.47671], [-43.8476,0.5911803,-19.48351], [-43.83915,0.5239237,-19.49047], [-43.8196,0.4074988,-19.49116], [-43.784,0.2805026,-19.48332], [-43.9397,0.2084088,-19.40003], [-44.22683,0.240259,-19.36313], [-44.40477,0.3380411,-19.32937], [-44.42557,0.4713,-19.35776], [-44.4234,0.5361891,-19.39327], [-44.4044,0.509201,-19.43228], [-44.37581,0.4088973,-19.4574], [-44.32997,0.2807574,-19.46139], [-44.52113,0.2412775,-19.33617], [-44.74502,0.2984939,-19.22494], [-44.75234,0.3708578,-19.26723], [-44.73576,0.417565,-19.31436], [-44.70129,0.4111207,-19.35574], [-44.66328,0.349469,-19.37935], [-44.6339,0.2784762,-19.31835], [-44.82825,0.2386891,-19.15546], [-45.0727,0.2442751,-19.04712], [-45.3094,0.2597179,-18.91421], [-45.38821,0.264837,-18.86938]]","rotations":"[[-0.03860736,0.2288907,-0.06261912,0.9706685], [-0.02924801,0.2271999,-0.03624162,0.9727339], [-0.02737793,0.2329303,-0.02009279,0.9719003], [-0.02585204,0.2341709,0.0003886326,0.9718515], [-0.02345463,0.2313834,0.03482346,0.9719562], [-0.01843235,0.2284365,0.07145496,0.970758], [-0.02078845,0.2200578,0.07329451,0.9725072], [-0.01845877,0.2172734,0.05090524,0.9746077], [-0.01821507,0.2154086,0.01807455,0.9761868], [-0.01788208,0.2086397,-0.01687697,0.9776834], [-0.01328624,0.1964102,-0.05324322,0.978985], [-0.0138492,0.178186,-0.09090585,0.9796908], [-0.007142864,0.1569901,-0.1263646,0.9794565], [-0.008120554,0.1255001,-0.1575776,0.9794657], [0.003681062,0.09267816,-0.1578139,0.9831032], [0.02676391,0.07619858,-0.1341529,0.9876641], [0.03754843,0.06172329,-0.09598177,0.9927576], [0.03445848,0.06223708,-0.0518536,0.9961176], [0.03343374,0.07201391,-0.01360766,0.9967502], [0.01531027,0.06952921,0.002545389,0.9974591], [-0.004775648,0.06545356,0.0266251,0.9974889], [-0.03666564,0.06067485,0.05212105,0.9961213], [-0.06941433,0.05905253,0.0700729,0.9933701], [-0.07106483,0.07459778,0.06955735,0.9922433], [-0.0653028,0.07623598,0.04624549,0.9938737], [-0.06104807,0.08278993,0.04171642,0.9938202], [-0.05793733,0.08455503,0.03609346,0.9940779], [-0.05392995,0.08499941,0.03325934,0.9943643], [-0.02614224,0.08218798,0.001017506,0.9962733], [0.01999189,0.06870466,-0.06431846,0.9953607], [0.05681292,0.06365746,-0.129554,0.9878945], [0.06486531,0.05555672,-0.1859722,0.9788361], [0.06370627,0.04332537,-0.1919562,0.9783747], [0.05033627,0.04071054,-0.1469623,0.9870212], [0.01958852,0.04774371,-0.07822241,0.9955994], [-0.02321167,0.06855464,0.0005743462,0.9973771], [-0.06132379,0.07484317,0.0677781,0.9929975], [-0.03600048,0.07678404,0.04886521,0.9951986], [0.01106556,0.05650121,-0.03088522,0.9978633], [0.05750336,0.01974616,-0.1303904,0.9895967], [0.07586858,-0.002355661,-0.1779534,0.981107], [0.05661702,-0.02896383,-0.1637875,0.9844435], [0.0326272,-0.03498909,-0.08556537,0.9951832], [-0.01260812,-0.027509,0.03043847,0.9990785], [-0.02282317,-0.009069115,0.06498154,0.9975842], [0.006234838,-0.04442894,0.009604351,0.9989469], [0.0420108,-0.0778816,-0.05531032,0.9945402], [0.07266358,-0.1161941,-0.08708562,0.9867294], [0.07103902,-0.1612539,-0.08309005,0.9808398], [0.03492901,-0.1886064,-0.0329042,0.9808796], [-0.02379227,-0.2005292,0.03052586,0.9789228], [-0.04260122,-0.196457,0.05975948,0.9777619], [-0.04475171,-0.2056189,0.05365183,0.976135], [-0.04071532,-0.2122869,0.05317441,0.9749097], [-0.04181284,-0.2153278,0.05751331,0.9739496], [-0.04181284,-0.2153278,0.05751331,0.9739496]]","collided":-1,"followDirection":false}, 
{"mainType":"Collision","id":2,"target":0,"animations":[],"previousIcon":-1,"nextIcon":-1,"color":[],"holdingHand":-1,"trajectory":"","rotations":"","collided":9,"followDirection":false}]}