{"objects" : [
{"mainType":"Geometry","id":6,"subtype":"Capsule","position":[-34.76124572753906,1.4377470016479493,-20.11346435546875],"size":[0.09999999403953552,0.10000000894069672,0.10000000149011612],"rotation":[0.0,0.0,-1.8626449271863522e-9,1.0],"visible":true,"color":[1.0,1.0,1.0,1.0]}, 
{"mainType":"Geometry","id":5,"subtype":"Capsule","position":[-34.28251647949219,1.5841808319091797,-19.998971939086915],"size":[0.09999997913837433,0.10000003129243851,0.09999996423721314],"rotation":[-0.02251553162932396,0.04402420297265053,0.049349986016750339,0.9975568056106567],"visible":true,"color":[1.0,1.0,1.0,1.0]}, 
{"mainType":"Geometry","id":4,"subtype":"Cylinder","position":[-34.300933837890628,1.499363660812378,-20.317604064941408],"size":[0.10000000149011612,0.10000001639127732,0.10000000149011612],"rotation":[0.016170885413885118,0.2133386880159378,-0.008525311946868897,0.9768072962760925],"visible":true,"color":[1.0,1.0,1.0,1.0]} 
], 
 "events": [{"mainType":"ZoneCollider","id":0,"target":-1,"animations":[],"previousIcon":-1,"nextIcon":-1,"color":[],"holdingHand":-1,"trajectory":"[[-33.50531,-0.001557015,-17.60625], [0,0.05,0], [1.39164,0,-0.7108784], [0.4997711,0,-2.285192], [-1.065189,0,-1.528505], [0,0.05,0]]","rotations":"","collided":-1,"followDirection":false}, 
{"mainType":"Move","id":6,"target":5,"animations":[],"previousIcon":5,"nextIcon":-1,"color":[],"holdingHand":-1,"trajectory":"[[-34.28252,1.584181,-19.99897], [-34.08533,0.3231776,-19.04896], [-34.08961,0.3405457,-18.99528], [-34.08894,0.3971048,-18.8855], [-34.11486,0.4770644,-18.72467], [-34.20084,0.5868392,-18.53], [-34.34504,0.7150335,-18.3429], [-34.40449,0.81221,-18.29783], [-34.39166,0.8542266,-18.32358], [-34.41686,0.9006873,-18.33406], [-34.42558,0.8991668,-18.33339]]","rotations":"[[0.1262273,-0.277905,-0.4318275,0.8487406], [0.1283412,-0.2862509,-0.4086318,0.8570935], [0.1413682,-0.3062198,-0.3996955,0.8523427], [0.1440751,-0.3368861,-0.3759865,0.8511077], [0.1431307,-0.3804385,-0.3463798,0.8454592], [0.1386622,-0.4449515,-0.3072488,0.8296922], [0.1114466,-0.5216974,-0.2703171,0.8014613], [0.1093378,-0.5497727,-0.2397653,0.7926588], [0.1440422,-0.5444247,-0.2071585,0.799962], [0.1588298,-0.5545441,-0.1825005,0.7962083], [0.1582146,-0.5578643,-0.1843251,0.7935867], [0.1582146,-0.5578643,-0.1843251,0.7935867], [0.1582146,-0.5578643,-0.1843251,0.7935867]]","collided":-1,"followDirection":false}, 
{"mainType":"ExitZone","id":5,"target":5,"animations":[],"previousIcon":4,"nextIcon":6,"color":[],"holdingHand":-1,"trajectory":"","rotations":"","collided":0,"followDirection":false}, 
{"mainType":"Move","id":4,"target":5,"animations":[],"previousIcon":3,"nextIcon":5,"color":[],"holdingHand":-1,"trajectory":"[[-34.28252,1.584181,-19.99897], [-34.24352,1.574209,-19.97521], [-34.2193,1.614845,-19.93565], [-34.14065,1.577333,-19.76872], [-34.0428,1.45869,-19.62068], [-33.95146,1.273943,-19.4809], [-33.90115,1.10477,-19.36136], [-33.89833,0.9351404,-19.24214], [-33.93327,0.7831066,-19.14326], [-33.98814,0.647661,-19.05845], [-34.01635,0.5423185,-19.03155], [-34.05241,0.4285107,-19.04389], [-34.09606,0.328427,-19.07196], [-34.11177,0.2850776,-19.08158], [-34.11093,0.2753932,-19.08214], [-34.11086,0.2780065,-19.07658]]","rotations":"[[-0.02251553,0.0440242,0.04934999,0.9975568], [-0.02761886,0.03306729,0.04269063,0.9981589], [-0.01336464,0.01969591,0.05912309,0.997967], [-0.009768717,-0.05326042,0.0415125,0.9976696], [-0.01374627,-0.1103684,-0.005280934,0.9937817], [-0.006304622,-0.1543795,-0.07682426,0.9850001], [0.02349153,-0.1843877,-0.1381603,0.972811], [0.04923826,-0.218168,-0.1986123,0.9542178], [0.06823991,-0.2506489,-0.2514604,0.9323552], [0.08835075,-0.2840244,-0.2981631,0.9069857], [0.1040036,-0.2916344,-0.3347517,0.8899854], [0.09286772,-0.2840786,-0.3850089,0.8731799], [0.08847345,-0.2732063,-0.4265127,0.8576816], [0.1113888,-0.2737047,-0.4352114,0.8504524], [0.1248063,-0.2750796,-0.4338475,0.8488411], [0.1262273,-0.277905,-0.4318275,0.8487406], [0.1262273,-0.277905,-0.4318275,0.8487406]]","collided":-1,"followDirection":false}, 
{"mainType":"EnterZone","id":3,"target":5,"animations":[],"previousIcon":-1,"nextIcon":4,"color":[],"holdingHand":-1,"trajectory":"","rotations":"","collided":0,"followDirection":false}, 
{"mainType":"EnterZone","id":1,"target":2,"animations":[],"previousIcon":-1,"nextIcon":-1,"color":[],"holdingHand":-1,"trajectory":"","rotations":"","collided":0,"followDirection":false}]}