{"objects" : [
 
], 
 "events": [{"mainType":"ZoneCollider","id":0,"target":-1,"animations":[],"previousIcon":-1,"nextIcon":-1,"color":[],"holdingHand":-1,"trajectory":"[[-36.0349,-0.001557015,-18.67015], [0,0.05,0], [0.2339592,0,-0.9425163]]","rotations":"","collided":-1,"followDirection":false}]}