{"objects" : [
{"mainType":"Geometry","id":5,"subtype":"Capsule","position":[-35.41004180908203,1.1230396032333375,-17.124540328979493],"size":[0.10000000149011612,0.10000001639127732,0.10000000149011612],"rotation":[-0.04164605215191841,-0.27431347966194155,0.0012377946404740215,0.9607372879981995],"visible":true,"color":[1.0,1.0,1.0,1.0]}, 
{"mainType":"Geometry","id":4,"subtype":"Sphere","position":[-35.115055084228519,1.2209488153457642,-16.46285629272461],"size":[0.10000000894069672,0.09999999403953552,0.1000000610947609],"rotation":[-0.6766663789749146,-0.2834090292453766,-0.22328327596187592,0.6418307423591614],"visible":true,"color":[1.0,1.0,1.0,1.0]}, 
{"mainType":"Geometry","id":3,"subtype":"Cube","position":[-35.545528411865237,1.1860774755477906,-16.76090431213379],"size":[0.10000003129243851,0.10000002384185791,0.10000000149011612],"rotation":[-0.0318402498960495,-0.013758331537246704,-0.040473662316799167,0.9985784292221069],"visible":true,"color":[1.0,1.0,1.0,1.0]} 
], 
 "events": [{"mainType":"ExitZone","id":11,"target":4,"animations":[0],"previousIcon":-1,"nextIcon":-1,"color":[],"holdingHand":-1,"trajectory":"","rotations":"","collided":8,"followDirection":false}, 
{"mainType":"EnterZone","id":9,"target":4,"animations":[1],"previousIcon":-1,"nextIcon":-1,"color":[],"holdingHand":-1,"trajectory":"","rotations":"","collided":8,"followDirection":false}, 
{"mainType":"Grab","id":4,"target":4,"animations":[],"previousIcon":-1,"nextIcon":-1,"color":[],"holdingHand":0,"trajectory":"","rotations":"","collided":-1,"followDirection":false}, 
{"mainType":"Color","id":1,"target":5,"animations":[],"previousIcon":-1,"nextIcon":-1,"color":[0.13079988956451417,0.7428146600723267,0.0013437524903565646,1.0],"holdingHand":-1,"trajectory":"","rotations":"","collided":-1,"followDirection":false}, 
{"mainType":"Color","id":0,"target":3,"animations":[],"previousIcon":-1,"nextIcon":-1,"color":[0.7853286862373352,0.0739322379231453,0.0739322379231453,1.0],"holdingHand":-1,"trajectory":"","rotations":"","collided":-1,"followDirection":false}]}