{"objects" : [
{"mainType":"Geometry","id":3,"subtype":"Cube","position":[-34.73036575317383,0.955453634262085,-19.085243225097658],"size":[0.10000000894069672,0.09999999403953552,0.10000000149011612],"rotation":[-0.0022778999991714956,0.8489276766777039,-0.01580938510596752,0.5282675623893738],"visible":true,"color":[1.0,1.0,1.0,1.0]} 
], 
 "events": [{"mainType":"ZoneCollider","id":0,"target":-1,"animations":[],"previousIcon":-1,"nextIcon":-1,"color":[],"holdingHand":-1,"trajectory":"[[-32.61232,-0.001557015,-17.93563], [0,0.05,0], [0.05171967,0,-2.065327], [-1.78989,0,-1.030401], [-1.219395,0,0.3807926], [0,0.05,0]]","rotations":"","collided":-1,"followDirection":false}, 
{"mainType":"ExitZone","id":2,"target":3,"animations":[],"previousIcon":1,"nextIcon":-1,"color":[],"holdingHand":-1,"trajectory":"","rotations":"","collided":0,"followDirection":false}, 
{"mainType":"EnterZone","id":1,"target":3,"animations":[],"previousIcon":-1,"nextIcon":2,"color":[],"holdingHand":-1,"trajectory":"","rotations":"","collided":0,"followDirection":false}]}