{"objects" : [
{"mainType":"Geometry","id":3,"subtype":"Sphere","position":[-35.149436950683597,1.0272935628890992,-16.863754272460939],"size":[0.09999998658895493,0.09999999403953552,0.09999997168779373],"rotation":[0.05447729304432869,-0.09452703595161438,0.07562192529439926,0.9911500215530396],"visible":true,"color":[1.0,1.0,1.0,1.0]} 
], 
 "events": [{"mainType":"Collision","id":8,"target":0,"animations":[],"previousIcon":7,"nextIcon":-1,"color":[],"holdingHand":-1,"trajectory":"","rotations":"","collided":-1,"followDirection":false}, 
{"mainType":"Drop","id":7,"target":3,"animations":[],"previousIcon":6,"nextIcon":8,"color":[],"holdingHand":0,"trajectory":"","rotations":"","collided":-1,"followDirection":false}, 
{"mainType":"Drag","id":6,"target":3,"animations":[],"previousIcon":5,"nextIcon":7,"color":[],"holdingHand":0,"trajectory":"[[-35.14944,1.027294,-16.86375]]","rotations":"[[-0.4357826,0.0897871,0.1980491,0.873389]]","collided":-1,"followDirection":false}, 
{"mainType":"Drag","id":5,"target":3,"animations":[],"previousIcon":4,"nextIcon":6,"color":[],"holdingHand":0,"trajectory":"[[-35.14944,1.027294,-16.86375]]","rotations":"[[-0.4864949,-0.07910712,0.1552719,0.8561282]]","collided":-1,"followDirection":false}, 
{"mainType":"Drag","id":4,"target":3,"animations":[],"previousIcon":3,"nextIcon":5,"color":[],"holdingHand":0,"trajectory":"[[-35.14944,1.027294,-16.86375]]","rotations":"[[-0.5355487,-0.3495909,-0.003732638,0.7687392]]","collided":-1,"followDirection":false}, 
{"mainType":"Drag","id":3,"target":3,"animations":[],"previousIcon":2,"nextIcon":4,"color":[],"holdingHand":0,"trajectory":"[[-35.14944,1.027294,-16.86375]]","rotations":"[[-0.4960704,-0.4791185,-0.09448895,0.7179355]]","collided":-1,"followDirection":false}, 
{"mainType":"Drag","id":2,"target":3,"animations":[],"previousIcon":1,"nextIcon":3,"color":[],"holdingHand":0,"trajectory":"[[-35.14944,1.027294,-16.86375]]","rotations":"[[-0.4625759,-0.5473421,-0.1229395,0.6865318]]","collided":-1,"followDirection":false}, 
{"mainType":"Grab","id":1,"target":3,"animations":[],"previousIcon":0,"nextIcon":2,"color":[],"holdingHand":0,"trajectory":"","rotations":"","collided":-1,"followDirection":false}, 
{"mainType":"Collision","id":0,"target":0,"animations":[],"previousIcon":-1,"nextIcon":1,"color":[],"holdingHand":-1,"trajectory":"","rotations":"","collided":3,"followDirection":false}]}