{"objects" : [
{"mainType":"Geometry","id":3,"subtype":"Cube","position":[-35.51628875732422,1.0787140130996705,-17.043258666992189],"size":[0.10000006854534149,0.09999999403953552,0.10000000894069672],"rotation":[-0.709446370601654,-0.5630250573158264,-0.06084166839718819,0.41950809955596926],"visible":true,"color":[1.0,1.0,1.0,1.0]} 
], 
 "events": [{"mainType":"ExitZone","id":10,"target":3,"animations":[],"previousIcon":9,"nextIcon":-1,"color":[],"holdingHand":-1,"trajectory":"","rotations":"","collided":8,"followDirection":false}, 
{"mainType":"EnterZone","id":9,"target":3,"animations":[],"previousIcon":-1,"nextIcon":10,"color":[],"holdingHand":-1,"trajectory":"","rotations":"","collided":8,"followDirection":false}, 
{"mainType":"Grab","id":4,"target":3,"animations":[],"previousIcon":-1,"nextIcon":-1,"color":[],"holdingHand":0,"trajectory":"","rotations":"","collided":-1,"followDirection":false}, 
{"mainType":"Color","id":1,"target":3,"animations":[],"previousIcon":-1,"nextIcon":-1,"color":[0.08797553181648255,0.669399619102478,0.08080854266881943,1.0],"holdingHand":-1,"trajectory":"","rotations":"","collided":-1,"followDirection":false}, 
{"mainType":"Color","id":0,"target":3,"animations":[],"previousIcon":-1,"nextIcon":-1,"color":[0.7700561881065369,0.05986560136079788,0.05986560136079788,1.0],"holdingHand":-1,"trajectory":"","rotations":"","collided":-1,"followDirection":false}]}