{"objects" : [
{"mainType":"Geometry","id":3,"subtype":"Cube","position":[-35.254940032958987,1.1976929903030396,-16.492919921875],"size":[0.09999997913837433,0.10000006854534149,0.1000000387430191],"rotation":[-0.819200873374939,-0.13907715678215028,0.29824426770210268,0.46969977021217348],"visible":true,"color":[1.0,1.0,1.0,1.0]} 
], 
 "events": [{"mainType":"Color","id":11,"target":3,"animations":[],"previousIcon":-1,"nextIcon":-1,"color":[0.07101239264011383,0.7534435987472534,0.10942654311656952,1.0],"holdingHand":-1,"trajectory":"","rotations":"","collided":-1,"followDirection":false}, 
{"mainType":"Color","id":10,"target":3,"animations":[],"previousIcon":-1,"nextIcon":-1,"color":[0.7392443418502808,0.16082105040550233,0.16082105040550233,1.0],"holdingHand":-1,"trajectory":"","rotations":"","collided":-1,"followDirection":false}, 
{"mainType":"Grab","id":6,"target":3,"animations":[],"previousIcon":-1,"nextIcon":-1,"color":[],"holdingHand":0,"trajectory":"","rotations":"","collided":-1,"followDirection":false}, 
{"mainType":"ExitZone","id":2,"target":3,"animations":[11],"previousIcon":1,"nextIcon":-1,"color":[],"holdingHand":-1,"trajectory":"","rotations":"","collided":0,"followDirection":false}, 
{"mainType":"EnterZone","id":1,"target":3,"animations":[10],"previousIcon":-1,"nextIcon":2,"color":[],"holdingHand":-1,"trajectory":"","rotations":"","collided":0,"followDirection":false}]}