{"objects" : [
{"mainType":"Geometry","id":4,"subtype":"Sphere","position":[-34.817955017089847,0.8887720108032227,-16.370304107666017],"size":[0.10000008344650269,0.10000001639127732,0.10000003129243851],"rotation":[0.26799413561820986,0.13841690123081208,0.04076757654547691,0.9525534510612488],"visible":true,"color":[1.0,1.0,1.0,1.0]}, 
{"mainType":"Geometry","id":3,"subtype":"Cube","position":[-35.08607482910156,1.0568875074386597,-16.33353614807129],"size":[0.10000000894069672,0.09999998658895493,0.10000002384185791],"rotation":[0.0056267534382641319,0.21868957579135896,0.005221534986048937,0.9757643342018127],"visible":true,"color":[1.0,1.0,1.0,1.0]} 
], 
 "events": [{"mainType":"Move","id":12,"target":0,"animations":[],"previousIcon":11,"nextIcon":-1,"color":[],"holdingHand":-1,"trajectory":"[[-34.98069,0.8269264,-16.70031]]","rotations":"[[-0.004402577,-0.7183459,0.05598508,0.6934158]]","collided":-1,"followDirection":false}, 
{"mainType":"Grab","id":11,"target":-1,"animations":[],"previousIcon":10,"nextIcon":12,"color":[],"holdingHand":0,"trajectory":"[[-34.98069,0.8269264,-16.70031]]","rotations":"","collided":-1,"followDirection":false}, 
{"mainType":"Grab","id":10,"target":4,"animations":[],"previousIcon":9,"nextIcon":11,"color":[],"holdingHand":0,"trajectory":"","rotations":"","collided":-1,"followDirection":false}, 
{"mainType":"Move","id":9,"target":0,"animations":[],"previousIcon":-1,"nextIcon":10,"color":[],"holdingHand":-1,"trajectory":"[[-35.22675,1.180366,-16.70305], [-35.25429,1.180917,-16.72354], [-35.27464,1.176799,-16.73795]]","rotations":"[[-0.3349939,-0.5487207,-0.2459477,0.7253926], [-0.3430009,-0.5626523,-0.2354795,0.7143683], [-0.3474545,-0.5687854,-0.2193537,0.7124903]]","collided":-1,"followDirection":false}, 
{"mainType":"Move","id":8,"target":0,"animations":[],"previousIcon":7,"nextIcon":-1,"color":[],"holdingHand":-1,"trajectory":"[[-35.01309,0.844281,-16.64911], [-34.99991,0.8413441,-16.62612], [-35.00066,0.837074,-16.63902], [-34.99226,0.8321221,-16.66956], [-34.98225,0.8354057,-16.68518], [-34.97962,0.8298874,-16.69641]]","rotations":"[[-0.3198864,-0.5158278,0.009303408,0.7946747], [-0.2648487,-0.5086642,0.003598487,0.8192087], [-0.2118137,-0.5646986,0.01481558,0.7975155], [-0.1312999,-0.6507303,0.01307763,0.7477562], [-0.07494319,-0.6935787,0.01326823,0.7163491], [-0.02612041,-0.7120206,0.04727404,0.7000782]]","collided":-1,"followDirection":false}, 
{"mainType":"Move","id":7,"target":0,"animations":[],"previousIcon":6,"nextIcon":8,"color":[],"holdingHand":-1,"trajectory":"[[-34.91784,1.010743,-16.48322], [-34.91014,1.022375,-16.45093], [-34.93926,0.9993753,-16.46667], [-34.95646,0.997152,-16.53582], [-34.96273,0.9779106,-16.54036], [-34.97135,0.9559476,-16.55634], [-34.97118,0.9327672,-16.57191], [-34.97387,0.9092897,-16.59737], [-34.98258,0.8915697,-16.61838], [-34.99464,0.8788413,-16.63547], [-35.00829,0.8584151,-16.64952]]","rotations":"[[-0.7064636,-0.2170325,0.3199011,0.5928486], [-0.2505509,-0.3732733,-0.2219325,0.8652383], [-0.06297327,-0.4536944,-0.2868831,0.8413644], [-0.4281711,-0.4268719,0.0650105,0.7938662], [-0.2846976,-0.4773316,-0.03174122,0.8307192], [-0.3068213,-0.4870845,0.0172437,0.8175036], [-0.2586545,-0.5089062,-0.01229582,0.8209514], [-0.2493836,-0.5274837,-0.02856367,0.811636], [-0.2577484,-0.5272123,-0.04063952,0.8086789], [-0.3060585,-0.5129822,-0.02459437,0.8016062], [-0.3582173,-0.5038539,0.02381185,0.7856492]]","collided":-1,"followDirection":false}, 
{"mainType":"Move","id":6,"target":0,"animations":[],"previousIcon":5,"nextIcon":7,"color":[],"holdingHand":-1,"trajectory":"[[-34.88571,1.025483,-16.39225], [-34.89244,1.037293,-16.42015], [-34.90666,1.027281,-16.45418], [-34.91384,1.016436,-16.47191]]","rotations":"[[-0.1049954,-0.4379532,-0.3497917,0.8214735], [-0.3046696,-0.4323233,-0.1570271,0.8340357], [-0.562893,-0.3254943,0.170698,0.7403156], [-0.6630954,-0.2483826,0.2799091,0.6482757]]","collided":-1,"followDirection":false}, 
{"mainType":"Move","id":5,"target":0,"animations":[],"previousIcon":4,"nextIcon":6,"color":[],"holdingHand":-1,"trajectory":"[[-34.93354,1.007144,-16.44516], [-34.9165,1.020695,-16.43016], [-34.90363,1.020989,-16.41273], [-34.89277,1.01814,-16.39257], [-34.88739,1.019596,-16.3871]]","rotations":"[[-0.1870285,-0.4069925,-0.02073184,0.8938388], [-0.1156898,-0.466774,-0.209364,0.8514134], [-0.02965379,-0.4869982,-0.3482677,0.8004143], [8.631674E-05,-0.4633583,-0.4165488,0.7821676], [-0.01742091,-0.4514227,-0.4299184,0.7817188]]","collided":-1,"followDirection":false}, 
{"mainType":"Move","id":4,"target":0,"animations":[],"previousIcon":3,"nextIcon":5,"color":[],"holdingHand":-1,"trajectory":"[[-34.91322,1.036487,-16.40933], [-34.90748,1.021512,-16.431], [-34.91442,1.017451,-16.44081], [-34.92449,1.013223,-16.44917], [-34.93187,1.008511,-16.45051]]","rotations":"[[-0.3059545,-0.3157082,-0.02201974,0.8979061], [-0.2696342,-0.3502425,-0.01801313,0.8968295], [-0.2438092,-0.3731509,-0.0177267,0.8949868], [-0.2273267,-0.3881871,-0.004951002,0.8930895], [-0.2038133,-0.4020084,-0.008861667,0.8926203]]","collided":-1,"followDirection":false}, 
{"mainType":"Move","id":3,"target":0,"animations":[],"previousIcon":2,"nextIcon":4,"color":[],"holdingHand":-1,"trajectory":"[[-34.79575,1.228931,-16.25187], [-34.80285,1.231125,-16.28375], [-34.83092,1.227592,-16.32756], [-34.86555,1.21503,-16.3658], [-34.89722,1.193764,-16.38881], [-34.92359,1.162075,-16.39943], [-34.94064,1.123777,-16.40712], [-34.94191,1.092737,-16.40714], [-34.93408,1.071171,-16.40997], [-34.92088,1.053674,-16.4097]]","rotations":"[[-0.4058607,-0.08789639,-0.05267896,0.908172], [-0.4327953,-0.08661369,-0.0292475,0.896845], [-0.458257,-0.1152108,-0.008880982,0.8812764], [-0.4538248,-0.1838854,-0.03590009,0.8711719], [-0.4354936,-0.2226696,-0.03602212,0.8714735], [-0.4030977,-0.2658755,-0.03324058,0.8750529], [-0.3817438,-0.2965297,-0.01729224,0.8752387], [-0.3584703,-0.3062555,-0.02181271,0.881607], [-0.3525062,-0.3083993,-0.01851811,0.8833382], [-0.3288942,-0.3095785,-0.03623083,0.8914467]]","collided":-1,"followDirection":false}, 
{"mainType":"Move","id":2,"target":0,"animations":[],"previousIcon":1,"nextIcon":3,"color":[],"holdingHand":-1,"trajectory":"[[-34.8629,1.274016,-16.28712], [-34.84288,1.262208,-16.27653], [-34.81136,1.240133,-16.25855], [-34.79729,1.229156,-16.25199]]","rotations":"[[-0.4526953,-0.1295941,-0.04355191,0.8811218], [-0.44302,-0.114609,-0.04548458,0.8879917], [-0.4245223,-0.09292622,-0.04486379,0.8995181], [-0.408502,-0.08836963,-0.0497511,0.9071063]]","collided":-1,"followDirection":false}, 
{"mainType":"Move","id":1,"target":0,"animations":[],"previousIcon":0,"nextIcon":2,"color":[],"holdingHand":-1,"trajectory":"[[-35.28072,1.172994,-16.74081], [-35.27725,1.194109,-16.71267], [-35.27146,1.208038,-16.68859], [-35.26338,1.22263,-16.6661], [-35.25012,1.241697,-16.6331], [-35.22668,1.264645,-16.58783], [-35.19162,1.285302,-16.54112], [-35.14287,1.302245,-16.48682], [-35.08494,1.314549,-16.43525], [-35.01754,1.317766,-16.38522], [-34.94847,1.310241,-16.34106], [-34.88884,1.287572,-16.30197]]","rotations":"[[-0.3392385,-0.5760507,-0.2179253,0.7110496], [-0.3777498,-0.5466782,-0.185554,0.7238907], [-0.3805867,-0.53446,-0.1834023,0.7320313], [-0.3990738,-0.5231881,-0.1713062,0.7332588], [-0.4164218,-0.500147,-0.1598656,0.7422189], [-0.4262934,-0.4650393,-0.1522957,0.7608011], [-0.4488378,-0.4246528,-0.1353549,0.774528], [-0.4594881,-0.3737459,-0.1290684,0.7953151], [-0.4719287,-0.3200944,-0.1141923,0.8135005], [-0.478299,-0.2583277,-0.0977361,0.8336333], [-0.4769973,-0.1992549,-0.08296907,0.8519902], [-0.4601762,-0.1488642,-0.05710725,0.8733934]]","collided":-1,"followDirection":false}, 
{"mainType":"Move","id":0,"target":0,"animations":[],"previousIcon":-1,"nextIcon":1,"color":[],"holdingHand":-1,"trajectory":"[[-34.98985,1.020103,-16.605], [-35.01092,1.062668,-16.59526], [-35.03245,1.081509,-16.59889], [-35.06289,1.095199,-16.60647], [-35.09851,1.113231,-16.61389], [-35.13034,1.138939,-16.62601], [-35.16119,1.160427,-16.64724], [-35.19415,1.172831,-16.6758], [-35.22675,1.180366,-16.70305]]","rotations":"[[-0.2234141,-0.5032716,0.007637447,0.8347128], [-0.2536067,-0.4928886,-0.002962564,0.8323075], [-0.2746683,-0.4914294,-0.00344619,0.8264639], [-0.2940267,-0.4889925,-0.007927994,0.8212014], [-0.2838912,-0.4950319,-0.04880455,0.8197361], [-0.2962519,-0.4958706,-0.1187858,0.8076119], [-0.3165332,-0.5087208,-0.1969564,0.7760271], [-0.3266897,-0.5278955,-0.233728,0.7483125], [-0.3349939,-0.5487207,-0.2459477,0.7253926]]","collided":-1,"followDirection":false}]}