{"objects" : [
{"mainType":"Geometry","id":3,"subtype":"Cylinder","position":[-37.30586242675781,0.8837631940841675,-18.19901466369629],"size":[0.09999999403953552,0.09999998658895493,0.10000003129243851],"rotation":[0.0007921820506453514,0.06882765889167786,-0.024692220613360406,0.997322678565979],"visible":true,"color":[1.0,1.0,1.0,1.0]} 
], 
 "events": [{"mainType":"ZoneCollider","id":1,"target":-1,"animations":[],"previousIcon":-1,"nextIcon":-1,"color":[],"holdingHand":-1,"trajectory":"[[-36.0349,-0.001557015,-18.67015], [0,0.05,0], [0.2046814,0,-1.728115], [-1.592869,0,-1.947529], [-1.019379,0,-0.6681767], [-1.373188,0,0.1701298], [0,0.05,0]]","rotations":"","collided":-1,"followDirection":false}, 
{"mainType":"ExitZone","id":4,"target":3,"animations":[],"previousIcon":2,"nextIcon":-1,"color":[],"holdingHand":-1,"trajectory":"","rotations":"","collided":1,"followDirection":false}, 
{"mainType":"EnterZone","id":2,"target":3,"animations":[],"previousIcon":-1,"nextIcon":4,"color":[],"holdingHand":-1,"trajectory":"","rotations":"","collided":1,"followDirection":false}]}