{"objects" : [
{"mainType":"Geometry","id":5,"subtype":"Capsule","position":[-35.41004180908203,1.1230396032333375,-17.124540328979493],"size":[0.10000000149011612,0.10000001639127732,0.10000000149011612],"rotation":[-0.04164605215191841,-0.27431347966194155,0.0012377946404740215,0.9607372879981995],"visible":true,"color":[1.0,1.0,1.0,1.0]}, 
{"mainType":"Geometry","id":4,"subtype":"Sphere","position":[-35.17389678955078,1.2393474578857422,-16.37380599975586],"size":[0.10000000149011612,0.09999998658895493,0.1000000536441803],"rotation":[-0.7082694172859192,-0.30425333976745608,-0.1125517338514328,0.6269900798797607],"visible":true,"color":[1.0,1.0,1.0,1.0]}, 
{"mainType":"Geometry","id":3,"subtype":"Cube","position":[-35.545528411865237,1.1860774755477906,-16.76090431213379],"size":[0.10000003129243851,0.10000002384185791,0.10000000149011612],"rotation":[-0.0318402498960495,-0.013758331537246704,-0.040473662316799167,0.9985784292221069],"visible":true,"color":[1.0,1.0,1.0,1.0]} 
], 
 "events": [{"mainType":"Move","id":13,"target":4,"animations":[],"previousIcon":12,"nextIcon":-1,"color":[],"holdingHand":-1,"trajectory":"[[-35.1739,1.239347,-16.37381], [-35.05083,1.243368,-16.33752], [-35.00475,1.241735,-16.31845], [-34.9454,1.240396,-16.29455], [-34.88223,1.239267,-16.2763], [-34.80659,1.239247,-16.25657], [-34.74732,1.234996,-16.25205], [-34.70886,1.235183,-16.2576], [-34.68608,1.235676,-16.26371], [-34.68883,1.230358,-16.26707]]","rotations":"[[-0.7183828,-0.2717683,-0.08638977,0.6345116], [-0.7189224,-0.2708682,-0.07543444,0.6356813], [-0.7216641,-0.2509708,-0.0640704,0.6419576], [-0.7222741,-0.2250611,-0.0463818,0.6523162], [-0.7232136,-0.1986374,-0.02643946,0.6609132], [-0.7218497,-0.1598566,-0.007569749,0.6732915], [-0.72328,-0.1363065,0.01095494,0.67688], [-0.7247775,-0.1170962,0.008899488,0.6789012], [-0.7289791,-0.1011696,0.008163203,0.6769693], [-0.7240388,-0.1018273,-0.00496373,0.6821836], [-0.7240388,-0.1018273,-0.00496373,0.6821836]]","collided":-1,"followDirection":false}, 
{"mainType":"Move","id":12,"target":4,"animations":[],"previousIcon":-1,"nextIcon":13,"color":[],"holdingHand":-1,"trajectory":"[[-35.1739,1.239347,-16.37381], [-35.12285,1.248154,-16.35866], [-35.07642,1.248529,-16.3312], [-35.05716,1.245264,-16.32152], [-35.05547,1.253058,-16.32637], [-35.06677,1.253638,-16.33387]]","rotations":"[[-0.7082694,-0.3042533,-0.1125517,0.6269901], [-0.7196314,-0.2729706,-0.09411231,0.6314752], [-0.7217407,-0.2548426,-0.07925223,0.638643], [-0.7211504,-0.2641253,-0.06733377,0.6369036], [-0.7272334,-0.26605,-0.06673464,0.6292024], [-0.7236252,-0.2735087,-0.07200209,0.6295835]]","collided":-1,"followDirection":false}, 
{"mainType":"ExitZone","id":11,"target":4,"animations":[],"previousIcon":-1,"nextIcon":-1,"color":[],"holdingHand":-1,"trajectory":"","rotations":"","collided":8,"followDirection":false}, 
{"mainType":"EnterZone","id":9,"target":4,"animations":[],"previousIcon":-1,"nextIcon":-1,"color":[],"holdingHand":-1,"trajectory":"","rotations":"","collided":8,"followDirection":false}, 
{"mainType":"Grab","id":4,"target":4,"animations":[],"previousIcon":-1,"nextIcon":-1,"color":[],"holdingHand":0,"trajectory":"","rotations":"","collided":-1,"followDirection":false}, 
{"mainType":"Color","id":1,"target":5,"animations":[],"previousIcon":-1,"nextIcon":-1,"color":[0.13079988956451417,0.7428146600723267,0.0013437524903565646,1.0],"holdingHand":-1,"trajectory":"","rotations":"","collided":-1,"followDirection":false}, 
{"mainType":"Color","id":0,"target":3,"animations":[],"previousIcon":-1,"nextIcon":-1,"color":[0.7853286862373352,0.0739322379231453,0.0739322379231453,1.0],"holdingHand":-1,"trajectory":"","rotations":"","collided":-1,"followDirection":false}]}