{"objects" : [
{"mainType":"Geometry","id":3,"subtype":"Cube","position":[-35.3598518371582,1.1369106769561768,-17.11112403869629],"size":[0.09999996423721314,0.10000000894069672,0.10000000894069672],"rotation":[-0.44055530428886416,-0.6522097587585449,-0.40704259276390078,0.4635189473628998],"visible":true,"color":[1.0,1.0,1.0,1.0]} 
], 
 "events": [{"mainType":"Drag","id":8,"target":3,"animations":[],"previousIcon":6,"nextIcon":-1,"color":[],"holdingHand":0,"trajectory":"[[-35.35985,1.136911,-17.11112], [-35.33593,1.228086,-16.83317], [-35.32731,1.247703,-16.8372], [-35.32835,1.249591,-16.84307]]","rotations":"[[-0.5684689,-0.4783504,-0.2129803,0.6345577], [-0.6161152,-0.4849888,-0.2146005,0.5823527], [-0.605448,-0.4679248,-0.2419135,0.5966213], [-0.6297458,-0.4603814,-0.2159976,0.5872089]]","collided":-1,"followDirection":false}, 
{"mainType":"Grab","id":6,"target":3,"animations":[],"previousIcon":-1,"nextIcon":8,"color":[],"holdingHand":0,"trajectory":"","rotations":"","collided":-1,"followDirection":false}, 
{"mainType":"ExitZone","id":2,"target":3,"animations":[],"previousIcon":1,"nextIcon":-1,"color":[],"holdingHand":-1,"trajectory":"","rotations":"","collided":0,"followDirection":false}, 
{"mainType":"EnterZone","id":1,"target":3,"animations":[],"previousIcon":-1,"nextIcon":2,"color":[],"holdingHand":-1,"trajectory":"","rotations":"","collided":0,"followDirection":false}]}