{"objects" : [
{"mainType":"Geometry","id":6,"subtype":"Sphere","position":[-35.40735626220703,0.8946276903152466,-16.472759246826173],"size":[0.09999998658895493,0.10000000894069672,0.09999998658895493],"rotation":[0.03969290107488632,0.20566239953041078,0.06953251361846924,0.9753423929214478],"visible":true,"color":[1.0,1.0,1.0,1.0]}, 
{"mainType":"Geometry","id":5,"subtype":"Capsule","position":[-34.90375518798828,1.2130714654922486,-16.11894989013672],"size":[0.10000000894069672,0.10000001639127732,0.10000000894069672],"rotation":[0.0142182856798172,0.2447476089000702,0.023982025682926179,0.9691859483718872],"visible":true,"color":[1.0,1.0,1.0,1.0]}, 
{"mainType":"Geometry","id":4,"subtype":"Cylinder","position":[-35.33740997314453,1.268981695175171,-16.43959617614746],"size":[0.10000000149011612,0.09999998658895493,0.10000000894069672],"rotation":[-0.022024983540177347,-0.02680659480392933,0.0003564060025382787,0.9993979334831238],"visible":true,"color":[1.0,1.0,1.0,1.0]}, 
{"mainType":"Geometry","id":3,"subtype":"Cube","position":[-34.624691009521487,1.1625759601593018,-15.99057674407959],"size":[0.09999997168779373,0.10000000894069672,0.09999999403953552],"rotation":[-0.00960608571767807,0.6032103896141052,0.0020970478653907778,0.7975215911865234],"visible":true,"color":[1.0,1.0,1.0,1.0]} 
], 
 "events": [{"mainType":"Color","id":12,"target":3,"animations":[],"previousIcon":11,"nextIcon":-1,"color":[0.6648914813995361,0.6338880658149719,0.1250247359275818,1.0],"holdingHand":-1,"trajectory":"","rotations":"","collided":-1,"followDirection":false}, 
{"mainType":"Color","id":11,"target":3,"animations":[],"previousIcon":10,"nextIcon":12,"color":[0.13784159719944,0.6648914813995361,0.1250247359275818,1.0],"holdingHand":-1,"trajectory":"","rotations":"","collided":-1,"followDirection":false}, 
{"mainType":"Color","id":10,"target":4,"animations":[],"previousIcon":9,"nextIcon":11,"color":[0.7597811818122864,0.4901321530342102,0.4901321530342102,1.0],"holdingHand":-1,"trajectory":"","rotations":"","collided":-1,"followDirection":false}, 
{"mainType":"Move","id":9,"target":3,"animations":[],"previousIcon":8,"nextIcon":10,"color":[],"holdingHand":-1,"trajectory":"[[-34.62469,1.162576,-15.99058], [-34.8368,1.179014,-16.1121], [-34.8656,1.192914,-16.12056], [-34.87244,1.199524,-16.12037], [-34.85215,1.192915,-16.10744], [-34.74943,1.182964,-16.05019], [-34.65739,1.17126,-16.00586], [-34.61858,1.170118,-15.99041], [-34.62469,1.162576,-15.99058]]","rotations":"[[-0.00865306,0.5365654,0.0008148253,0.8438141], [-0.01349819,0.5272596,-0.004817143,0.8495833], [-0.0147499,0.519208,-0.009314194,0.85447], [-0.01537199,0.5185997,-0.01138438,0.8548033], [-0.01153441,0.5252976,-0.01053227,0.8507752], [-0.01181183,0.5626296,-0.006900921,0.826596], [-0.01219676,0.5933169,-0.001470171,0.8048753], [-0.01238212,0.6052355,-0.0002852157,0.7959502], [-0.009606086,0.6032104,0.002097048,0.7975216]]","collided":-1,"followDirection":false}, 
{"mainType":"Collision","id":8,"target":3,"animations":[],"previousIcon":7,"nextIcon":9,"color":[],"holdingHand":-1,"trajectory":"","rotations":"","collided":5,"followDirection":false}, 
{"mainType":"Move","id":7,"target":3,"animations":[],"previousIcon":6,"nextIcon":8,"color":[],"holdingHand":-1,"trajectory":"[[-34.62469,1.162576,-15.99058], [-34.72594,1.170668,-16.06735], [-34.79971,1.158449,-16.09801]]","rotations":"[[-0.01747397,0.5924976,-0.003901772,0.8053732], [-0.01377876,0.5634516,-0.001352794,0.8260331], [-0.008173436,0.5377812,0.001284607,0.8430439]]","collided":-1,"followDirection":false}, 
{"mainType":"Move","id":6,"target":4,"animations":[],"previousIcon":5,"nextIcon":7,"color":[],"holdingHand":-1,"trajectory":"[[-35.33741,1.268982,-16.4396], [-34.95495,1.221828,-16.12169], [-34.9449,1.237226,-16.12198], [-34.94846,1.237247,-16.12448], [-34.9692,1.230926,-16.13764], [-35.00814,1.235878,-16.16968], [-35.06042,1.232545,-16.21342], [-35.09035,1.237809,-16.23975], [-35.13305,1.231883,-16.27295], [-35.16992,1.225405,-16.29999], [-35.19889,1.236621,-16.32468], [-35.22406,1.248755,-16.34675], [-35.25374,1.258069,-16.37187], [-35.28527,1.259336,-16.39196], [-35.31595,1.26025,-16.4151], [-35.33741,1.268982,-16.4396]]","rotations":"[[0.009003542,0.122644,-0.0004502945,0.9924098], [0.008051135,0.1375881,-0.006816808,0.9904334], [0.001601905,0.1404844,-0.007475816,0.9900534], [0.002153724,0.1385111,-0.008307729,0.9903238], [0.002091385,0.1302644,-0.004794728,0.9914654], [-1.069903E-05,0.1120501,-0.005786195,0.9936857], [0.001248576,0.08663645,-0.005947217,0.9962214], [-0.001559541,0.07334381,-0.006841313,0.997282], [-0.0004392117,0.05456904,-0.004751727,0.9984986], [-0.0007053614,0.03975406,-0.0007896237,0.9992089], [-0.004239917,0.02745113,-0.002873149,0.9996101], [-0.008260727,0.01681542,-0.004614662,0.9998139], [-0.01223751,0.004765511,-0.004233658,0.9999049], [-0.01482807,-0.005383372,-0.001410153,0.9998747], [-0.01188817,-0.01834416,-0.003168102,0.999756], [-0.02202498,-0.02680659,0.000356406,0.9993979], [-0.02202498,-0.02680659,0.000356406,0.9993979]]","collided":-1,"followDirection":false}, 
{"mainType":"Collision","id":5,"target":4,"animations":[],"previousIcon":4,"nextIcon":6,"color":[],"holdingHand":-1,"trajectory":"","rotations":"","collided":5,"followDirection":false}, 
{"mainType":"Move","id":4,"target":4,"animations":[],"previousIcon":3,"nextIcon":5,"color":[],"holdingHand":-1,"trajectory":"[[-35.33741,1.268982,-16.4396], [-35.16472,1.188732,-16.29711], [-35.08467,1.195735,-16.21775], [-35.03521,1.199776,-16.1751]]","rotations":"[[0,0,0,1], [0.009028256,0.04144856,0.006214771,0.9990805], [0.01303993,0.08134526,-0.0007151067,0.9966004], [0.01757983,0.1026662,-0.005468454,0.9945455]]","collided":-1,"followDirection":false}, 
{"mainType":"Move","id":3,"target":6,"animations":[],"previousIcon":2,"nextIcon":4,"color":[],"holdingHand":-1,"trajectory":"[[-35.40736,0.8946277,-16.47276], [-35.11888,1.132677,-16.17402], [-35.12316,1.060101,-16.15847], [-35.15564,0.9846362,-16.1744], [-35.20428,0.9323818,-16.21592], [-35.29156,0.9078085,-16.31244], [-35.36769,0.89217,-16.41457], [-35.4094,0.8939334,-16.47852], [-35.40736,0.8946277,-16.47276]]","rotations":"[[0.02641542,0.3496504,-0.04141407,0.9355916], [0.03286404,0.3473805,-0.02392533,0.9368429], [0.04504426,0.3499617,-0.001712533,0.9356789], [0.05676174,0.33796,0.02234642,0.9391815], [0.05915435,0.3166466,0.04310546,0.9457154], [0.05091598,0.2729545,0.05846685,0.9588979], [0.04387464,0.2297124,0.06826799,0.9698694], [0.04248111,0.2034415,0.06864046,0.9757538], [0.0396929,0.2056624,0.06953251,0.9753424], [0.0396929,0.2056624,0.06953251,0.9753424], [0.0396929,0.2056624,0.06953251,0.9753424]]","collided":-1,"followDirection":false}, 
{"mainType":"Show","id":2,"target":3,"animations":[],"previousIcon":1,"nextIcon":3,"color":[],"holdingHand":-1,"trajectory":"","rotations":"","collided":-1,"followDirection":false}, 
{"mainType":"Hide","id":1,"target":3,"animations":[],"previousIcon":0,"nextIcon":2,"color":[],"holdingHand":-1,"trajectory":"","rotations":"","collided":-1,"followDirection":false}, 
{"mainType":"Hide","id":0,"target":4,"animations":[],"previousIcon":-1,"nextIcon":1,"color":[],"holdingHand":-1,"trajectory":"","rotations":"","collided":-1,"followDirection":false}]}