{"objects" : [
{"mainType":"Geometry","id":3,"subtype":"Cube","position":[-35.3707389831543,1.127158761024475,-16.78379249572754],"size":[0.09999997168779373,0.10000001639127732,0.10000000149011612],"rotation":[-0.01044444739818573,-0.1326085925102234,0.00197426974773407,0.9911115169525147],"visible":true,"color":[1.0,1.0,1.0,1.0]} 
], 
 "events": [{"mainType":"ExitZone","id":2,"target":3,"animations":[],"previousIcon":1,"nextIcon":-1,"color":[],"holdingHand":-1,"trajectory":"","rotations":"","collided":0,"followDirection":false}, 
{"mainType":"EnterZone","id":1,"target":3,"animations":[],"previousIcon":-1,"nextIcon":2,"color":[],"holdingHand":-1,"trajectory":"","rotations":"","collided":0,"followDirection":false}]}