{"objects" : [
{"mainType":"Geometry","id":3,"subtype":"Cube","position":[-35.31167984008789,1.096864104270935,-16.844228744506837],"size":[0.09999997913837433,0.10000000894069672,0.09999997168779373],"rotation":[-0.013615205883979798,-0.06124952435493469,-0.04092402756214142,0.9971902370452881],"visible":true,"color":[1.0,1.0,1.0,1.0]} 
], 
 "events": []}