{"objects" : [
{"mainType":"Geometry","id":3,"subtype":"Cube","position":[-35.27400207519531,1.1381616592407227,-16.58709716796875],"size":[0.10000003129243851,0.09999999403953552,0.10000001639127732],"rotation":[-0.7325476408004761,-0.3097863495349884,0.1767285168170929,0.5798047184944153],"visible":true,"color":[1.0,1.0,1.0,1.0]} 
], 
 "events": [{"mainType":"Grab","id":4,"target":3,"animations":[],"previousIcon":3,"nextIcon":-1,"color":[],"holdingHand":0,"trajectory":"","rotations":"","collided":-1,"followDirection":false}, 
{"mainType":"Collision","id":3,"target":0,"animations":[],"previousIcon":-1,"nextIcon":4,"color":[],"holdingHand":-1,"trajectory":"","rotations":"","collided":3,"followDirection":false}, 
{"mainType":"Color","id":1,"target":3,"animations":[],"previousIcon":-1,"nextIcon":-1,"color":[0.08797553181648255,0.669399619102478,0.08080854266881943,1.0],"holdingHand":-1,"trajectory":"","rotations":"","collided":-1,"followDirection":false}, 
{"mainType":"Color","id":0,"target":3,"animations":[],"previousIcon":-1,"nextIcon":-1,"color":[0.7700561881065369,0.05986560136079788,0.05986560136079788,1.0],"holdingHand":-1,"trajectory":"","rotations":"","collided":-1,"followDirection":false}]}