{"objects" : [
{"mainType":"Geometry","id":4,"subtype":"Sphere","position":[-34.076904296875,1.0551155805587769,-17.715085983276368],"size":[0.10000006854534149,0.10000008344650269,0.10000007599592209],"rotation":[-0.1108831837773323,-0.44830697774887087,-0.18478545546531678,0.8675137758255005],"visible":true,"color":[1.0,1.0,1.0,1.0]}, 
{"mainType":"Geometry","id":3,"subtype":"Cube","position":[-34.073368072509769,0.9880049228668213,-17.139057159423829],"size":[0.10000003129243851,0.10000003129243851,0.10000000149011612],"rotation":[-0.017789902165532113,-0.7009007334709168,-0.043457962572574618,0.7117113471031189],"visible":true,"color":[1.0,1.0,1.0,1.0]} 
], 
 "events": [{"mainType":"Drop","id":13,"target":-1,"animations":[],"previousIcon":12,"nextIcon":-1,"color":[],"holdingHand":0,"trajectory":"[[-34.41467,0.8714492,-17.31765]]","rotations":"","collided":-1,"followDirection":false}, 
{"mainType":"Grab","id":12,"target":-1,"animations":[],"previousIcon":11,"nextIcon":13,"color":[],"holdingHand":0,"trajectory":"[[-34.63105,0.8505863,-17.27478]]","rotations":"","collided":-1,"followDirection":false}, 
{"mainType":"Drop","id":11,"target":4,"animations":[],"previousIcon":10,"nextIcon":12,"color":[],"holdingHand":0,"trajectory":"","rotations":"","collided":-1,"followDirection":false}, 
{"mainType":"Drag","id":10,"target":4,"animations":[],"previousIcon":9,"nextIcon":11,"color":[],"holdingHand":0,"trajectory":"[[-34.0769,1.055116,-17.71509]]","rotations":"[[-0.1667982,-0.8728611,-0.4401011,-0.1288529]]","collided":-1,"followDirection":false}, 
{"mainType":"Drag","id":9,"target":4,"animations":[],"previousIcon":8,"nextIcon":10,"color":[],"holdingHand":0,"trajectory":"[[-34.0769,1.055116,-17.71509]]","rotations":"[[-0.1140181,-0.8533009,-0.3989742,-0.3157487]]","collided":-1,"followDirection":false}, 
{"mainType":"Drag","id":8,"target":4,"animations":[],"previousIcon":7,"nextIcon":9,"color":[],"holdingHand":0,"trajectory":"[[-34.0769,1.055116,-17.71509]]","rotations":"[[0.03329092,-0.7660996,-0.4680735,-0.4391931]]","collided":-1,"followDirection":false}, 
{"mainType":"Grab","id":7,"target":4,"animations":[],"previousIcon":6,"nextIcon":8,"color":[],"holdingHand":0,"trajectory":"","rotations":"","collided":-1,"followDirection":false}, 
{"mainType":"Collision","id":6,"target":0,"animations":[],"previousIcon":5,"nextIcon":7,"color":[],"holdingHand":-1,"trajectory":"","rotations":"","collided":4,"followDirection":false}, 
{"mainType":"Collision","id":5,"target":0,"animations":[],"previousIcon":4,"nextIcon":6,"color":[],"holdingHand":-1,"trajectory":"","rotations":"","collided":-1,"followDirection":false}, 
{"mainType":"Drop","id":4,"target":3,"animations":[],"previousIcon":3,"nextIcon":5,"color":[],"holdingHand":0,"trajectory":"","rotations":"","collided":-1,"followDirection":false}, 
{"mainType":"Drag","id":3,"target":3,"animations":[],"previousIcon":2,"nextIcon":4,"color":[],"holdingHand":0,"trajectory":"[[-34.07337,0.9880049,-17.13906]]","rotations":"[[0.1313533,-0.7757818,-0.4198579,-0.4523587]]","collided":-1,"followDirection":false}, 
{"mainType":"Drag","id":2,"target":3,"animations":[],"previousIcon":1,"nextIcon":3,"color":[],"holdingHand":0,"trajectory":"[[-34.07337,0.9880049,-17.13906]]","rotations":"[[-0.005938888,-0.8794903,-0.4448974,-0.1689029]]","collided":-1,"followDirection":false}, 
{"mainType":"Grab","id":1,"target":3,"animations":[],"previousIcon":0,"nextIcon":2,"color":[],"holdingHand":0,"trajectory":"","rotations":"","collided":-1,"followDirection":false}, 
{"mainType":"Collision","id":0,"target":0,"animations":[],"previousIcon":-1,"nextIcon":1,"color":[],"holdingHand":-1,"trajectory":"","rotations":"","collided":3,"followDirection":false}]}