{"objects" : [
{"mainType":"Geometry","id":3,"subtype":"Cube","position":[-33.31029510498047,0.9649550914764404,-17.196046829223634],"size":[0.10000000894069672,0.09999999403953552,0.10000000149011612],"rotation":[-0.0006217072368599474,0.23960356414318086,-0.023984909057617189,0.9705743193626404],"visible":true,"color":[1.0,1.0,1.0,1.0]} 
], 
 "events": [{"mainType":"ZoneCollider","id":0,"target":-1,"animations":[],"previousIcon":-1,"nextIcon":-1,"color":[],"holdingHand":-1,"trajectory":"[[-32.61232,-0.001557015,-17.93563], [0,0.05,0], [0.05171967,0,-2.065327], [-1.78989,0,-1.030401], [-1.219395,0,0.3807926], [0,0.05,0]]","rotations":"","collided":-1,"followDirection":false}, 
{"mainType":"Move","id":7,"target":2,"animations":[],"previousIcon":6,"nextIcon":-1,"color":[],"holdingHand":-1,"trajectory":"[[-33.90921,1,-17.90758], [-33.9353,1,-17.93652], [-33.9906,1,-17.99578], [-34.07656,1,-18.07213], [-34.17464,1,-18.13038], [-34.3214,1,-18.20876], [-34.50483,1,-18.28888], [-34.72366,1,-18.36639], [-34.91769,1,-18.4073], [-34.94064,1,-18.41054]]","rotations":"[[0.07950177,-0.2966599,0.05942561,0.9498111], [0.07781678,-0.283473,0.06710845,0.9534591], [0.08706362,-0.2505461,0.05532987,0.962593], [0.08729724,-0.2067405,0.04443113,0.9734801], [0.07630536,-0.1763452,0.04180269,0.9804757], [0.07954283,-0.1163433,0.01468195,0.9899099], [0.06892058,-0.03765869,0.008370172,0.9968761], [0.07439231,0.0713152,-0.02608275,0.9943337], [0.08952059,0.1738508,-0.04604209,0.9796133], [0.08274344,0.1840131,-0.02660455,0.9790735], [0.08274344,0.1840131,-0.02660455,0.9790735], [0.08274344,0.1840131,-0.02660455,0.9790735]]","collided":-1,"followDirection":false}, 
{"mainType":"Move","id":6,"target":2,"animations":[],"previousIcon":-1,"nextIcon":7,"color":[],"holdingHand":-1,"trajectory":"[[-34.16921,1,-17.06124], [-34.12698,1,-17.10513], [-34.07471,1,-17.23477], [-34.03671,1,-17.3817], [-34.01625,1,-17.54804], [-34.01208,1,-17.70198], [-33.99808,1,-17.79688], [-33.98703,1,-17.85526], [-33.96646,1,-17.87411], [-33.94895,1,-17.88609], [-33.92613,1,-17.8881], [-33.91088,1,-17.89831]]","rotations":"[[0,-0.6823426,0,0.7310325], [0.01715799,-0.6621434,-0.006584429,0.7491518], [0.05351678,-0.6027858,-0.01196741,0.7960164], [0.04737872,-0.54154,-0.005399147,0.8393216], [0.04512614,-0.4659833,0.01249466,0.8835537], [0.04606988,-0.395591,0.02326365,0.9169756], [0.05046614,-0.3540378,0.01652616,0.9337223], [0.06311407,-0.3266251,0.03347559,0.94245], [0.07471914,-0.317166,0.04489433,0.9443555], [0.0795604,-0.3100312,0.06184061,0.9453712], [0.08788071,-0.3075196,0.06470373,0.9452631], [0.08500284,-0.3006849,0.0574382,0.9481899]]","collided":-1,"followDirection":false}, 
{"mainType":"ExitZone","id":5,"target":2,"animations":[],"previousIcon":4,"nextIcon":-1,"color":[],"holdingHand":-1,"trajectory":"","rotations":"","collided":0,"followDirection":false}, 
{"mainType":"EnterZone","id":4,"target":2,"animations":[],"previousIcon":-1,"nextIcon":5,"color":[],"holdingHand":-1,"trajectory":"","rotations":"","collided":0,"followDirection":false}, 
{"mainType":"Move","id":3,"target":3,"animations":[],"previousIcon":-1,"nextIcon":-1,"color":[],"holdingHand":-1,"trajectory":"[[-33.3103,0.9649551,-17.19605], [-33.30726,0.9444274,-17.23161], [-33.30224,0.9327569,-17.35025], [-33.30449,0.922002,-17.50923], [-33.3232,0.8976657,-17.69118], [-33.36123,0.8764952,-17.87331], [-33.39778,0.8476786,-18.00947], [-33.43257,0.8211758,-18.12133], [-33.46451,0.7945989,-18.2009], [-33.51861,0.765377,-18.29705], [-33.59827,0.7501478,-18.40869], [-33.72009,0.7752289,-18.55038], [-33.88287,0.8087338,-18.70005], [-34.08413,0.8419549,-18.84496], [-34.35567,0.899462,-18.98258], [-34.63471,0.9435572,-19.06718], [-34.80783,0.9765875,-19.09463], [-34.93982,0.9890665,-19.10522], [-35.00989,0.9862707,-19.10753], [-35.03562,0.973226,-19.10919], [-35.02,0.947019,-19.11239], [-34.99519,0.9156997,-19.1145], [-34.96676,0.8970636,-19.11569], [-34.86182,0.8471054,-19.11113], [-34.66347,0.7689828,-19.07972], [-34.59518,0.8032066,-19.0632], [-34.48523,0.779879,-19.02889], [-34.13448,0.6251416,-18.85308], [-33.95329,0.5729012,-18.71561], [-33.84826,0.5462536,-18.61886], [-33.73396,0.5389298,-18.49982], [-33.57948,0.5614385,-18.29776], [-33.40813,0.6506619,-17.9709], [-33.32286,0.7213233,-17.64268], [-33.30064,0.8007994,-17.44446], [-33.29619,0.8264397,-17.35053], [-33.29338,0.8629345,-17.31624], [-33.29212,0.9015508,-17.30126]]","rotations":"[[-0.0006217072,0.2396036,-0.02398491,0.9705743], [0.01449122,0.2516109,-0.025984,0.9673711], [0.01594563,0.2859932,-0.03019545,0.9576231], [0.01616069,0.3296275,-0.0331896,0.9433892], [0.01848252,0.3789325,-0.03999786,0.9243748], [0.02659339,0.4281837,-0.04472068,0.9021927], [0.02214415,0.4628583,-0.05379775,0.8845212], [0.0319689,0.4924722,-0.06045182,0.8676375], [0.01756842,0.5126591,-0.06866661,0.8556617], [0.01329115,0.539143,-0.07614799,0.8386595], [0.001048483,0.5718515,-0.08016785,0.8164301], [0.0008691195,0.6165892,-0.07229946,0.7839578], [0.0008845422,0.6669497,-0.06317522,0.7424192], [-0.00314066,0.7202232,-0.05236719,0.6917559], [-0.005345852,0.7810062,-0.03359021,0.6235964], [0.001201519,0.8334,-0.0211035,0.5522661], [-0.0007760157,0.8611658,-0.009311358,0.5082386], [-0.005246094,0.8803138,-0.002309823,0.4743574], [-0.007394715,0.8898003,-0.001530135,0.4562877], [-0.007234334,0.8930926,-0.006017153,0.4497747], [-0.01358201,0.8901968,-0.01147304,0.455229], [-0.01636957,0.886557,-0.02049842,0.4618752], [-0.01387012,0.8827024,-0.02791459,0.4688978], [-0.02399259,0.8661954,-0.04095804,0.4974458], [-0.0471684,0.8318967,-0.0596547,0.5496948], [-0.02315026,0.8221548,-0.05945015,0.5656776], [-0.02523248,0.8009548,-0.0681467,0.5942985], [-0.08246318,0.7173139,-0.1072603,0.6834881], [-0.08224066,0.6683885,-0.1284137,0.7280132], [-0.07580908,0.6371456,-0.1407889,0.7539741], [-0.07373318,0.5998923,-0.1466607,0.7830603], [-0.0732055,0.5383343,-0.1460949,0.8267367], [-0.07101239,0.4411055,-0.1299622,0.8851514], [-0.08321092,0.3451577,-0.1235916,0.9266431], [-0.07868877,0.2887411,-0.1064259,0.9482143], [-0.05887367,0.2643221,-0.09633587,0.9578033], [-0.05672316,0.2557122,-0.08424105,0.9614038], [-0.06226586,0.25122,-0.07359031,0.9631178], [-0.06226586,0.25122,-0.07359031,0.9631178], [-0.06226586,0.25122,-0.07359031,0.9631178], [-0.06226586,0.25122,-0.07359031,0.9631178]]","collided":-1,"followDirection":false}, 
{"mainType":"ExitZone","id":2,"target":3,"animations":[],"previousIcon":1,"nextIcon":-1,"color":[],"holdingHand":-1,"trajectory":"","rotations":"","collided":0,"followDirection":false}, 
{"mainType":"EnterZone","id":1,"target":3,"animations":[],"previousIcon":-1,"nextIcon":2,"color":[],"holdingHand":-1,"trajectory":"","rotations":"","collided":0,"followDirection":false}]}