{"objects" : [
{"mainType":"Geometry","id":3,"subtype":"Cube","position":[-35.38978958129883,0.9037014245986939,-16.60658073425293],"size":[0.09999999403953552,0.10000000894069672,0.10000000894069672],"rotation":[0.0,0.0,0.0,1.0],"visible":true,"color":[1.0,1.0,1.0,1.0]} 
], 
 "events": [{"mainType":"Move","id":0,"target":3,"animations":[],"previousIcon":-1,"nextIcon":-1,"color":[],"holdingHand":-1,"trajectory":"[[-35.38979,0.9037014,-16.60658], [-35.39083,0.9349973,-16.59815], [-35.37431,0.9837209,-16.52111], [-35.32692,1.042969,-16.39437], [-35.2793,1.069142,-16.31143], [-35.27567,1.055401,-16.30109]]","rotations":"[[0,0,0,1], [0.002461374,0.003599435,-0.02106991,0.9997686], [-0.01082103,0.05244943,-0.04704955,0.997456], [-0.0425817,0.1403048,-0.07787776,0.986122], [-0.04414168,0.1997259,-0.09180941,0.9745421], [-0.05032785,0.2071524,-0.08034097,0.9737045], [-0.05032785,0.2071524,-0.08034097,0.9737045], [-0.05032785,0.2071524,-0.08034097,0.9737045]]","collided":-1,"followDirection":false}]}