{"objects" : [
{"mainType":"Geometry","id":3,"subtype":"Cube","position":[-35.366416931152347,0.8816349506378174,-16.54816436767578],"size":[0.1000000461935997,0.10000000149011612,0.10000000149011612],"rotation":[0.0,0.0,7.4505797087454088e-9,1.0],"visible":true,"color":[1.0,1.0,1.0,1.0]} 
], 
 "events": [{"mainType":"Move","id":0,"target":3,"animations":[],"previousIcon":-1,"nextIcon":-1,"color":[],"holdingHand":-1,"trajectory":"[[-35.36642,0.881635,-16.54816], [-35.35449,0.9303888,-16.51066], [-35.25141,1.0295,-16.32615], [-35.19528,1.056676,-16.26538], [-35.20052,1.048967,-16.2691]]","rotations":"[[0,0,7.45058E-09,1], [-0.000556347,0.02559996,-0.03143633,0.9991778], [-0.01214487,0.1727509,-0.1065995,0.9791048], [-0.015359,0.2243746,-0.1300522,0.9656639], [-0.02007585,0.2204292,-0.1203634,0.96774], [-0.02007585,0.2204292,-0.1203634,0.96774], [-0.02007585,0.2204292,-0.1203634,0.96774]]","collided":-1,"followDirection":false}]}