{"objects" : [
{"mainType":"Geometry","id":3,"subtype":"Cube","position":[-34.82825469970703,1.1355541944503785,-16.29840850830078],"size":[0.09999994933605194,0.10000000894069672,0.09999997168779373],"rotation":[-0.44359731674194338,0.6029425263404846,-0.21820427477359773,0.6261538863182068],"visible":true,"color":[1.0,1.0,1.0,1.0]} 
], 
 "events": [{"mainType":"Move","id":0,"target":3,"animations":[],"previousIcon":-1,"nextIcon":-1,"color":[],"holdingHand":-1,"trajectory":"[[-34.82825,1.135554,-16.29841], [-35.26228,1.359157,-16.42726], [-35.12836,1.554198,-16.45034], [-35.03384,1.547083,-16.3576], [-34.95664,1.441789,-16.24185], [-34.84785,1.319887,-16.15273], [-34.7038,1.322741,-16.12235], [-34.61062,1.428848,-16.16217], [-34.59781,1.485304,-16.19595]]","rotations":"[[-0.0566297,0.1004682,-0.05163121,0.9919846], [-0.1092309,0.1209567,-0.1527703,0.9747304], [-0.163335,0.1520074,-0.2638422,0.9384044], [-0.156156,0.2254142,-0.2596886,0.9259404], [-0.1076751,0.2994008,-0.2139395,0.9235774], [-0.08120183,0.3860158,-0.1440907,0.907544], [-0.09272511,0.4635697,-0.1412075,0.8698079], [-0.1556608,0.5056819,-0.1732696,0.8306824], [-0.189326,0.5065967,-0.1923366,0.8188542], [-0.189326,0.5065967,-0.1923366,0.8188542], [-0.189326,0.5065967,-0.1923366,0.8188542], [-0.189326,0.5065967,-0.1923366,0.8188542]]","collided":-1,"followDirection":false}]}