{"objects" : [
{"mainType":"Geometry","id":4,"subtype":"Cube","position":[-34.17975997924805,1.1488467454910279,-16.691370010375978],"size":[0.09999997913837433,0.09999997913837433,0.09999998658895493],"rotation":[-0.07015557587146759,0.5510485768318176,-0.10131333023309708,0.825323760509491],"visible":false,"color":[1.0,1.0,1.0,1.0]}, 
{"mainType":"Geometry","id":3,"subtype":"Sphere","position":[-35.45195770263672,1.0077683925628663,-16.80845832824707],"size":[0.10000000894069672,0.09999999403953552,0.10000000149011612],"rotation":[-0.05022365227341652,-0.11373850703239441,0.006976369768381119,0.9922159910202026],"visible":true,"color":[1.0,1.0,1.0,1.0]} 
], 
 "events": [{"mainType":"Collision","id":8,"target":0,"animations":[],"previousIcon":7,"nextIcon":-1,"color":[],"holdingHand":-1,"trajectory":"","rotations":"","collided":-1,"followDirection":false}, 
{"mainType":"Drop","id":7,"target":4,"animations":[],"previousIcon":6,"nextIcon":8,"color":[],"holdingHand":0,"trajectory":"","rotations":"","collided":-1,"followDirection":false}, 
{"mainType":"Drag","id":6,"target":4,"animations":[],"previousIcon":5,"nextIcon":7,"color":[],"holdingHand":0,"trajectory":"[[-34.17976,1.148847,-16.69137], [-34.89026,1.054995,-16.61767], [-34.89589,1.056033,-16.60617], [-34.89759,1.077984,-16.60083], [-34.8831,1.137925,-16.61083], [-34.84655,1.20854,-16.61653], [-34.79369,1.252753,-16.60756], [-34.71346,1.268993,-16.58498], [-34.6323,1.236867,-16.56039], [-34.55294,1.170287,-16.54704], [-34.47531,1.097964,-16.55105], [-34.39138,1.038882,-16.56329], [-34.29163,1.011927,-16.58714], [-34.23048,1.049592,-16.63786], [-34.23359,1.120464,-16.6834], [-34.23751,1.178418,-16.71494], [-34.24171,1.196492,-16.72097]]","rotations":"[[-0.7871605,-0.09758023,0.3862537,0.4708127], [-0.7678092,-0.1019668,0.3898063,0.4981193], [-0.7563611,-0.1120195,0.3870035,0.5153618], [-0.7518403,-0.1076348,0.3876222,0.5223983], [-0.764015,-0.07384508,0.3666568,0.5257289], [-0.7640086,-0.02416784,0.3574735,0.5365815], [-0.7521303,0.02910072,0.3760337,0.5404181], [-0.7208893,0.08550049,0.4018669,0.558132], [-0.682075,0.1142213,0.440364,0.5725441], [-0.6380547,0.1229958,0.4756792,0.5928639], [-0.599023,0.1359102,0.5120755,0.6003987], [-0.5363476,0.1464126,0.5728943,0.602235], [-0.4633194,0.1780419,0.6198171,0.6078346], [-0.4621915,0.2190872,0.6297311,0.5846526], [-0.4813436,0.2293757,0.6240031,0.5712401], [-0.4934326,0.2594889,0.6225629,0.549186], [-0.4875538,0.2644082,0.6289005,0.5448521]]","collided":-1,"followDirection":false}, 
{"mainType":"Grab","id":5,"target":4,"animations":[],"previousIcon":4,"nextIcon":6,"color":[],"holdingHand":0,"trajectory":"","rotations":"","collided":-1,"followDirection":false}, 
{"mainType":"Collision","id":4,"target":0,"animations":[],"previousIcon":-1,"nextIcon":5,"color":[],"holdingHand":-1,"trajectory":"","rotations":"","collided":4,"followDirection":false}, 
{"mainType":"Color","id":3,"target":4,"animations":[],"previousIcon":2,"nextIcon":-1,"color":[0.07147475332021713,0.6382327079772949,0.10989028960466385,1.0],"holdingHand":-1,"trajectory":"","rotations":"","collided":-1,"followDirection":false}, 
{"mainType":"Color","id":2,"target":3,"animations":[],"previousIcon":1,"nextIcon":3,"color":[0.7900435328483582,0.013111107051372528,0.013111107051372528,1.0],"holdingHand":-1,"trajectory":"","rotations":"","collided":-1,"followDirection":false}, 
{"mainType":"Hide","id":1,"target":3,"animations":[],"previousIcon":0,"nextIcon":2,"color":[],"holdingHand":-1,"trajectory":"","rotations":"","collided":-1,"followDirection":false}, 
{"mainType":"Show","id":0,"target":4,"animations":[],"previousIcon":-1,"nextIcon":1,"color":[],"holdingHand":-1,"trajectory":"","rotations":"","collided":-1,"followDirection":false}]}