{"objects" : [
{"mainType":"Geometry","id":5,"subtype":"Cube","position":[-35.380428314208987,0.9571837186813355,-16.923490524291993],"size":[0.09999999403953552,0.10000000149011612,0.10000000894069672],"rotation":[0.0,0.0,-1.862645149230957e-9,1.0],"visible":true,"color":[1.0,1.0,1.0,1.0]}, 
{"mainType":"Geometry","id":4,"subtype":"Cube","position":[-34.99184036254883,0.9593751430511475,-16.564178466796876],"size":[0.10000000894069672,0.1000000387430191,0.10000001639127732],"rotation":[-0.05764992907643318,-0.11011788249015808,0.000024553388357162476,0.9922451972961426],"visible":true,"color":[1.0,1.0,1.0,1.0]}, 
{"mainType":"Geometry","id":3,"subtype":"Cube","position":[-35.343666076660159,1.031828761100769,-16.58372688293457],"size":[0.10000000894069672,0.10000000149011612,0.10000000894069672],"rotation":[-0.04305119439959526,0.22513648867607118,-0.02039574645459652,0.9731619358062744],"visible":false,"color":[0.8493645191192627,0.07245157659053803,0.07245157659053803,1.0]} 
], 
 "events": [{"mainType":"Grab","id":11,"target":-1,"animations":[10],"previousIcon":-1,"nextIcon":-1,"color":[],"holdingHand":0,"trajectory":"[[-34.92244,0.8526807,-16.78173]]","rotations":"","collided":-1,"followDirection":false}, 
{"mainType":"Hide","id":10,"target":5,"animations":[],"previousIcon":-1,"nextIcon":-1,"color":[],"holdingHand":-1,"trajectory":"","rotations":"","collided":-1,"followDirection":false}, 
{"mainType":"Move","id":9,"target":4,"animations":[],"previousIcon":-1,"nextIcon":-1,"color":[],"holdingHand":-1,"trajectory":"[[-34.99184,0.9593751,-16.56418], [-34.94139,1.069106,-16.52768], [-34.91567,1.064966,-16.4924], [-34.87912,1.011271,-16.4287], [-34.79552,0.9367427,-16.34391], [-34.67543,0.9994141,-16.2971], [-34.61575,1.076332,-16.29968], [-34.57884,1.039133,-16.27744], [-34.51831,1.001847,-16.25279], [-34.42638,1.041302,-16.24986], [-34.37701,1.095104,-16.26869], [-34.32451,1.083257,-16.2664], [-34.24179,1.084909,-16.27207], [-34.13984,1.150151,-16.31795]]","rotations":"[[-0.05764993,-0.1101179,2.455339E-05,0.9922452], [-0.09274931,-0.06478083,-0.07601656,0.9906676], [-0.09696975,-0.03159629,-0.06759668,0.9924865], [-0.07999776,0.01862824,-0.03358247,0.9960549], [-0.06525926,0.1026966,0.03217153,0.9920482], [-0.1053444,0.2005178,0.0216604,0.9737689], [-0.137285,0.232075,-0.0134775,0.9628667], [-0.1124709,0.2546301,0.001374166,0.9604748], [-0.09511755,0.2991042,0.02827879,0.9490467], [-0.1159622,0.3615307,0.02194427,0.9248604], [-0.1425873,0.3907451,-0.003065448,0.9093831], [-0.1363259,0.424003,0.009700689,0.8952891], [-0.1320904,0.4721475,0.009249996,0.8715178], [-0.1698089,0.5419477,-0.002243087,0.823075], [-0.169809,0.5419478,-0.002243087,0.8230751], [-0.169809,0.5419478,-0.002243087,0.8230751], [-0.169809,0.5419478,-0.002243087,0.8230751]]","collided":-1,"followDirection":false}, 
{"mainType":"Collision","id":5,"target":0,"animations":[1,9,10],"previousIcon":-1,"nextIcon":-1,"color":[],"holdingHand":-1,"trajectory":"","rotations":"","collided":4,"followDirection":false}, 
{"mainType":"Show","id":1,"target":3,"animations":[],"previousIcon":0,"nextIcon":-1,"color":[],"holdingHand":-1,"trajectory":"","rotations":"","collided":-1,"followDirection":false}, 
{"mainType":"Color","id":0,"target":3,"animations":[],"previousIcon":-1,"nextIcon":1,"color":[0.8493645191192627,0.07245157659053803,0.07245157659053803,1.0],"holdingHand":-1,"trajectory":"","rotations":"","collided":-1,"followDirection":false}]}