{"objects" : [
 
], 
 "events": [{"mainType":"ZoneCollider","id":0,"target":-1,"animations":[],"previousIcon":-1,"nextIcon":-1,"color":[],"holdingHand":-1,"trajectory":"[[-33.69407,-0.001557015,-17.84019], [0,0.05,0], [1.703621,0,-1.017927], [1.01791,0,-2.559816], [-0.4757652,0,-0.8557034], [0.1429787,0,-0.1411057], [0,0.05,0]]","rotations":"","collided":-1,"followDirection":false}, 
{"mainType":"ExitZone","id":3,"target":2,"animations":[],"previousIcon":1,"nextIcon":-1,"color":[],"holdingHand":-1,"trajectory":"","rotations":"","collided":0,"followDirection":false}, 
{"mainType":"EnterZone","id":1,"target":2,"animations":[],"previousIcon":-1,"nextIcon":3,"color":[],"holdingHand":-1,"trajectory":"","rotations":"","collided":0,"followDirection":false}]}