{"objects" : [
{"mainType":"Geometry","id":7,"subtype":"Capsule","position":[-34.98588943481445,1.053901195526123,-16.26633071899414],"size":[0.10000000894069672,0.10000000894069672,0.10000000894069672],"rotation":[-0.02856907993555069,0.24751625955104829,-0.03144599497318268,0.9679518342018127],"visible":true,"color":[1.0,1.0,1.0,1.0]}, 
{"mainType":"Geometry","id":6,"subtype":"Sphere","position":[-35.184810638427737,1.0320618152618409,-17.976163864135743],"size":[0.1000000461935997,0.10000006854534149,0.10000002384185791],"rotation":[-0.20679542422294618,-0.6381740570068359,-0.048389747738838199,0.740018904209137],"visible":false,"color":[1.0,1.0,1.0,1.0]}, 
{"mainType":"Geometry","id":4,"subtype":"Cylinder","position":[-33.32442855834961,1.1361150741577149,-16.705636978149415],"size":[0.10000001639127732,0.1000000461935997,0.09999997168779373],"rotation":[-0.032515570521354678,0.9311602711677551,-0.034678295254707339,0.3614979684352875],"visible":true,"color":[1.0,1.0,1.0,1.0]}, 
{"mainType":"Geometry","id":3,"subtype":"Cube","position":[-35.36464309692383,0.9927570819854736,-16.732948303222658],"size":[0.10000002384185791,0.09999998658895493,0.10000000894069672],"rotation":[0.022605955600738527,-0.011842578649520874,-0.00998561829328537,0.999624490737915],"visible":false,"color":[1.0,1.0,1.0,1.0]} 
], 
 "events": [{"mainType":"Look","id":7,"target":4,"animations":[5],"previousIcon":-1,"nextIcon":-1,"color":[],"holdingHand":-1,"trajectory":"","rotations":"","collided":-1,"followDirection":false}, 
{"mainType":"Show","id":5,"target":3,"animations":[],"previousIcon":-1,"nextIcon":-1,"color":[],"holdingHand":-1,"trajectory":"","rotations":"","collided":-1,"followDirection":false}]}