{"objects" : [
{"mainType":"Geometry","id":5,"subtype":"Cylinder","position":[-34.80607986450195,1.2450602054595948,-16.467885971069337],"size":[0.1000000387430191,0.09999998658895493,0.10000000894069672],"rotation":[0.5154426097869873,-0.5400365591049194,-0.5702163577079773,0.3428305387496948],"visible":true,"color":[1.0,1.0,1.0,1.0]}, 
{"mainType":"Geometry","id":4,"subtype":"Sphere","position":[-35.43220520019531,1.0918314456939698,-16.572906494140626],"size":[0.10000002384185791,0.1000000387430191,0.09999997913837433],"rotation":[-0.004922993015497923,0.019429950043559076,-0.012352852150797844,0.9997227787971497],"visible":true,"color":[1.0,1.0,1.0,1.0]}, 
{"mainType":"Geometry","id":3,"subtype":"Cube","position":[-35.45185470581055,1.021693468093872,-17.286224365234376],"size":[0.09999997913837433,0.09999999403953552,0.09999996423721314],"rotation":[-0.025396445766091348,-0.30763477087020876,0.022020729258656503,0.9509106278419495],"visible":true,"color":[1.0,1.0,1.0,1.0]} 
], 
 "events": [{"mainType":"Collision","id":2,"target":0,"animations":[],"previousIcon":-1,"nextIcon":-1,"color":[],"holdingHand":-1,"trajectory":"","rotations":"","collided":4,"followDirection":false}, 
{"mainType":"Move","id":1,"target":3,"animations":[],"previousIcon":-1,"nextIcon":-1,"color":[],"holdingHand":-1,"trajectory":"[[-35.45185,1.021693,-17.28622]]","rotations":"[[-0.02539644,-0.3076347,0.02202073,0.9509106], [-0.02539644,-0.3076347,0.02202073,0.9509106], [-0.02539644,-0.3076347,0.02202073,0.9509106], [-0.02539644,-0.3076347,0.02202073,0.9509106]]","collided":-1,"followDirection":false}, 
{"mainType":"Hide","id":0,"target":5,"animations":[],"previousIcon":-1,"nextIcon":-1,"color":[],"holdingHand":-1,"trajectory":"","rotations":"","collided":-1,"followDirection":false}]}