{"objects" : [
 
], 
 "events": [{"mainType":"ZoneCollider","id":0,"target":-1,"animations":[],"previousIcon":-1,"nextIcon":-1,"color":[],"holdingHand":-1,"trajectory":"[[-33.25337,-0.001557015,-17.54338], [0,0.05,0], [2.49704,0,-0.2142601], [2.872299,0,-3.133484], [-0.1886559,0,-1.09354], [0,0.05,0]]","rotations":"","collided":-1,"followDirection":false}, 
{"mainType":"ExitZone","id":3,"target":2,"animations":[],"previousIcon":1,"nextIcon":-1,"color":[],"holdingHand":-1,"trajectory":"","rotations":"","collided":0,"followDirection":false}, 
{"mainType":"EnterZone","id":1,"target":2,"animations":[],"previousIcon":-1,"nextIcon":3,"color":[],"holdingHand":-1,"trajectory":"","rotations":"","collided":0,"followDirection":false}]}