{"objects" : [
{"mainType":"Geometry","id":3,"subtype":"Cube","position":[-35.418243408203128,0.8678199052810669,-16.76970863342285],"size":[0.10000000149011612,0.09999999403953552,0.10000002384185791],"rotation":[0.0,0.0,7.4505797087454088e-9,1.0],"visible":true,"color":[1.0,1.0,1.0,1.0]} 
], 
 "events": [{"mainType":"Move","id":0,"target":3,"animations":[],"previousIcon":-1,"nextIcon":-1,"color":[],"holdingHand":-1,"trajectory":"[[-35.41824,0.8678199,-16.76971], [-35.41325,0.9450426,-16.70189], [-35.37872,1.052268,-16.56933], [-35.33718,1.098224,-16.45085], [-35.30246,1.101021,-16.36805], [-35.30595,1.08942,-16.3686]]","rotations":"[[0,0,7.45058E-09,1], [0.000355795,0.04511467,-0.05166033,0.9976451], [-0.01722681,0.1399363,-0.1216713,0.9825056], [-0.04422619,0.2253342,-0.1449375,0.9624249], [-0.0980048,0.2967369,-0.1286273,0.9411681], [-0.1197928,0.2992577,-0.1124265,0.9399227], [-0.1197928,0.2992577,-0.1124265,0.9399227], [-0.1197928,0.2992577,-0.1124265,0.9399227]]","collided":-1,"followDirection":false}]}