{"objects" : [
{"mainType":"Geometry","id":3,"subtype":"Cube","position":[-35.109901428222659,1.082304835319519,-16.556753158569337],"size":[0.09999999403953552,0.10000002384185791,0.10000000894069672],"rotation":[-0.006266622804105282,0.28642043471336367,0.018783582374453546,0.9578993916511536],"visible":true,"color":[1.0,1.0,1.0,1.0]} 
], 
 "events": [{"mainType":"Move","id":0,"target":3,"animations":[],"previousIcon":-1,"nextIcon":-1,"color":[],"holdingHand":-1,"trajectory":"[[-35.1099,1.082305,-16.55675], [-35.12435,1.10618,-16.56215], [-35.14128,1.152956,-16.57364], [-35.17619,1.205453,-16.61689], [-35.22548,1.237394,-16.69822], [-35.27085,1.242311,-16.80657], [-35.29707,1.232158,-16.91153], [-35.31024,1.210027,-16.99101], [-35.32297,1.173621,-17.03709], [-35.32793,1.146593,-17.05978]]","rotations":"[[-0.006266623,0.2864204,0.01878358,0.9578994], [0.002902955,0.292456,0.01025423,0.9562196], [-0.0002908111,0.3060439,-0.01110022,0.9519528], [-0.01626173,0.293075,-0.02223656,0.9556925], [-0.04011691,0.253861,-0.02405171,0.966109], [-0.03137067,0.1685287,-0.0251662,0.9848759], [-0.04052678,0.1018147,-0.02690199,0.9936135], [-0.04299927,0.04219264,-0.01627995,0.998051], [0.009967208,-0.005282998,0.02410723,0.9996458], [-0.008777052,-0.033885,0.016306,0.9992541], [-0.008777053,-0.03388501,0.016306,0.9992542], [-0.008777053,-0.03388501,0.016306,0.9992542], [-0.008777053,-0.03388501,0.016306,0.9992542]]","collided":-1,"followDirection":false}]}