{"objects" : [
{"mainType":"3DProps","id":7,"subtype":"small-watermelon","position":[-35.449363708496097,1.19227933883667,-16.277406692504884],"size":[99.99999237060547,100.0,100.00004577636719],"rotation":[0.029790833592414857,0.3228723108768463,-0.026319965720176698,-0.9456073045730591],"visible":true,"color":[0.800000011920929,0.800000011920929,0.800000011920929,1.0]}, 
{"mainType":"Geometry","id":4,"subtype":"Cylinder","position":[-35.527061462402347,1.0365302562713624,-17.682350158691408],"size":[0.1000000387430191,0.1000000610947609,0.09999994933605194],"rotation":[-0.0073433518409729,-0.2900516390800476,0.01708407700061798,0.9568303823471069],"visible":true,"color":[1.0,1.0,1.0,1.0]}, 
{"mainType":"Geometry","id":3,"subtype":"Cube","position":[-35.65095520019531,1.1324772834777833,-16.68703269958496],"size":[0.10000000894069672,0.09999999403953552,0.09999999403953552],"rotation":[-0.05107009783387184,-0.04730042815208435,-0.017942937090992929,0.997412919998169],"visible":true,"color":[1.0,1.0,1.0,1.0]} 
], 
 "events": [{"mainType":"ZoneCollider","id":16,"target":-1,"animations":[],"previousIcon":-1,"nextIcon":-1,"color":[],"holdingHand":-1,"trajectory":"[[-34.81147,-0.001557015,-16.32553], [0,0.05,0], [1.007351,0,0.4561453], [1.136333,0,-0.3724442], [0.2326698,0,-0.6584358], [0,0.05,0]]","rotations":"","collided":-1,"followDirection":false}, 
{"mainType":"Collision","id":15,"target":1,"animations":[],"previousIcon":-1,"nextIcon":-1,"color":[],"holdingHand":-1,"trajectory":"","rotations":"","collided":3,"followDirection":false}, 
{"mainType":"Hide","id":3,"target":3,"animations":[],"previousIcon":-1,"nextIcon":-1,"color":[],"holdingHand":-1,"trajectory":"","rotations":"","collided":-1,"followDirection":false}]}