{"objects" : [
{"mainType":"Geometry","id":4,"subtype":"Sphere","position":[-34.87939453125,0.987451434135437,-16.517396926879884],"size":[0.10000000149011612,0.10000003129243851,0.09999999403953552],"rotation":[0.0031902717892080547,0.15579356253147126,-0.06424690037965775,0.9856929183006287],"visible":true,"color":[1.0,1.0,1.0,1.0]}, 
{"mainType":"Geometry","id":3,"subtype":"Cube","position":[-35.291778564453128,1.0946645736694337,-16.5456600189209],"size":[0.10000000149011612,0.10000001639127732,0.09999997913837433],"rotation":[-0.05275589972734451,0.2315068542957306,0.005420549772679806,0.971386730670929],"visible":false,"color":[1.0,1.0,1.0,1.0]} 
], 
 "events": [{"mainType":"Collision","id":2,"target":0,"animations":[1],"previousIcon":-1,"nextIcon":-1,"color":[],"holdingHand":-1,"trajectory":"","rotations":"","collided":4,"followDirection":false}, 
{"mainType":"Show","id":1,"target":3,"animations":[],"previousIcon":-1,"nextIcon":-1,"color":[],"holdingHand":-1,"trajectory":"","rotations":"","collided":-1,"followDirection":false}]}