{"objects" : [
{"mainType":"Geometry","id":4,"subtype":"Cube","position":[-34.813201904296878,1.0137940645217896,-16.446626663208009],"size":[0.09999999403953552,0.10000001639127732,0.09999999403953552],"rotation":[-0.058104466646909717,0.2261485457420349,-0.030930794775485994,0.971866250038147],"visible":true,"color":[1.0,1.0,1.0,1.0]}, 
{"mainType":"Geometry","id":3,"subtype":"Cube","position":[-35.24592590332031,1.0638751983642579,-16.57489013671875],"size":[0.10000000149011612,0.10000001639127732,0.10000000894069672],"rotation":[-0.016516901552677156,0.23220467567443849,-0.012377336621284485,0.9724479913711548],"visible":false,"color":[1.0,1.0,1.0,1.0]} 
], 
 "events": [{"mainType":"Hide","id":1,"target":3,"animations":[],"previousIcon":0,"nextIcon":-1,"color":[],"holdingHand":-1,"trajectory":"","rotations":"","collided":-1,"followDirection":false}, 
{"mainType":"Show","id":0,"target":3,"animations":[],"previousIcon":-1,"nextIcon":1,"color":[],"holdingHand":-1,"trajectory":"","rotations":"","collided":-1,"followDirection":false}]}