{"objects" : [
 
], 
 "events": [{"mainType":"ZoneCollider","id":0,"target":-1,"animations":[],"previousIcon":-1,"nextIcon":-1,"color":[],"holdingHand":-1,"trajectory":"[[-33.61356,-0.001557015,-17.73017], [0,0.05,0], [2.217043,0,-1.175234], [1.286789,0,-3.796181], [-0.7782097,0,-1.346371], [0,0.05,0]]","rotations":"","collided":-1,"followDirection":false}, 
{"mainType":"EnterZone","id":1,"target":2,"animations":[],"previousIcon":-1,"nextIcon":-1,"color":[],"holdingHand":-1,"trajectory":"","rotations":"","collided":0,"followDirection":false}]}