{"objects" : [
{"mainType":"Geometry","id":3,"subtype":"Cube","position":[-35.222923278808597,1.192481517791748,-16.46624755859375],"size":[0.10000000149011612,0.09999998658895493,0.1000000461935997],"rotation":[-0.09677466750144959,0.30595874786376955,-0.11694419384002686,0.9398659467697144],"visible":true,"color":[1.0,1.0,1.0,1.0]} 
], 
 "events": [{"mainType":"Move","id":0,"target":3,"animations":[],"previousIcon":-1,"nextIcon":-1,"color":[],"holdingHand":-1,"trajectory":"[[-35.22292,1.192482,-16.46625], [-35.22053,1.240792,-16.4434], [-35.24042,1.334127,-16.45495], [-35.32676,1.416052,-16.55923], [-35.44765,1.409288,-16.78275], [-35.53801,1.267469,-16.99769], [-35.55149,1.114483,-17.21206], [-35.47233,1.144217,-17.38642], [-35.39484,1.203841,-17.45654]]","rotations":"[[-0.09677467,0.3059587,-0.1169442,0.9398659], [-0.1204756,0.3291157,-0.1385619,0.9262663], [-0.1826422,0.3438741,-0.1741677,0.9044657], [-0.2310023,0.29511,-0.2110924,0.9027669], [-0.2992104,0.1727342,-0.2231395,0.911507], [-0.3229285,0.02943599,-0.1740495,0.9298159], [-0.2927447,-0.1315501,-0.1131647,0.9403132], [-0.2487977,-0.2429577,-0.1562993,0.9244685], [-0.187287,-0.3065409,-0.1935203,0.9129655], [-0.187287,-0.3065409,-0.1935203,0.9129655], [-0.187287,-0.3065409,-0.1935203,0.9129655], [-0.187287,-0.3065409,-0.1935203,0.9129655]]","collided":-1,"followDirection":false}]}