{"objects" : [
{"mainType":"3DProps","id":7,"subtype":"Hammer","position":[-32.282039642333987,1.1641075611114503,-18.25395393371582],"size":[1.0,1.0000001192092896,0.9999998211860657],"rotation":[-0.05303975194692612,0.5236371755599976,-0.10485237836837769,0.8437991142272949],"visible":true,"color":[1.0,1.0,1.0,1.0]}, 
{"mainType":"3DProps","id":6,"subtype":"cable1Green","position":[-32.29966735839844,0.8778177499771118,-18.38548469543457],"size":[1.0,1.0000001192092896,1.0],"rotation":[0.09929466247558594,0.5428990125656128,-0.0648401603102684,0.8313825130462647],"visible":true,"color":[0.0,0.0,0.0,0.0]}, 
{"mainType":"3DProps","id":5,"subtype":"shoe","position":[-32.10411071777344,1.296188235282898,-19.051494598388673],"size":[3.6622159481048586,3.662216901779175,3.6622154712677],"rotation":[-0.04921448975801468,0.9357457756996155,0.1502523124217987,0.3152490258216858],"visible":true,"color":[0.0,0.0,0.0,1.0]}, 
{"mainType":"Geometry","id":4,"subtype":"Capsule","position":[-32.257816314697269,1.0788861513137818,-18.835899353027345],"size":[0.10000000894069672,0.10000000149011612,0.10000000894069672],"rotation":[-2.4336632709065499e-9,5.960464477539063e-8,1.008056083051656e-9,1.0],"visible":true,"color":[1.0,1.0,1.0,1.0]}, 
{"mainType":"Geometry","id":3,"subtype":"Cube","position":[-32.248783111572269,0.9794758558273315,-18.574569702148439],"size":[0.10000000149011612,0.10000000894069672,0.09999999403953552],"rotation":[2.0835932978968687e-9,-2.9802322387695315e-8,2.8791655726223554e-9,1.0],"visible":true,"color":[1.0,1.0,1.0,1.0]} 
], 
 "events": []}