{"objects" : [
{"mainType":"Geometry","id":4,"subtype":"Cube","position":[-35.0565185546875,1.1315248012542725,-16.493255615234376],"size":[0.10000000149011612,0.10000001639127732,0.09999999403953552],"rotation":[-0.7012904286384583,-0.12398083508014679,-0.07861194759607315,0.6975963711738586],"visible":true,"color":[1.0,1.0,1.0,1.0]}, 
{"mainType":"Geometry","id":3,"subtype":"Sphere","position":[-35.25470733642578,1.002618670463562,-16.77722930908203],"size":[0.09999999403953552,0.10000000894069672,0.1000000610947609],"rotation":[-0.022582143545150758,-0.10944238305091858,0.016512775793671609,0.9935994148254395],"visible":true,"color":[1.0,1.0,1.0,1.0]} 
], 
 "events": [{"mainType":"Move","id":7,"target":3,"animations":[],"previousIcon":6,"nextIcon":-1,"color":[],"holdingHand":-1,"trajectory":"[[-35.25471,1.002619,-16.77723], [-34.65334,1.025229,-16.4229], [-34.57914,1.029595,-16.41139], [-34.50662,1.015904,-16.40637], [-34.4608,1.009738,-16.40187], [-34.42128,1.013354,-16.40325], [-34.40419,1.010486,-16.4015], [-34.38715,1.011884,-16.40201], [-34.3812,1.004614,-16.39896]]","rotations":"[[0.05675699,0.3366019,-0.03738649,0.9391912], [0.06650777,0.3550364,-0.04387088,0.9314512], [0.07723193,0.400954,-0.07498192,0.909752], [0.09116133,0.4464312,-0.1033464,0.8841428], [0.09585395,0.4759148,-0.1124357,0.8669921], [0.08714494,0.5061788,-0.1119635,0.850678], [0.08908264,0.5175172,-0.1133468,0.8434411], [0.08252122,0.5345863,-0.1073584,0.8341954], [0.09537026,0.5328364,-0.119645,0.832271]]","collided":-1,"followDirection":false}, 
{"mainType":"Move","id":6,"target":3,"animations":[],"previousIcon":-1,"nextIcon":7,"color":[],"holdingHand":-1,"trajectory":"[[-35.25471,1.002619,-16.77723], [-35.24539,0.9678519,-16.72705], [-35.2089,0.9581947,-16.65059], [-35.14376,0.950801,-16.5598], [-35.07129,0.921405,-16.48032], [-35.00941,0.9037725,-16.42946], [-34.96809,0.9027115,-16.39975], [-34.93118,0.9029503,-16.38447], [-34.89034,0.9085059,-16.37988], [-34.87161,0.925108,-16.38946], [-34.86332,0.9367458,-16.40442], [-34.83352,0.936835,-16.40174], [-34.82193,0.9517438,-16.41748], [-34.80662,0.9811065,-16.43305], [-34.7612,0.9906433,-16.4238], [-34.73607,1.010514,-16.43146], [-34.70421,1.021412,-16.4284], [-34.68094,1.023645,-16.42615]]","rotations":"[[-0.02258214,-0.1094424,0.01651278,0.9935994], [0.02290293,-0.08658651,0.0284332,0.9955752], [0.04654393,-0.02949843,0.02678961,0.9981212], [0.07290183,0.04392001,0.01663367,0.9962327], [0.0947364,0.1214104,0.02853889,0.9876589], [0.1080803,0.1749957,0.03666443,0.9779319], [0.1072103,0.2064975,0.04298458,0.9716054], [0.1024266,0.2188192,0.05942273,0.9685535], [0.08972625,0.2355404,0.06618015,0.9654482], [0.07766505,0.2359451,0.05839308,0.9668962], [0.07517658,0.2291652,0.04778707,0.9693029], [0.08280639,0.2449606,0.03878257,0.9652115], [0.07869127,0.2452411,0.02710716,0.9658828], [0.06408666,0.2520962,0.01171939,0.9655067], [0.06567075,0.2853192,-0.001318999,0.9561792], [0.06006773,0.2973657,-0.01912857,0.9526803], [0.06031968,0.3189223,-0.0313649,0.9453393], [0.06324601,0.3337641,-0.03714461,0.9397988]]","collided":-1,"followDirection":false}, 
{"mainType":"Move","id":5,"target":3,"animations":[],"previousIcon":-1,"nextIcon":-1,"color":[],"holdingHand":-1,"trajectory":"[[-35.25471,1.002619,-16.77723], [-35.21925,1.043376,-16.74526], [-35.20479,1.075077,-16.76965], [-35.19082,1.105045,-16.79134], [-35.17729,1.123593,-16.78133], [-35.16128,1.144123,-16.77469], [-35.15107,1.168363,-16.81204], [-35.13448,1.176436,-16.87356], [-35.07586,1.196523,-16.87981], [-34.99314,1.225505,-16.78534], [-34.87529,1.288386,-16.78298], [-34.78217,1.319945,-16.80098], [-34.78415,1.284098,-16.7679], [-34.80435,1.241711,-16.72882], [-34.80392,1.177225,-16.6828], [-34.76795,1.114921,-16.62689], [-34.70385,1.102317,-16.59076], [-34.69146,1.068076,-16.56045], [-34.66596,1.065865,-16.53344], [-34.64829,1.057682,-16.50502], [-34.6762,1.03006,-16.49131], [-34.6659,1.020464,-16.46272], [-34.65735,1.014184,-16.43703], [-34.67112,1.020389,-16.43728], [-34.6752,1.031642,-16.43248], [-34.68563,1.027092,-16.40761], [-34.71323,1.03567,-16.38343], [-34.73694,1.096375,-16.39398], [-34.70958,1.121365,-16.36691], [-34.65225,1.139986,-16.34217], [-34.58757,1.142548,-16.32289], [-34.52518,1.159523,-16.32154], [-34.49669,1.1777,-16.33156], [-34.49024,1.210682,-16.35277], [-34.51819,1.25278,-16.38652], [-34.56571,1.290299,-16.42592], [-34.6205,1.30653,-16.44589], [-34.68279,1.315736,-16.45779], [-34.75065,1.32017,-16.46541], [-34.81285,1.327573,-16.47359], [-34.86427,1.33044,-16.50148], [-34.94234,1.283532,-16.52766], [-34.93554,1.265287,-16.49351], [-34.92853,1.251558,-16.44861], [-34.93118,1.237937,-16.40884], [-34.91312,1.231236,-16.36615], [-34.8784,1.231309,-16.3347], [-34.81943,1.238177,-16.30669], [-34.74183,1.241754,-16.28105], [-34.64801,1.238957,-16.26171], [-34.56326,1.261167,-16.28418], [-34.53409,1.334491,-16.38433], [-34.61014,1.417328,-16.54761], [-34.72001,1.44672,-16.67806], [-34.84658,1.426134,-16.77054], [-34.98927,1.359176,-16.80801], [-35.12751,1.27409,-16.84969], [-35.21852,1.200113,-16.81355], [-35.27009,1.146907,-16.82348], [-35.28278,1.127436,-16.81434]]","rotations":"[[-0.02258214,-0.1094424,0.01651278,0.9935994], [-0.04111567,-0.07506144,-0.01190624,0.9962598], [-0.07593115,-0.080477,-0.02562999,0.9935296], [-0.1118155,-0.07977691,-0.03737082,0.9898163], [-0.1200589,-0.06649894,-0.04641835,0.9894488], [-0.123973,-0.05793718,-0.06001347,0.9887732], [-0.1688422,-0.06742954,-0.06240681,0.9813516], [-0.2286499,-0.1040528,-0.04530658,0.966871], [-0.2619817,-0.1069853,-0.03913407,0.9583259], [-0.2733411,-0.002441287,-0.0196085,0.9617143], [-0.3156933,0.09065327,-0.05790654,0.9427443], [-0.3262864,0.1405922,-0.1147175,0.9276912], [-0.3083164,0.1522158,-0.09535383,0.9341729], [-0.2669601,0.1283709,-0.06999221,0.9525515], [-0.1932942,0.100091,-0.05211516,0.9746298], [-0.1608676,0.1342133,-0.01810841,0.9776403], [-0.1408538,0.1693492,-0.02959298,0.97499], [-0.11977,0.1829365,-0.008008763,0.9757691], [-0.1095509,0.1999906,-0.01695561,0.9735065], [-0.09647141,0.2176337,-0.01795569,0.9710853], [-0.08360343,0.2098652,0.00533776,0.9741348], [-0.07752241,0.2313873,0.01411738,0.9696655], [-0.07465291,0.2513744,0.02880228,0.9645767], [-0.07744852,0.2440772,0.02670822,0.9662892], [-0.08133315,0.2439672,0.02022249,0.9661553], [-0.08154301,0.257183,0.04394983,0.9619127], [-0.1218866,0.2906935,0.1105148,0.9425643], [-0.1541899,0.2914163,0.09439452,0.9393571], [-0.1535569,0.3293859,0.08499815,0.9277395], [-0.1498796,0.3748046,0.07179731,0.912087], [-0.1292994,0.4131579,0.05521412,0.8997408], [-0.1221527,0.4456523,0.03145768,0.8862749], [-0.1322265,0.4637694,0.02387466,0.8757078], [-0.1513329,0.4690143,0.01097386,0.8700594], [-0.1790919,0.4514846,-0.006475046,0.8740973], [-0.2073297,0.4191621,-0.02441192,0.8835845], [-0.2167795,0.3822567,-0.03190856,0.8977017], [-0.227441,0.346441,-0.02945657,0.9096053], [-0.2446766,0.3137852,-0.01439087,0.9173141], [-0.2559807,0.2797174,-0.007125646,0.9253007], [-0.2686095,0.2467456,-0.0100932,0.9310552], [-0.2752896,0.2001595,0.02936916,0.9398347], [-0.2488557,0.2133242,0.03577669,0.9440783], [-0.2286778,0.228803,0.04569535,0.9451284], [-0.2157116,0.2371992,0.0549227,0.9456155], [-0.1933675,0.2578023,0.04923612,0.9453691], [-0.1811212,0.2888319,0.04386939,0.939067], [-0.1702362,0.3276522,0.03538777,0.9286611], [-0.1513775,0.3664656,0.02192619,0.9177729], [-0.1314571,0.4115754,0.007517293,0.9018139], [-0.1464034,0.4596473,-0.007679477,0.8759176], [-0.2061997,0.4672069,-0.06156752,0.8575599], [-0.308304,0.3994959,-0.1174515,0.855311], [-0.3616168,0.2960788,-0.1558702,0.8702155], [-0.3805497,0.1885407,-0.1589967,0.8912657], [-0.3385344,0.07244679,-0.1328125,0.9287124], [-0.3168038,-0.01964086,-0.07527797,0.9452952], [-0.2676611,-0.03246272,-0.02455366,0.962653], [-0.2380093,-0.0691686,-0.0003748238,0.9687968], [-0.2318516,-0.06636792,0.01653594,0.9703436]]","collided":-1,"followDirection":false}, 
{"mainType":"Drop","id":3,"target":4,"animations":[],"previousIcon":2,"nextIcon":-1,"color":[],"holdingHand":0,"trajectory":"","rotations":"","collided":-1,"followDirection":false}, 
{"mainType":"Drag","id":2,"target":4,"animations":[],"previousIcon":1,"nextIcon":3,"color":[],"holdingHand":0,"trajectory":"[[-35.05652,1.131525,-16.49326], [-34.8534,1.077335,-16.52564], [-34.8153,1.093235,-16.51401], [-34.77657,1.103746,-16.50251], [-34.72787,1.110519,-16.48596], [-34.69397,1.103905,-16.47212]]","rotations":"[[-0.6345361,-0.06630043,0.04110463,0.7689465], [-0.6287706,-0.06506681,0.06470303,0.7721577], [-0.6340639,-0.03662821,0.08433469,0.7677949], [-0.6385273,-0.01216592,0.1123553,0.7612563], [-0.6323643,0.02272632,0.132124,0.7629824], [-0.6261364,0.04573175,0.1690181,0.7597991]]","collided":-1,"followDirection":false}, 
{"mainType":"Grab","id":1,"target":4,"animations":[],"previousIcon":0,"nextIcon":2,"color":[],"holdingHand":0,"trajectory":"","rotations":"","collided":-1,"followDirection":false}, 
{"mainType":"Collision","id":0,"target":0,"animations":[],"previousIcon":-1,"nextIcon":1,"color":[],"holdingHand":-1,"trajectory":"","rotations":"","collided":4,"followDirection":false}]}