{"objects" : [
{"mainType":"Geometry","id":6,"subtype":"Capsule","position":[-34.84849166870117,1.0721077919006348,-16.329303741455079],"size":[0.09999999403953552,0.10000000149011612,0.10000000894069672],"rotation":[-0.004308611154556274,0.27172771096229555,-0.03660515323281288,0.9616681337356567],"visible":true,"color":[1.0,1.0,1.0,1.0]}, 
{"mainType":"Geometry","id":5,"subtype":"Cylinder","position":[-35.29719543457031,1.1324875354766846,-16.533161163330079],"size":[0.10000000149011612,0.09999997913837433,0.10000001639127732],"rotation":[-0.038110025227069858,-0.010548681020736695,-0.03265507146716118,0.9986841678619385],"visible":true,"color":[1.0,1.0,1.0,1.0]}, 
{"mainType":"Geometry","id":4,"subtype":"Sphere","position":[-35.11895751953125,1.0592314004898072,-16.355554580688478],"size":[0.10000000149011612,0.10000001639127732,0.09999999403953552],"rotation":[0.010569222271442414,0.023516535758972169,-0.00658290833234787,0.9996459484100342],"visible":true,"color":[1.0,1.0,1.0,1.0]}, 
{"mainType":"Geometry","id":3,"subtype":"Cube","position":[-35.42675018310547,1.01420259475708,-16.801410675048829],"size":[0.09999998658895493,0.10000000894069672,0.10000002384185791],"rotation":[0.0007076263427734375,-0.083258718252182,-0.030996885150671006,0.9960455298423767],"visible":true,"color":[1.0,1.0,1.0,1.0]} 
], 
 "events": []}