{"objects" : [
{"mainType":"Geometry","id":3,"subtype":"Cube","position":[-35.06936264038086,1.0824222564697266,-16.47957992553711],"size":[0.09999999403953552,0.10000000894069672,0.10000000149011612],"rotation":[-0.03748859837651253,0.27165359258651736,-0.015079488977789879,0.9615464210510254],"visible":true,"color":[1.0,1.0,1.0,1.0]} 
], 
 "events": [{"mainType":"Hide","id":0,"target":3,"animations":[],"previousIcon":-1,"nextIcon":-1,"color":[],"holdingHand":-1,"trajectory":"","rotations":"","collided":-1,"followDirection":false}]}