{"objects" : [
{"mainType":"Geometry","id":3,"subtype":"Cube","position":[-35.25006866455078,1.0788310766220093,-16.47752571105957],"size":[0.09999999403953552,0.10000000894069672,0.10000000894069672],"rotation":[-0.034014955163002017,0.30619123578071597,0.010814540088176728,0.9513006210327148],"visible":false,"color":[1.0,1.0,1.0,255.0]} 
], 
 "events": []}