{"objects" : [
{"mainType":"Geometry","id":7,"subtype":"Capsule","position":[-35.0894660949707,1.0701041221618653,-16.380733489990236],"size":[0.10000000894069672,0.10000000149011612,0.09999999403953552],"rotation":[-0.01377914845943451,0.17812669277191163,-0.024777956306934358,0.9835991263389587],"visible":true,"color":[1.0,1.0,1.0,1.0]}, 
{"mainType":"Geometry","id":6,"subtype":"Sphere","position":[-35.395599365234378,1.0170584917068482,-17.210346221923829],"size":[0.10000003129243851,0.10000007599592209,0.10000002384185791],"rotation":[-0.13412100076675416,-0.3105829656124115,0.003014058107510209,0.9410317540168762],"visible":false,"color":[1.0,1.0,1.0,1.0]}, 
{"mainType":"Geometry","id":4,"subtype":"Cylinder","position":[-34.701995849609378,1.059831976890564,-16.14231300354004],"size":[0.10000000894069672,0.10000003129243851,0.09999998658895493],"rotation":[-0.010267660021781922,0.4207967519760132,0.01612718403339386,0.9069535136222839],"visible":true,"color":[1.0,1.0,1.0,1.0]}, 
{"mainType":"Geometry","id":3,"subtype":"Cube","position":[-35.36464309692383,0.9927570819854736,-16.732948303222658],"size":[0.10000002384185791,0.09999998658895493,0.10000000894069672],"rotation":[0.022605955600738527,-0.011842578649520874,-0.00998561829328537,0.999624490737915],"visible":false,"color":[1.0,1.0,1.0,1.0]} 
], 
 "events": [{"mainType":"Hide","id":1,"target":7,"animations":[],"previousIcon":0,"nextIcon":-1,"color":[],"holdingHand":-1,"trajectory":"","rotations":"","collided":-1,"followDirection":false}, 
{"mainType":"Show","id":0,"target":3,"animations":[],"previousIcon":-1,"nextIcon":1,"color":[],"holdingHand":-1,"trajectory":"","rotations":"","collided":-1,"followDirection":false}]}