{"objects" : [
{"mainType":"3DProps","id":6,"subtype":"shoe","position":[-35.0191650390625,1.263968825340271,-16.198200225830079],"size":[3.4281728267669679,3.428171396255493,3.428173065185547],"rotation":[0.07761571556329727,0.02761992998421192,0.08534686267375946,-0.9929395318031311],"visible":true,"color":[0.0,0.0,0.0,1.0]}, 
{"mainType":"3DProps","id":5,"subtype":"small-watermelon","position":[-34.57373046875,0.9509009122848511,-16.293046951293947],"size":[99.99998474121094,100.0000228881836,100.0],"rotation":[-0.12161572277545929,-0.2580687999725342,0.058229535818099979,-0.9566710591316223],"visible":true,"color":[0.800000011920929,0.800000011920929,0.800000011920929,1.0]}, 
{"mainType":"Geometry","id":4,"subtype":"Cylinder","position":[-35.2515869140625,0.9454065561294556,-16.33354949951172],"size":[0.1000000461935997,0.1000000610947609,0.09999997913837433],"rotation":[-0.042760755866765979,0.2514578104019165,0.029460784047842027,0.9664742946624756],"visible":true,"color":[1.0,1.0,1.0,1.0]}, 
{"mainType":"Geometry","id":3,"subtype":"Cube","position":[-35.65095520019531,1.1324772834777833,-16.68703269958496],"size":[0.10000000894069672,0.09999999403953552,0.09999999403953552],"rotation":[-0.05107009783387184,-0.04730042815208435,-0.017942937090992929,0.997412919998169],"visible":true,"color":[1.0,1.0,1.0,1.0]} 
], 
 "events": [{"mainType":"Collision","id":15,"target":1,"animations":[],"previousIcon":12,"nextIcon":-1,"color":[],"holdingHand":-1,"trajectory":"","rotations":"","collided":3,"followDirection":false}, 
{"mainType":"Drag","id":12,"target":4,"animations":[],"previousIcon":11,"nextIcon":15,"color":[],"holdingHand":1,"trajectory":"[[-35.25159,0.9454066,-16.33355], [-35.37843,1.09008,-16.51707], [-35.38644,1.090199,-16.50545], [-35.38554,1.086566,-16.50906], [-35.36467,1.082144,-16.53387], [-35.34728,1.070557,-16.56671], [-35.33891,1.054449,-16.61163], [-35.33619,1.026423,-16.65798], [-35.34354,0.9904275,-16.68992], [-35.35398,0.9544271,-16.71284], [-35.36305,0.9360937,-16.71746]]","rotations":"[[-0.7042961,-0.05566741,0.3440498,0.6184642], [-0.6860847,-0.05339798,0.3097799,0.6561043], [-0.6776707,-0.06620819,0.3067216,0.665057], [-0.6723754,-0.07318992,0.2989738,0.6731784], [-0.6746712,-0.03541496,0.284142,0.6803146], [-0.6632098,-0.01583129,0.2726051,0.6968419], [-0.6520253,-0.009545016,0.2683659,0.7090498], [-0.6438364,-0.04065514,0.2439425,0.7240952], [-0.6339295,-0.09465785,0.2309894,0.7319953], [-0.6400879,-0.1410264,0.2018329,0.7277792], [-0.6443048,-0.1446631,0.2380303,0.7122397]]","collided":-1,"followDirection":false}, 
{"mainType":"Grab","id":11,"target":4,"animations":[],"previousIcon":10,"nextIcon":12,"color":[],"holdingHand":1,"trajectory":"","rotations":"","collided":-1,"followDirection":false}, 
{"mainType":"Collision","id":10,"target":1,"animations":[],"previousIcon":-1,"nextIcon":11,"color":[],"holdingHand":-1,"trajectory":"","rotations":"","collided":4,"followDirection":false}, 
{"mainType":"Drag","id":9,"target":5,"animations":[],"previousIcon":8,"nextIcon":-1,"color":[],"holdingHand":0,"trajectory":"[[-34.57373,0.9509009,-16.29305], [-34.89082,1.031426,-16.34707], [-34.86269,1.019729,-16.33695], [-34.84222,0.9918545,-16.32129], [-34.7869,0.9935486,-16.31091], [-34.72834,1.003819,-16.3107], [-34.68528,1.006343,-16.30871], [-34.65567,1.012292,-16.31044], [-34.6479,1.011957,-16.31013]]","rotations":"[[-0.7252521,0.1278011,0.4161609,0.5333728], [-0.6806704,0.1668888,0.5177552,0.4906787], [-0.6484699,0.1823982,0.597415,0.4351012], [-0.6206383,0.1488384,0.6890494,0.3433164], [-0.5717897,0.2038173,0.7071193,0.3626254], [-0.5395562,0.2563692,0.6845391,0.417804], [-0.5182215,0.2616043,0.6856847,0.4391425], [-0.5119137,0.2711439,0.6659034,0.4701042], [-0.5202453,0.2516373,0.6610051,0.4786396]]","collided":-1,"followDirection":false}, 
{"mainType":"Drop","id":8,"target":5,"animations":[],"previousIcon":7,"nextIcon":9,"color":[],"holdingHand":0,"trajectory":"","rotations":"","collided":-1,"followDirection":false}, 
{"mainType":"Drag","id":7,"target":5,"animations":[],"previousIcon":6,"nextIcon":8,"color":[],"holdingHand":0,"trajectory":"[[-34.57373,0.9509009,-16.29305], [-34.87936,1.088357,-16.43996], [-34.88552,1.083201,-16.38445], [-34.8822,1.08203,-16.35939], [-34.87946,1.085463,-16.36088]]","rotations":"[[-0.7359225,0.06857818,0.1819893,0.648533], [-0.7234688,0.06533235,0.1776142,0.663911], [-0.6841449,0.05955346,0.1678619,0.7072634], [-0.6617071,0.06367011,0.1391197,0.7339861], [-0.6649352,0.06364944,0.1408623,0.730731]]","collided":-1,"followDirection":false}, 
{"mainType":"Grab","id":6,"target":5,"animations":[],"previousIcon":5,"nextIcon":7,"color":[],"holdingHand":0,"trajectory":"","rotations":"","collided":-1,"followDirection":false}, 
{"mainType":"Collision","id":5,"target":0,"animations":[],"previousIcon":4,"nextIcon":6,"color":[],"holdingHand":-1,"trajectory":"","rotations":"","collided":-1,"followDirection":false}, 
{"mainType":"Collision","id":4,"target":0,"animations":[],"previousIcon":-1,"nextIcon":5,"color":[],"holdingHand":-1,"trajectory":"","rotations":"","collided":5,"followDirection":false}, 
{"mainType":"Hide","id":3,"target":3,"animations":[],"previousIcon":2,"nextIcon":-1,"color":[],"holdingHand":-1,"trajectory":"","rotations":"","collided":-1,"followDirection":false}, 
{"mainType":"Move","id":2,"target":4,"animations":[],"previousIcon":1,"nextIcon":3,"color":[],"holdingHand":-1,"trajectory":"[[-35.25159,0.9454066,-16.33355], [-35.31233,1.091164,-16.44228], [-35.33516,1.085576,-16.46541], [-35.33047,1.085177,-16.45485]]","rotations":"[[-0.02715465,0.1090933,-0.05792641,0.9919707], [-0.05136144,0.06937075,-0.05106952,0.9949582], [-0.04369286,0.0506992,-0.05071987,0.9964678], [-0.0461465,0.05987301,-0.04834462,0.9959662], [-0.0461465,0.05987301,-0.04834462,0.9959662], [-0.0461465,0.05987301,-0.04834462,0.9959662]]","collided":-1,"followDirection":false}, 
{"mainType":"Color","id":1,"target":6,"animations":[],"previousIcon":0,"nextIcon":2,"color":[0.7177945375442505,0.249022975564003,0.249022975564003,1.0],"holdingHand":-1,"trajectory":"","rotations":"","collided":-1,"followDirection":false}, 
{"mainType":"Hide","id":0,"target":6,"animations":[],"previousIcon":-1,"nextIcon":1,"color":[],"holdingHand":-1,"trajectory":"","rotations":"","collided":-1,"followDirection":false}]}