{"objects" : [
{"mainType":"Geometry","id":4,"subtype":"Sphere","position":[-34.96976852416992,1.0732077360153199,-16.39151382446289],"size":[0.10000000149011612,0.10000002384185791,0.09999999403953552],"rotation":[0.02464105188846588,0.21755555272102357,-0.039269089698791507,0.9749463796615601],"visible":true,"color":[1.0,1.0,1.0,1.0]}, 
{"mainType":"Geometry","id":3,"subtype":"Cube","position":[-35.39671325683594,1.005785584449768,-16.786502838134767],"size":[0.09999999403953552,0.09999999403953552,0.1000000387430191],"rotation":[-0.00899893045425415,-0.02616766095161438,-0.014851190149784089,0.9995067715644836],"visible":true,"color":[1.0,1.0,1.0,1.0]} 
], 
 "events": [{"mainType":"Hide","id":1,"target":4,"animations":[],"previousIcon":-1,"nextIcon":-1,"color":[],"holdingHand":-1,"trajectory":"","rotations":"","collided":-1,"followDirection":false}, 
{"mainType":"Move","id":0,"target":3,"animations":[],"previousIcon":-1,"nextIcon":-1,"color":[],"holdingHand":-1,"trajectory":"[[-35.39671,1.005786,-16.7865], [-35.38727,1.101832,-16.79018], [-35.36061,1.227245,-16.82529], [-35.35149,1.304552,-16.85562], [-35.35424,1.350712,-16.86295], [-35.35777,1.352014,-16.86099]]","rotations":"[[-0.00899893,-0.02616766,-0.01485119,0.9995068], [-0.03206105,-0.02131158,-0.071513,0.9966965], [-0.05594492,-0.03345206,-0.1479315,0.9868472], [-0.08815181,-0.03909138,-0.1867076,0.9776714], [-0.09181187,-0.03902546,-0.2057094,0.9735149], [-0.09087616,-0.03732264,-0.2040205,0.9740248], [-0.09087616,-0.03732264,-0.2040205,0.9740248], [-0.09087616,-0.03732264,-0.2040205,0.9740248]]","collided":-1,"followDirection":false}]}