{"objects" : [
{"mainType":"Geometry","id":4,"subtype":"Sphere","position":[-35.43574142456055,1.0712134838104249,-17.024194717407228],"size":[0.09999998658895493,0.10000000149011612,0.10000001639127732],"rotation":[-0.004704803228378296,-0.11226985603570938,-0.039579957723617557,0.9928780794143677],"visible":true,"color":[1.0,1.0,1.0,1.0]}, 
{"mainType":"Geometry","id":3,"subtype":"Cube","position":[-35.4036979675293,1.160266637802124,-16.553890228271486],"size":[0.09999999403953552,0.09999997913837433,0.09999998658895493],"rotation":[-0.004312009550631046,0.18927013874053956,-0.007920222356915474,0.9818836450576782],"visible":true,"color":[1.0,1.0,1.0,1.0]} 
], 
 "events": [{"mainType":"Hide","id":1,"target":4,"animations":[],"previousIcon":-1,"nextIcon":-1,"color":[],"holdingHand":-1,"trajectory":"","rotations":"","collided":-1,"followDirection":false}, 
{"mainType":"Move","id":0,"target":3,"animations":[],"previousIcon":-1,"nextIcon":-1,"color":[],"holdingHand":-1,"trajectory":"[[-35.4037,1.160267,-16.55389], [-35.33798,1.263791,-16.48703], [-35.25523,1.323251,-16.3601], [-35.17768,1.308159,-16.20239], [-35.12942,1.275353,-16.10844]]","rotations":"[[-0.004312009,0.1892701,-0.007920221,0.9818836], [0.01327366,0.2299451,-0.07804471,0.9699785], [0.02562928,0.3133594,-0.1240424,0.9411497], [0.04162928,0.4144362,-0.120432,0.9011137], [0.03701244,0.4839799,-0.09888645,0.8686858], [0.03701244,0.4839799,-0.09888645,0.8686858], [0.03701244,0.4839799,-0.09888645,0.8686858], [0.03701244,0.4839799,-0.09888645,0.8686858]]","collided":-1,"followDirection":false}]}