{"objects" : [
{"mainType":"Geometry","id":3,"subtype":"Sphere","position":[-35.380489349365237,1.141051173210144,-16.67629623413086],"size":[0.1000000536441803,0.10000002384185791,0.1000000461935997],"rotation":[-0.7558141350746155,0.28245246410369875,-0.07150504738092423,0.5863895416259766],"visible":true,"color":[1.0,1.0,1.0,1.0]} 
], 
 "events": [{"mainType":"Move","id":0,"target":3,"animations":[],"previousIcon":-1,"nextIcon":-1,"color":[],"holdingHand":-1,"trajectory":"[[-35.38049,1.141051,-16.6763], [-35.35746,1.179155,-16.80926], [-35.30582,1.216543,-16.68495], [-35.29029,1.227995,-16.65931], [-35.29401,1.228873,-16.67337]]","rotations":"[[0.001829043,-0.01180249,-0.2381959,0.9711437], [0.008335695,0.003114223,-0.2449704,0.9694897], [-0.0009001195,0.08483639,-0.2728843,0.9582984], [-0.01102935,0.1029228,-0.2787741,0.9547619], [-0.01209407,0.09446301,-0.2791803,0.9555045], [-0.01209407,0.09446301,-0.2791803,0.9555045], [-0.01209407,0.09446301,-0.2791803,0.9555045]]","collided":-1,"followDirection":false}]}