{"objects" : [
{"mainType":"Geometry","id":5,"subtype":"Capsule","position":[-34.99420928955078,0.9926033020019531,-16.60205841064453],"size":[0.09999997913837433,0.10000001639127732,0.09999997913837433],"rotation":[0.033047717064619067,0.014781148172914982,0.03811182081699371,0.9986174702644348],"visible":true,"color":[1.0,1.0,1.0,1.0]}, 
{"mainType":"Geometry","id":4,"subtype":"Cylinder","position":[-35.336185455322269,1.077681064605713,-16.728899002075197],"size":[0.10000000149011612,0.10000000149011612,0.10000002384185791],"rotation":[-0.026304220780730249,-0.07000414282083512,-0.028093775734305383,0.9968040585517883],"visible":true,"color":[1.0,1.0,1.0,1.0]}, 
{"mainType":"Geometry","id":3,"subtype":"Cube","position":[-35.275081634521487,1.0152618885040284,-17.11247444152832],"size":[0.09999997913837433,0.10000000894069672,0.1000000461935997],"rotation":[0.020114149898290635,-0.26689544320106509,-0.020738696679472925,0.9632923603057861],"visible":true,"color":[1.0,1.0,1.0,1.0]} 
], 
 "events": [{"mainType":"Hide","id":2,"target":4,"animations":[],"previousIcon":-1,"nextIcon":-1,"color":[],"holdingHand":-1,"trajectory":"","rotations":"","collided":-1,"followDirection":false}, 
{"mainType":"Move","id":1,"target":3,"animations":[],"previousIcon":-1,"nextIcon":-1,"color":[],"holdingHand":-1,"trajectory":"[[-35.27508,1.015262,-17.11247], [-35.32652,1.081747,-17.08857], [-35.37407,1.168574,-17.09033], [-35.37431,1.261205,-17.17592], [-35.32599,1.271222,-17.34969], [-35.32776,1.218194,-17.40971]]","rotations":"[[0.02011415,-0.2668954,-0.0207387,0.9632924], [-0.01348764,-0.2289025,-0.05393939,0.9718602], [-0.008364193,-0.2143555,-0.08969969,0.9725923], [-0.05856182,-0.236792,-0.1518223,0.9578362], [-0.06990561,-0.3597605,-0.1560631,0.9172405], [-0.06906833,-0.3966077,-0.1122055,0.9084833], [-0.06906833,-0.3966077,-0.1122055,0.9084833], [-0.06906833,-0.3966077,-0.1122055,0.9084833], [-0.06906833,-0.3966077,-0.1122055,0.9084833]]","collided":-1,"followDirection":false}, 
{"mainType":"Collision","id":0,"target":0,"animations":[],"previousIcon":-1,"nextIcon":-1,"color":[],"holdingHand":-1,"trajectory":"","rotations":"","collided":5,"followDirection":false}]}