{"objects" : [
{"mainType":"Geometry","id":4,"subtype":"Sphere","position":[-35.254493713378909,1.0442581176757813,-16.438629150390626],"size":[0.10000000894069672,0.10000002384185791,0.10000003129243851],"rotation":[0.04692521318793297,0.18292568624019624,-0.027431076392531396,0.9816229939460754],"visible":true,"color":[1.0,1.0,1.0,1.0]}, 
{"mainType":"Geometry","id":3,"subtype":"Cube","position":[-35.4605827331543,0.9765059947967529,-16.769590377807618],"size":[0.10000003129243851,0.09999999403953552,0.1000000387430191],"rotation":[0.0,0.0,0.0,1.0],"visible":true,"color":[1.0,1.0,1.0,1.0]} 
], 
 "events": [{"mainType":"Hide","id":1,"target":4,"animations":[],"previousIcon":-1,"nextIcon":-1,"color":[],"holdingHand":-1,"trajectory":"","rotations":"","collided":-1,"followDirection":false}, 
{"mainType":"Move","id":0,"target":3,"animations":[],"previousIcon":-1,"nextIcon":-1,"color":[],"holdingHand":-1,"trajectory":"[[-35.46058,0.976506,-16.76959], [-35.45736,1.004226,-16.80763], [-35.44233,1.031765,-16.94419], [-35.44347,1.029293,-16.95848]]","rotations":"[[0,0,0,1], [-0.01582235,-0.0233283,-0.01758461,0.9994481], [-0.01421954,-0.1157188,-0.03662712,0.9925046], [-0.01766127,-0.1232889,-0.03605809,0.9915583], [-0.01766127,-0.1232889,-0.03605809,0.9915583], [-0.01766127,-0.1232889,-0.03605809,0.9915583]]","collided":-1,"followDirection":false}]}