{"objects" : [
{"mainType":"Geometry","id":4,"subtype":"Cube","position":[-35.155338287353519,1.0184890031814576,-16.31451988220215],"size":[0.09999999403953552,0.09999999403953552,0.09999999403953552],"rotation":[-0.003190569579601288,0.35663068294525149,0.009021405130624771,0.9341964721679688],"visible":true,"color":[1.0,1.0,1.0,1.0]}, 
{"mainType":"Geometry","id":3,"subtype":"Capsule","position":[-35.48557662963867,0.9624121189117432,-16.816505432128908],"size":[0.09999999403953552,0.10000000149011612,0.10000000149011612],"rotation":[0.0,0.0,0.0,1.0],"visible":true,"color":[1.0,1.0,1.0,1.0]} 
], 
 "events": [{"mainType":"Hide","id":1,"target":4,"animations":[],"previousIcon":-1,"nextIcon":-1,"color":[],"holdingHand":-1,"trajectory":"","rotations":"","collided":-1,"followDirection":false}, 
{"mainType":"Move","id":0,"target":3,"animations":[],"previousIcon":-1,"nextIcon":-1,"color":[],"holdingHand":-1,"trajectory":"[[-35.48558,0.9624121,-16.81651], [-35.49632,1.017286,-16.82971], [-35.49326,1.088258,-16.95962], [-35.47087,1.094088,-17.09543], [-35.46383,1.073436,-17.13747]]","rotations":"[[0,0,0,1], [-0.02926217,0.003573775,-0.02949701,0.99913], [-0.03205207,-0.07306129,-0.06769861,0.9945108], [-0.05917486,-0.1512447,-0.07492062,0.9838752], [-0.09789658,-0.1718028,-0.07066046,0.9777051], [-0.09789658,-0.1718028,-0.07066046,0.9777051], [-0.09789658,-0.1718028,-0.07066046,0.9777051], [-0.09789658,-0.1718028,-0.07066046,0.9777051]]","collided":-1,"followDirection":false}]}