{"objects" : [
{"mainType":"Geometry","id":5,"subtype":"Capsule","position":[-35.29375457763672,0.9978940486907959,-17.332687377929689],"size":[0.09999998658895493,0.10000002384185791,0.09999998658895493],"rotation":[-0.007058515213429928,-0.4706742763519287,0.026854844763875009,0.8818700313568115],"visible":true,"color":[1.0,1.0,1.0,1.0]}, 
{"mainType":"Geometry","id":4,"subtype":"Sphere","position":[-34.3773307800293,0.9765044450759888,-16.465158462524415],"size":[0.10000000894069672,0.1000000387430191,0.10000002384185791],"rotation":[0.0647270679473877,0.6588292717933655,-0.2599780261516571,0.7029693722724915],"visible":true,"color":[1.0,1.0,1.0,1.0]}, 
{"mainType":"Geometry","id":3,"subtype":"Cube","position":[-35.056636810302737,1.0859463214874268,-16.5867862701416],"size":[0.10000003129243851,0.1000000461935997,0.10000000149011612],"rotation":[-0.0201997309923172,0.08847570419311524,-0.021529123187065126,0.9956408143043518],"visible":true,"color":[1.0,1.0,1.0,1.0]} 
], 
 "events": [{"mainType":"Move","id":2,"target":4,"animations":[],"previousIcon":1,"nextIcon":-1,"color":[],"holdingHand":-1,"trajectory":"[[-34.37733,0.9765044,-16.46516], [-34.3705,0.9543313,-16.45391], [-34.43935,0.9321193,-16.39524], [-34.56921,0.9360377,-16.34719], [-34.72989,0.9562404,-16.35427], [-34.83921,0.9747412,-16.37895], [-34.93455,0.9741026,-16.39639], [-35.00129,0.9697073,-16.43229], [-35.0074,0.9815638,-16.44305]]","rotations":"[[0.06472707,0.6588293,-0.259978,0.7029694], [0.09176287,0.657074,-0.268694,0.69831], [0.133887,0.6117562,-0.2000191,0.753539], [0.1560563,0.5084567,-0.1361188,0.835817], [0.150232,0.3825325,-0.08625574,0.9075568], [0.1316792,0.3066003,-0.05264901,0.9412147], [0.1091349,0.2442583,0.003778707,0.9635421], [0.1096874,0.1738101,0.02769268,0.9782597], [0.08575971,0.1671966,0.02681744,0.9818205], [0.08575971,0.1671966,0.02681744,0.9818205], [0.08575971,0.1671966,0.02681744,0.9818205]]","collided":-1,"followDirection":false}, 
{"mainType":"Move","id":1,"target":3,"animations":[],"previousIcon":0,"nextIcon":2,"color":[],"holdingHand":-1,"trajectory":"[[-35.05664,1.085946,-16.58679], [-35.15678,1.117608,-16.66531], [-35.25558,1.142951,-16.76058], [-35.35026,1.132651,-16.87417], [-35.39503,1.114491,-16.91913]]","rotations":"[[-0.02019973,0.0884757,-0.02152912,0.9956408], [-0.02641104,0.00439769,-0.002341196,0.9996387], [-0.01723371,-0.09496495,0.004225239,0.9953225], [-0.06317134,-0.1635977,0.05125785,0.9831672], [-0.09254599,-0.1736537,0.07918797,0.9772456], [-0.09254599,-0.1736537,0.07918797,0.9772456], [-0.09254599,-0.1736537,0.07918797,0.9772456], [-0.09254599,-0.1736537,0.07918797,0.9772456]]","collided":-1,"followDirection":false}, 
{"mainType":"Move","id":0,"target":5,"animations":[],"previousIcon":-1,"nextIcon":1,"color":[],"holdingHand":-1,"trajectory":"[[-35.29375,0.997894,-17.33269], [-35.31083,1.043034,-17.28621], [-35.32745,1.177156,-17.12944], [-35.2726,1.331668,-16.88845], [-35.11734,1.44875,-16.69797], [-34.86552,1.521137,-16.57574], [-34.5266,1.492821,-16.50855], [-34.27012,1.365965,-16.50391], [-34.16485,1.261137,-16.49767], [-34.17661,1.238917,-16.45018], [-34.19894,1.254386,-16.43675]]","rotations":"[[-0.007058515,-0.4706743,0.02685484,0.88187], [0.00692521,-0.4411813,-0.003686577,0.8973837], [-0.0352512,-0.3225479,-0.1062998,0.9399046], [-0.1377943,-0.09618309,-0.2118386,0.9627492], [-0.1016572,0.03564653,-0.3188533,0.9416623], [-0.1178005,0.1878165,-0.4323635,0.8740194], [-0.1122953,0.3558439,-0.5518888,0.7457774], [-0.08207461,0.4830281,-0.6221006,0.610687], [-0.04369614,0.5389597,-0.6473975,0.5371125], [-0.01608306,0.5656236,-0.6190757,0.5445701], [-0.01616493,0.5545084,-0.6136371,0.5618796], [-0.01616493,0.5545084,-0.6136371,0.5618796], [-0.01616493,0.5545084,-0.6136371,0.5618796], [-0.01616493,0.5545084,-0.6136371,0.5618796]]","collided":-1,"followDirection":false}]}