{"objects" : [
{"mainType":"Geometry","id":3,"subtype":"Sphere","position":[-35.21156692504883,1.1380596160888672,-16.859939575195314],"size":[0.10000000149011612,0.09999998658895493,0.09999999403953552],"rotation":[0.0,0.0,2.7939675018018308e-9,1.0],"visible":true,"color":[0.8640522360801697,0.5177320837974548,0.5177320837974548,1.0]} 
], 
 "events": [{"mainType":"Color","id":140,"target":3,"animations":[],"previousIcon":139,"nextIcon":-1,"color":[0.8856410980224609,0.2893795073032379,0.2893795073032379,1.0],"holdingHand":-1,"trajectory":"","rotations":"","collided":-1,"followDirection":false}, 
{"mainType":"Color","id":139,"target":3,"animations":[],"previousIcon":138,"nextIcon":140,"color":[0.8856410980224609,0.2893795073032379,0.2893795073032379,1.0],"holdingHand":-1,"trajectory":"","rotations":"","collided":-1,"followDirection":false}, 
{"mainType":"Color","id":138,"target":3,"animations":[],"previousIcon":137,"nextIcon":139,"color":[0.8856410980224609,0.2893795073032379,0.2893795073032379,1.0],"holdingHand":-1,"trajectory":"","rotations":"","collided":-1,"followDirection":false}, 
{"mainType":"Color","id":137,"target":3,"animations":[],"previousIcon":136,"nextIcon":138,"color":[0.8856410980224609,0.2893795073032379,0.2893795073032379,1.0],"holdingHand":-1,"trajectory":"","rotations":"","collided":-1,"followDirection":false}, 
{"mainType":"Color","id":136,"target":3,"animations":[],"previousIcon":135,"nextIcon":137,"color":[0.8856410980224609,0.2893795073032379,0.2893795073032379,1.0],"holdingHand":-1,"trajectory":"","rotations":"","collided":-1,"followDirection":false}, 
{"mainType":"Color","id":135,"target":3,"animations":[],"previousIcon":134,"nextIcon":136,"color":[0.8856410980224609,0.2893795073032379,0.2893795073032379,1.0],"holdingHand":-1,"trajectory":"","rotations":"","collided":-1,"followDirection":false}, 
{"mainType":"Color","id":134,"target":3,"animations":[],"previousIcon":133,"nextIcon":135,"color":[0.8856410980224609,0.2893795073032379,0.2893795073032379,1.0],"holdingHand":-1,"trajectory":"","rotations":"","collided":-1,"followDirection":false}, 
{"mainType":"Color","id":133,"target":3,"animations":[],"previousIcon":132,"nextIcon":134,"color":[0.8856410980224609,0.2893795073032379,0.2893795073032379,1.0],"holdingHand":-1,"trajectory":"","rotations":"","collided":-1,"followDirection":false}, 
{"mainType":"Color","id":132,"target":3,"animations":[],"previousIcon":131,"nextIcon":133,"color":[0.8856410980224609,0.2893795073032379,0.2893795073032379,1.0],"holdingHand":-1,"trajectory":"","rotations":"","collided":-1,"followDirection":false}, 
{"mainType":"Color","id":131,"target":3,"animations":[],"previousIcon":130,"nextIcon":132,"color":[0.8856410980224609,0.2893795073032379,0.2893795073032379,1.0],"holdingHand":-1,"trajectory":"","rotations":"","collided":-1,"followDirection":false}, 
{"mainType":"Color","id":130,"target":3,"animations":[],"previousIcon":129,"nextIcon":131,"color":[0.8856410980224609,0.2893795073032379,0.2893795073032379,1.0],"holdingHand":-1,"trajectory":"","rotations":"","collided":-1,"followDirection":false}, 
{"mainType":"Color","id":129,"target":3,"animations":[],"previousIcon":128,"nextIcon":130,"color":[0.8856410980224609,0.2893795073032379,0.2893795073032379,1.0],"holdingHand":-1,"trajectory":"","rotations":"","collided":-1,"followDirection":false}, 
{"mainType":"Color","id":128,"target":3,"animations":[],"previousIcon":127,"nextIcon":129,"color":[0.8856410980224609,0.2893795073032379,0.2893795073032379,1.0],"holdingHand":-1,"trajectory":"","rotations":"","collided":-1,"followDirection":false}, 
{"mainType":"Color","id":127,"target":3,"animations":[],"previousIcon":126,"nextIcon":128,"color":[0.8856410980224609,0.2893795073032379,0.2893795073032379,1.0],"holdingHand":-1,"trajectory":"","rotations":"","collided":-1,"followDirection":false}, 
{"mainType":"Color","id":126,"target":3,"animations":[],"previousIcon":125,"nextIcon":127,"color":[0.8856410980224609,0.2893795073032379,0.2893795073032379,1.0],"holdingHand":-1,"trajectory":"","rotations":"","collided":-1,"followDirection":false}, 
{"mainType":"Color","id":125,"target":3,"animations":[],"previousIcon":124,"nextIcon":126,"color":[0.8856410980224609,0.2893795073032379,0.2893795073032379,1.0],"holdingHand":-1,"trajectory":"","rotations":"","collided":-1,"followDirection":false}, 
{"mainType":"Color","id":124,"target":3,"animations":[],"previousIcon":123,"nextIcon":125,"color":[0.8856410980224609,0.2893795073032379,0.2893795073032379,1.0],"holdingHand":-1,"trajectory":"","rotations":"","collided":-1,"followDirection":false}, 
{"mainType":"Color","id":123,"target":3,"animations":[],"previousIcon":122,"nextIcon":124,"color":[0.8856410980224609,0.2893795073032379,0.2893795073032379,1.0],"holdingHand":-1,"trajectory":"","rotations":"","collided":-1,"followDirection":false}, 
{"mainType":"Color","id":122,"target":3,"animations":[],"previousIcon":121,"nextIcon":123,"color":[0.8856410980224609,0.2893795073032379,0.2893795073032379,1.0],"holdingHand":-1,"trajectory":"","rotations":"","collided":-1,"followDirection":false}, 
{"mainType":"Color","id":121,"target":3,"animations":[],"previousIcon":120,"nextIcon":122,"color":[0.8856410980224609,0.2893795073032379,0.2893795073032379,1.0],"holdingHand":-1,"trajectory":"","rotations":"","collided":-1,"followDirection":false}, 
{"mainType":"Color","id":120,"target":3,"animations":[],"previousIcon":119,"nextIcon":121,"color":[0.8856410980224609,0.2893795073032379,0.2893795073032379,1.0],"holdingHand":-1,"trajectory":"","rotations":"","collided":-1,"followDirection":false}, 
{"mainType":"Color","id":119,"target":3,"animations":[],"previousIcon":118,"nextIcon":120,"color":[0.8856410980224609,0.2893795073032379,0.2893795073032379,1.0],"holdingHand":-1,"trajectory":"","rotations":"","collided":-1,"followDirection":false}, 
{"mainType":"Color","id":118,"target":3,"animations":[],"previousIcon":117,"nextIcon":119,"color":[0.8856410980224609,0.2893795073032379,0.2893795073032379,1.0],"holdingHand":-1,"trajectory":"","rotations":"","collided":-1,"followDirection":false}, 
{"mainType":"Color","id":117,"target":3,"animations":[],"previousIcon":116,"nextIcon":118,"color":[0.8856410980224609,0.2893795073032379,0.2893795073032379,1.0],"holdingHand":-1,"trajectory":"","rotations":"","collided":-1,"followDirection":false}, 
{"mainType":"Color","id":116,"target":3,"animations":[],"previousIcon":115,"nextIcon":117,"color":[0.8856410980224609,0.2893795073032379,0.2893795073032379,1.0],"holdingHand":-1,"trajectory":"","rotations":"","collided":-1,"followDirection":false}, 
{"mainType":"Color","id":115,"target":3,"animations":[],"previousIcon":114,"nextIcon":116,"color":[0.8856410980224609,0.2893795073032379,0.2893795073032379,1.0],"holdingHand":-1,"trajectory":"","rotations":"","collided":-1,"followDirection":false}, 
{"mainType":"Color","id":114,"target":3,"animations":[],"previousIcon":113,"nextIcon":115,"color":[0.8856410980224609,0.2893795073032379,0.2893795073032379,1.0],"holdingHand":-1,"trajectory":"","rotations":"","collided":-1,"followDirection":false}, 
{"mainType":"Color","id":113,"target":3,"animations":[],"previousIcon":112,"nextIcon":114,"color":[0.8856410980224609,0.2893795073032379,0.2893795073032379,1.0],"holdingHand":-1,"trajectory":"","rotations":"","collided":-1,"followDirection":false}, 
{"mainType":"Color","id":112,"target":3,"animations":[],"previousIcon":111,"nextIcon":113,"color":[0.8856410980224609,0.2893795073032379,0.2893795073032379,1.0],"holdingHand":-1,"trajectory":"","rotations":"","collided":-1,"followDirection":false}, 
{"mainType":"Color","id":111,"target":3,"animations":[],"previousIcon":110,"nextIcon":112,"color":[0.8856410980224609,0.2893795073032379,0.2893795073032379,1.0],"holdingHand":-1,"trajectory":"","rotations":"","collided":-1,"followDirection":false}, 
{"mainType":"Color","id":110,"target":3,"animations":[],"previousIcon":109,"nextIcon":111,"color":[0.8856410980224609,0.2893795073032379,0.2893795073032379,1.0],"holdingHand":-1,"trajectory":"","rotations":"","collided":-1,"followDirection":false}, 
{"mainType":"Color","id":109,"target":3,"animations":[],"previousIcon":108,"nextIcon":110,"color":[0.8856410980224609,0.2893795073032379,0.2893795073032379,1.0],"holdingHand":-1,"trajectory":"","rotations":"","collided":-1,"followDirection":false}, 
{"mainType":"Color","id":108,"target":3,"animations":[],"previousIcon":107,"nextIcon":109,"color":[0.8856410980224609,0.2893795073032379,0.2893795073032379,1.0],"holdingHand":-1,"trajectory":"","rotations":"","collided":-1,"followDirection":false}, 
{"mainType":"Color","id":107,"target":3,"animations":[],"previousIcon":106,"nextIcon":108,"color":[0.8856410980224609,0.2893795073032379,0.2893795073032379,1.0],"holdingHand":-1,"trajectory":"","rotations":"","collided":-1,"followDirection":false}, 
{"mainType":"Color","id":106,"target":3,"animations":[],"previousIcon":105,"nextIcon":107,"color":[0.8856410980224609,0.2893795073032379,0.2893795073032379,1.0],"holdingHand":-1,"trajectory":"","rotations":"","collided":-1,"followDirection":false}, 
{"mainType":"Color","id":105,"target":3,"animations":[],"previousIcon":104,"nextIcon":106,"color":[0.8856410980224609,0.2893795073032379,0.2893795073032379,1.0],"holdingHand":-1,"trajectory":"","rotations":"","collided":-1,"followDirection":false}, 
{"mainType":"Color","id":104,"target":3,"animations":[],"previousIcon":103,"nextIcon":105,"color":[0.8856410980224609,0.2893795073032379,0.2893795073032379,1.0],"holdingHand":-1,"trajectory":"","rotations":"","collided":-1,"followDirection":false}, 
{"mainType":"Color","id":103,"target":3,"animations":[],"previousIcon":102,"nextIcon":104,"color":[0.8856410980224609,0.2893795073032379,0.2893795073032379,1.0],"holdingHand":-1,"trajectory":"","rotations":"","collided":-1,"followDirection":false}, 
{"mainType":"Color","id":102,"target":3,"animations":[],"previousIcon":101,"nextIcon":103,"color":[0.8856410980224609,0.2893795073032379,0.2893795073032379,1.0],"holdingHand":-1,"trajectory":"","rotations":"","collided":-1,"followDirection":false}, 
{"mainType":"Color","id":101,"target":3,"animations":[],"previousIcon":100,"nextIcon":102,"color":[0.8856410980224609,0.2893795073032379,0.2893795073032379,1.0],"holdingHand":-1,"trajectory":"","rotations":"","collided":-1,"followDirection":false}, 
{"mainType":"Color","id":100,"target":3,"animations":[],"previousIcon":99,"nextIcon":101,"color":[0.8856410980224609,0.2893795073032379,0.2893795073032379,1.0],"holdingHand":-1,"trajectory":"","rotations":"","collided":-1,"followDirection":false}, 
{"mainType":"Color","id":99,"target":3,"animations":[],"previousIcon":98,"nextIcon":100,"color":[0.8856410980224609,0.2893795073032379,0.2893795073032379,1.0],"holdingHand":-1,"trajectory":"","rotations":"","collided":-1,"followDirection":false}, 
{"mainType":"Color","id":98,"target":3,"animations":[],"previousIcon":97,"nextIcon":99,"color":[0.8856410980224609,0.2893795073032379,0.2893795073032379,1.0],"holdingHand":-1,"trajectory":"","rotations":"","collided":-1,"followDirection":false}, 
{"mainType":"Color","id":97,"target":3,"animations":[],"previousIcon":96,"nextIcon":98,"color":[0.8856410980224609,0.2893795073032379,0.2893795073032379,1.0],"holdingHand":-1,"trajectory":"","rotations":"","collided":-1,"followDirection":false}, 
{"mainType":"Color","id":96,"target":3,"animations":[],"previousIcon":95,"nextIcon":97,"color":[0.8856410980224609,0.2893795073032379,0.2893795073032379,1.0],"holdingHand":-1,"trajectory":"","rotations":"","collided":-1,"followDirection":false}, 
{"mainType":"Color","id":95,"target":3,"animations":[],"previousIcon":94,"nextIcon":96,"color":[0.8856410980224609,0.2893795073032379,0.2893795073032379,1.0],"holdingHand":-1,"trajectory":"","rotations":"","collided":-1,"followDirection":false}, 
{"mainType":"Color","id":94,"target":3,"animations":[],"previousIcon":93,"nextIcon":95,"color":[0.8856410980224609,0.2893795073032379,0.2893795073032379,1.0],"holdingHand":-1,"trajectory":"","rotations":"","collided":-1,"followDirection":false}, 
{"mainType":"Color","id":93,"target":3,"animations":[],"previousIcon":92,"nextIcon":94,"color":[0.8856410980224609,0.2893795073032379,0.2893795073032379,1.0],"holdingHand":-1,"trajectory":"","rotations":"","collided":-1,"followDirection":false}, 
{"mainType":"Color","id":92,"target":3,"animations":[],"previousIcon":91,"nextIcon":93,"color":[0.8856410980224609,0.2893795073032379,0.2893795073032379,1.0],"holdingHand":-1,"trajectory":"","rotations":"","collided":-1,"followDirection":false}, 
{"mainType":"Color","id":91,"target":3,"animations":[],"previousIcon":90,"nextIcon":92,"color":[0.8856410980224609,0.2893795073032379,0.2893795073032379,1.0],"holdingHand":-1,"trajectory":"","rotations":"","collided":-1,"followDirection":false}, 
{"mainType":"Color","id":90,"target":3,"animations":[],"previousIcon":89,"nextIcon":91,"color":[0.8856410980224609,0.2893795073032379,0.2893795073032379,1.0],"holdingHand":-1,"trajectory":"","rotations":"","collided":-1,"followDirection":false}, 
{"mainType":"Color","id":89,"target":3,"animations":[],"previousIcon":88,"nextIcon":90,"color":[0.8856410980224609,0.2893795073032379,0.2893795073032379,1.0],"holdingHand":-1,"trajectory":"","rotations":"","collided":-1,"followDirection":false}, 
{"mainType":"Color","id":88,"target":3,"animations":[],"previousIcon":87,"nextIcon":89,"color":[0.8856410980224609,0.2893795073032379,0.2893795073032379,1.0],"holdingHand":-1,"trajectory":"","rotations":"","collided":-1,"followDirection":false}, 
{"mainType":"Color","id":87,"target":3,"animations":[],"previousIcon":86,"nextIcon":88,"color":[0.8856410980224609,0.2893795073032379,0.2893795073032379,1.0],"holdingHand":-1,"trajectory":"","rotations":"","collided":-1,"followDirection":false}, 
{"mainType":"Color","id":86,"target":3,"animations":[],"previousIcon":85,"nextIcon":87,"color":[0.8856410980224609,0.2893795073032379,0.2893795073032379,1.0],"holdingHand":-1,"trajectory":"","rotations":"","collided":-1,"followDirection":false}, 
{"mainType":"Color","id":85,"target":3,"animations":[],"previousIcon":84,"nextIcon":86,"color":[0.8856410980224609,0.2893795073032379,0.2893795073032379,1.0],"holdingHand":-1,"trajectory":"","rotations":"","collided":-1,"followDirection":false}, 
{"mainType":"Color","id":84,"target":3,"animations":[],"previousIcon":83,"nextIcon":85,"color":[0.8856410980224609,0.2893795073032379,0.2893795073032379,1.0],"holdingHand":-1,"trajectory":"","rotations":"","collided":-1,"followDirection":false}, 
{"mainType":"Color","id":83,"target":3,"animations":[],"previousIcon":82,"nextIcon":84,"color":[0.8856410980224609,0.2893795073032379,0.2893795073032379,1.0],"holdingHand":-1,"trajectory":"","rotations":"","collided":-1,"followDirection":false}, 
{"mainType":"Color","id":82,"target":3,"animations":[],"previousIcon":81,"nextIcon":83,"color":[0.8856410980224609,0.2893795073032379,0.2893795073032379,1.0],"holdingHand":-1,"trajectory":"","rotations":"","collided":-1,"followDirection":false}, 
{"mainType":"Color","id":81,"target":3,"animations":[],"previousIcon":80,"nextIcon":82,"color":[0.8856410980224609,0.2893795073032379,0.2893795073032379,1.0],"holdingHand":-1,"trajectory":"","rotations":"","collided":-1,"followDirection":false}, 
{"mainType":"Color","id":80,"target":3,"animations":[],"previousIcon":79,"nextIcon":81,"color":[0.8856410980224609,0.2893795073032379,0.2893795073032379,1.0],"holdingHand":-1,"trajectory":"","rotations":"","collided":-1,"followDirection":false}, 
{"mainType":"Color","id":79,"target":3,"animations":[],"previousIcon":78,"nextIcon":80,"color":[0.8856410980224609,0.2893795073032379,0.2893795073032379,1.0],"holdingHand":-1,"trajectory":"","rotations":"","collided":-1,"followDirection":false}, 
{"mainType":"Color","id":78,"target":3,"animations":[],"previousIcon":77,"nextIcon":79,"color":[0.8856410980224609,0.2893795073032379,0.2893795073032379,1.0],"holdingHand":-1,"trajectory":"","rotations":"","collided":-1,"followDirection":false}, 
{"mainType":"Color","id":77,"target":3,"animations":[],"previousIcon":76,"nextIcon":78,"color":[0.8856410980224609,0.2893795073032379,0.2893795073032379,1.0],"holdingHand":-1,"trajectory":"","rotations":"","collided":-1,"followDirection":false}, 
{"mainType":"Color","id":76,"target":3,"animations":[],"previousIcon":75,"nextIcon":77,"color":[0.8856410980224609,0.2893795073032379,0.2893795073032379,1.0],"holdingHand":-1,"trajectory":"","rotations":"","collided":-1,"followDirection":false}, 
{"mainType":"Color","id":75,"target":3,"animations":[],"previousIcon":74,"nextIcon":76,"color":[0.8856410980224609,0.2893795073032379,0.2893795073032379,1.0],"holdingHand":-1,"trajectory":"","rotations":"","collided":-1,"followDirection":false}, 
{"mainType":"Color","id":74,"target":3,"animations":[],"previousIcon":73,"nextIcon":75,"color":[0.8856410980224609,0.2893795073032379,0.2893795073032379,1.0],"holdingHand":-1,"trajectory":"","rotations":"","collided":-1,"followDirection":false}, 
{"mainType":"Color","id":73,"target":3,"animations":[],"previousIcon":72,"nextIcon":74,"color":[0.8856410980224609,0.2893795073032379,0.2893795073032379,1.0],"holdingHand":-1,"trajectory":"","rotations":"","collided":-1,"followDirection":false}, 
{"mainType":"Color","id":72,"target":3,"animations":[],"previousIcon":71,"nextIcon":73,"color":[0.8856410980224609,0.2893795073032379,0.2893795073032379,1.0],"holdingHand":-1,"trajectory":"","rotations":"","collided":-1,"followDirection":false}, 
{"mainType":"Color","id":71,"target":3,"animations":[],"previousIcon":70,"nextIcon":72,"color":[0.8856410980224609,0.2893795073032379,0.2893795073032379,1.0],"holdingHand":-1,"trajectory":"","rotations":"","collided":-1,"followDirection":false}, 
{"mainType":"Color","id":70,"target":3,"animations":[],"previousIcon":69,"nextIcon":71,"color":[0.8856410980224609,0.2893795073032379,0.2893795073032379,1.0],"holdingHand":-1,"trajectory":"","rotations":"","collided":-1,"followDirection":false}, 
{"mainType":"Color","id":69,"target":3,"animations":[],"previousIcon":68,"nextIcon":70,"color":[0.8856410980224609,0.2893795073032379,0.2893795073032379,1.0],"holdingHand":-1,"trajectory":"","rotations":"","collided":-1,"followDirection":false}, 
{"mainType":"Color","id":68,"target":3,"animations":[],"previousIcon":67,"nextIcon":69,"color":[0.8856410980224609,0.2893795073032379,0.2893795073032379,1.0],"holdingHand":-1,"trajectory":"","rotations":"","collided":-1,"followDirection":false}, 
{"mainType":"Color","id":67,"target":3,"animations":[],"previousIcon":66,"nextIcon":68,"color":[0.8856410980224609,0.2893795073032379,0.2893795073032379,1.0],"holdingHand":-1,"trajectory":"","rotations":"","collided":-1,"followDirection":false}, 
{"mainType":"Color","id":66,"target":3,"animations":[],"previousIcon":65,"nextIcon":67,"color":[0.8856410980224609,0.2893795073032379,0.2893795073032379,1.0],"holdingHand":-1,"trajectory":"","rotations":"","collided":-1,"followDirection":false}, 
{"mainType":"Color","id":65,"target":3,"animations":[],"previousIcon":64,"nextIcon":66,"color":[0.8856410980224609,0.2893795073032379,0.2893795073032379,1.0],"holdingHand":-1,"trajectory":"","rotations":"","collided":-1,"followDirection":false}, 
{"mainType":"Color","id":64,"target":3,"animations":[],"previousIcon":63,"nextIcon":65,"color":[0.8856410980224609,0.2893795073032379,0.2893795073032379,1.0],"holdingHand":-1,"trajectory":"","rotations":"","collided":-1,"followDirection":false}, 
{"mainType":"Color","id":63,"target":3,"animations":[],"previousIcon":62,"nextIcon":64,"color":[0.8856410980224609,0.2893795073032379,0.2893795073032379,1.0],"holdingHand":-1,"trajectory":"","rotations":"","collided":-1,"followDirection":false}, 
{"mainType":"Color","id":62,"target":3,"animations":[],"previousIcon":61,"nextIcon":63,"color":[0.8856410980224609,0.2893795073032379,0.2893795073032379,1.0],"holdingHand":-1,"trajectory":"","rotations":"","collided":-1,"followDirection":false}, 
{"mainType":"Color","id":61,"target":3,"animations":[],"previousIcon":60,"nextIcon":62,"color":[0.8856410980224609,0.2893795073032379,0.2893795073032379,1.0],"holdingHand":-1,"trajectory":"","rotations":"","collided":-1,"followDirection":false}, 
{"mainType":"Color","id":60,"target":3,"animations":[],"previousIcon":59,"nextIcon":61,"color":[0.8856410980224609,0.2893795073032379,0.2893795073032379,1.0],"holdingHand":-1,"trajectory":"","rotations":"","collided":-1,"followDirection":false}, 
{"mainType":"Color","id":59,"target":3,"animations":[],"previousIcon":58,"nextIcon":60,"color":[0.8856410980224609,0.2893795073032379,0.2893795073032379,1.0],"holdingHand":-1,"trajectory":"","rotations":"","collided":-1,"followDirection":false}, 
{"mainType":"Color","id":58,"target":3,"animations":[],"previousIcon":57,"nextIcon":59,"color":[0.8856410980224609,0.2893795073032379,0.2893795073032379,1.0],"holdingHand":-1,"trajectory":"","rotations":"","collided":-1,"followDirection":false}, 
{"mainType":"Color","id":57,"target":3,"animations":[],"previousIcon":56,"nextIcon":58,"color":[0.8856410980224609,0.2893795073032379,0.2893795073032379,1.0],"holdingHand":-1,"trajectory":"","rotations":"","collided":-1,"followDirection":false}, 
{"mainType":"Color","id":56,"target":3,"animations":[],"previousIcon":55,"nextIcon":57,"color":[0.8856410980224609,0.2893795073032379,0.2893795073032379,1.0],"holdingHand":-1,"trajectory":"","rotations":"","collided":-1,"followDirection":false}, 
{"mainType":"Color","id":55,"target":3,"animations":[],"previousIcon":54,"nextIcon":56,"color":[0.8856410980224609,0.2893795073032379,0.2893795073032379,1.0],"holdingHand":-1,"trajectory":"","rotations":"","collided":-1,"followDirection":false}, 
{"mainType":"Color","id":54,"target":3,"animations":[],"previousIcon":53,"nextIcon":55,"color":[0.8856410980224609,0.2893795073032379,0.2893795073032379,1.0],"holdingHand":-1,"trajectory":"","rotations":"","collided":-1,"followDirection":false}, 
{"mainType":"Color","id":53,"target":3,"animations":[],"previousIcon":52,"nextIcon":54,"color":[0.8856410980224609,0.2893795073032379,0.2893795073032379,1.0],"holdingHand":-1,"trajectory":"","rotations":"","collided":-1,"followDirection":false}, 
{"mainType":"Color","id":52,"target":3,"animations":[],"previousIcon":51,"nextIcon":53,"color":[0.8856410980224609,0.2893795073032379,0.2893795073032379,1.0],"holdingHand":-1,"trajectory":"","rotations":"","collided":-1,"followDirection":false}, 
{"mainType":"Color","id":51,"target":3,"animations":[],"previousIcon":50,"nextIcon":52,"color":[0.8856410980224609,0.2893795073032379,0.2893795073032379,1.0],"holdingHand":-1,"trajectory":"","rotations":"","collided":-1,"followDirection":false}, 
{"mainType":"Color","id":50,"target":3,"animations":[],"previousIcon":49,"nextIcon":51,"color":[0.8856410980224609,0.2893795073032379,0.2893795073032379,1.0],"holdingHand":-1,"trajectory":"","rotations":"","collided":-1,"followDirection":false}, 
{"mainType":"Color","id":49,"target":3,"animations":[],"previousIcon":48,"nextIcon":50,"color":[0.8856410980224609,0.2893795073032379,0.2893795073032379,1.0],"holdingHand":-1,"trajectory":"","rotations":"","collided":-1,"followDirection":false}, 
{"mainType":"Color","id":48,"target":3,"animations":[],"previousIcon":47,"nextIcon":49,"color":[0.8856410980224609,0.2893795073032379,0.2893795073032379,1.0],"holdingHand":-1,"trajectory":"","rotations":"","collided":-1,"followDirection":false}, 
{"mainType":"Color","id":47,"target":3,"animations":[],"previousIcon":46,"nextIcon":48,"color":[0.8856410980224609,0.2893795073032379,0.2893795073032379,1.0],"holdingHand":-1,"trajectory":"","rotations":"","collided":-1,"followDirection":false}, 
{"mainType":"Color","id":46,"target":3,"animations":[],"previousIcon":45,"nextIcon":47,"color":[0.8856410980224609,0.2893795073032379,0.2893795073032379,1.0],"holdingHand":-1,"trajectory":"","rotations":"","collided":-1,"followDirection":false}, 
{"mainType":"Color","id":45,"target":3,"animations":[],"previousIcon":44,"nextIcon":46,"color":[0.8856410980224609,0.2893795073032379,0.2893795073032379,1.0],"holdingHand":-1,"trajectory":"","rotations":"","collided":-1,"followDirection":false}, 
{"mainType":"Color","id":44,"target":3,"animations":[],"previousIcon":43,"nextIcon":45,"color":[0.8856410980224609,0.2893795073032379,0.2893795073032379,1.0],"holdingHand":-1,"trajectory":"","rotations":"","collided":-1,"followDirection":false}, 
{"mainType":"Color","id":43,"target":3,"animations":[],"previousIcon":42,"nextIcon":44,"color":[0.8856410980224609,0.2893795073032379,0.2893795073032379,1.0],"holdingHand":-1,"trajectory":"","rotations":"","collided":-1,"followDirection":false}, 
{"mainType":"Color","id":42,"target":3,"animations":[],"previousIcon":41,"nextIcon":43,"color":[0.8856410980224609,0.2893795073032379,0.2893795073032379,1.0],"holdingHand":-1,"trajectory":"","rotations":"","collided":-1,"followDirection":false}, 
{"mainType":"Color","id":41,"target":3,"animations":[],"previousIcon":40,"nextIcon":42,"color":[0.8856410980224609,0.2893795073032379,0.2893795073032379,1.0],"holdingHand":-1,"trajectory":"","rotations":"","collided":-1,"followDirection":false}, 
{"mainType":"Color","id":40,"target":3,"animations":[],"previousIcon":39,"nextIcon":41,"color":[0.8856410980224609,0.2893795073032379,0.2893795073032379,1.0],"holdingHand":-1,"trajectory":"","rotations":"","collided":-1,"followDirection":false}, 
{"mainType":"Color","id":39,"target":3,"animations":[],"previousIcon":38,"nextIcon":40,"color":[0.8856410980224609,0.2893795073032379,0.2893795073032379,1.0],"holdingHand":-1,"trajectory":"","rotations":"","collided":-1,"followDirection":false}, 
{"mainType":"Color","id":38,"target":3,"animations":[],"previousIcon":37,"nextIcon":39,"color":[0.8856410980224609,0.2893795073032379,0.2893795073032379,1.0],"holdingHand":-1,"trajectory":"","rotations":"","collided":-1,"followDirection":false}, 
{"mainType":"Color","id":37,"target":3,"animations":[],"previousIcon":36,"nextIcon":38,"color":[0.8856410980224609,0.2893795073032379,0.2893795073032379,1.0],"holdingHand":-1,"trajectory":"","rotations":"","collided":-1,"followDirection":false}, 
{"mainType":"Color","id":36,"target":3,"animations":[],"previousIcon":35,"nextIcon":37,"color":[0.8856410980224609,0.2893795073032379,0.2893795073032379,1.0],"holdingHand":-1,"trajectory":"","rotations":"","collided":-1,"followDirection":false}, 
{"mainType":"Color","id":35,"target":3,"animations":[],"previousIcon":34,"nextIcon":36,"color":[0.8856410980224609,0.2893795073032379,0.2893795073032379,1.0],"holdingHand":-1,"trajectory":"","rotations":"","collided":-1,"followDirection":false}, 
{"mainType":"Color","id":34,"target":3,"animations":[],"previousIcon":33,"nextIcon":35,"color":[0.8856410980224609,0.2893795073032379,0.2893795073032379,1.0],"holdingHand":-1,"trajectory":"","rotations":"","collided":-1,"followDirection":false}, 
{"mainType":"Color","id":33,"target":3,"animations":[],"previousIcon":32,"nextIcon":34,"color":[0.8856410980224609,0.2893795073032379,0.2893795073032379,1.0],"holdingHand":-1,"trajectory":"","rotations":"","collided":-1,"followDirection":false}, 
{"mainType":"Color","id":32,"target":3,"animations":[],"previousIcon":31,"nextIcon":33,"color":[0.8856410980224609,0.2893795073032379,0.2893795073032379,1.0],"holdingHand":-1,"trajectory":"","rotations":"","collided":-1,"followDirection":false}, 
{"mainType":"Color","id":31,"target":3,"animations":[],"previousIcon":30,"nextIcon":32,"color":[0.8856410980224609,0.2893795073032379,0.2893795073032379,1.0],"holdingHand":-1,"trajectory":"","rotations":"","collided":-1,"followDirection":false}, 
{"mainType":"Color","id":30,"target":3,"animations":[],"previousIcon":29,"nextIcon":31,"color":[0.8856410980224609,0.2893795073032379,0.2893795073032379,1.0],"holdingHand":-1,"trajectory":"","rotations":"","collided":-1,"followDirection":false}, 
{"mainType":"Color","id":29,"target":3,"animations":[],"previousIcon":28,"nextIcon":30,"color":[0.8856410980224609,0.2893795073032379,0.2893795073032379,1.0],"holdingHand":-1,"trajectory":"","rotations":"","collided":-1,"followDirection":false}, 
{"mainType":"Color","id":28,"target":3,"animations":[],"previousIcon":27,"nextIcon":29,"color":[0.8856410980224609,0.2893795073032379,0.2893795073032379,1.0],"holdingHand":-1,"trajectory":"","rotations":"","collided":-1,"followDirection":false}, 
{"mainType":"Color","id":27,"target":3,"animations":[],"previousIcon":26,"nextIcon":28,"color":[0.8856410980224609,0.2893795073032379,0.2893795073032379,1.0],"holdingHand":-1,"trajectory":"","rotations":"","collided":-1,"followDirection":false}, 
{"mainType":"Color","id":26,"target":3,"animations":[],"previousIcon":25,"nextIcon":27,"color":[0.8856410980224609,0.2893795073032379,0.2893795073032379,1.0],"holdingHand":-1,"trajectory":"","rotations":"","collided":-1,"followDirection":false}, 
{"mainType":"Color","id":25,"target":3,"animations":[],"previousIcon":24,"nextIcon":26,"color":[0.8856410980224609,0.2893795073032379,0.2893795073032379,1.0],"holdingHand":-1,"trajectory":"","rotations":"","collided":-1,"followDirection":false}, 
{"mainType":"Color","id":24,"target":3,"animations":[],"previousIcon":23,"nextIcon":25,"color":[0.8856410980224609,0.2893795073032379,0.2893795073032379,1.0],"holdingHand":-1,"trajectory":"","rotations":"","collided":-1,"followDirection":false}, 
{"mainType":"Color","id":23,"target":3,"animations":[],"previousIcon":22,"nextIcon":24,"color":[0.8856410980224609,0.2893795073032379,0.2893795073032379,1.0],"holdingHand":-1,"trajectory":"","rotations":"","collided":-1,"followDirection":false}, 
{"mainType":"Color","id":22,"target":3,"animations":[],"previousIcon":21,"nextIcon":23,"color":[0.8856410980224609,0.2893795073032379,0.2893795073032379,1.0],"holdingHand":-1,"trajectory":"","rotations":"","collided":-1,"followDirection":false}, 
{"mainType":"Color","id":21,"target":3,"animations":[],"previousIcon":20,"nextIcon":22,"color":[0.8856410980224609,0.2893795073032379,0.2893795073032379,1.0],"holdingHand":-1,"trajectory":"","rotations":"","collided":-1,"followDirection":false}, 
{"mainType":"Color","id":20,"target":3,"animations":[],"previousIcon":19,"nextIcon":21,"color":[0.8856410980224609,0.2893795073032379,0.2893795073032379,1.0],"holdingHand":-1,"trajectory":"","rotations":"","collided":-1,"followDirection":false}, 
{"mainType":"Color","id":19,"target":3,"animations":[],"previousIcon":18,"nextIcon":20,"color":[0.8856410980224609,0.2893795073032379,0.2893795073032379,1.0],"holdingHand":-1,"trajectory":"","rotations":"","collided":-1,"followDirection":false}, 
{"mainType":"Color","id":18,"target":3,"animations":[],"previousIcon":17,"nextIcon":19,"color":[0.8856410980224609,0.2893795073032379,0.2893795073032379,1.0],"holdingHand":-1,"trajectory":"","rotations":"","collided":-1,"followDirection":false}, 
{"mainType":"Color","id":17,"target":3,"animations":[],"previousIcon":16,"nextIcon":18,"color":[0.8856410980224609,0.2893795073032379,0.2893795073032379,1.0],"holdingHand":-1,"trajectory":"","rotations":"","collided":-1,"followDirection":false}, 
{"mainType":"Color","id":16,"target":3,"animations":[],"previousIcon":15,"nextIcon":17,"color":[0.8856410980224609,0.2893795073032379,0.2893795073032379,1.0],"holdingHand":-1,"trajectory":"","rotations":"","collided":-1,"followDirection":false}, 
{"mainType":"Color","id":15,"target":3,"animations":[],"previousIcon":14,"nextIcon":16,"color":[0.8856410980224609,0.2893795073032379,0.2893795073032379,1.0],"holdingHand":-1,"trajectory":"","rotations":"","collided":-1,"followDirection":false}, 
{"mainType":"Color","id":14,"target":3,"animations":[],"previousIcon":13,"nextIcon":15,"color":[0.8856410980224609,0.2893795073032379,0.2893795073032379,1.0],"holdingHand":-1,"trajectory":"","rotations":"","collided":-1,"followDirection":false}, 
{"mainType":"Color","id":13,"target":3,"animations":[],"previousIcon":12,"nextIcon":14,"color":[0.8856410980224609,0.2893795073032379,0.2893795073032379,1.0],"holdingHand":-1,"trajectory":"","rotations":"","collided":-1,"followDirection":false}, 
{"mainType":"Color","id":12,"target":3,"animations":[],"previousIcon":11,"nextIcon":13,"color":[0.8856410980224609,0.2893795073032379,0.2893795073032379,1.0],"holdingHand":-1,"trajectory":"","rotations":"","collided":-1,"followDirection":false}, 
{"mainType":"Color","id":11,"target":3,"animations":[],"previousIcon":10,"nextIcon":12,"color":[0.8856410980224609,0.2893795073032379,0.2893795073032379,1.0],"holdingHand":-1,"trajectory":"","rotations":"","collided":-1,"followDirection":false}, 
{"mainType":"Color","id":10,"target":3,"animations":[],"previousIcon":9,"nextIcon":11,"color":[0.8856410980224609,0.2893795073032379,0.2893795073032379,1.0],"holdingHand":-1,"trajectory":"","rotations":"","collided":-1,"followDirection":false}, 
{"mainType":"Color","id":9,"target":3,"animations":[],"previousIcon":8,"nextIcon":10,"color":[0.8856410980224609,0.2893795073032379,0.2893795073032379,1.0],"holdingHand":-1,"trajectory":"","rotations":"","collided":-1,"followDirection":false}, 
{"mainType":"Color","id":8,"target":3,"animations":[],"previousIcon":7,"nextIcon":9,"color":[0.8856410980224609,0.2893795073032379,0.2893795073032379,1.0],"holdingHand":-1,"trajectory":"","rotations":"","collided":-1,"followDirection":false}, 
{"mainType":"Color","id":7,"target":3,"animations":[],"previousIcon":6,"nextIcon":8,"color":[0.8856410980224609,0.2893795073032379,0.2893795073032379,1.0],"holdingHand":-1,"trajectory":"","rotations":"","collided":-1,"followDirection":false}, 
{"mainType":"Color","id":6,"target":3,"animations":[],"previousIcon":5,"nextIcon":7,"color":[0.8856410980224609,0.2893795073032379,0.2893795073032379,1.0],"holdingHand":-1,"trajectory":"","rotations":"","collided":-1,"followDirection":false}, 
{"mainType":"Color","id":5,"target":3,"animations":[],"previousIcon":4,"nextIcon":6,"color":[0.8856410980224609,0.2893795073032379,0.2893795073032379,1.0],"holdingHand":-1,"trajectory":"","rotations":"","collided":-1,"followDirection":false}, 
{"mainType":"Color","id":4,"target":3,"animations":[],"previousIcon":3,"nextIcon":5,"color":[0.8856410980224609,0.2893795073032379,0.2893795073032379,1.0],"holdingHand":-1,"trajectory":"","rotations":"","collided":-1,"followDirection":false}, 
{"mainType":"Color","id":3,"target":3,"animations":[],"previousIcon":2,"nextIcon":4,"color":[0.8856410980224609,0.2893795073032379,0.2893795073032379,1.0],"holdingHand":-1,"trajectory":"","rotations":"","collided":-1,"followDirection":false}, 
{"mainType":"Color","id":2,"target":3,"animations":[],"previousIcon":1,"nextIcon":3,"color":[0.8856410980224609,0.2893795073032379,0.2893795073032379,1.0],"holdingHand":-1,"trajectory":"","rotations":"","collided":-1,"followDirection":false}, 
{"mainType":"Color","id":1,"target":3,"animations":[],"previousIcon":0,"nextIcon":2,"color":[0.8856410980224609,0.2893795073032379,0.2893795073032379,1.0],"holdingHand":-1,"trajectory":"","rotations":"","collided":-1,"followDirection":false}, 
{"mainType":"Color","id":0,"target":3,"animations":[],"previousIcon":-1,"nextIcon":1,"color":[0.8856410980224609,0.2893795073032379,0.2893795073032379,1.0],"holdingHand":-1,"trajectory":"","rotations":"","collided":-1,"followDirection":false}]}