{"objects" : [
{"mainType":"Geometry","id":4,"subtype":"Sphere","position":[-35.50813674926758,1.1925002336502076,-16.764787673950197],"size":[0.09999997913837433,0.10000000149011612,0.1000000387430191],"rotation":[-0.05034738779067993,0.06570678949356079,-0.12846370041370393,0.9882534742355347],"visible":true,"color":[1.0,1.0,1.0,1.0]}, 
{"mainType":"Geometry","id":3,"subtype":"Cube","position":[-35.31291580200195,1.1614506244659424,-16.24802017211914],"size":[0.09999997913837433,0.09999998658895493,0.09999995678663254],"rotation":[0.021764814853668214,0.37982726097106936,-0.01254931092262268,0.9247162342071533],"visible":true,"color":[1.0,1.0,1.0,1.0]} 
], 
 "events": [{"mainType":"Hide","id":1,"target":4,"animations":[],"previousIcon":-1,"nextIcon":-1,"color":[],"holdingHand":-1,"trajectory":"","rotations":"","collided":-1,"followDirection":false}, 
{"mainType":"Move","id":0,"target":3,"animations":[],"previousIcon":-1,"nextIcon":-1,"color":[],"holdingHand":-1,"trajectory":"[[-35.31292,1.161451,-16.24802], [-35.33798,1.263791,-16.48703], [-35.25523,1.323251,-16.3601], [-35.17768,1.308159,-16.20239], [-35.12942,1.275353,-16.10844]]","rotations":"[[-0.004312009,0.1892701,-0.007920221,0.9818836], [0.01327366,0.2299451,-0.07804471,0.9699785], [0.02562928,0.3133594,-0.1240424,0.9411497], [0.04162928,0.4144362,-0.120432,0.9011137], [0.03701244,0.4839799,-0.09888645,0.8686858], [0.03701244,0.4839799,-0.09888645,0.8686858], [0.03701244,0.4839799,-0.09888645,0.8686858], [0.03701244,0.4839799,-0.09888645,0.8686858]]","collided":-1,"followDirection":false}]}