{"objects" : [
{"mainType":"3DProps","id":5,"subtype":"BombBall","position":[-34.60989761352539,1.1006348133087159,-16.340097427368165],"size":[1.000000238418579,1.000000238418579,1.0],"rotation":[0.01717415452003479,0.012883305549621582,0.1337268054485321,-0.9907857179641724],"visible":true,"color":[0.0,0.0,0.0,0.0]}, 
{"mainType":"3DProps","id":4,"subtype":"grape_highpoly","position":[-35.065250396728519,1.12710440158844,-16.459739685058595],"size":[0.9999998807907105,1.000000238418579,1.0],"rotation":[0.03515977784991264,0.30739137530326846,0.04673435166478157,-0.9497842788696289],"visible":true,"color":[0.0,0.0,0.0,0.0]}, 
{"mainType":"Geometry","id":3,"subtype":"Cube","position":[-35.19619369506836,1.1138553619384766,-16.867938995361329],"size":[0.10000000149011612,0.10000000894069672,0.09999999403953552],"rotation":[0.0,0.0,0.0,1.0],"visible":true,"color":[1.0,1.0,1.0,1.0]} 
], 
 "events": [{"mainType":"Collision","id":0,"target":0,"animations":[],"previousIcon":-1,"nextIcon":-1,"color":[],"holdingHand":-1,"trajectory":"","rotations":"","collided":5,"followDirection":false}]}