{"objects" : [
{"mainType":"3DProps","id":5,"subtype":"BombBall","position":[-34.61977767944336,0.855793833732605,-16.554244995117189],"size":[1.000000238418579,1.0000001192092896,1.0000003576278687],"rotation":[-0.05278664827346802,0.14820310473442079,0.025657445192337037,-0.9872138500213623],"visible":true,"color":[0.0,0.0,0.0,0.0]}, 
{"mainType":"Geometry","id":4,"subtype":"Cylinder","position":[-34.67801284790039,1.1877070665359498,-16.322799682617189],"size":[0.09999999403953552,0.10000000894069672,0.10000003129243851],"rotation":[0.007648662198334932,0.40555086731910708,-0.0183000136166811,0.9138572812080383],"visible":true,"color":[1.0,1.0,1.0,1.0]}, 
{"mainType":"Geometry","id":3,"subtype":"Cube","position":[-35.13235092163086,1.1031832695007325,-16.749258041381837],"size":[0.10000002384185791,0.09999998658895493,0.10000000894069672],"rotation":[0.0,0.0,0.0,1.0],"visible":true,"color":[1.0,1.0,1.0,1.0]} 
], 
 "events": [{"mainType":"Collision","id":11,"target":0,"animations":[],"previousIcon":-1,"nextIcon":-1,"color":[],"holdingHand":-1,"trajectory":"","rotations":"","collided":5,"followDirection":false}, 
{"mainType":"Hide","id":1,"target":4,"animations":[],"previousIcon":-1,"nextIcon":-1,"color":[],"holdingHand":-1,"trajectory":"","rotations":"","collided":-1,"followDirection":false}, 
{"mainType":"Move","id":0,"target":3,"animations":[],"previousIcon":-1,"nextIcon":-1,"color":[],"holdingHand":-1,"trajectory":"[[-35.13235,1.103183,-16.74926], [-35.14757,1.101234,-16.79598], [-35.17466,1.089387,-16.95451], [-35.15874,1.065467,-17.15347], [-35.16684,1.062912,-17.13897], [-35.16794,1.064144,-17.12901]]","rotations":"[[0,0,0,1], [-0.008047223,-0.03521633,0.004391715,0.9993377], [-0.02891961,-0.1497507,0.01665005,0.9881605], [-0.08595082,-0.2736998,0.02992778,0.9574995], [-0.07446036,-0.2704482,0.0322627,0.9593084], [-0.06278837,-0.2697902,0.03098381,0.9603702], [-0.06278837,-0.2697902,0.03098381,0.9603702]]","collided":-1,"followDirection":false}]}