{"objects" : [
{"mainType":"Geometry","id":9,"subtype":"Cylinder","position":[-36.727699279785159,1.2504692077636719,-18.091814041137697],"size":[0.09999997168779373,0.10000001639127732,0.09999995678663254],"rotation":[0.0006551546975970268,0.03421845659613609,0.009671679697930813,0.999367356300354],"visible":true,"color":[1.0,1.0,1.0,1.0]}, 
{"mainType":"Geometry","id":7,"subtype":"Capsule","position":[-37.0002555847168,1.0589580535888672,-18.705284118652345],"size":[0.1000000461935997,0.10000000149011612,0.09999999403953552],"rotation":[0.15661095082759858,0.2821086049079895,-0.08550151437520981,0.9426437616348267],"visible":true,"color":[1.0,1.0,1.0,1.0]}, 
{"mainType":"Geometry","id":6,"subtype":"Sphere","position":[-36.68888854980469,1.6674379110336304,-18.097238540649415],"size":[0.09999998658895493,0.09999999403953552,0.10000000149011612],"rotation":[-0.12119220197200775,0.1304401159286499,0.27835574746131899,0.9438304901123047],"visible":true,"color":[1.0,1.0,1.0,1.0]}, 
{"mainType":"Geometry","id":5,"subtype":"Sphere","position":[-36.89866256713867,1.3107661008834839,-17.66837501525879],"size":[0.1000000610947609,0.1000000387430191,0.1000000387430191],"rotation":[-0.21410465240478517,-0.08099918812513352,-0.08121025562286377,0.9700531959533691],"visible":true,"color":[1.0,1.0,1.0,1.0]}, 
{"mainType":"Geometry","id":4,"subtype":"Sphere","position":[-36.66339874267578,1.169389009475708,-18.458145141601564],"size":[0.10000001639127732,0.09999999403953552,0.09999997168779373],"rotation":[0.036691587418317798,0.30791574716567995,0.00404416723176837,0.9506973028182983],"visible":true,"color":[1.0,1.0,1.0,1.0]}, 
{"mainType":"Geometry","id":3,"subtype":"Cube","position":[-34.99663543701172,1.4885568618774415,-18.183645248413087],"size":[0.09999999403953552,0.10000000894069672,0.09999999403953552],"rotation":[-0.0467434898018837,0.14231517910957337,-0.4223400056362152,0.8939745426177979],"visible":true,"color":[1.0,1.0,1.0,1.0]} 
], 
 "events": [{"mainType":"Move","id":21,"target":9,"animations":[],"previousIcon":20,"nextIcon":-1,"color":[],"holdingHand":-1,"trajectory":"[[-36.7277,1.250469,-18.09181], [-36.70089,1.428939,-18.09451], [-36.6988,1.355751,-18.10221], [-36.70781,1.293386,-18.10078], [-36.71852,1.254054,-18.0957], [-36.72625,1.217389,-18.10158], [-36.73182,1.184169,-18.1038], [-36.73569,1.157589,-18.1027], [-36.7402,1.133974,-18.10207], [-36.73997,1.128342,-18.10678], [-36.74017,1.128259,-18.107]]","rotations":"[[-0.03301699,0.04163331,0.09437123,0.9941181], [-0.02343172,0.04458579,0.08337949,0.9952443], [-0.02094803,0.05132869,0.04379268,0.9975014], [-0.02308955,0.04976374,0.009510567,0.998449], [-0.02364183,0.04605243,-0.005261662,0.9986455], [-0.01565357,0.05138656,-0.02007887,0.9983544], [-0.01113469,0.05382463,-0.03580541,0.9978462], [-0.001698229,0.05356207,-0.0465613,0.9974771], [0.008091335,0.05214277,-0.05695701,0.9969813], [0.006508047,0.05521527,-0.06165819,0.9965478], [0.005959241,0.05534321,-0.06211796,0.9965155]]","collided":-1,"followDirection":false}, 
{"mainType":"Move","id":20,"target":9,"animations":[],"previousIcon":-1,"nextIcon":21,"color":[],"holdingHand":-1,"trajectory":"[[-36.7277,1.250469,-18.09181], [-36.74377,1.293517,-18.10654], [-36.73591,1.342703,-18.10195], [-36.72762,1.389421,-18.09655], [-36.71992,1.421966,-18.08669], [-36.71083,1.452583,-18.08362], [-36.70114,1.466725,-18.09196], [-36.69613,1.475435,-18.10482], [-36.69762,1.470833,-18.09927]]","rotations":"[[-0.005122682,0.0417386,0.01797731,0.9989537], [-0.02690385,0.04306248,0.02599636,0.9983718], [-0.03952253,0.0376302,0.04419677,0.9975314], [-0.03905229,0.03494957,0.0661905,0.9964299], [-0.03808515,0.02967331,0.07897774,0.9957067], [-0.02823433,0.03033906,0.09591578,0.9945264], [-0.02806641,0.03739417,0.1000115,0.9938872], [-0.03415147,0.04785284,0.10224,0.9930211], [-0.03217559,0.04511741,0.1004072,0.9934021]]","collided":-1,"followDirection":false}, 
{"mainType":"Move","id":8,"target":6,"animations":[],"previousIcon":-1,"nextIcon":-1,"color":[],"holdingHand":-1,"trajectory":"[[-36.68889,1.667438,-18.09724], [-36.70689,1.672953,-18.06154], [-36.72017,1.656105,-18.03752], [-36.75476,1.650738,-18.02866], [-36.79039,1.64544,-18.04157], [-36.80548,1.635341,-18.08625], [-36.81178,1.630931,-18.15046], [-36.82082,1.630123,-18.21661], [-36.80247,1.632422,-18.30476], [-36.77565,1.624782,-18.36933], [-36.73871,1.61817,-18.40942], [-36.69839,1.619402,-18.41382], [-36.65245,1.633352,-18.41225], [-36.60648,1.642515,-18.39211], [-36.55323,1.64159,-18.34226], [-36.5094,1.643638,-18.27864], [-36.48146,1.654279,-18.20156], [-36.46996,1.656825,-18.11309], [-36.4796,1.654915,-18.03392], [-36.50922,1.646098,-17.96008], [-36.56072,1.644278,-17.90623], [-36.60153,1.659434,-17.90309], [-36.65709,1.673105,-17.91089], [-36.71857,1.676543,-17.91868], [-36.74971,1.673618,-17.94559], [-36.75105,1.675078,-17.99402], [-36.74054,1.661075,-18.03977], [-36.72918,1.63991,-18.0781], [-36.71173,1.636136,-18.12211], [-36.70442,1.642034,-18.14236], [-36.71241,1.640062,-18.13271], [-36.72295,1.63935,-18.12035]]","rotations":"[[-0.1211922,0.1304401,0.2783557,0.9438305], [-0.1241776,0.1076467,0.2842553,0.9445586], [-0.1223791,0.08738706,0.2731793,0.9501368], [-0.1221511,0.06798667,0.2767458,0.9507201], [-0.1266196,0.0580284,0.2804617,0.949706], [-0.1235192,0.07370786,0.2834803,0.9481293], [-0.1136003,0.1048209,0.2914591,0.9440123], [-0.10102,0.1356351,0.30198,0.938193], [-0.08306278,0.1936359,0.3127711,0.9261641], [-0.06962596,0.2357717,0.3095797,0.9185447], [-0.06096489,0.2631216,0.30106,0.9145563], [-0.04638411,0.2684202,0.2996455,0.9143367], [-0.03108185,0.2755776,0.3075293,0.9102288], [-0.02270234,0.2738457,0.3093402,0.9103855], [-0.01815369,0.2541726,0.3008572,0.918995], [-0.01546444,0.2289631,0.2959849,0.9272161], [-0.005180859,0.1998649,0.3057376,0.9308876], [0.0001263491,0.1625411,0.3094572,0.9369187], [-0.001861436,0.1254677,0.3104288,0.9422783], [-0.01736901,0.08253337,0.3008877,0.9499227], [-0.05347758,0.03379059,0.281206,0.9575602], [-0.06574962,0.01921308,0.292468,0.9538188], [-0.0793236,0.0004446254,0.3041959,0.949301], [-0.08468657,-0.02101507,0.3171576,0.9443504], [-0.08516569,-0.0164352,0.3237406,0.9421617], [-0.08779691,0.01110495,0.3257383,0.9413093], [-0.08349096,0.03660944,0.3160834,0.9443412], [-0.07121421,0.05733747,0.3060458,0.9476165], [-0.05911973,0.08688036,0.3084722,0.9454108], [-0.05490342,0.09970687,0.3130797,0.9428813], [-0.06190956,0.09007788,0.3067387,0.9454969], [-0.0623857,0.08085696,0.3083744,0.9457671]]","collided":-1,"followDirection":false}, 
{"mainType":"Move","id":7,"target":4,"animations":[],"previousIcon":-1,"nextIcon":-1,"color":[],"holdingHand":-1,"trajectory":"[[-36.6634,1.169389,-18.45815], [-36.63816,1.182598,-18.4673], [-36.62717,1.206892,-18.46673], [-36.61737,1.2231,-18.46536], [-36.61152,1.236395,-18.45831], [-36.60852,1.249747,-18.45199], [-36.59793,1.275509,-18.45224], [-36.58715,1.33156,-18.45913], [-36.58333,1.397335,-18.45618], [-36.58506,1.465354,-18.43032], [-36.59609,1.533093,-18.39186], [-36.61469,1.605704,-18.3555], [-36.63663,1.669297,-18.32127], [-36.65915,1.718484,-18.28542], [-36.68199,1.751818,-18.24281], [-36.70753,1.773674,-18.18787], [-36.73655,1.784238,-18.12728], [-36.76782,1.782373,-18.06124], [-36.80093,1.770826,-17.99356], [-36.83428,1.751499,-17.92837], [-36.86995,1.724737,-17.86403], [-36.89804,1.695317,-17.81189], [-36.91934,1.66254,-17.7622], [-36.94017,1.624222,-17.71334], [-36.95884,1.588882,-17.67439], [-36.97444,1.555349,-17.64353], [-36.98721,1.515969,-17.61819], [-36.99955,1.471273,-17.59488], [-37.00727,1.427111,-17.57874], [-37.00558,1.388271,-17.5743], [-36.99804,1.354208,-17.57756], [-37.00064,1.320817,-17.5771]]","rotations":"[[0.03669159,0.3079157,0.004044167,0.9506973], [0.05670813,0.3147842,0.02856222,0.9470371], [0.0605385,0.3161947,0.04831779,0.9455271], [0.05956937,0.3173911,0.05807062,0.9446386], [0.05649237,0.3144894,0.06510491,0.9453392], [0.05429824,0.3113563,0.0728363,0.9459406], [0.05993752,0.312574,0.09193575,0.943532], [0.06074349,0.3194509,0.1275379,0.9370141], [0.05208372,0.3201733,0.1642216,0.9315618], [0.04377954,0.3074818,0.2039454,0.9284097], [0.03156973,0.2867565,0.2427299,0.9262053], [0.01524211,0.2686958,0.2837712,0.9203499], [0.002317378,0.2515485,0.3202878,0.9133091], [-0.01089382,0.2321162,0.348595,0.9080115], [-0.01841414,0.2081125,0.3708767,0.904876], [-0.0239154,0.1753889,0.38825,0.9043941], [-0.02846186,0.1383813,0.40105,0.9050963], [-0.0328567,0.09596104,0.4055671,0.9084202], [-0.03622492,0.05226443,0.4051267,0.9120464], [-0.04013443,0.00968463,0.3977038,0.9165845], [-0.03657247,-0.03023972,0.392185,0.9186615], [-0.03402508,-0.06320559,0.3801289,0.9221439], [-0.03077807,-0.08959296,0.3640287,0.9265576], [-0.0251757,-0.1171941,0.3426461,0.9317862], [-0.01792745,-0.1377938,0.3257614,0.935185], [-0.007179929,-0.1515698,0.3138851,0.9372572], [0.005351331,-0.1642686,0.2970501,0.9406106], [0.02019972,-0.1811471,0.2758485,0.9437613], [0.04061579,-0.1923515,0.2591841,0.9456082], [0.06355765,-0.1904224,0.2487604,0.9475325], [0.08755726,-0.1827671,0.2400881,0.9493617], [0.1040715,-0.1862017,0.2268111,0.9502919]]","collided":-1,"followDirection":false}, 
{"mainType":"Move","id":6,"target":5,"animations":[],"previousIcon":-1,"nextIcon":-1,"color":[],"holdingHand":-1,"trajectory":"[[-36.89866,1.310766,-17.66838], [-36.90907,1.347102,-17.65809], [-36.89489,1.383164,-17.66418], [-36.87822,1.436082,-17.67752], [-36.87385,1.493521,-17.68444], [-36.86637,1.542678,-17.69344], [-36.85709,1.599237,-17.71063], [-36.84794,1.652369,-17.7292], [-36.8252,1.704606,-17.76186], [-36.80022,1.756996,-17.81018], [-36.78423,1.797392,-17.85328], [-36.76091,1.824518,-17.89845], [-36.73236,1.851229,-17.96179], [-36.69917,1.867635,-18.03699], [-36.66096,1.867137,-18.12217], [-36.62353,1.854191,-18.21394], [-36.58741,1.825699,-18.30359], [-36.55608,1.783897,-18.36977], [-36.51972,1.72059,-18.41096], [-36.48987,1.658636,-18.45019], [-36.47886,1.620012,-18.47742], [-36.47273,1.585757,-18.48959], [-36.46304,1.541814,-18.51037], [-36.45524,1.49628,-18.51652], [-36.44773,1.451922,-18.52007], [-36.44035,1.409195,-18.53672], [-36.43721,1.376156,-18.54342], [-36.43582,1.344074,-18.54156], [-36.4349,1.305954,-18.54938], [-36.43721,1.260781,-18.5546], [-36.43837,1.23015,-18.55862], [-36.43887,1.214935,-18.56133], [-36.43887,1.200605,-18.56675], [-36.43847,1.194119,-18.57064]]","rotations":"[[-0.2141047,-0.08099919,-0.08121026,0.9700532], [-0.2286063,-0.09042275,-0.06653892,0.9670241], [-0.242803,-0.08508793,-0.05180316,0.9649473], [-0.2614903,-0.07853112,-0.02773337,0.9616063], [-0.2754481,-0.08073839,-0.001164461,0.9579188], [-0.2888906,-0.07941257,0.01739381,0.9539043], [-0.3005797,-0.07485377,0.04530372,0.9497349], [-0.3127074,-0.07104038,0.06794167,0.9447494], [-0.3254883,-0.05384475,0.09156878,0.9395602], [-0.3366452,-0.02991947,0.1220527,0.9332085], [-0.3412221,-0.01206537,0.1500442,0.9278517], [-0.3537586,0.006811358,0.1597789,0.9215635], [-0.3650655,0.0365843,0.1766514,0.9133363], [-0.3757784,0.07231198,0.1889353,0.9043589], [-0.3776269,0.1162507,0.2000347,0.896588], [-0.3682427,0.164997,0.2131954,0.8897872], [-0.3565995,0.2127268,0.2163751,0.8836097], [-0.3388579,0.2473066,0.2122333,0.8825938], [-0.3169267,0.2695837,0.1927006,0.8886781], [-0.2990981,0.2887984,0.1743737,0.8925971], [-0.2844282,0.3000217,0.1673919,0.8950238], [-0.2765448,0.3058319,0.1532456,0.8980565], [-0.2739399,0.3188414,0.1327725,0.8975905], [-0.2742479,0.3239855,0.1083983,0.8989279], [-0.266672,0.3291371,0.08767586,0.9015918], [-0.265068,0.341723,0.06616855,0.8992143], [-0.2638661,0.3461607,0.04978641,0.8989266], [-0.2573998,0.3467783,0.03556219,0.9012356], [-0.2500603,0.3557459,0.01950926,0.9002969], [-0.2448627,0.3650654,-0.002322547,0.8982006], [-0.2360418,0.3714116,-0.01391136,0.8978554], [-0.2328144,0.3736634,-0.01881972,0.8976744], [-0.2281214,0.3782054,-0.02377159,0.8968591], [-0.2324164,0.3808202,-0.02757504,0.8945381]]","collided":-1,"followDirection":false}]}