{"objects" : [
{"mainType":"3DProps","id":8,"subtype":"cable1Red","position":[-36.377845764160159,1.4462761878967286,-17.64162254333496],"size":[1.000000238418579,1.0,0.9999999403953552],"rotation":[0.12681619822978974,0.5016538500785828,-0.0746283233165741,0.8524620532989502],"visible":true,"color":[0.0,0.0,0.0,0.0]}, 
{"mainType":"Geometry","id":7,"subtype":"Capsule","position":[-37.58665084838867,1.15972900390625,-18.989032745361329],"size":[0.10000000149011612,0.10000006854534149,0.1000000610947609],"rotation":[-0.09597355127334595,-0.7928867340087891,0.047220148146152499,-0.5999083518981934],"visible":true,"color":[1.0,1.0,1.0,1.0]}, 
{"mainType":"Geometry","id":6,"subtype":"Capsule","position":[-38.165550231933597,1.1340938806533814,-18.818857192993165],"size":[0.10000002384185791,0.10000002384185791,0.10000000149011612],"rotation":[-0.31200331449508669,0.9436845779418945,0.044863972812891009,0.10050142556428909],"visible":true,"color":[1.0,1.0,1.0,1.0]}, 
{"mainType":"Geometry","id":5,"subtype":"Sphere","position":[-36.37862777709961,1.3942735195159913,-18.201995849609376],"size":[0.1000000536441803,0.09999998658895493,0.10000009089708328],"rotation":[-0.10244889557361603,0.5087561011314392,-0.01028365921229124,0.8547313213348389],"visible":true,"color":[0.11687159538269043,0.8397082090377808,0.7133488655090332,1.0]}, 
{"mainType":"Geometry","id":4,"subtype":"Sphere","position":[-36.19657516479492,1.3334667682647706,-18.747480392456056],"size":[0.09999996423721314,0.10000001639127732,0.09999994188547135],"rotation":[0.1485089808702469,0.6367106437683106,-0.04619768261909485,0.7552552223205566],"visible":true,"color":[0.8327353000640869,0.503302276134491,0.3766922950744629,1.0]}, 
{"mainType":"Geometry","id":3,"subtype":"Sphere","position":[-36.345184326171878,1.3993721008300782,-17.729875564575197],"size":[0.09999997168779373,0.10000001639127732,0.09999999403953552],"rotation":[-0.05651681125164032,0.7877446413040161,0.09801235049962998,0.6055226922035217],"visible":false,"color":[0.9037693738937378,0.7845276594161987,0.07808354496955872,1.0]} 
], 
 "events": [{"mainType":"Collision","id":9,"target":0,"animations":[0],"previousIcon":-1,"nextIcon":-1,"color":[],"holdingHand":-1,"trajectory":"","rotations":"","collided":7,"followDirection":false}, 
{"mainType":"Move","id":3,"target":4,"animations":[],"previousIcon":2,"nextIcon":-1,"color":[],"holdingHand":-1,"trajectory":"[[-36.19658,1.333467,-18.74748], [-36.40262,1.319099,-18.71966]]","rotations":"[[0.06880804,0.668906,-0.04724331,0.7386464], [0.08254091,0.6596071,-0.05902027,0.7447296], [0.08254091,0.6596071,-0.05902027,0.7447296], [0.08254091,0.6596071,-0.05902027,0.7447296], [0.08254091,0.6596071,-0.05902027,0.7447296]]","collided":-1,"followDirection":false}, 
{"mainType":"Move","id":2,"target":4,"animations":[],"previousIcon":-1,"nextIcon":3,"color":[],"holdingHand":-1,"trajectory":"[[-36.19658,1.333467,-18.74748], [-36.22772,1.335382,-18.74456], [-36.27699,1.336667,-18.7463], [-36.31692,1.342451,-18.73143], [-36.35468,1.351514,-18.71913], [-36.38569,1.363254,-18.69152], [-36.41178,1.362897,-18.6677], [-36.44762,1.356456,-18.65125], [-36.46275,1.34503,-18.58689], [-36.4638,1.358778,-18.58515], [-36.46822,1.389554,-18.59116], [-36.46777,1.388669,-18.59495], [-36.4728,1.367877,-18.62413], [-36.47021,1.325662,-18.63827], [-36.431,1.311455,-18.63857], [-36.38851,1.314345,-18.65336], [-36.34824,1.324511,-18.6746], [-36.30285,1.339722,-18.68056], [-36.25386,1.354825,-18.67593], [-36.20967,1.367305,-18.68964], [-36.16506,1.368885,-18.70358], [-36.11851,1.371275,-18.71508], [-36.06573,1.382434,-18.70776], [-36.01593,1.396089,-18.70963], [-35.97029,1.406254,-18.72324], [-35.9235,1.411688,-18.73617], [-35.86973,1.413621,-18.72718], [-35.81945,1.412196,-18.7132], [-35.76948,1.41991,-18.71838], [-35.71906,1.431578,-18.719], [-35.66677,1.438893,-18.71336], [-35.61148,1.448257,-18.69577], [-35.55388,1.458568,-18.66454], [-35.49952,1.467346,-18.64194], [-35.44812,1.471635,-18.62662], [-35.39468,1.464019,-18.60876], [-35.33848,1.458723,-18.57711], [-35.28376,1.461036,-18.54653], [-35.23088,1.477379,-18.51606], [-35.1778,1.493201,-18.47996], [-35.12561,1.501817,-18.44894], [-35.07354,1.514263,-18.40754], [-35.02259,1.527986,-18.37201], [-34.97326,1.540199,-18.34042], [-34.92392,1.544179,-18.30276], [-34.8745,1.54287,-18.25641], [-34.82607,1.547998,-18.21204], [-34.78373,1.55138,-18.17651], [-34.73565,1.551431,-18.13655], [-34.68877,1.550717,-18.0834], [-34.64291,1.543871,-18.02461], [-34.598,1.540677,-17.95873], [-34.55431,1.539915,-17.89178], [-34.51056,1.54,-17.84287], [-34.46667,1.539685,-17.80095], [-34.42463,1.541877,-17.75587], [-34.38452,1.544136,-17.70111], [-34.35032,1.550191,-17.61318], [-34.32137,1.545734,-17.50173], [-34.28914,1.543906,-17.4241], [-34.25662,1.535778,-17.3536], [-34.24447,1.536885,-17.26636], [-34.27478,1.466104,-17.12418], [-34.29878,1.552877,-17.06254], [-34.32626,1.53548,-17.01511], [-34.38121,1.528272,-16.98603], [-34.44566,1.532682,-16.9338], [-34.5034,1.532467,-16.90396], [-34.55945,1.532868,-16.88172], [-34.60575,1.535084,-16.87323], [-34.6696,1.538689,-16.83961], [-34.73875,1.537494,-16.79682], [-34.80253,1.52273,-16.76536], [-34.85925,1.49543,-16.74777], [-34.92837,1.49329,-16.7079], [-34.99746,1.488891,-16.67035], [-35.05971,1.480177,-16.64932], [-35.12109,1.463559,-16.63158], [-35.19141,1.440641,-16.60119], [-35.25418,1.439974,-16.59143], [-35.31826,1.450905,-16.58262], [-35.37984,1.45067,-16.57856], [-35.44244,1.449887,-16.57469], [-35.50313,1.452341,-16.57544], [-35.55938,1.424682,-16.57924], [-35.62158,1.41171,-16.57581], [-35.67988,1.396236,-16.57906], [-35.72378,1.38871,-16.60139], [-35.76599,1.388375,-16.62731], [-35.81148,1.386385,-16.64614], [-35.8538,1.392849,-16.66461], [-35.90713,1.39951,-16.68097], [-35.96824,1.393576,-16.68949], [-36.00759,1.37527,-16.72428], [-36.04618,1.378644,-16.75899], [-36.09827,1.381843,-16.77584], [-36.13994,1.381345,-16.80451], [-36.16551,1.379985,-16.84879], [-36.19769,1.377612,-16.88249], [-36.23927,1.372636,-16.90577], [-36.2724,1.373107,-16.94136], [-36.3012,1.377149,-16.98272], [-36.34192,1.378817,-17.00696], [-36.38747,1.377562,-17.02449], [-36.42779,1.375926,-17.04813], [-36.46515,1.375124,-17.07592], [-36.49245,1.37035,-17.10768], [-36.52979,1.361891,-17.13476], [-36.56636,1.350106,-17.16298], [-36.59577,1.340241,-17.20566], [-36.61794,1.329513,-17.25844], [-36.64416,1.326677,-17.30677], [-36.67155,1.317082,-17.3421], [-36.69926,1.308423,-17.3885], [-36.72501,1.301027,-17.44142], [-36.75401,1.289439,-17.49443], [-36.77997,1.27939,-17.55706], [-36.80647,1.268678,-17.61782], [-36.83403,1.256611,-17.68], [-36.86568,1.251668,-17.7385], [-36.89559,1.240735,-17.80988], [-36.93077,1.234599,-17.87832], [-36.97299,1.233437,-17.92327], [-37.01618,1.226551,-17.96678], [-37.06047,1.223855,-18.02187], [-37.10542,1.217864,-18.10046], [-37.11341,1.228604,-18.17389], [-37.12284,1.253207,-18.25451], [-37.14214,1.245302,-18.32183], [-37.146,1.238558,-18.36145], [-37.10572,1.232802,-18.37973], [-37.07137,1.239053,-18.40669], [-37.04,1.238936,-18.4428], [-37.0062,1.250677,-18.47253], [-36.97678,1.253492,-18.50208], [-36.94104,1.256649,-18.53128], [-36.90361,1.261245,-18.55768], [-36.85833,1.277894,-18.56728], [-36.80453,1.287195,-18.56159], [-36.76321,1.281861,-18.58247], [-36.72178,1.283215,-18.60319], [-36.68159,1.296149,-18.6242], [-36.64366,1.309985,-18.65195], [-36.60064,1.322571,-18.6705], [-36.55744,1.327748,-18.69069], [-36.51424,1.335982,-18.71083], [-36.47002,1.343113,-18.72817], [-36.42756,1.367075,-18.74461], [-36.42142,1.377718,-18.73563]]","rotations":"[[0.148509,0.6367106,-0.04619768,0.7552552], [0.1448389,0.6390824,-0.04659116,0.7539396], [0.1374342,0.6440456,-0.04901705,0.7509424], [0.130622,0.6446805,-0.04894546,0.7516179], [0.1269972,0.6460288,-0.04720238,0.7511927], [0.1276557,0.6435709,-0.04245879,0.7534707], [0.1279939,0.6406937,-0.0417879,0.7558989], [0.1339694,0.6404532,-0.04134666,0.7550911], [0.1458997,0.624615,-0.03825132,0.7662286], [0.1316673,0.624851,-0.03605566,0.7687166], [0.1227586,0.6285,-0.02538051,0.7676418], [0.1170006,0.6292892,-0.02668907,0.7678502], [0.1240994,0.6380019,-0.03146702,0.7593175], [0.1208396,0.6391675,-0.04716764,0.7580488], [0.1257088,0.6338723,-0.05032784,0.7614924], [0.1244491,0.6332567,-0.0508433,0.7621769], [0.1247797,0.6352253,-0.04876474,0.7606188], [0.125765,0.6331086,-0.04436622,0.7624884], [0.127919,0.6283619,-0.03951833,0.7663136], [0.1288932,0.6282371,-0.03659558,0.7663978], [0.1268695,0.6272211,-0.03808532,0.7674943], [0.1277862,0.6257519,-0.03834402,0.7685279], [0.131802,0.6207357,-0.03418242,0.7721056], [0.1323904,0.61814,-0.03091978,0.774222], [0.1299264,0.6177423,-0.03041045,0.7749767], [0.1289419,0.6171429,-0.0304068,0.7756186], [0.1316899,0.6120074,-0.02928146,0.7792609], [0.1322831,0.6063564,-0.02961825,0.7835535], [0.1302198,0.6045976,-0.02927356,0.7852693], [0.127795,0.6020305,-0.0280791,0.7876798], [0.1275787,0.5984234,-0.027108,0.7904927], [0.1281399,0.5929668,-0.02500308,0.7945725], [0.1290338,0.5854539,-0.02225256,0.8000618], [0.1291757,0.5797861,-0.02033762,0.8042065], [0.1290995,0.5754302,-0.01973078,0.8073565], [0.1334364,0.5704592,-0.02004796,0.810166], [0.1382527,0.5633617,-0.0190739,0.8143378], [0.138623,0.5568094,-0.01834245,0.8187861], [0.1420745,0.551084,-0.01334508,0.8221578], [0.1436491,0.5446222,-0.009350423,0.8262349], [0.1439935,0.5391455,-0.007689774,0.8297766], [0.1445345,0.5323285,-0.004644945,0.8340952], [0.14274,0.5263382,-0.002770267,0.838204], [0.1428188,0.5212997,-0.0004548542,0.8413377], [0.1435581,0.5152026,0.0008029081,0.8449596], [0.1447761,0.507981,0.001428034,0.8491132], [0.1463683,0.5014396,0.003444519,0.8527151], [0.1478092,0.4962972,0.004838061,0.8554637], [0.1490178,0.4904628,0.005678017,0.8586081], [0.1508062,0.4829086,0.007127658,0.8625578], [0.1521901,0.4745742,0.007404171,0.8669271], [0.1551108,0.4658265,0.009394187,0.8711246], [0.1563347,0.4570048,0.01081624,0.8755508], [0.1570313,0.4507491,0.01161678,0.8786532], [0.1584622,0.4456763,0.01262795,0.8809671], [0.1591833,0.4403078,0.0138078,0.8835152], [0.1598309,0.4338652,0.01512136,0.8865588], [0.1627415,0.4235525,0.01938622,0.8909225], [0.1656936,0.4100465,0.02267992,0.896601], [0.1672214,0.4012044,0.02461696,0.9002589], [0.1699139,0.3932924,0.02610947,0.9031992], [0.1791085,0.3840331,0.03440492,0.9051271], [0.187643,0.3638934,0.03196791,0.9117839], [0.1801963,0.3582558,0.0437995,0.9150211], [0.1851426,0.3517043,0.0455519,0.9164886], [0.1868203,0.3464184,0.04721329,0.918076], [0.1875364,0.3377105,0.05160476,0.9209337], [0.1870926,0.3316159,0.05357828,0.9231235], [0.1860473,0.3262908,0.05469838,0.9251642], [0.1845623,0.3232938,0.05541399,0.9264703], [0.1821722,0.3159368,0.05689276,0.9293871], [0.1801274,0.3067438,0.05831927,0.9327708], [0.1805107,0.2989413,0.05866076,0.9352053], [0.1808549,0.2926484,0.05579305,0.9373024], [0.1792724,0.2831091,0.05742034,0.9404328], [0.179708,0.2737139,0.06021494,0.9429529], [0.1795614,0.266548,0.06094468,0.9449846], [0.18085,0.259742,0.06116631,0.9466183], [0.1801316,0.2498422,0.05917355,0.9495421], [0.1785175,0.2439717,0.06022011,0.9513059], [0.1747276,0.2379768,0.06187639,0.9534196], [0.1719562,0.2322847,0.06173744,0.9553342], [0.1694885,0.2262804,0.06185701,0.9572067], [0.1658988,0.2207869,0.06163721,0.9591308], [0.1666104,0.2150672,0.05758306,0.960558], [0.1663303,0.2082971,0.05688608,0.9621385], [0.167317,0.2026375,0.05627656,0.9632114], [0.1660449,0.2012731,0.05444632,0.9638227], [0.1647524,0.2012276,0.05452322,0.9640496], [0.1633053,0.1992165,0.05375997,0.964756], [0.1614514,0.1980659,0.05500931,0.9652343], [0.1615326,0.1951809,0.05934921,0.9655514], [0.1658523,0.1893562,0.06491715,0.9656206], [0.1699947,0.190211,0.06456916,0.9647551], [0.1672574,0.1920131,0.06401221,0.9649137], [0.1631365,0.1882648,0.06293646,0.9664274], [0.1624857,0.1881971,0.06351031,0.9665127], [0.1606948,0.1934664,0.06108306,0.965928], [0.1590498,0.1960331,0.0599493,0.9657537], [0.1582623,0.1949122,0.05871456,0.9661857], [0.15621,0.1979454,0.05748568,0.965977], [0.1557851,0.2037514,0.05885706,0.9647551], [0.1536171,0.2035018,0.05894843,0.9651497], [0.1520333,0.2008788,0.05904602,0.9659437], [0.1512455,0.2001658,0.05968222,0.9661763], [0.1525506,0.2013117,0.06276985,0.9655371], [0.1535383,0.2049349,0.06281963,0.9646147], [0.1537259,0.2053901,0.06149954,0.9645731], [0.1534861,0.2063306,0.05856933,0.9645929], [0.1526994,0.2121855,0.05392055,0.9637184], [0.1517615,0.2227263,0.04786722,0.9618058], [0.1500273,0.2324328,0.04503207,0.9599161], [0.1502437,0.238047,0.0412741,0.9586746], [0.1502725,0.2477407,0.03706367,0.9563833], [0.1491599,0.2606384,0.03164992,0.9533191], [0.1480778,0.2735171,0.02415088,0.9500937], [0.1460789,0.291994,0.01542998,0.9450728], [0.1455592,0.3113789,0.007853046,0.9390389], [0.1447673,0.3329332,-0.001071721,0.9317708], [0.1427404,0.3548121,-0.007412102,0.9239474], [0.1424484,0.3844386,-0.01723541,0.9119312], [0.136832,0.4147016,-0.02768168,0.8991849], [0.1359625,0.4353332,-0.03016576,0.8894321], [0.1317542,0.4563909,-0.03929428,0.8790929], [0.1265923,0.4866765,-0.0467566,0.8630958], [0.1152902,0.5314983,-0.06076466,0.836974], [0.1090822,0.570255,-0.05703295,0.812193], [0.07163812,0.6141844,-0.05732436,0.783811], [0.06161107,0.6487453,-0.07064505,0.7552106], [0.05764626,0.6669644,-0.0780842,0.738741], [0.05511562,0.6639098,-0.08427162,0.7410024], [0.04912473,0.6673056,-0.08330891,0.7384781], [0.04419057,0.6739662,-0.08686294,0.7323058], [0.04130906,0.6773329,-0.08220834,0.7299011], [0.03890728,0.6809454,-0.08241764,0.7266411], [0.03813423,0.6831895,-0.08234635,0.7245806], [0.03742553,0.6840806,-0.08173732,0.7238455], [0.0428315,0.6797042,-0.07335763,0.7285509], [0.05101203,0.6697849,-0.06732953,0.737735], [0.05293485,0.669004,-0.07036985,0.7380244], [0.0529911,0.667899,-0.07123291,0.7389377], [0.05776867,0.668395,-0.06598937,0.7386179], [0.05639033,0.6706553,-0.06254851,0.7369733], [0.05745706,0.6699697,-0.0587993,0.7378225], [0.05785662,0.6695204,-0.05839043,0.7382315], [0.05887072,0.6692833,-0.05665867,0.7385012], [0.05787167,0.6680662,-0.05593382,0.7397364], [0.05955046,0.6677204,-0.04863249,0.740431], [0.06102504,0.6656662,-0.04474423,0.7424033]]","collided":-1,"followDirection":false}, 
{"mainType":"Move","id":1,"target":5,"animations":[],"previousIcon":0,"nextIcon":-1,"color":[],"holdingHand":-1,"trajectory":"[[-36.37863,1.394274,-18.202], [-36.04632,1.381686,-18.05783], [-36.00025,1.405242,-18.0576], [-35.95377,1.41407,-18.03187], [-35.90998,1.427284,-17.97376], [-35.86739,1.436568,-17.91131], [-35.83098,1.445449,-17.85165], [-35.78786,1.452772,-17.80658], [-35.75101,1.463072,-17.73605], [-35.72436,1.465028,-17.62579], [-35.70161,1.460524,-17.51691], [-35.67698,1.470358,-17.4404], [-35.68332,1.466449,-17.40775], [-35.7089,1.489134,-17.34634], [-35.7352,1.386986,-17.26252], [-35.75795,1.368475,-17.21556], [-35.78023,1.380581,-17.17359], [-35.79768,1.381724,-17.14179], [-35.81994,1.392542,-17.11129], [-35.8504,1.396396,-17.07403], [-35.87266,1.398335,-17.06189], [-35.889,1.390742,-17.05692], [-35.90049,1.340062,-17.04514], [-35.90185,1.325241,-17.05517], [-35.94292,1.331121,-17.08514], [-35.99779,1.362257,-17.09385], [-36.05972,1.379862,-17.08685], [-36.11097,1.386362,-17.09937], [-36.15026,1.396323,-17.1228], [-36.19004,1.387256,-17.15619], [-36.23096,1.377741,-17.19096], [-36.27247,1.373209,-17.22494], [-36.30879,1.369316,-17.2695], [-36.33661,1.351251,-17.34454], [-36.36967,1.340552,-17.42698], [-36.42447,1.329535,-17.46849], [-36.48002,1.337308,-17.5107], [-36.53104,1.344883,-17.5603], [-36.56721,1.347516,-17.64392], [-36.61012,1.349571,-17.71254], [-36.65505,1.35013,-17.77522], [-36.69247,1.335652,-17.86683], [-36.72356,1.31327,-17.97712], [-36.75776,1.292172,-18.04996], [-36.75975,1.30144,-18.16208], [-36.76015,1.281475,-18.25517], [-36.73992,1.276773,-18.31188], [-36.68824,1.285314,-18.33008], [-36.63605,1.295089,-18.31831], [-36.58444,1.306343,-18.30794], [-36.53512,1.316507,-18.31184], [-36.49404,1.324173,-18.32832], [-36.44894,1.332889,-18.34792], [-36.40041,1.344229,-18.35302], [-36.34887,1.360069,-18.34603], [-36.30025,1.377213,-18.35645], [-36.25998,1.405165,-18.37571], [-36.24959,1.361049,-18.3496], [-36.25041,1.367746,-18.33912]]","rotations":"[[-0.1260839,0.5319429,-0.009909272,0.8372823], [-0.1228917,0.5207638,6.327033E-05,0.8448092], [-0.1240773,0.5196482,0.006981105,0.845294], [-0.1194716,0.5127255,0.01014136,0.8501392], [-0.1138774,0.4978323,0.01497662,0.8596342], [-0.1091912,0.483065,0.01839525,0.8685548], [-0.1094269,0.4693685,0.01847485,0.8760011], [-0.1141344,0.4603,0.0153175,0.880263], [-0.1126819,0.4452899,0.01723818,0.8881007], [-0.1055863,0.4215577,0.01967847,0.9004185], [-0.1020537,0.39951,0.01831418,0.9108467], [-0.1019458,0.3857974,0.01989408,0.916718], [-0.1127784,0.3799262,0.009475563,0.9180673], [-0.1230325,0.3648057,0.009327386,0.9228722], [-0.09890746,0.3484317,-0.007664505,0.9320698], [-0.09197024,0.3384057,-0.007870287,0.9364622], [-0.09760495,0.3276629,-0.008861054,0.9396979], [-0.0944904,0.3197359,-0.006462336,0.9427613], [-0.09714097,0.311133,-0.005834039,0.9453709], [-0.101054,0.3000227,-0.008799009,0.9485238], [-0.1039266,0.2956929,-0.009708777,0.9495636], [-0.1100124,0.2931755,-0.01656367,0.9495637], [-0.09938899,0.290331,-0.02503721,0.9514217], [-0.1006405,0.2930565,-0.03057686,0.9502918], [-0.1009949,0.2957622,-0.02735262,0.949514], [-0.1068382,0.2911202,-0.02085464,0.9504735], [-0.1097716,0.2820427,-0.01756779,0.9529395], [-0.1114955,0.2784436,-0.01613287,0.9538228], [-0.1142643,0.278887,-0.01344613,0.9534072], [-0.1140332,0.282057,-0.01476146,0.9524823], [-0.1168267,0.2852624,-0.01891217,0.9511148], [-0.1171421,0.2884944,-0.0188127,0.9501027], [-0.122685,0.295348,-0.02362984,0.9471852], [-0.1256533,0.3124188,-0.03057327,0.9411011], [-0.1338072,0.3311887,-0.03663012,0.9333102], [-0.1375058,0.3359571,-0.04151707,0.9308606], [-0.1389006,0.3416519,-0.03476603,0.9288554], [-0.148667,0.3497217,-0.03569064,0.924294], [-0.1543545,0.3717728,-0.03271985,0.9148166], [-0.1581123,0.3882884,-0.03021555,0.9073698], [-0.1591317,0.404592,-0.02506552,0.9001969], [-0.1617465,0.4340332,-0.02563941,0.8858872], [-0.1604916,0.4746894,-0.02676456,0.8649834], [-0.1581476,0.4995595,-0.03058035,0.8511725], [-0.1676356,0.5411522,-0.01842048,0.8238407], [-0.1724488,0.5774562,-0.02514055,0.797605], [-0.1770654,0.5969267,-0.02609671,0.7820777], [-0.177899,0.5985464,-0.02349652,0.7807319], [-0.1778376,0.5907841,-0.02153191,0.7866921], [-0.178883,0.584217,-0.01963562,0.7913951], [-0.1815267,0.5822767,-0.0179246,0.7922632], [-0.1855835,0.584323,-0.0172402,0.7898281], [-0.1850272,0.5869475,-0.0137783,0.7880787], [-0.1851144,0.5849614,-0.01098326,0.7895774], [-0.1829391,0.5799674,-0.006874405,0.7938037], [-0.1851938,0.5794767,-0.004067242,0.7936583], [-0.1960672,0.579764,0.0009489208,0.7908417], [-0.1804604,0.5753469,-0.01097434,0.7976777], [-0.1718087,0.5735702,-0.004431024,0.8009241]]","collided":-1,"followDirection":false}, 
{"mainType":"Move","id":0,"target":5,"animations":[3],"previousIcon":-1,"nextIcon":1,"color":[],"holdingHand":-1,"trajectory":"[[-36.37863,1.394274,-18.202], [-36.38795,1.384175,-18.20871], [-36.36484,1.365316,-18.20568], [-36.33783,1.374897,-18.20847], [-36.30756,1.386005,-18.19802], [-36.26999,1.363282,-18.17419], [-36.23232,1.364194,-18.1835], [-36.19302,1.366792,-18.16916], [-36.16295,1.418049,-18.12757], [-36.13478,1.399223,-18.09086], [-36.11053,1.37271,-18.05436], [-36.09509,1.369248,-18.06666], [-36.08975,1.371044,-18.06633], [-36.08602,1.366324,-18.08158]]","rotations":"[[-0.1314133,0.5592171,0.0242596,0.8181798], [-0.1546323,0.5506227,0.008490112,0.8202631], [-0.1554923,0.5495963,-0.0004208945,0.8208326], [-0.146868,0.5508372,0.007519111,0.8215546], [-0.1408459,0.5482231,0.01305613,0.8242837], [-0.1401656,0.5425268,-7.021427E-05,0.8282623], [-0.1336605,0.5469319,0.00260349,0.8264344], [-0.1348301,0.5441244,-0.0002668239,0.8281], [-0.1320491,0.5324889,0.01840988,0.8358707], [-0.1167704,0.5261793,0.01381904,0.842205], [-0.1074456,0.5191119,0.004059725,0.8479162], [-0.1091548,0.5253338,0.001495834,0.8438647], [-0.112327,0.5257219,0.001135193,0.8432071], [-0.1153186,0.5302869,-0.0009111762,0.8399386]]","collided":-1,"followDirection":false}]}