{"objects" : [
{"mainType":"Geometry","id":4,"subtype":"Cube","position":[-35.25294494628906,0.9206383228302002,-16.87453842163086],"size":[0.09999999403953552,0.10000000149011612,0.10000000149011612],"rotation":[3.7252898543727044e-9,0.0,1.1175870007207323e-8,1.0],"visible":true,"color":[1.0,1.0,1.0,1.0]}, 
{"mainType":"Geometry","id":3,"subtype":"Sphere","position":[-34.98857879638672,0.9032890796661377,-16.390275955200197],"size":[0.10000000894069672,0.09999999403953552,0.10000001639127732],"rotation":[0.05911444500088692,-0.008520455099642277,0.015484027564525605,0.9980947971343994],"visible":true,"color":[1.0,1.0,1.0,1.0]} 
], 
 "events": [{"mainType":"Collision","id":0,"target":0,"animations":[],"previousIcon":-1,"nextIcon":-1,"color":[],"holdingHand":-1,"trajectory":"","rotations":"","collided":3,"followDirection":false}]}