{"objects" : [
{"mainType":"3DProps","id":6,"subtype":"bonhomme","position":[-34.02291488647461,0.906937837600708,-18.485551834106447],"size":[0.05832498520612717,0.058324992656707767,0.05832500755786896],"rotation":[-0.023591376841068269,-0.9946357607841492,0.04754747450351715,0.08878332376480103],"visible":false,"color":[0.0,0.0,0.0,0.0]}, 
{"mainType":"3DProps","id":5,"subtype":"NapoleonsMap","position":[-34.56869888305664,0.7871461510658264,-18.591230392456056],"size":[0.9999998807907105,1.0000005960464478,1.0],"rotation":[0.0003411993384361267,0.9999040365219116,0.013815905898809433,0.0009900927543640137],"visible":true,"color":[0.0,0.0,0.0,0.0]} 
], 
 "events": [{"mainType":"Move","id":21,"target":6,"animations":[],"previousIcon":-1,"nextIcon":-1,"color":[],"holdingHand":-1,"trajectory":"[[-34.02291,0.9069378,-18.48555], [-34.62032,0.9262015,-18.52339], [-34.5648,0.9164014,-18.49892], [-34.51196,0.9209414,-18.46565], [-34.44757,0.9199899,-18.42469], [-34.39114,0.9129807,-18.4083], [-34.30683,0.9179553,-18.41704], [-34.24314,0.9112356,-18.42862], [-34.15356,0.9135466,-18.45197], [-34.01492,0.9065555,-18.48761]]","rotations":"[[-0.03246301,-0.9737215,0.04446942,0.2209868], [-0.02911675,-0.9769577,0.04904702,0.205671], [-0.02569113,-0.9808278,0.05002058,0.1865875], [-0.02628684,-0.9839242,0.04748052,0.1701415], [-0.02468184,-0.986448,0.0462776,0.1554661], [-0.02429893,-0.9891824,0.04683414,0.1368737], [-0.02356195,-0.990689,0.04564793,0.1260813], [-0.01759831,-0.9924689,0.04880649,0.1109677], [-0.02041034,-0.9938334,0.04907685,0.09731597], [-0.02359138,-0.9946358,0.04754747,0.08878332]]","collided":-1,"followDirection":false}, 
{"mainType":"Show","id":7,"target":6,"animations":[],"previousIcon":-1,"nextIcon":-1,"color":[],"holdingHand":-1,"trajectory":"","rotations":"","collided":-1,"followDirection":false}, 
{"mainType":"EnterZone","id":4,"target":0,"animations":[],"previousIcon":-1,"nextIcon":-1,"color":[],"holdingHand":-1,"trajectory":"","rotations":"","collided":0,"followDirection":false}, 
{"mainType":"EnterZone","id":2,"target":0,"animations":[],"previousIcon":-1,"nextIcon":-1,"color":[],"holdingHand":-1,"trajectory":"","rotations":"","collided":1,"followDirection":false}]}