{"objects" : [
{"mainType":"3DProps","id":6,"subtype":"bonhomme","position":[-35.11895751953125,0.7023650407791138,-17.57831382751465],"size":[0.30000004172325137,0.30000001192092898,0.29999998211860659],"rotation":[-0.0038666725158691408,0.9918700456619263,0.017739873379468919,-0.12595316767692567],"visible":true,"color":[0.0,0.0,0.0,0.0]}, 
{"mainType":"Geometry","id":5,"subtype":"Cylinder","position":[-35.40964889526367,1.0782310962677003,-16.959476470947267],"size":[0.09999999403953552,0.09999998658895493,0.09999996423721314],"rotation":[-0.04217243939638138,-0.05538693070411682,-0.00937025249004364,0.9975299835205078],"visible":true,"color":[1.0,1.0,1.0,1.0]}, 
{"mainType":"Geometry","id":4,"subtype":"Sphere","position":[-34.74940490722656,0.9849066734313965,-16.385873794555665],"size":[0.10000000149011612,0.09999999403953552,0.10000000894069672],"rotation":[0.1229938492178917,0.3422437608242035,0.003241598838940263,0.931520938873291],"visible":true,"color":[1.0,1.0,1.0,1.0]}, 
{"mainType":"Geometry","id":3,"subtype":"Cube","position":[-35.038787841796878,1.0084311962127686,-16.74756622314453],"size":[0.09999997913837433,0.09999999403953552,0.10000002384185791],"rotation":[-0.03205041587352753,-0.033726517111063007,0.002904362976551056,0.9989128708839417],"visible":true,"color":[1.0,1.0,1.0,1.0]} 
], 
 "events": [{"mainType":"Move","id":3,"target":5,"animations":[],"previousIcon":-1,"nextIcon":-1,"color":[],"holdingHand":-1,"trajectory":"[[-35.40965,1.078231,-16.95948], [-35.22144,1.019892,-16.81907], [-35.2097,1.098567,-16.81162], [-35.18016,1.18686,-16.78405], [-35.1303,1.269452,-16.74555], [-35.05308,1.350342,-16.69853], [-34.97205,1.40595,-16.65076], [-34.84862,1.445347,-16.57093], [-34.70716,1.443059,-16.48123], [-34.59597,1.400623,-16.40928], [-34.53609,1.352037,-16.3681], [-34.48841,1.294452,-16.33029], [-34.45414,1.230623,-16.2977], [-34.41815,1.182873,-16.28514], [-34.39415,1.143679,-16.26848], [-34.37749,1.113472,-16.25391], [-34.36293,1.093049,-16.24396], [-34.35793,1.082052,-16.23641], [-34.35549,1.078248,-16.23455], [-34.35723,1.073174,-16.23242]]","rotations":"[[-0.02509698,0.02827057,-0.008255236,0.9992511], [-0.03147671,0.02618009,-0.04777095,0.9980189], [-0.0264186,0.03219494,-0.1093052,0.9931355], [-0.009771705,0.04870901,-0.1815901,0.9821187], [0.007351458,0.07180369,-0.253441,0.9646543], [0.01684928,0.1040993,-0.3318111,0.9374332], [0.04805231,0.126008,-0.3992347,0.9068763], [0.0896883,0.1691806,-0.4817546,0.8551295], [0.1450648,0.2136314,-0.5611141,0.786428], [0.1939662,0.2517388,-0.612465,0.7238033], [0.214421,0.2858697,-0.6284879,0.6908729], [0.2369938,0.3207336,-0.6327482,0.6637723], [0.2718515,0.3433139,-0.6319844,0.6393967], [0.2777584,0.3688432,-0.63192,0.6224806], [0.2927669,0.3857641,-0.6310771,0.605983], [0.2982382,0.4036476,-0.6270415,0.5957699], [0.3062488,0.4120295,-0.6284243,0.5844026], [0.3168852,0.4126529,-0.6280924,0.5786202], [0.3154996,0.4177788,-0.6249431,0.5791088], [0.3186462,0.4200536,-0.6224605,0.5784138]]","collided":-1,"followDirection":false}, 
{"mainType":"Color","id":2,"target":3,"animations":[],"previousIcon":-1,"nextIcon":-1,"color":[0.5930485129356384,0.13559211790561677,0.4874895513057709,1.0],"holdingHand":-1,"trajectory":"","rotations":"","collided":-1,"followDirection":false}, 
{"mainType":"Collision","id":0,"target":0,"animations":[],"previousIcon":-1,"nextIcon":-1,"color":[],"holdingHand":-1,"trajectory":"","rotations":"","collided":4,"followDirection":false}]}