{"objects" : [
{"mainType":"Geometry","id":4,"subtype":"Sphere","position":[-35.129234313964847,1.1485718488693238,-16.293153762817384],"size":[0.09999998658895493,0.10000000149011612,0.10000000149011612],"rotation":[-0.03353351727128029,0.21230611205101014,-0.09053625911474228,0.9724221229553223],"visible":true,"color":[1.0,1.0,1.0,1.0]}, 
{"mainType":"Geometry","id":3,"subtype":"Cube","position":[-35.1386604309082,1.0535746812820435,-16.927248001098634],"size":[0.10000002384185791,0.10000000149011612,0.09999999403953552],"rotation":[-0.04686927795410156,-0.29762983322143557,-0.01569865643978119,0.9534009695053101],"visible":true,"color":[1.0,1.0,1.0,1.0]} 
], 
 "events": [{"mainType":"Move","id":1,"target":4,"animations":[],"previousIcon":-1,"nextIcon":-1,"color":[],"holdingHand":-1,"trajectory":"[[-35.12923,1.148572,-16.29315], [-35.08318,1.257245,-16.29701], [-34.9679,1.415895,-16.29528], [-34.80062,1.589809,-16.34712], [-34.56345,1.695251,-16.37353], [-34.32525,1.716862,-16.39897], [-34.12569,1.672991,-16.41417], [-33.97338,1.605715,-16.4529], [-33.8379,1.483254,-16.44744], [-33.74314,1.314777,-16.38789], [-33.75283,1.134779,-16.24502], [-33.74567,1.119175,-16.24762]]","rotations":"[[-0.03353352,0.2123061,-0.09053626,0.9724221], [-0.06515869,0.2283387,-0.1436961,0.960712], [-0.1055436,0.2678019,-0.233139,0.9288644], [-0.1424353,0.2894385,-0.3545213,0.8776402], [-0.1709441,0.3502432,-0.4600109,0.7978082], [-0.1789234,0.4146432,-0.5435334,0.7075514], [-0.1575643,0.4675313,-0.6063188,0.6236712], [-0.156915,0.5239135,-0.6392345,0.5406216], [-0.1129919,0.5777107,-0.6630338,0.4624603], [-0.0284048,0.6173248,-0.6765347,0.4005049], [0.1026848,0.6331351,-0.6622384,0.387345], [0.1009586,0.6523986,-0.6465117,0.382369], [0.1009586,0.6523986,-0.6465117,0.382369], [0.1009586,0.6523986,-0.6465117,0.382369]]","collided":-1,"followDirection":false}, 
{"mainType":"Collision","id":0,"target":0,"animations":[],"previousIcon":-1,"nextIcon":-1,"color":[],"holdingHand":-1,"trajectory":"","rotations":"","collided":3,"followDirection":false}]}