{"objects" : [
{"mainType":"Geometry","id":5,"subtype":"Sphere","position":[-36.40277862548828,1.3977606296539307,-18.2313232421875],"size":[0.10000000894069672,0.10000000894069672,0.10000000894069672],"rotation":[-0.1314133256673813,0.559217095375061,0.024259600788354875,0.8181798458099365],"visible":true,"color":[1.0,1.0,1.0,1.0]}, 
{"mainType":"Geometry","id":4,"subtype":"Sphere","position":[-35.959991455078128,1.6312353610992432,-17.787776947021486],"size":[0.09999997168779373,0.10000000894069672,0.09999995678663254],"rotation":[0.12868574261665345,0.43494996428489687,0.04931916296482086,0.8898462057113648],"visible":true,"color":[1.0,1.0,1.0,1.0]}, 
{"mainType":"Geometry","id":3,"subtype":"Sphere","position":[-36.34398651123047,1.407462239265442,-17.73284912109375],"size":[0.09999997168779373,0.10000000894069672,0.10000000149011612],"rotation":[-0.07315588742494583,0.790746808052063,0.09599637985229492,0.6001269817352295],"visible":true,"color":[1.0,1.0,1.0,1.0]} 
], 
 "events": []}