{"objects" : [
{"mainType":"3DProps","id":6,"subtype":"bonhomme","position":[-34.7104606628418,0.9318324327468872,-18.558940887451173],"size":[0.05832498520612717,0.058324992656707767,0.05832500755786896],"rotation":[0.0355069600045681,0.9322936534881592,-0.030379164963960649,-0.35867100954055788],"visible":false,"color":[0.0,0.0,0.0,0.0]}, 
{"mainType":"3DProps","id":5,"subtype":"NapoleonsMap","position":[-34.57971954345703,0.7896595001220703,-18.583494186401368],"size":[1.0,1.0000005960464478,1.000000238418579],"rotation":[-0.0046433210372924809,0.9997243881225586,0.021001115441322328,-0.009410426020622254],"visible":true,"color":[0.0,0.0,0.0,0.0]} 
], 
 "events": [{"mainType":"Move","id":23,"target":6,"animations":[],"previousIcon":22,"nextIcon":-1,"color":[],"holdingHand":-1,"trajectory":"[[-34.71046,0.9318324,-18.55894], [-34.11255,0.9367303,-18.44428], [-34.0946,0.9342265,-18.45055], [-34.07824,0.9344061,-18.45762], [-34.06541,0.9362609,-18.46937]]","rotations":"[[-0.02255626,-0.9983541,0.0424093,0.03133586], [-0.02454535,-0.9986295,0.04285892,0.01731759], [-0.02405638,-0.9986718,0.04360109,0.01322675], [-0.02556702,-0.998782,0.04118931,0.009184033], [-0.02560018,-0.9988881,0.03866306,0.0085105]]","collided":-1,"followDirection":false}, 
{"mainType":"Move","id":22,"target":6,"animations":[],"previousIcon":21,"nextIcon":23,"color":[],"holdingHand":-1,"trajectory":"[[-34.71046,0.9318324,-18.55894], [-34.24659,0.9498197,-18.42668], [-34.22394,0.9440942,-18.42821], [-34.20248,0.9412245,-18.43104], [-34.17818,0.9406919,-18.4338]]","rotations":"[[-0.02041229,-0.9955876,0.04588027,0.07927029], [-0.01728241,-0.9965119,0.04447836,0.06846395], [-0.01886246,-0.9970412,0.04600125,0.05862758], [-0.01976936,-0.9974689,0.04665293,0.04988512], [-0.02141678,-0.9979377,0.04552798,0.03986034]]","collided":-1,"followDirection":false}, 
{"mainType":"Move","id":21,"target":6,"animations":[],"previousIcon":19,"nextIcon":22,"color":[],"holdingHand":-1,"trajectory":"[[-34.71046,0.9318324,-18.55894], [-34.48626,0.9331373,-18.47252], [-34.45742,0.9380671,-18.46141], [-34.43139,0.9432813,-18.45268], [-34.40733,0.9468454,-18.44509], [-34.37799,0.94701,-18.43574], [-34.35954,0.9489517,-18.43305], [-34.33226,0.9500711,-18.42741], [-34.30894,0.9452493,-18.42263], [-34.29233,0.9421892,-18.42331]]","rotations":"[[-0.03246301,-0.9737215,0.04446942,0.2209868], [-0.02911675,-0.9769577,0.04904702,0.205671], [-0.02569113,-0.9808278,0.05002058,0.1865875], [-0.02628684,-0.9839242,0.04748052,0.1701415], [-0.02468184,-0.986448,0.0462776,0.1554661], [-0.02429893,-0.9891824,0.04683414,0.1368737], [-0.02356195,-0.990689,0.04564793,0.1260813], [-0.01759831,-0.9924689,0.04880649,0.1109677], [-0.02041034,-0.9938334,0.04907685,0.09731597], [-0.02359138,-0.9946358,0.04754747,0.08878332]]","collided":-1,"followDirection":false}, 
{"mainType":"Move","id":19,"target":6,"animations":[],"previousIcon":-1,"nextIcon":21,"color":[],"holdingHand":-1,"trajectory":"[[-34.71046,0.9318324,-18.55894], [-34.68603,0.9449196,-18.54449], [-34.67305,0.9365355,-18.5367], [-34.66746,0.9288704,-18.53038], [-34.65957,0.9335186,-18.52727]]","rotations":"[[0.03550696,0.9322937,-0.03037916,-0.358671], [0.02271123,0.9386196,-0.031901,-0.3427241], [-0.02236156,-0.941573,0.03758441,0.333958], [-0.02726629,-0.9431316,0.04024436,0.3288466], [-0.02472775,-0.9450383,0.03952166,0.3236189]]","collided":-1,"followDirection":false}, 
{"mainType":"ExitZone","id":9,"target":6,"animations":[],"previousIcon":8,"nextIcon":-1,"color":[],"holdingHand":-1,"trajectory":"","rotations":"","collided":1,"followDirection":false}, 
{"mainType":"EnterZone","id":8,"target":6,"animations":[],"previousIcon":-1,"nextIcon":9,"color":[],"holdingHand":-1,"trajectory":"","rotations":"","collided":1,"followDirection":false}, 
{"mainType":"Show","id":7,"target":6,"animations":[],"previousIcon":-1,"nextIcon":-1,"color":[],"holdingHand":-1,"trajectory":"","rotations":"","collided":-1,"followDirection":false}, 
{"mainType":"EnterZone","id":4,"target":0,"animations":[],"previousIcon":-1,"nextIcon":-1,"color":[],"holdingHand":-1,"trajectory":"","rotations":"","collided":0,"followDirection":false}, 
{"mainType":"EnterZone","id":2,"target":0,"animations":[],"previousIcon":-1,"nextIcon":-1,"color":[],"holdingHand":-1,"trajectory":"","rotations":"","collided":1,"followDirection":false}]}