{"objects" : [
{"mainType":"3DProps","id":8,"subtype":"small-watermelon","position":[-34.81938934326172,0.8456481695175171,-17.891704559326173],"size":[99.9999771118164,100.00000762939453,100.00000762939453],"rotation":[0.17998924851417542,0.9464862942695618,-0.17524240911006928,-0.202627032995224],"visible":true,"color":[0.800000011920929,0.800000011920929,0.800000011920929,1.0]}, 
{"mainType":"Geometry","id":6,"subtype":"Capsule","position":[-35.1358757019043,1.0521776676177979,-16.27667236328125],"size":[0.10000000894069672,0.10000000149011612,0.09999999403953552],"rotation":[0.00670219212770462,0.16397523880004884,-0.029078185558319093,0.9860130548477173],"visible":true,"color":[1.0,1.0,1.0,1.0]}, 
{"mainType":"Geometry","id":5,"subtype":"Cylinder","position":[-34.71391677856445,0.986261248588562,-16.509883880615236],"size":[0.10000000894069672,0.10000002384185791,0.10000000894069672],"rotation":[0.075220488011837,0.09343460947275162,-0.19104529917240144,0.9742246270179749],"visible":true,"color":[1.0,1.0,1.0,1.0]}, 
{"mainType":"Geometry","id":4,"subtype":"Sphere","position":[-35.458614349365237,1.1087595224380494,-16.582361221313478],"size":[0.10000000149011612,0.10000003129243851,0.09999999403953552],"rotation":[-0.048272814601659778,-0.071865975856781,-0.014127057045698166,0.9961453676223755],"visible":true,"color":[1.0,1.0,1.0,1.0]}, 
{"mainType":"Geometry","id":3,"subtype":"Cube","position":[-35.64244079589844,1.0798602104187012,-17.00200843811035],"size":[0.09999999403953552,0.10000000894069672,0.09999999403953552],"rotation":[-0.04085555300116539,-0.27425044775009158,-0.026429353281855584,0.9604265093803406],"visible":true,"color":[1.0,1.0,1.0,1.0]} 
], 
 "events": [{"mainType":"Look","id":17,"target":8,"animations":[2,0],"previousIcon":-1,"nextIcon":-1,"color":[],"holdingHand":-1,"trajectory":"","rotations":"","collided":-1,"followDirection":false}, 
{"mainType":"Collision","id":5,"target":0,"animations":[1,1],"previousIcon":-1,"nextIcon":-1,"color":[],"holdingHand":-1,"trajectory":"","rotations":"","collided":5,"followDirection":false}, 
{"mainType":"Hide","id":2,"target":6,"animations":[],"previousIcon":1,"nextIcon":-1,"color":[],"holdingHand":-1,"trajectory":"","rotations":"","collided":-1,"followDirection":false}, 
{"mainType":"Color","id":1,"target":4,"animations":[0],"previousIcon":0,"nextIcon":2,"color":[0.531103253364563,0.01423010416328907,0.01423010416328907,1.0],"holdingHand":-1,"trajectory":"","rotations":"","collided":-1,"followDirection":false}, 
{"mainType":"Move","id":0,"target":3,"animations":[],"previousIcon":-1,"nextIcon":1,"color":[],"holdingHand":-1,"trajectory":"[[-35.64244,1.07986,-17.00201], [-35.48699,1.094686,-16.78596], [-35.51125,1.130735,-16.91931], [-35.52276,1.152669,-17.04572], [-35.52093,1.169873,-17.09634]]","rotations":"[[-0.06257966,-0.1419485,-0.03841561,0.9871467], [-0.07679196,-0.1528402,-0.05174222,0.9839034], [-0.07354994,-0.2223687,-0.07207169,0.9695094], [-0.06716725,-0.287052,-0.08533356,0.9517395], [-0.06141886,-0.3144958,-0.09854165,0.9421304], [-0.06141886,-0.3144958,-0.09854165,0.9421304], [-0.06141886,-0.3144958,-0.09854165,0.9421304], [-0.06141886,-0.3144958,-0.09854165,0.9421304]]","collided":-1,"followDirection":false}]}