{"objects" : [
{"mainType":"Geometry","id":6,"subtype":"Capsule","position":[-34.334407806396487,1.0250566005706788,-18.146759033203126],"size":[0.10000000894069672,0.10000002384185791,0.1000000387430191],"rotation":[-0.027193091809749605,0.4458186626434326,-0.07563071697950363,0.8915078639984131],"visible":true,"color":[1.0,1.0,1.0,1.0]}, 
{"mainType":"Geometry","id":5,"subtype":"Cylinder","position":[-33.69404220581055,1.1272776126861573,-18.17463493347168],"size":[0.10000001639127732,0.10000000149011612,0.10000002384185791],"rotation":[0.0013377852737903596,0.265176922082901,-0.039656996726989749,0.9633830189704895],"visible":true,"color":[1.0,1.0,1.0,1.0]}, 
{"mainType":"Geometry","id":4,"subtype":"Sphere","position":[-33.60697937011719,1.1346927881240845,-17.810209274291993],"size":[0.09999998658895493,0.10000001639127732,0.09999996423721314],"rotation":[0.0001408383104717359,0.08177605271339417,0.008895316161215306,0.9966110587120056],"visible":true,"color":[1.0,1.0,1.0,1.0]}, 
{"mainType":"Geometry","id":3,"subtype":"Cube","position":[-33.646053314208987,1.1152235269546509,-17.38099479675293],"size":[0.09999999403953552,0.09999999403953552,0.10000001639127732],"rotation":[-0.02212163619697094,-0.09393100440502167,-0.004802520852535963,0.9953213334083557],"visible":true,"color":[1.0,1.0,1.0,1.0]} 
], 
 "events": [{"mainType":"Move","id":4,"target":3,"animations":[],"previousIcon":-1,"nextIcon":-1,"color":[],"holdingHand":-1,"trajectory":"[[-33.64605,1.115224,-17.38099], [-33.62495,1.04292,-17.572], [-33.61568,0.9593526,-17.57563], [-33.62153,0.7992069,-17.60537], [-33.64581,0.6437882,-17.68714], [-33.69342,0.5442057,-17.83537], [-33.75447,0.5262806,-18.01795], [-33.83163,0.5617226,-18.21029], [-33.90735,0.6452414,-18.37699], [-33.96239,0.7815568,-18.50907], [-33.9828,0.9428545,-18.5854], [-33.99241,1.078547,-18.61939], [-34.00488,1.167378,-18.6405], [-34.00377,1.207682,-18.65361], [-34.00272,1.200999,-18.65802]]","rotations":"[[0,0,1.490116E-08,1], [-0.002454653,0.005385756,-0.02232627,0.9997333], [-0.01191514,0.008735389,-0.04555447,0.9988527], [-0.003038689,0.02553663,-0.1073657,0.9938869], [-0.002338529,0.07458866,-0.1737182,0.9819639], [-0.008140862,0.1682573,-0.2269749,0.9592215], [-0.01407667,0.2782103,-0.2390512,0.9301912], [0.00251931,0.3832514,-0.2280148,0.8950539], [0.03099734,0.4680732,-0.1991863,0.8603904], [0.06204991,0.5324433,-0.1481545,0.8310862], [0.08674262,0.5666294,-0.08279079,0.815201], [0.09808257,0.5834922,-0.02733793,0.8057106], [0.1059147,0.5936102,0.004377343,0.7977405], [0.09562312,0.5941518,0.02516609,0.7982523], [0.07358675,0.5940924,0.02835945,0.8005216], [0.07358675,0.5940924,0.02835945,0.8005216], [0.07358675,0.5940924,0.02835945,0.8005216]]","collided":-1,"followDirection":false}, 
{"mainType":"Move","id":3,"target":4,"animations":[],"previousIcon":-1,"nextIcon":-1,"color":[],"holdingHand":-1,"trajectory":"[[-33.60698,1.134693,-17.81021], [-33.57603,1.133685,-17.81782], [-33.50121,1.152617,-17.80741], [-33.41264,1.158738,-17.71129], [-33.36963,1.17387,-17.5546], [-33.41044,1.185596,-17.38354], [-33.51445,1.168417,-17.25516], [-33.60524,1.117257,-17.21699], [-33.6736,1.088892,-17.2234], [-33.73948,1.090316,-17.26408], [-33.80066,1.095264,-17.33316], [-33.84174,1.099518,-17.42198], [-33.85611,1.081112,-17.54897], [-33.82615,1.067772,-17.71353], [-33.77435,1.088121,-17.81573], [-33.69948,1.119298,-17.86165], [-33.63255,1.147949,-17.87428], [-33.60777,1.161267,-17.88095], [-33.60772,1.173647,-17.88855]]","rotations":"[[0.0001408383,0.08177605,0.008895316,0.9966111], [0.007937893,0.08835226,0.006380972,0.9960374], [0.01581172,0.08841488,0.01533755,0.9958402], [0.0270444,0.04116389,0.01228629,0.9987109], [0.02026578,-0.02984855,0.01107472,0.9992877], [0.02196112,-0.1141596,0.01274824,0.993138], [0.01671335,-0.202281,0.00419537,0.9791759], [0.03745018,-0.2466503,-0.007617906,0.9683508], [0.04340199,-0.2651695,-0.015705,0.9630966], [0.04231738,-0.2662158,-0.01065699,0.9629252], [0.02933334,-0.2495995,-0.01513229,0.9677866], [0.008500159,-0.2089797,-0.02860497,0.9774647], [0.007916342,-0.1304179,-0.05061391,0.9901348], [0.02977815,-0.01665926,-0.05986182,0.9976234], [0.06240626,0.04923642,-0.04122338,0.9959829], [0.07190993,0.07473525,-0.01725966,0.9944576], [0.07121454,0.07779884,6.816909E-05,0.9944224], [0.048878,0.07943171,0.002208132,0.9956388], [0.07038343,0.08327389,0.01653837,0.9939005], [0.07038343,0.08327389,0.01653837,0.9939005], [0.07038343,0.08327389,0.01653837,0.9939005]]","collided":-1,"followDirection":false}, 
{"mainType":"Move","id":1,"target":5,"animations":[],"previousIcon":-1,"nextIcon":-1,"color":[],"holdingHand":-1,"trajectory":"[[-33.69404,1.127278,-18.17463], [-33.65215,1.145486,-18.19759], [-33.60385,1.15919,-18.22063], [-33.53682,1.183855,-18.2151], [-33.46303,1.216177,-18.18038], [-33.38908,1.231489,-18.11092], [-33.32551,1.235691,-18.00862], [-33.28616,1.229166,-17.86884], [-33.28202,1.225977,-17.72405], [-33.31693,1.221495,-17.56624], [-33.38695,1.213923,-17.42598], [-33.4856,1.205423,-17.31318], [-33.60228,1.199598,-17.24258], [-33.72308,1.175186,-17.21845], [-33.81843,1.157382,-17.23892], [-33.88123,1.148332,-17.29825], [-33.91491,1.141954,-17.38112], [-33.93393,1.130061,-17.48647], [-33.94727,1.113074,-17.6021], [-33.9535,1.098824,-17.72735], [-33.95397,1.094054,-17.85152], [-33.94279,1.106529,-17.9938], [-33.91796,1.117235,-18.11083], [-33.8742,1.14142,-18.20644], [-33.81583,1.173124,-18.29083], [-33.74149,1.203295,-18.34012], [-33.67255,1.234637,-18.3739], [-33.65186,1.225224,-18.40016]]","rotations":"[[0.001337785,0.2651769,-0.039657,0.963383], [0.01066589,0.2661213,-0.04456849,0.9628497], [0.0183376,0.2817641,-0.04885163,0.9580638], [0.02586254,0.2775623,-0.03972742,0.9595374], [0.0319392,0.2618931,-0.02107681,0.964338], [0.03563014,0.2364381,-0.01738975,0.9708375], [0.01834786,0.1983769,-0.01513203,0.9798372], [0.02281065,0.1398946,-0.01845639,0.9897316], [0.02659583,0.06970757,-0.01604209,0.9970839], [0.02718843,-0.01175061,-0.01279549,0.9994794], [0.01750339,-0.0940983,-0.01338839,0.9953191], [0.01347857,-0.1753934,-0.01498161,0.9842921], [0.01030002,-0.2522382,-0.01363546,0.9675143], [0.01758114,-0.3148775,-0.02732172,0.948576], [0.02007492,-0.3506367,-0.03475202,0.9356512], [0.006587073,-0.3465409,-0.04734282,0.9368163], [0.006252538,-0.3091628,-0.04956061,0.9496963], [-0.001436111,-0.2422298,-0.0624303,0.9682072], [-0.001868516,-0.1574189,-0.08193404,0.9841253], [0.002962828,-0.05149356,-0.09655149,0.9939908], [-0.004932418,0.05824623,-0.1016815,0.9930981], [-0.004334159,0.1818734,-0.08428776,0.9796933], [0.01132677,0.2641867,-0.07578024,0.9614232], [0.01794531,0.3161388,-0.06186387,0.9465237], [0.03955492,0.3565564,-0.04210884,0.9324858], [0.02893648,0.3639353,-0.01804207,0.9307997], [0.01579943,0.3680196,0.0134271,0.9295868], [0.0243537,0.4004076,0.002300743,0.9160106], [0.0243537,0.4004076,0.002300743,0.9160106], [0.0243537,0.4004076,0.002300743,0.9160106], [0.0243537,0.4004076,0.002300743,0.9160106]]","collided":-1,"followDirection":false}, 
{"mainType":"Collision","id":0,"target":0,"animations":[1,3,4],"previousIcon":-1,"nextIcon":-1,"color":[],"holdingHand":-1,"trajectory":"","rotations":"","collided":6,"followDirection":false}]}