{"objects" : [
{"mainType":"3DProps","id":6,"subtype":"bonhomme","position":[-34.7104606628418,0.9318324327468872,-18.558940887451173],"size":[0.05832498520612717,0.058324992656707767,0.05832500755786896],"rotation":[0.0355069600045681,0.9322936534881592,-0.030379164963960649,-0.35867100954055788],"visible":false,"color":[0.0,0.0,0.0,0.0]}, 
{"mainType":"3DProps","id":5,"subtype":"NapoleonsMap","position":[-34.56869888305664,0.7871461510658264,-18.591230392456056],"size":[0.9999998807907105,1.0000005960464478,1.0],"rotation":[0.0003411993384361267,0.9999040365219116,0.013815905898809433,0.0009900927543640137],"visible":true,"color":[0.0,0.0,0.0,0.0]} 
], 
 "events": [{"mainType":"Move","id":21,"target":6,"animations":[],"previousIcon":-1,"nextIcon":-1,"color":[],"holdingHand":-1,"trajectory":"[[-34.71046,0.9318324,-18.55894], [-34.62576,0.9263149,-18.51481], [-34.55311,0.9197667,-18.47951], [-34.49714,0.9207486,-18.45548], [-34.44646,0.9096098,-18.42588], [-34.39289,0.9024563,-18.40953], [-34.31628,0.905809,-18.42308], [-34.24946,0.9082646,-18.43105], [-34.15356,0.9135466,-18.45197], [-34.02722,0.9276241,-18.48645]]","rotations":"[[-0.03246301,-0.9737215,0.04446942,0.2209868], [-0.02911675,-0.9769577,0.04904702,0.205671], [-0.02569113,-0.9808278,0.05002058,0.1865875], [-0.02628684,-0.9839242,0.04748052,0.1701415], [-0.02468184,-0.986448,0.0462776,0.1554661], [-0.02429893,-0.9891824,0.04683414,0.1368737], [-0.02356195,-0.990689,0.04564793,0.1260813], [-0.01759831,-0.9924689,0.04880649,0.1109677], [-0.02041034,-0.9938334,0.04907685,0.09731597], [-0.02359138,-0.9946358,0.04754747,0.08878332]]","collided":-1,"followDirection":false}, 
{"mainType":"ExitZone","id":9,"target":6,"animations":[],"previousIcon":8,"nextIcon":-1,"color":[],"holdingHand":-1,"trajectory":"","rotations":"","collided":1,"followDirection":false}, 
{"mainType":"EnterZone","id":8,"target":6,"animations":[],"previousIcon":-1,"nextIcon":9,"color":[],"holdingHand":-1,"trajectory":"","rotations":"","collided":1,"followDirection":false}, 
{"mainType":"Show","id":7,"target":6,"animations":[],"previousIcon":-1,"nextIcon":-1,"color":[],"holdingHand":-1,"trajectory":"","rotations":"","collided":-1,"followDirection":false}, 
{"mainType":"EnterZone","id":4,"target":0,"animations":[],"previousIcon":-1,"nextIcon":-1,"color":[],"holdingHand":-1,"trajectory":"","rotations":"","collided":0,"followDirection":false}, 
{"mainType":"EnterZone","id":2,"target":0,"animations":[],"previousIcon":-1,"nextIcon":-1,"color":[],"holdingHand":-1,"trajectory":"","rotations":"","collided":1,"followDirection":false}]}