{"objects" : [
{"mainType":"Images","id":6,"subtype":"Chronological Game Message","position":[-35.94233703613281,1.424630880355835,-17.688974380493165],"size":[0.001000000280328095,0.0009999999310821295,0.0010000001639127732],"rotation":[-0.09919501841068268,0.2749369144439697,-0.019372990354895593,-0.9561352729797363],"visible":true,"color":[0.0,0.0,0.0,0.0]}, 
{"mainType":"3DProps","id":5,"subtype":"Rocket League Cup","position":[-35.16510009765625,1.0280756950378419,-17.546772003173829],"size":[99.9999771118164,99.99996948242188,99.99998474121094],"rotation":[0.19186612963676454,-0.6071949005126953,-0.7279840111732483,-0.2540495991706848],"visible":true,"color":[0.6382719874382019,0.32724857330322268,0.045454300940036777,1.0]}, 
{"mainType":"Geometry","id":4,"subtype":"Cylinder","position":[-34.91441345214844,1.5648634433746338,-17.856178283691408],"size":[0.1000000387430191,0.10000001639127732,0.09999998658895493],"rotation":[-0.07010301202535629,0.03523474931716919,0.10223980993032456,0.9916607737541199],"visible":true,"color":[1.0,1.0,1.0,1.0]}, 
{"mainType":"Geometry","id":3,"subtype":"Capsule","position":[-34.828147888183597,1.2426162958145142,-18.24705696105957],"size":[0.10000000894069672,0.09999999403953552,0.10000000894069672],"rotation":[0.0,0.0,0.0,1.0],"visible":true,"color":[1.0,1.0,1.0,1.0]} 
], 
 "events": [{"mainType":"Move","id":5,"target":4,"animations":[],"previousIcon":-1,"nextIcon":-1,"color":[],"holdingHand":-1,"trajectory":"[[-34.91441,1.564863,-17.85618], [-34.93638,1.641583,-17.83807], [-34.92989,1.735248,-17.85991], [-34.90116,1.829195,-17.91267], [-34.86147,1.908298,-17.99269], [-34.824,1.958107,-18.08167], [-34.77615,1.982936,-18.2018], [-34.73222,1.98323,-18.35011], [-34.70323,1.954776,-18.49277], [-34.67327,1.899828,-18.59903], [-34.64783,1.824612,-18.70345], [-34.62767,1.73857,-18.76875], [-34.60847,1.63184,-18.82871], [-34.594,1.517497,-18.84696], [-34.58077,1.380572,-18.8523], [-34.56778,1.203503,-18.84391], [-34.56075,1.057298,-18.75915], [-34.56141,0.9404267,-18.62521], [-34.57698,0.8627414,-18.45969], [-34.62472,0.7819,-18.2775], [-34.67516,0.778634,-18.11107], [-34.72536,0.8519695,-17.95155], [-34.73682,1.049861,-17.84236], [-34.76382,1.325504,-17.79355], [-34.78357,1.495297,-17.80456], [-34.79391,1.55721,-17.82015]]","rotations":"[[-0.07010301,0.03523475,0.1022398,0.9916608], [-0.06210751,0.0324114,0.1588561,0.9848132], [-0.07841124,0.05201841,0.1992983,0.9754107], [-0.09948495,0.08953039,0.2282691,0.9643549], [-0.1087205,0.149605,0.2637987,0.9466829], [-0.1073164,0.2104356,0.2881081,0.9280053], [-0.1055382,0.2832108,0.2936738,0.9068677], [-0.09983562,0.3686952,0.2917274,0.8769218], [-0.08724435,0.4469663,0.2812614,0.8446903], [-0.07481801,0.4997756,0.2525139,0.8251444], [-0.06038252,0.5499208,0.2160282,0.8045328], [-0.0348896,0.5830635,0.182681,0.7908523], [-0.01706564,0.6099935,0.1371529,0.7802601], [0.00293269,0.6174479,0.08867268,0.7815925], [0.01433935,0.615775,0.02313663,0.7874518], [0.04189615,0.6076612,-0.05804827,0.7909634], [0.07363997,0.5672036,-0.120644,0.8113585], [0.1115411,0.5051376,-0.1638872,0.8399618], [0.1361006,0.4240728,-0.1951441,0.8738179], [0.1695435,0.3259799,-0.2238573,0.9027072], [0.1917254,0.2377245,-0.2050891,0.9298747], [0.1768157,0.1571705,-0.1720652,0.9562569], [0.1125999,0.1135766,-0.1056972,0.9814529], [0.02210847,0.0868201,-0.007782293,0.9959483], [-0.03737244,0.08564658,0.05011213,0.9943625], [-0.05894648,0.0923517,0.08436027,0.9903938], [-0.05894648,0.0923517,0.08436027,0.9903938], [-0.05894648,0.0923517,0.08436027,0.9903938], [-0.05894648,0.0923517,0.08436027,0.9903938]]","collided":-1,"followDirection":false}, 
{"mainType":"Grab","id":2,"target":4,"animations":[],"previousIcon":0,"nextIcon":-1,"color":[],"holdingHand":0,"trajectory":"","rotations":"","collided":-1,"followDirection":false}, 
{"mainType":"Collision","id":0,"target":0,"animations":[],"previousIcon":-1,"nextIcon":2,"color":[],"holdingHand":-1,"trajectory":"","rotations":"","collided":3,"followDirection":false}]}