{"objects" : [
{"mainType":"Geometry","id":4,"subtype":"Sphere","position":[-35.36310958862305,1.1353636980056763,-16.45806884765625],"size":[0.10000000149011612,0.09999999403953552,0.09999999403953552],"rotation":[0.012218400835990906,0.19100311398506165,-0.10286922752857208,0.9761078357696533],"visible":true,"color":[1.0,1.0,1.0,1.0]}, 
{"mainType":"Geometry","id":3,"subtype":"Cube","position":[-35.5070686340332,0.9526858329772949,-16.782272338867189],"size":[0.10000001639127732,0.10000000894069672,0.10000002384185791],"rotation":[0.0,0.0,-7.450580596923828e-9,1.0],"visible":true,"color":[1.0,1.0,1.0,1.0]} 
], 
 "events": [{"mainType":"Move","id":1,"target":3,"animations":[],"previousIcon":-1,"nextIcon":-1,"color":[],"holdingHand":-1,"trajectory":"[[-35.50707,0.9526858,-16.78227], [-35.50956,1.043594,-16.8293], [-35.49711,1.122653,-16.89506], [-35.49936,1.12184,-16.90232]]","rotations":"[[0,0,-7.450581E-09,1], [-0.01765721,-0.02350649,-0.05306871,0.998158], [-0.02968097,-0.06343505,-0.1067828,0.9918127], [-0.03005062,-0.06791545,-0.104846,0.9917116], [-0.03005062,-0.06791545,-0.104846,0.9917116], [-0.03005062,-0.06791545,-0.104846,0.9917116]]","collided":-1,"followDirection":false}, 
{"mainType":"Collision","id":0,"target":0,"animations":[],"previousIcon":-1,"nextIcon":-1,"color":[],"holdingHand":-1,"trajectory":"","rotations":"","collided":4,"followDirection":false}]}