{"objects" : [
{"mainType":"3DProps","id":5,"subtype":"NapoleonsMap","position":[-34.57971954345703,0.7896595001220703,-18.583494186401368],"size":[1.0,1.0000005960464478,1.000000238418579],"rotation":[-0.0046433210372924809,0.9997243881225586,0.021001115441322328,-0.009410426020622254],"visible":true,"color":[0.0,0.0,0.0,0.0]} 
], 
 "events": []}