{"objects" : [
{"mainType":"Geometry","id":3,"subtype":"Cube","position":[-35.29262161254883,1.0905795097351075,-16.310775756835939],"size":[0.10000000894069672,0.10000003129243851,0.09999999403953552],"rotation":[-0.020098954439163209,0.20887601375579835,0.014465555548667908,0.9776285886764526],"visible":true,"color":[1.0,1.0,1.0,1.0]} 
], 
 "events": [{"mainType":"Drop","id":17,"target":-1,"animations":[1],"previousIcon":-1,"nextIcon":-1,"color":[],"holdingHand":0,"trajectory":"[[-34.82418,0.9407548,-17.02618]]","rotations":"","collided":-1,"followDirection":false}, 
{"mainType":"Grab","id":2,"target":-1,"animations":[0],"previousIcon":-1,"nextIcon":-1,"color":[],"holdingHand":0,"trajectory":"[[-34.5565,0.9357816,-16.75557]]","rotations":"","collided":-1,"followDirection":false}, 
{"mainType":"Color","id":1,"target":3,"animations":[],"previousIcon":-1,"nextIcon":-1,"color":[0.8075364232063294,0.631712019443512,0.7345501780509949,1.0],"holdingHand":-1,"trajectory":"","rotations":"","collided":-1,"followDirection":false}, 
{"mainType":"Color","id":0,"target":3,"animations":[],"previousIcon":-1,"nextIcon":-1,"color":[0.5531061887741089,0.785239577293396,0.24379444122314454,1.0],"holdingHand":-1,"trajectory":"","rotations":"","collided":-1,"followDirection":false}]}