{"objects" : [
{"mainType":"Geometry","id":6,"subtype":"Sphere","position":[-34.39296340942383,1.192340612411499,-16.38857650756836],"size":[0.09999997913837433,0.10000000149011612,0.10000000149011612],"rotation":[0.08939012140035629,0.6858267188072205,-0.1420636922121048,0.7081447839736939],"visible":true,"color":[1.0,1.0,1.0,1.0]}, 
{"mainType":"Geometry","id":5,"subtype":"Capsule","position":[-34.80369186401367,1.174757719039917,-16.488035202026368],"size":[0.10000000894069672,0.10000001639127732,0.09999999403953552],"rotation":[0.0424763560295105,0.17265427112579347,-0.013020157814025879,0.9839800596237183],"visible":true,"color":[1.0,1.0,1.0,1.0]}, 
{"mainType":"Geometry","id":4,"subtype":"Cylinder","position":[-35.05814743041992,1.1660746335983277,-16.652162551879884],"size":[0.10000001639127732,0.09999997913837433,0.10000000894069672],"rotation":[0.009723395109176636,0.0532439649105072,-0.0223330557346344,0.9982844591140747],"visible":true,"color":[1.0,1.0,1.0,1.0]}, 
{"mainType":"Geometry","id":3,"subtype":"Cube","position":[-35.239444732666019,1.1005399227142335,-16.84412956237793],"size":[0.09999999403953552,0.10000000149011612,0.10000000894069672],"rotation":[0.0,0.0,0.0,1.0],"visible":true,"color":[1.0,1.0,1.0,1.0]} 
], 
 "events": [{"mainType":"Move","id":3,"target":6,"animations":[],"previousIcon":2,"nextIcon":-1,"color":[],"holdingHand":-1,"trajectory":"[[-34.39296,1.192341,-16.38858], [-35.32291,1.155412,-17.03665], [-35.32049,1.151713,-16.98555], [-35.30337,1.143306,-16.88414], [-35.26531,1.161759,-16.8223], [-35.2182,1.186942,-16.77581], [-35.16338,1.206838,-16.72291], [-35.10133,1.235309,-16.68788], [-35.04962,1.249826,-16.65673], [-35.00359,1.23682,-16.60495], [-34.95291,1.2187,-16.55279], [-34.87284,1.217188,-16.50709], [-34.77436,1.217179,-16.46847], [-34.64952,1.198617,-16.42183], [-34.5187,1.192517,-16.39687], [-34.42715,1.193995,-16.39044], [-34.39296,1.192341,-16.38858]]","rotations":"[[0,0,0,1], [0.01292065,0.01478601,0.0007151812,0.999807], [0.02475095,0.04438818,0.002719164,0.9987041], [0.03823297,0.1094303,0.006594598,0.9932371], [0.04809868,0.1505204,-0.01017904,0.9873837], [0.04579858,0.1907963,-0.03055355,0.9800847], [0.05207036,0.2323031,-0.05119404,0.9698986], [0.05543032,0.2663507,-0.07927828,0.9590098], [0.05683193,0.2992373,-0.09597972,0.9476367], [0.0694215,0.3395304,-0.09666418,0.933036], [0.08626081,0.3784775,-0.09662048,0.9165034], [0.09500623,0.4264154,-0.1109677,0.8926533], [0.09697388,0.4839776,-0.1260116,0.8605132], [0.103073,0.5540992,-0.1312577,0.8155499], [0.1004912,0.6196128,-0.1397152,0.7658076], [0.09535606,0.6636937,-0.1468724,0.7272183], [0.08939012,0.6858267,-0.1420637,0.7081448], [0.08939012,0.6858267,-0.1420637,0.7081448], [0.08939012,0.6858267,-0.1420637,0.7081448], [0.08939012,0.6858267,-0.1420637,0.7081448]]","collided":-1,"followDirection":false}, 
{"mainType":"Collision","id":2,"target":6,"animations":[],"previousIcon":1,"nextIcon":3,"color":[],"holdingHand":-1,"trajectory":"","rotations":"","collided":5,"followDirection":false}, 
{"mainType":"Collision","id":1,"target":6,"animations":[],"previousIcon":0,"nextIcon":2,"color":[],"holdingHand":-1,"trajectory":"","rotations":"","collided":4,"followDirection":false}, 
{"mainType":"Collision","id":0,"target":6,"animations":[],"previousIcon":-1,"nextIcon":1,"color":[],"holdingHand":-1,"trajectory":"","rotations":"","collided":3,"followDirection":false}]}