{"objects" : [
{"mainType":"3DProps","id":4,"subtype":"bonhomme","position":[-34.976219177246097,1.0096051692962647,-18.767169952392579],"size":[0.041556280106306079,0.041556283831596377,0.04155629873275757],"rotation":[-0.008062988519668579,-0.9552713632583618,-0.053728796541690829,0.2906974256038666],"visible":false,"color":[0.0,0.0,0.0,0.0]}, 
{"mainType":"3DProps","id":3,"subtype":"NapoleonsMap","position":[-34.831787109375,0.920846700668335,-18.810728073120118],"size":[0.9999996423721314,1.0000001192092896,0.9999997615814209],"rotation":[-0.012200072407722474,-0.9965589046478272,-0.08019744604825974,0.01702766679227352],"visible":true,"color":[0.0,0.0,0.0,0.0]} 
], 
 "events": []}