{"objects" : [
{"mainType":"3DProps","id":9,"subtype":"Hammer","position":[-34.75289535522461,0.8270313739776611,-16.533023834228517],"size":[1.000000238418579,0.9999998807907105,1.0],"rotation":[-0.31815338134765627,0.6075236201286316,0.21687355637550355,-0.694736897945404],"visible":true,"color":[1.0,1.0,1.0,1.0]}, 
{"mainType":"Images","id":8,"subtype":"PlaceHolder3","position":[-34.898048400878909,0.7760715484619141,-16.50234603881836],"size":[0.00016722727741580456,0.0001672272919677198,0.0001672271901043132],"rotation":[-0.28597965836524966,0.29902178049087527,-0.1101011261343956,-0.9037032127380371],"visible":true,"color":[0.0,0.0,0.0,0.0]}, 
{"mainType":"Images","id":7,"subtype":"PlaceHolder2","position":[-35.00855255126953,0.7858578562736511,-16.591867446899415],"size":[0.00017062424740288407,0.0001706242619547993,0.00017062417464330792],"rotation":[-0.25565436482429507,0.38126689195632937,-0.0928654745221138,-0.8835453391075134],"visible":true,"color":[0.0,0.0,0.0,0.0]}, 
{"mainType":"Images","id":6,"subtype":"PlaceHolder1","position":[-35.10790252685547,0.787047803401947,-16.711742401123048],"size":[0.00018409316544421017,0.00018409325275570154,0.00018409326730761677],"rotation":[-0.2759139835834503,0.4363507032394409,-0.08583832532167435,-0.8521158695220947],"visible":true,"color":[0.0,0.0,0.0,0.0]} 
], 
 "events": [{"mainType":"Move","id":6,"target":9,"animations":[],"previousIcon":5,"nextIcon":-1,"color":[],"holdingHand":-1,"trajectory":"[[-34.7529,0.8270314,-16.53302], [-34.84458,0.7122037,-16.62438], [-34.84013,0.7504161,-16.63189], [-34.82747,0.7959343,-16.63025], [-34.81222,0.8272949,-16.62642], [-34.79937,0.8317051,-16.60661], [-34.77799,0.8273308,-16.57436], [-34.75201,0.8291204,-16.53536], [-34.7529,0.8270314,-16.53302]]","rotations":"[[-0.4135396,0.7078421,0.256912,-0.5118016], [-0.4591835,0.6743157,0.2767272,-0.5078099], [-0.419436,0.6932474,0.2479387,-0.5310444], [-0.3908485,0.6989669,0.2647141,-0.5372238], [-0.3654688,0.708347,0.2721123,-0.5391031], [-0.3493584,0.6943626,0.2604574,-0.572688], [-0.3427644,0.6614067,0.2519184,-0.6177306], [-0.315989,0.6152807,0.2273998,-0.6854706], [-0.3181534,0.6075236,0.2168736,-0.6947369]]","collided":-1,"followDirection":false}, 
{"mainType":"Collision","id":5,"target":9,"animations":[],"previousIcon":4,"nextIcon":6,"color":[],"holdingHand":-1,"trajectory":"","rotations":"","collided":8,"followDirection":false}, 
{"mainType":"Move","id":4,"target":9,"animations":[],"previousIcon":3,"nextIcon":5,"color":[],"holdingHand":-1,"trajectory":"[[-34.7529,0.8270314,-16.53302], [-34.94492,0.7368043,-16.69963], [-34.94181,0.7485483,-16.69779], [-34.91876,0.7989143,-16.71166], [-34.88397,0.8371357,-16.73347], [-34.85879,0.830629,-16.73449], [-34.83414,0.8119309,-16.71011], [-34.82457,0.7910918,-16.68374]]","rotations":"[[-0.4089516,0.7730502,0.1978237,-0.442739], [-0.4575897,0.7331457,0.227271,-0.4488397], [-0.4561735,0.7359847,0.2452356,-0.4359951], [-0.401721,0.7620593,0.2397045,-0.4476915], [-0.3606237,0.785613,0.2308522,-0.4466209], [-0.3622536,0.7794588,0.2104277,-0.4657646], [-0.3749941,0.753326,0.2131622,-0.4964285], [-0.3915692,0.7292106,0.2252378,-0.5139976]]","collided":-1,"followDirection":false}, 
{"mainType":"Collision","id":3,"target":9,"animations":[],"previousIcon":2,"nextIcon":4,"color":[],"holdingHand":-1,"trajectory":"","rotations":"","collided":7,"followDirection":false}, 
{"mainType":"Move","id":2,"target":9,"animations":[],"previousIcon":1,"nextIcon":3,"color":[],"holdingHand":-1,"trajectory":"[[-34.7529,0.8270314,-16.53302], [-34.99385,0.767051,-16.81207], [-34.96372,0.8160542,-16.81967], [-34.93362,0.840968,-16.80997], [-34.92398,0.828764,-16.77725], [-34.92704,0.8039547,-16.74884]]","rotations":"[[-0.3884428,0.826356,0.06921883,-0.4018167], [-0.4541163,0.810145,0.1543991,-0.3370528], [-0.4000006,0.8338595,0.1580113,-0.3459919], [-0.3515212,0.8385864,0.15055,-0.3879955], [-0.3573542,0.814806,0.1599124,-0.4275715], [-0.3817261,0.7900041,0.1712167,-0.4481782]]","collided":-1,"followDirection":false}, 
{"mainType":"Collision","id":1,"target":9,"animations":[],"previousIcon":0,"nextIcon":2,"color":[],"holdingHand":-1,"trajectory":"","rotations":"","collided":6,"followDirection":false}, 
{"mainType":"Move","id":0,"target":9,"animations":[],"previousIcon":-1,"nextIcon":1,"color":[],"holdingHand":-1,"trajectory":"[[-34.7529,0.8270314,-16.53302], [-35.084,0.769905,-16.90715], [-35.04367,0.8054259,-16.904], [-34.99031,0.8165768,-16.89059], [-34.94185,0.8168108,-16.87858], [-34.9265,0.8014182,-16.86568], [-34.94365,0.7700475,-16.85545], [-34.97959,0.7401606,-16.83039]]","rotations":"[[-0.2190724,0.7574109,-0.2288768,-0.5709215], [-0.2082501,0.772302,-0.1994305,-0.5660468], [-0.1999712,0.8063744,-0.1375096,-0.5393172], [-0.2504919,0.8302894,-0.06575833,-0.4935072], [-0.3002202,0.8485961,-0.003498408,-0.4355919], [-0.314156,0.8484147,0.0166436,-0.4257014], [-0.3358446,0.8448744,0.02843892,-0.415436], [-0.3757014,0.8325835,0.05932526,-0.4026584]]","collided":-1,"followDirection":false}]}