{"objects" : [
{"mainType":"Geometry","id":12,"subtype":"Cube","position":[-34.896976470947269,0.700145423412323,-16.494550704956056],"size":[0.10000000894069672,0.09999999403953552,0.10000000894069672],"rotation":[-0.0009888836648315192,0.38545772433280947,0.0035909446887671949,0.9227180480957031],"visible":true,"color":[1.0,1.0,1.0,1.0]}, 
{"mainType":"Geometry","id":11,"subtype":"Cube","position":[-34.989967346191409,0.6980733871459961,-16.581968307495118],"size":[0.09999998658895493,0.10000000149011612,0.09999999403953552],"rotation":[0.0015286942943930626,0.38589808344841006,-0.015379531309008599,0.9224120378494263],"visible":true,"color":[1.0,1.0,1.0,1.0]}, 
{"mainType":"Geometry","id":10,"subtype":"Cube","position":[-35.09931564331055,0.6963462829589844,-16.69152069091797],"size":[0.09999996423721314,0.1000000387430191,0.09999999403953552],"rotation":[0.012391828000545502,0.3716411590576172,-0.020526915788650514,0.9280668497085571],"visible":true,"color":[1.0,1.0,1.0,1.0]}, 
{"mainType":"3DProps","id":9,"subtype":"Hammer","position":[-35.05632781982422,1.031538724899292,-16.637165069580079],"size":[1.0000003576278687,0.9999995231628418,0.9999998807907105],"rotation":[0.05727556347846985,0.6275904178619385,-0.3340492248535156,-0.7009000778198242],"visible":true,"color":[1.0,1.0,1.0,1.0]}, 
{"mainType":"Images","id":8,"subtype":"PlaceHolder3","position":[-34.89548873901367,0.7570345997810364,-16.4960994720459],"size":[0.00016722727741580456,0.0001672272919677198,0.00016722716100048274],"rotation":[-0.6482378840446472,0.272426038980484,-0.2730199694633484,-0.6565302014350891],"visible":true,"color":[0.0,0.0,0.0,0.0]}, 
{"mainType":"Images","id":7,"subtype":"PlaceHolder2","position":[-34.99162673950195,0.7537997961044312,-16.584550857543947],"size":[0.00017062427650671452,0.00017062429105862975,0.00017062417464330792],"rotation":[-0.6454191207885742,0.27817434072494509,-0.27591845393180849,-0.6556845903396606],"visible":true,"color":[0.0,0.0,0.0,0.0]}, 
{"mainType":"Images","id":6,"subtype":"PlaceHolder1","position":[-35.092193603515628,0.7590022087097168,-16.692058563232423],"size":[0.00018409313634037971,0.00018409323820378631,0.00018409329641144723],"rotation":[-0.6439981460571289,0.269316703081131,-0.2488197535276413,-0.6714341044425964],"visible":true,"color":[0.0,0.0,0.0,0.0]} 
], 
 "events": [{"mainType":"Color","id":8,"target":11,"animations":[],"previousIcon":-1,"nextIcon":-1,"color":[0.11202698200941086,0.5665092468261719,0.2757582366466522,1.0],"holdingHand":-1,"trajectory":"","rotations":"","collided":-1,"followDirection":false}, 
{"mainType":"Color","id":7,"target":10,"animations":[],"previousIcon":-1,"nextIcon":-1,"color":[0.7453612089157105,0.07607944309711456,0.07607944309711456,1.0],"holdingHand":-1,"trajectory":"","rotations":"","collided":-1,"followDirection":false}, 
{"mainType":"Collision","id":5,"target":9,"animations":[],"previousIcon":3,"nextIcon":-1,"color":[],"holdingHand":-1,"trajectory":"","rotations":"","collided":8,"followDirection":false}, 
{"mainType":"Collision","id":3,"target":9,"animations":[],"previousIcon":1,"nextIcon":5,"color":[],"holdingHand":-1,"trajectory":"","rotations":"","collided":7,"followDirection":false}, 
{"mainType":"Collision","id":1,"target":9,"animations":[],"previousIcon":-1,"nextIcon":3,"color":[],"holdingHand":-1,"trajectory":"","rotations":"","collided":6,"followDirection":false}]}