{"objects" : [
{"mainType":"3DProps","id":7,"subtype":"small-watermelon","position":[-35.34745407104492,0.9193524122238159,-17.020526885986329],"size":[47.8792839050293,47.87928771972656,47.87928771972656],"rotation":[-0.1382516622543335,0.6384903192520142,-0.0033151330426335336,-0.757103443145752],"visible":true,"color":[0.800000011920929,0.800000011920929,0.800000011920929,1.0]}, 
{"mainType":"Geometry","id":6,"subtype":"Sphere","position":[-35.323402404785159,1.1563206911087037,-17.06926918029785],"size":[0.09999997913837433,0.10000000149011612,0.10000000149011612],"rotation":[0.0,0.0,0.0,1.0],"visible":true,"color":[1.0,1.0,1.0,1.0]}, 
{"mainType":"Geometry","id":5,"subtype":"Capsule","position":[-34.80369186401367,1.174757719039917,-16.488035202026368],"size":[0.10000000894069672,0.10000001639127732,0.09999999403953552],"rotation":[0.0424763560295105,0.17265427112579347,-0.013020157814025879,0.9839800596237183],"visible":true,"color":[1.0,1.0,1.0,1.0]}, 
{"mainType":"Geometry","id":4,"subtype":"Cylinder","position":[-35.05814743041992,1.1660746335983277,-16.652162551879884],"size":[0.10000001639127732,0.09999997913837433,0.10000000894069672],"rotation":[0.009723395109176636,0.0532439649105072,-0.0223330557346344,0.9982844591140747],"visible":true,"color":[1.0,1.0,1.0,1.0]}, 
{"mainType":"Geometry","id":3,"subtype":"Cube","position":[-35.239444732666019,1.1005399227142335,-16.84412956237793],"size":[0.09999999403953552,0.10000000149011612,0.10000000894069672],"rotation":[0.0,0.0,0.0,1.0],"visible":true,"color":[1.0,1.0,1.0,1.0]} 
], 
 "events": [{"mainType":"Move","id":8,"target":7,"animations":[],"previousIcon":7,"nextIcon":-1,"color":[],"holdingHand":-1,"trajectory":"[[-35.34745,0.9193524,-17.02053], [-35.31456,1.008612,-17.1004], [-35.30922,1.016888,-17.08622], [-35.29522,1.039917,-17.04979], [-35.26977,1.065215,-16.98462], [-35.23142,1.088896,-16.91561], [-35.19388,1.104657,-16.85744], [-35.15434,1.121948,-16.79991], [-35.10991,1.138235,-16.73663], [-35.05478,1.15745,-16.67896], [-34.99081,1.172619,-16.62269], [-34.91681,1.180294,-16.56742], [-34.83535,1.180308,-16.51495], [-34.73997,1.178028,-16.46651], [-34.63214,1.178425,-16.43137], [-34.5521,1.17447,-16.41176], [-34.47891,1.168472,-16.39565], [-34.41258,1.177028,-16.39958], [-34.40653,1.176955,-16.39952]]","rotations":"[[-0.005033404,0.6662441,-0.0463071,-0.7442775], [-0.004530519,0.6537787,-0.02959072,-0.7560934], [-0.001374155,0.6471331,-0.0243694,-0.7619862], [0.01283799,0.6260542,-0.01575105,-0.7795147], [0.01152107,0.5954006,0.008127518,-0.8033053], [0.009004474,0.5618613,0.03773297,-0.8263213], [0.007980034,0.5298142,0.05944724,-0.8459902], [0.01423672,0.4934502,0.07584492,-0.8663439], [0.02182668,0.4495618,0.08879492,-0.8885568], [0.03456305,0.402392,0.1005185,-0.9092756], [0.04611495,0.3500395,0.110838,-0.9290106], [0.05436958,0.2914819,0.1187428,-0.9476193], [0.06014486,0.2258781,0.1211483,-0.9647201], [0.0656525,0.1527321,0.1216482,-0.9785522], [0.07808036,0.06291413,0.106281,-0.9892672], [0.08045572,0.001400054,0.09975161,-0.9917532], [0.0772164,-0.05327736,0.09732632,-0.9908212], [0.08790384,-0.1041393,0.09733404,-0.9858773], [0.08771726,-0.109116,0.09667449,-0.9854205], [0.08771726,-0.109116,0.09667449,-0.9854205]]","collided":-1,"followDirection":false}, 
{"mainType":"Collision","id":7,"target":7,"animations":[],"previousIcon":6,"nextIcon":8,"color":[],"holdingHand":-1,"trajectory":"","rotations":"","collided":5,"followDirection":false}, 
{"mainType":"Collision","id":6,"target":7,"animations":[],"previousIcon":5,"nextIcon":7,"color":[],"holdingHand":-1,"trajectory":"","rotations":"","collided":4,"followDirection":false}, 
{"mainType":"Collision","id":5,"target":7,"animations":[],"previousIcon":4,"nextIcon":6,"color":[],"holdingHand":-1,"trajectory":"","rotations":"","collided":3,"followDirection":false}, 
{"mainType":"Collision","id":4,"target":7,"animations":[],"previousIcon":-1,"nextIcon":5,"color":[],"holdingHand":-1,"trajectory":"","rotations":"","collided":6,"followDirection":false}, 
{"mainType":"Move","id":3,"target":6,"animations":[],"previousIcon":2,"nextIcon":-1,"color":[],"holdingHand":-1,"trajectory":"[[-35.3234,1.156321,-17.06927], [-35.32291,1.155412,-17.03665], [-35.32049,1.151713,-16.98555], [-35.30337,1.143306,-16.88414], [-35.26531,1.161759,-16.8223], [-35.2182,1.186942,-16.77581], [-35.16338,1.206838,-16.72291], [-35.10133,1.235309,-16.68788], [-35.04962,1.249826,-16.65673], [-35.00359,1.23682,-16.60495], [-34.95291,1.2187,-16.55279], [-34.87284,1.217188,-16.50709], [-34.77436,1.217179,-16.46847], [-34.64952,1.198617,-16.42183], [-34.5187,1.192517,-16.39687], [-34.42715,1.193995,-16.39044], [-34.39296,1.192341,-16.38858]]","rotations":"[[0,0,0,1], [0.01292065,0.01478601,0.0007151812,0.999807], [0.02475095,0.04438818,0.002719164,0.9987041], [0.03823297,0.1094303,0.006594598,0.9932371], [0.04809868,0.1505204,-0.01017904,0.9873837], [0.04579858,0.1907963,-0.03055355,0.9800847], [0.05207036,0.2323031,-0.05119404,0.9698986], [0.05543032,0.2663507,-0.07927828,0.9590098], [0.05683193,0.2992373,-0.09597972,0.9476367], [0.0694215,0.3395304,-0.09666418,0.933036], [0.08626081,0.3784775,-0.09662048,0.9165034], [0.09500623,0.4264154,-0.1109677,0.8926533], [0.09697388,0.4839776,-0.1260116,0.8605132], [0.103073,0.5540992,-0.1312577,0.8155499], [0.1004912,0.6196128,-0.1397152,0.7658076], [0.09535606,0.6636937,-0.1468724,0.7272183], [0.08939012,0.6858267,-0.1420637,0.7081448], [0.08939012,0.6858267,-0.1420637,0.7081448], [0.08939012,0.6858267,-0.1420637,0.7081448], [0.08939012,0.6858267,-0.1420637,0.7081448]]","collided":-1,"followDirection":false}, 
{"mainType":"Collision","id":2,"target":6,"animations":[],"previousIcon":1,"nextIcon":3,"color":[],"holdingHand":-1,"trajectory":"","rotations":"","collided":5,"followDirection":false}, 
{"mainType":"Collision","id":1,"target":6,"animations":[],"previousIcon":0,"nextIcon":2,"color":[],"holdingHand":-1,"trajectory":"","rotations":"","collided":4,"followDirection":false}, 
{"mainType":"Collision","id":0,"target":6,"animations":[],"previousIcon":-1,"nextIcon":1,"color":[],"holdingHand":-1,"trajectory":"","rotations":"","collided":3,"followDirection":false}]}