{"objects" : [
 
], 
 "events": [{"mainType":"Drop","id":3,"target":-1,"animations":[0],"previousIcon":-1,"nextIcon":-1,"color":[],"holdingHand":0,"trajectory":"[[-34.83429,0.875851,-16.60741]]","rotations":"","collided":-1,"followDirection":false}, 
{"mainType":"Hide","id":0,"target":3,"animations":[],"previousIcon":-1,"nextIcon":-1,"color":[],"holdingHand":-1,"trajectory":"","rotations":"","collided":-1,"followDirection":false}]}