{"objects" : [
{"mainType":"","id":3,"subtype":"","position":[-35.00099182128906,0.7332149744033814,-16.777833938598634],"size":[0.009999999776482582,0.009999999776482582,0.009999999776482582],"rotation":[0.0055553242564201359,0.04906588792800903,-0.011086922138929367,0.9987185001373291],"visible":false,"color":[0.0,0.0,0.0,0.0]} 
], 
 "events": []}