{"objects" : [
{"mainType":"Geometry","id":4,"subtype":"Cube","position":[-35.13087844848633,0.98569655418396,-16.51813507080078],"size":[0.09999999403953552,0.1000000387430191,0.09999997913837433],"rotation":[0.029041677713394166,0.31062817573547366,0.024855323135852815,0.9497626423835754],"visible":true,"color":[1.0,1.0,1.0,1.0]}, 
{"mainType":"Geometry","id":3,"subtype":"Sphere","position":[-35.13045883178711,0.955229640007019,-17.075496673583986],"size":[0.10000000894069672,0.10000000894069672,0.10000001639127732],"rotation":[0.03236939013004303,-0.0447506308555603,-0.02740735560655594,0.9980974197387695],"visible":true,"color":[1.0,1.0,1.0,1.0]} 
], 
 "events": [{"mainType":"Collision","id":0,"target":0,"animations":[],"previousIcon":-1,"nextIcon":-1,"color":[],"holdingHand":-1,"trajectory":"","rotations":"","collided":3,"followDirection":false}]}