{"objects" : [
{"mainType":"Geometry","id":3,"subtype":"Cube","position":[-33.29362869262695,0.4254363179206848,-18.475059509277345],"size":[0.10000002384185791,0.10000000894069672,0.10000002384185791],"rotation":[-0.014717262238264084,0.08041268587112427,-0.1302223801612854,0.9881089925765991],"visible":false,"color":[1.0,1.0,1.0,1.0]} 
], 
 "events": [{"mainType":"ZoneCollider","id":0,"target":-1,"animations":[],"previousIcon":-1,"nextIcon":-1,"color":[],"holdingHand":-1,"trajectory":"[[-33.84691,-0.001557015,-18.14626], [0,0.05,0], [0.6095238,0,-1.219618], [-0.9143333,0,-2.23225], [-1.173367,0,-0.6393585], [0,0.05,0]]","rotations":"","collided":-1,"followDirection":false}, 
{"mainType":"Color","id":5,"target":3,"animations":[],"previousIcon":4,"nextIcon":-1,"color":[0.14033927023410798,0.7699501514434815,0.2564551830291748,1.0],"holdingHand":-1,"trajectory":"","rotations":"","collided":-1,"followDirection":false}, 
{"mainType":"Color","id":4,"target":3,"animations":[],"previousIcon":-1,"nextIcon":5,"color":[0.7699501514434815,0.14033927023410798,0.14033927023410798,1.0],"holdingHand":-1,"trajectory":"","rotations":"","collided":-1,"followDirection":false}, 
{"mainType":"ExitZone","id":2,"target":3,"animations":[],"previousIcon":1,"nextIcon":-1,"color":[],"holdingHand":-1,"trajectory":"","rotations":"","collided":0,"followDirection":false}, 
{"mainType":"EnterZone","id":1,"target":3,"animations":[4],"previousIcon":-1,"nextIcon":2,"color":[],"holdingHand":-1,"trajectory":"","rotations":"","collided":0,"followDirection":false}]}