{"objects" : [
{"mainType":"3DProps","id":4,"subtype":"bonhomme","position":[-34.9788703918457,1.0380079746246338,-18.765609741210939],"size":[0.04155629873275757,0.041556280106306079,0.04155632108449936],"rotation":[-0.017393507063388826,-0.9689958691596985,-0.048698462545871738,0.24160507321357728],"visible":false,"color":[0.0,0.0,0.0,0.0]}, 
{"mainType":"3DProps","id":3,"subtype":"NapoleonsMap","position":[-34.812557220458987,0.9223922491073608,-18.81661033630371],"size":[0.9999994039535523,1.0000003576278687,0.9999995827674866],"rotation":[0.0029646754264831545,-0.9969159364700317,-0.07831162959337235,0.004135549068450928],"visible":true,"color":[0.0,0.0,0.0,0.0]} 
], 
 "events": [{"mainType":"EnterZone","id":14,"target":0,"animations":[],"previousIcon":12,"nextIcon":-1,"color":[],"holdingHand":-1,"trajectory":"","rotations":"","collided":11,"followDirection":false}, 
{"mainType":"EnterZone","id":12,"target":0,"animations":[],"previousIcon":-1,"nextIcon":14,"color":[],"holdingHand":-1,"trajectory":"","rotations":"","collided":10,"followDirection":false}, 
{"mainType":"Move","id":8,"target":4,"animations":[],"previousIcon":-1,"nextIcon":-1,"color":[],"holdingHand":-1,"trajectory":"[[-34.97887,1.038008,-18.76561], [-34.92988,1.015132,-18.75693], [-34.90999,1.0148,-18.75181], [-34.88942,1.012347,-18.74554], [-34.86311,1.013036,-18.73636], [-34.83776,1.015683,-18.72394], [-34.81776,1.010543,-18.70986], [-34.79016,1.014306,-18.696], [-34.7607,1.013421,-18.68145], [-34.73218,1.01032,-18.66808], [-34.69262,0.9957834,-18.65209], [-34.65315,1.002106,-18.64308], [-34.61933,0.9991436,-18.63665], [-34.57454,0.9953082,-18.6397], [-34.52958,1.004227,-18.64248], [-34.48459,0.994138,-18.64856], [-34.45096,1.00986,-18.66751], [-34.39202,1.012178,-18.68433], [-34.33902,1.007705,-18.70374], [-34.26436,1.006316,-18.71269]]","rotations":"[[-0.01043923,-0.970587,0.004144643,0.2404887], [-0.01226798,-0.9760237,0.005147569,0.2172581], [-0.0149518,-0.9801638,0.006232986,0.1975268], [-0.01730533,-0.984504,0.007997126,0.1743233], [-0.0202139,-0.9895801,0.009517061,0.1422399], [0.02408644,0.9937447,-0.01021585,-0.1085692], [0.03159215,0.9961755,-0.01501514,-0.08006946], [0.02765504,0.9984218,-0.01194108,-0.04739872], [0.02978278,0.9993672,-0.01235058,-0.01503315], [0.03088419,0.9993709,-0.01287103,0.01176964], [0.02800732,0.9987787,-0.01322444,0.03849682], [0.02749659,0.9976622,-0.01299832,0.06119838], [0.0294688,0.9963477,-0.01407426,0.07889807], [0.02977546,0.9956686,-0.01478983,0.08682717], [0.02902688,0.9954981,-0.01408836,0.08912219], [0.02449174,0.9958661,-0.01344313,0.08643134], [0.02328126,0.9958706,-0.01368769,0.08667581], [0.02288138,0.9957584,-0.01328894,0.08812065], [0.02828877,0.9955574,-0.009217127,0.08933324], [0.03075599,0.9951577,-0.006630168,0.0931218]]","collided":-1,"followDirection":false}, 
{"mainType":"Show","id":0,"target":4,"animations":[],"previousIcon":-1,"nextIcon":-1,"color":[],"holdingHand":-1,"trajectory":"","rotations":"","collided":-1,"followDirection":false}]}