{"objects" : [
{"mainType":"3DProps","id":4,"subtype":"bonhomme","position":[-34.97738265991211,0.8095284700393677,-16.72492790222168],"size":[0.035419762134552,0.035419806838035586,0.035419762134552],"rotation":[0.009418055415153504,0.4658634066581726,0.029273228719830514,-0.8843221664428711],"visible":false,"color":[0.0,0.0,0.0,0.0]}, 
{"mainType":"3DProps","id":3,"subtype":"NapoleonsMap","position":[-35.0449333190918,0.7361220717430115,-16.79070472717285],"size":[0.5967434048652649,0.5967435240745544,0.5967432260513306],"rotation":[0.09177938848733902,0.4992065727710724,0.048191893845796588,-0.8602597713470459],"visible":true,"color":[0.0,0.0,0.0,0.0]} 
], 
 "events": [{"mainType":"Show","id":0,"target":4,"animations":[],"previousIcon":-1,"nextIcon":-1,"color":[],"holdingHand":-1,"trajectory":"","rotations":"","collided":-1,"followDirection":false}]}