{"objects" : [
{"mainType":"Geometry","id":3,"subtype":"Cube","position":[-33.350704193115237,0.6905199289321899,-18.449172973632814],"size":[0.10000006854534149,0.09999999403953552,0.1000000461935997],"rotation":[0.035276975482702258,0.03760435804724693,-0.06486650556325913,0.9965609908103943],"visible":false,"color":[1.0,1.0,1.0,1.0]} 
], 
 "events": [{"mainType":"ZoneCollider","id":0,"target":-1,"animations":[],"previousIcon":-1,"nextIcon":-1,"color":[],"holdingHand":-1,"trajectory":"[[-33.84691,-0.001557015,-18.14626], [0,0.05,0], [0.6095238,0,-1.219618], [-0.9143333,0,-2.23225], [-1.173367,0,-0.6393585], [0,0.05,0]]","rotations":"","collided":-1,"followDirection":false}, 
{"mainType":"Grab","id":7,"target":3,"animations":[],"previousIcon":-1,"nextIcon":-1,"color":[],"holdingHand":0,"trajectory":"","rotations":"","collided":-1,"followDirection":false}, 
{"mainType":"Color","id":5,"target":3,"animations":[],"previousIcon":4,"nextIcon":-1,"color":[0.14033927023410798,0.7699501514434815,0.2564551830291748,1.0],"holdingHand":-1,"trajectory":"","rotations":"","collided":-1,"followDirection":false}, 
{"mainType":"Color","id":4,"target":3,"animations":[],"previousIcon":-1,"nextIcon":5,"color":[0.7699501514434815,0.14033927023410798,0.14033927023410798,1.0],"holdingHand":-1,"trajectory":"","rotations":"","collided":-1,"followDirection":false}, 
{"mainType":"ExitZone","id":2,"target":3,"animations":[4],"previousIcon":1,"nextIcon":-1,"color":[],"holdingHand":-1,"trajectory":"","rotations":"","collided":0,"followDirection":false}, 
{"mainType":"EnterZone","id":1,"target":3,"animations":[4],"previousIcon":-1,"nextIcon":2,"color":[],"holdingHand":-1,"trajectory":"","rotations":"","collided":0,"followDirection":false}]}