{"objects" : [
{"mainType":"3DProps","id":4,"subtype":"bonhomme","position":[-34.96598434448242,0.8669423460960388,-16.721492767333986],"size":[0.035419762134552,0.035419829189777377,0.03541978448629379],"rotation":[0.05046027526259422,0.5137276649475098,0.0008732322021387517,-0.8564677238464356],"visible":false,"color":[0.0,0.0,0.0,0.0]}, 
{"mainType":"3DProps","id":3,"subtype":"NapoleonsMap","position":[-35.037662506103519,0.7547459602355957,-16.78615379333496],"size":[0.5967431664466858,0.5967435240745544,0.5967434048652649],"rotation":[0.09700550138950348,0.48826897144317629,0.025867898017168046,-0.8668992519378662],"visible":true,"color":[0.0,0.0,0.0,0.0]} 
], 
 "events": [{"mainType":"Zone3DCollider","id":2,"target":-1,"animations":[],"previousIcon":-1,"nextIcon":-1,"color":[],"holdingHand":-1,"trajectory":"[[-35.11956,0.7251478,-17.11144], [0,0.7491724,0], [4.806394,0.7491724,0.6794341], [4.806394,0,0.6794341], [-0.8228862,0,5.821412], [-0.8228862,0.7491724,5.821412], [3.983507,0.749179,6.500846], [3.983507,0,6.500846]]","rotations":"","collided":-1,"followDirection":false}, 
{"mainType":"Zone3DCollider","id":1,"target":-1,"animations":[],"previousIcon":-1,"nextIcon":-1,"color":[],"holdingHand":-1,"trajectory":"[[-34.96635,0.7350522,-16.76813], [0,1.380352,0], [5.587197,1.380352,-0.4766832], [5.587197,0,-0.4766832], [0.7154598,0,8.38643], [0.7154598,1.380352,8.38643], [6.302657,1.380345,7.909747], [6.302657,0,7.909747]]","rotations":"","collided":-1,"followDirection":false}, 
{"mainType":"EnterZone","id":22,"target":0,"animations":[12],"previousIcon":19,"nextIcon":-1,"color":[],"holdingHand":-1,"trajectory":"","rotations":"","collided":2,"followDirection":false}, 
{"mainType":"EnterZone","id":19,"target":0,"animations":[0],"previousIcon":-1,"nextIcon":22,"color":[],"holdingHand":-1,"trajectory":"","rotations":"","collided":1,"followDirection":false}, 
{"mainType":"Move","id":12,"target":4,"animations":[],"previousIcon":-1,"nextIcon":-1,"color":[],"holdingHand":-1,"trajectory":"[[-34.96598,0.8669423,-16.72149], [-34.96387,0.8564737,-16.77515], [-34.96669,0.8539339,-16.80532], [-34.97089,0.8475576,-16.84016], [-34.97712,0.8383159,-16.87537], [-34.98927,0.8283579,-16.91289], [-35.00631,0.831817,-16.95021], [-35.02746,0.8320924,-16.97828], [-35.05363,0.8304968,-17.00844], [-35.07938,0.8298857,-17.03212], [-35.10573,0.8232943,-17.05226], [-35.12803,0.8235652,-17.07311], [-35.14702,0.8237704,-17.09881], [-35.1588,0.8313863,-17.10799], [-35.16317,0.834988,-17.12205], [-35.16653,0.8298833,-17.1173]]","rotations":"[[0.1038271,0.5068846,0.04035416,-0.8547862], [0.109346,0.5297369,0.03684739,-0.8402767], [0.111033,0.5533568,0.027804,-0.8250424], [0.1057848,0.5800819,0.02033997,-0.8074039], [0.1013,0.6057032,0.01085462,-0.7891416], [0.09917511,0.6343074,0.002637743,-0.7666888], [0.09940225,0.6596656,0.008159767,-0.7449121], [0.09449586,0.6789498,0.005411671,-0.7280582], [0.08475073,0.701166,0.01335565,-0.7078174], [0.08640452,0.7165468,0.008777644,-0.6921113], [0.08204854,0.728623,0.002464696,-0.6799784], [0.08495395,0.7393937,-0.0004155796,-0.6678922], [0.07871799,0.7546307,0.002648232,-0.6514055], [0.07743917,0.7597016,0.002941215,-0.6456379], [0.06845039,0.7645081,0.0002021301,-0.6409696], [0.06549665,0.7584534,-0.0006221214,-0.6484277]]","collided":-1,"followDirection":false}, 
{"mainType":"Show","id":0,"target":4,"animations":[],"previousIcon":-1,"nextIcon":-1,"color":[],"holdingHand":-1,"trajectory":"","rotations":"","collided":-1,"followDirection":false}]}