{"objects" : [
{"mainType":"Images","id":6,"subtype":"PlaceHolder1","position":[-35.231483459472659,0.8207744359970093,-16.762788772583009],"size":[0.001000000280328095,0.0010000001639127732,0.0010000000474974514],"rotation":[-0.16363245248794557,0.5146973729133606,-0.10079679638147354,-0.8355543613433838],"visible":true,"color":[0.0,0.0,0.0,0.0]} 
], 
 "events": []}