{"objects" : [
{"mainType":"3DProps","id":3,"subtype":"bonhomme","position":[-37.16166687011719,0.9502773284912109,-20.713781356811525],"size":[0.031850773841142657,0.03185076266527176,0.031850770115852359],"rotation":[-0.01795502007007599,0.8618674278259277,0.022177444770932199,-0.5063303112983704],"visible":false,"color":[0.0,0.0,0.0,0.0]}, 
{"mainType":"3DProps","id":4,"subtype":"NapoleonsMap","position":[-37.549015045166019,0.8598911762237549,-20.79373550415039],"size":[0.6897962689399719,0.6897967457771301,0.689797043800354],"rotation":[0.027077388018369676,-0.9988973736763,-0.03425901383161545,-0.017243891954421998],"visible":true,"color":[0.0,0.0,0.0,0.0]} 
], 
 "events": [{"mainType":"Zone3DCollider","id":19,"target":-1,"animations":[],"previousIcon":-1,"nextIcon":-1,"color":[],"holdingHand":-1,"trajectory":"[[-37.32239,0.8488002,-20.66699], [0,2.199342,0], [6.581179,2.199342,0.0003294786], [6.581179,0,0.0003294786], [-0.0002422333,0,6.112616], [-0.0002422333,2.199342,6.112616], [6.580937,2.199337,6.112945], [6.580937,0,6.112945]]","rotations":"","collided":-1,"followDirection":false}, 
{"mainType":"Zone3DCollider","id":18,"target":-1,"animations":[],"previousIcon":-1,"nextIcon":-1,"color":[],"holdingHand":-1,"trajectory":"[[-37.48591,0.8287995,-20.61008], [0,2.984998,0], [7.031322,2.984998,0.0001541571], [7.031322,0,0.0001541571], [-0.0002493858,0,6.046282], [-0.0002493858,2.984998,6.046282], [7.031073,2.985007,6.046436], [7.031073,0,6.046436]]","rotations":"","collided":-1,"followDirection":false}, 
{"mainType":"Zone3DCollider","id":17,"target":-1,"animations":[],"previousIcon":-1,"nextIcon":-1,"color":[],"holdingHand":-1,"trajectory":"[[-37.81101,0.8265227,-20.74411], [0,2.728808,0], [9.595059,2.728808,0.0006905756], [9.595059,0,0.0006905756], [-0.0005502701,0,6.345442], [-0.0005502701,2.728808,6.345442], [9.594509,2.728815,6.346132], [9.594509,0,6.346132]]","rotations":"","collided":-1,"followDirection":false}, 
{"mainType":"Zone3DCollider","id":16,"target":-1,"animations":[],"previousIcon":-1,"nextIcon":-1,"color":[],"holdingHand":-1,"trajectory":"[[-38.04986,0.8095853,-20.85131], [0,9.925021,0], [8.467846,9.925021,-0.0001646579], [8.467846,0,-0.0001646579], [8.487701E-05,0,3.047955], [8.487701E-05,9.925021,3.047955], [8.467931,9.925039,3.04779], [8.467931,0,3.04779]]","rotations":"","collided":-1,"followDirection":false}, 
{"mainType":"Zone3DCollider","id":15,"target":-1,"animations":[],"previousIcon":-1,"nextIcon":-1,"color":[],"holdingHand":-1,"trajectory":"[[-37.87579,0.8489897,-21.02926], [0,2.130849,0], [8.720803,2.130849,0.0004546019], [8.720803,0,0.0004546019], [-0.0002365112,0,5.247794], [-0.0002365112,2.130849,5.247794], [8.720567,2.130844,5.248248], [8.720567,0,5.248248]]","rotations":"","collided":-1,"followDirection":false}, 
{"mainType":"Zone3DCollider","id":14,"target":-1,"animations":[],"previousIcon":-1,"nextIcon":-1,"color":[],"holdingHand":-1,"trajectory":"[[-37.68484,0.8403485,-20.99504], [0,3.259595,0], [7.817625,3.259595,-0.0003462657], [7.817625,0,-0.0003462657], [0.0004534721,0,8.445805], [0.0004534721,3.259595,8.445805], [7.818079,3.259587,8.445458], [7.818079,0,8.445458]]","rotations":"","collided":-1,"followDirection":false}, 
{"mainType":"Zone3DCollider","id":13,"target":-1,"animations":[],"previousIcon":-1,"nextIcon":-1,"color":[],"holdingHand":-1,"trajectory":"[[-37.18905,0.8746518,-20.95901], [0,1.22314,0], [6.548427,1.22314,0.0006291901], [6.548427,0,0.0006291901], [-0.001040936,0,10.8826], [-0.001040936,1.22314,10.8826], [6.547386,1.223136,10.88323], [6.547386,0,10.88323]]","rotations":"","collided":-1,"followDirection":false}, 
{"mainType":"Zone3DCollider","id":0,"target":-1,"animations":[],"previousIcon":-1,"nextIcon":-1,"color":[],"holdingHand":-1,"trajectory":"[[-37.48862,0.8618011,-20.98263], [0,1.860169,0], [7.468605,1.860169,0.0003814697], [7.468605,0,0.0003814697], [0,0,6.000233], [0,1.860169,6.000233], [7.468605,1.860169,6.000614], [7.468605,0,6.000614]]","rotations":"","collided":-1,"followDirection":false}, 
{"mainType":"Show","id":37,"target":3,"animations":[],"previousIcon":-1,"nextIcon":-1,"color":[],"holdingHand":-1,"trajectory":"","rotations":"","collided":-1,"followDirection":false}, 
{"mainType":"EnterZone","id":35,"target":0,"animations":[11,11],"previousIcon":33,"nextIcon":-1,"color":[],"holdingHand":-1,"trajectory":"","rotations":"","collided":19,"followDirection":false}, 
{"mainType":"EnterZone","id":33,"target":0,"animations":[10,8,10],"previousIcon":31,"nextIcon":35,"color":[],"holdingHand":-1,"trajectory":"","rotations":"","collided":18,"followDirection":false}, 
{"mainType":"EnterZone","id":31,"target":0,"animations":[8,7],"previousIcon":29,"nextIcon":33,"color":[],"holdingHand":-1,"trajectory":"","rotations":"","collided":17,"followDirection":false}, 
{"mainType":"EnterZone","id":29,"target":0,"animations":[7,6],"previousIcon":27,"nextIcon":31,"color":[],"holdingHand":-1,"trajectory":"","rotations":"","collided":16,"followDirection":false}, 
{"mainType":"EnterZone","id":27,"target":0,"animations":[6,4],"previousIcon":25,"nextIcon":29,"color":[],"holdingHand":-1,"trajectory":"","rotations":"","collided":15,"followDirection":false}, 
{"mainType":"EnterZone","id":25,"target":0,"animations":[4,2],"previousIcon":23,"nextIcon":27,"color":[],"holdingHand":-1,"trajectory":"","rotations":"","collided":14,"followDirection":false}, 
{"mainType":"EnterZone","id":23,"target":0,"animations":[2,0],"previousIcon":21,"nextIcon":25,"color":[],"holdingHand":-1,"trajectory":"","rotations":"","collided":0,"followDirection":false}, 
{"mainType":"EnterZone","id":21,"target":0,"animations":[0,37],"previousIcon":-1,"nextIcon":23,"color":[],"holdingHand":-1,"trajectory":"","rotations":"","collided":13,"followDirection":false}, 
{"mainType":"Move","id":0,"target":3,"animations":[],"previousIcon":-1,"nextIcon":2,"color":[],"holdingHand":-1,"trajectory":"[[-37.16167,0.9502773,-20.71378], [-37.2948,0.9406429,-20.74475], [-37.3092,0.9422086,-20.75267], [-37.32358,0.943786,-20.75871], [-37.33961,0.9479251,-20.76772], [-37.36083,0.942089,-20.77919], [-37.39481,0.9402741,-20.79487], [-37.42529,0.940498,-20.80724], [-37.46091,0.9387212,-20.81637]]","rotations":"[[-0.00518357,0.8975768,-0.04253806,-0.4387705], [-0.009647042,0.8881879,-0.03054066,-0.4583629], [-0.006958075,0.8825708,-0.02734442,-0.4693323], [-0.004207507,0.8775747,-0.02292973,-0.4788728], [-0.004407272,0.8719926,-0.01809226,-0.4891648], [-0.002613358,0.8646227,-0.012345,-0.5022634], [-0.0009547174,0.8577757,-0.006764524,-0.5139788], [4.740059E-05,0.8492677,-0.007787287,-0.5279052], [0.005884394,0.8411202,-0.0004633591,-0.5408162]]","collided":-1,"followDirection":false}, 
{"mainType":"Move","id":2,"target":3,"animations":[],"previousIcon":0,"nextIcon":4,"color":[],"holdingHand":-1,"trajectory":"[[-37.16167,0.9502773,-20.71378], [-37.48672,0.9393206,-20.80794], [-37.5092,0.939099,-20.80065], [-37.53561,0.9387317,-20.79405], [-37.55468,0.9360676,-20.78829], [-37.57589,0.9353519,-20.78382], [-37.60156,0.9366078,-20.78052], [-37.62683,0.9389962,-20.7798]]","rotations":"[[0.007695355,0.8342499,0.0007269308,-0.5513324], [-0.01758456,-0.8285596,0.01209843,0.559494], [-0.01913746,-0.8207392,0.01179286,0.5708608], [-0.01990121,-0.8115833,0.01179726,0.5837786], [-0.02047937,-0.8055862,0.01462105,0.5919441], [-0.02200968,-0.7990307,0.01597023,0.6006752], [-0.02347343,-0.7910783,0.01585971,0.6110587], [-0.0268136,-0.7841923,0.01303297,0.6198013]]","collided":-1,"followDirection":false}, 
{"mainType":"Move","id":4,"target":3,"animations":[],"previousIcon":2,"nextIcon":6,"color":[],"holdingHand":-1,"trajectory":"[[-37.16167,0.9502773,-20.71378], [-37.68325,0.9392377,-20.80484], [-37.71426,0.9369993,-20.83294], [-37.7478,0.9445132,-20.85516], [-37.78136,0.9410822,-20.86769], [-37.8219,0.9422526,-20.87919], [-37.87123,0.9456161,-20.88643]]","rotations":"[[-0.0247485,-0.7848774,0.02469822,0.618664], [-0.03013346,-0.7797258,0.01343104,0.6252514], [-0.03133459,-0.7793571,0.01053416,0.6257074], [-0.03630049,-0.777822,0.006798759,0.6273988], [-0.04068088,-0.7761965,0.002615541,0.629172], [-0.04284947,-0.7736423,-0.001435369,0.6321706], [-0.04624634,-0.7687213,-0.00462877,0.6378931]]","collided":-1,"followDirection":false}, 
{"mainType":"Move","id":6,"target":3,"animations":[],"previousIcon":4,"nextIcon":7,"color":[],"holdingHand":-1,"trajectory":"[[-37.16167,0.9502773,-20.71378], [-37.88343,0.9484761,-20.90629], [-37.92206,0.9413542,-20.91938], [-37.94579,0.9407634,-20.92801], [-37.9724,0.9472504,-20.94438], [-37.97052,0.9373424,-20.94372]]","rotations":"[[-0.04579905,-0.7458785,-0.01300204,0.6643784], [-0.05053066,-0.7371324,-0.01588246,0.6736693], [-0.04867873,-0.7282382,-0.0141996,0.6834456], [-0.05050065,-0.725756,-0.01282786,0.6859762], [-0.05239031,-0.7231203,-0.01372593,0.6885957], [-0.05613688,-0.7244172,-0.006364904,0.6870428]]","collided":-1,"followDirection":false}, 
{"mainType":"Move","id":7,"target":3,"animations":[],"previousIcon":6,"nextIcon":8,"color":[],"holdingHand":-1,"trajectory":"[[-37.16167,0.9502773,-20.71378], [-37.97746,0.944203,-20.94365], [-37.95591,0.9416926,-20.91722], [-37.93016,0.9399147,-20.89125], [-37.90665,0.9404144,-20.85973]]","rotations":"[[-0.05613688,-0.7244172,-0.006364904,0.6870428], [-0.03821851,-0.7185166,0.008879567,0.6944022], [-0.02809054,-0.7217411,0.01425925,0.6914458], [-0.02785714,-0.7212236,0.01724968,0.691927], [-0.02329728,-0.7177625,0.02240826,0.6955372]]","collided":-1,"followDirection":false}, 
{"mainType":"Move","id":8,"target":3,"animations":[],"previousIcon":7,"nextIcon":10,"color":[],"holdingHand":-1,"trajectory":"[[-37.16167,0.9502773,-20.71378], [-37.90657,0.9429694,-20.86995], [-37.83734,0.9361023,-20.88209], [-37.80155,0.9374733,-20.87684], [-37.74855,0.9403235,-20.84739], [-37.70074,0.9356792,-20.82854], [-37.66535,0.9410379,-20.79439]]","rotations":"[[-0.02189523,-0.7200251,0.02311469,0.6932173], [-0.02354887,-0.7285969,0.02419053,0.6841103], [-0.02571023,-0.7346591,0.02565574,0.6774634], [-0.02524465,-0.73944,0.02508558,0.6722812], [-0.02109786,-0.746963,0.02225269,0.664158], [-0.01567809,-0.7602633,0.02854127,0.6487983], [-0.01659677,-0.7697785,0.03469093,0.6371516]]","collided":-1,"followDirection":false}, 
{"mainType":"Move","id":10,"target":3,"animations":[],"previousIcon":8,"nextIcon":11,"color":[],"holdingHand":-1,"trajectory":"[[-37.16167,0.9502773,-20.71378], [-37.61715,0.9187198,-20.76548], [-37.57012,0.9122397,-20.74227], [-37.53078,0.9191993,-20.7205], [-37.49639,0.9240927,-20.70307], [-37.48133,0.9211051,-20.69015], [-37.46471,0.9258881,-20.68391], [-37.4609,0.9357072,-20.6873]]","rotations":"[[-0.043115,-0.773534,0.04650716,0.6305738], [-0.05117551,-0.8071871,0.04406621,0.5864201], [-0.0629908,-0.8284052,0.04390484,0.5548418], [-0.0627715,-0.8432022,0.04122226,0.5323258], [-0.06000444,-0.8519104,0.04415673,0.5183612], [-0.06550262,-0.8506984,0.04729667,0.519408], [-0.0501525,-0.8491824,0.06044258,0.5222267], [-0.0532264,-0.8509154,0.04188455,0.5209181]]","collided":-1,"followDirection":false}, 
{"mainType":"Move","id":11,"target":3,"animations":[],"previousIcon":10,"nextIcon":-1,"color":[],"holdingHand":-1,"trajectory":"[[-37.16167,0.9502773,-20.71378], [-37.3886,0.9575983,-20.69022], [-37.34112,0.9680536,-20.69272], [-37.28446,0.9746743,-20.69672], [-37.23967,0.9687112,-20.69853], [-37.21191,0.9636971,-20.69993], [-37.19048,0.9676463,-20.70145], [-37.17986,0.9661404,-20.70683], [-37.18114,0.9598508,-20.70989]]","rotations":"[[-0.0532264,-0.8509154,0.04188455,0.5209181], [-0.03559358,-0.8742197,0.03525195,0.4829395], [-0.02333806,-0.8872759,0.03401729,0.4593908], [-0.01300325,-0.9013768,0.03201429,0.431655], [-0.01401773,-0.911446,0.02925231,0.4101391], [-0.01177577,-0.9168856,0.03233354,0.3976642], [-0.004932113,-0.921945,0.02984524,0.3861379], [-0.004213538,-0.9238873,0.02887801,0.3815504], [-0.00719352,-0.9226094,0.03256554,0.3842912]]","collided":-1,"followDirection":false}]}