{"objects" : [
{"mainType":"Geometry","id":4,"subtype":"Sphere","position":[-35.348087310791019,0.9970489740371704,-16.790096282958986],"size":[0.10000003129243851,0.1000000610947609,0.09999997913837433],"rotation":[0.01739739626646042,-0.19691377878189088,-0.0055220648646354679,0.980250895023346],"visible":true,"color":[1.0,1.0,1.0,1.0]}, 
{"mainType":"Geometry","id":3,"subtype":"Cube","position":[-35.010948181152347,1.0036238431930543,-16.44261932373047],"size":[0.10000003129243851,0.09999998658895493,0.1000000461935997],"rotation":[-0.012964367866516114,0.12705537676811219,-0.026535246521234514,0.9914559125900269],"visible":true,"color":[1.0,1.0,1.0,1.0]} 
], 
 "events": [{"mainType":"Hide","id":1,"target":3,"animations":[],"previousIcon":-1,"nextIcon":-1,"color":[],"holdingHand":-1,"trajectory":"","rotations":"","collided":-1,"followDirection":false}, 
{"mainType":"Collision","id":0,"target":0,"animations":[],"previousIcon":-1,"nextIcon":-1,"color":[],"holdingHand":-1,"trajectory":"","rotations":"","collided":4,"followDirection":false}]}