{"objects" : [
{"mainType":"3DProps","id":4,"subtype":"NapoleonsMap","position":[-37.55754089355469,0.8640531301498413,-20.803531646728517],"size":[0.6897963285446167,0.6897968053817749,0.6897972226142883],"rotation":[0.011933296918869019,-0.9990259408950806,-0.039128102362155917,-0.016549095511436464],"visible":true,"color":[0.0,0.0,0.0,0.0]}, 
{"mainType":"3DProps","id":3,"subtype":"bonhomme","position":[-37.169376373291019,0.9384957551956177,-20.72426986694336],"size":[0.031850773841142657,0.031850747764110568,0.03185076266527176],"rotation":[-0.0054935566149652,0.9231727719306946,0.024947136640548707,-0.38353562355041506],"visible":true,"color":[0.0,0.0,0.0,0.0]} 
], 
 "events": [{"mainType":"Zone3DCollider","id":14,"target":-1,"animations":[],"previousIcon":-1,"nextIcon":-1,"color":[],"holdingHand":-1,"trajectory":"[[-36.29527,0.02638712,-20.96366], [0,3.232684,0], [8.342525,3.232684,1.750886E-05], [8.342525,0,1.750886E-05], [-6.389618E-05,0,5.91217], [-6.389618E-05,3.232684,5.91217], [8.342462,3.23262,5.912188], [8.342462,0,5.912188]]","rotations":"","collided":-1,"followDirection":false}, 
{"mainType":"Zone3DCollider","id":13,"target":-1,"animations":[],"previousIcon":-1,"nextIcon":-1,"color":[],"holdingHand":-1,"trajectory":"[[-37.69283,0.8669737,-20.98406], [0,2.165951,0], [7.843429,2.165951,-0.00059281], [7.843429,0,-0.00059281], [0.0004754066,0,7.591597], [0.0004754066,2.165951,7.591597], [7.843904,2.165952,7.591004], [7.843904,0,7.591004]]","rotations":"","collided":-1,"followDirection":false}, 
{"mainType":"Zone3DCollider","id":12,"target":-1,"animations":[],"previousIcon":-1,"nextIcon":-1,"color":[],"holdingHand":-1,"trajectory":"[[-37.48862,0.8618011,-20.98263], [0,1.860169,0], [7.468617,1.860169,0.0003646885], [7.468617,0,0.0003646885], [-0.0002503395,0,6.000579], [-0.0002503395,1.860169,6.000579], [7.468367,1.860165,6.000944], [7.468367,0,6.000944]]","rotations":"","collided":-1,"followDirection":false}, 
{"mainType":"Move","id":11,"target":3,"animations":[],"previousIcon":10,"nextIcon":-1,"color":[],"holdingHand":-1,"trajectory":"[[-37.16938,0.9384958,-20.72427], [-37.3886,0.9575983,-20.69022], [-37.34112,0.9680536,-20.69272], [-37.28446,0.9746743,-20.69672], [-37.23967,0.9687112,-20.69853], [-37.21191,0.9636971,-20.69993], [-37.19048,0.9676463,-20.70145], [-37.17986,0.9661404,-20.70683], [-37.18114,0.9598508,-20.70989]]","rotations":"[[-0.0532264,-0.8509154,0.04188455,0.5209181], [-0.03559358,-0.8742197,0.03525195,0.4829395], [-0.02333806,-0.8872759,0.03401729,0.4593908], [-0.01300325,-0.9013768,0.03201429,0.431655], [-0.01401773,-0.911446,0.02925231,0.4101391], [-0.01177577,-0.9168856,0.03233354,0.3976642], [-0.004932113,-0.921945,0.02984524,0.3861379], [-0.004213538,-0.9238873,0.02887801,0.3815504], [-0.00719352,-0.9226094,0.03256554,0.3842912]]","collided":-1,"followDirection":false}, 
{"mainType":"Move","id":10,"target":3,"animations":[],"previousIcon":8,"nextIcon":11,"color":[],"holdingHand":-1,"trajectory":"[[-37.16938,0.9384958,-20.72427], [-37.61715,0.9187198,-20.76548], [-37.57012,0.9122397,-20.74227], [-37.53078,0.9191993,-20.7205], [-37.49639,0.9240927,-20.70307], [-37.48133,0.9211051,-20.69015], [-37.46471,0.9258881,-20.68391], [-37.4609,0.9357072,-20.6873]]","rotations":"[[-0.043115,-0.773534,0.04650716,0.6305738], [-0.05117551,-0.8071871,0.04406621,0.5864201], [-0.0629908,-0.8284052,0.04390484,0.5548418], [-0.0627715,-0.8432022,0.04122226,0.5323258], [-0.06000444,-0.8519104,0.04415673,0.5183612], [-0.06550262,-0.8506984,0.04729667,0.519408], [-0.0501525,-0.8491824,0.06044258,0.5222267], [-0.0532264,-0.8509154,0.04188455,0.5209181]]","collided":-1,"followDirection":false}, 
{"mainType":"Move","id":8,"target":3,"animations":[],"previousIcon":7,"nextIcon":10,"color":[],"holdingHand":-1,"trajectory":"[[-37.16938,0.9384958,-20.72427], [-37.90657,0.9429694,-20.86995], [-37.83734,0.9361023,-20.88209], [-37.80155,0.9374733,-20.87684], [-37.74855,0.9403235,-20.84739], [-37.70074,0.9356792,-20.82854], [-37.66535,0.9410379,-20.79439]]","rotations":"[[-0.02189523,-0.7200251,0.02311469,0.6932173], [-0.02354887,-0.7285969,0.02419053,0.6841103], [-0.02571023,-0.7346591,0.02565574,0.6774634], [-0.02524465,-0.73944,0.02508558,0.6722812], [-0.02109786,-0.746963,0.02225269,0.664158], [-0.01567809,-0.7602633,0.02854127,0.6487983], [-0.01659677,-0.7697785,0.03469093,0.6371516]]","collided":-1,"followDirection":false}, 
{"mainType":"Move","id":7,"target":3,"animations":[],"previousIcon":6,"nextIcon":8,"color":[],"holdingHand":-1,"trajectory":"[[-37.16938,0.9384958,-20.72427], [-37.97746,0.944203,-20.94365], [-37.95591,0.9416926,-20.91722], [-37.93016,0.9399147,-20.89125], [-37.90665,0.9404144,-20.85973]]","rotations":"[[-0.05613688,-0.7244172,-0.006364904,0.6870428], [-0.03821851,-0.7185166,0.008879567,0.6944022], [-0.02809054,-0.7217411,0.01425925,0.6914458], [-0.02785714,-0.7212236,0.01724968,0.691927], [-0.02329728,-0.7177625,0.02240826,0.6955372]]","collided":-1,"followDirection":false}, 
{"mainType":"Move","id":6,"target":3,"animations":[],"previousIcon":4,"nextIcon":7,"color":[],"holdingHand":-1,"trajectory":"[[-37.16938,0.9384958,-20.72427], [-37.88343,0.9484761,-20.90629], [-37.92206,0.9413542,-20.91938], [-37.94579,0.9407634,-20.92801], [-37.9724,0.9472504,-20.94438], [-37.97052,0.9373424,-20.94372]]","rotations":"[[-0.04579905,-0.7458785,-0.01300204,0.6643784], [-0.05053066,-0.7371324,-0.01588246,0.6736693], [-0.04867873,-0.7282382,-0.0141996,0.6834456], [-0.05050065,-0.725756,-0.01282786,0.6859762], [-0.05239031,-0.7231203,-0.01372593,0.6885957], [-0.05613688,-0.7244172,-0.006364904,0.6870428]]","collided":-1,"followDirection":false}, 
{"mainType":"Move","id":4,"target":3,"animations":[],"previousIcon":2,"nextIcon":6,"color":[],"holdingHand":-1,"trajectory":"[[-37.16938,0.9384958,-20.72427], [-37.68325,0.9392377,-20.80484], [-37.71426,0.9369993,-20.83294], [-37.7478,0.9445132,-20.85516], [-37.78136,0.9410822,-20.86769], [-37.8219,0.9422526,-20.87919], [-37.87123,0.9456161,-20.88643]]","rotations":"[[-0.0247485,-0.7848774,0.02469822,0.618664], [-0.03013346,-0.7797258,0.01343104,0.6252514], [-0.03133459,-0.7793571,0.01053416,0.6257074], [-0.03630049,-0.777822,0.006798759,0.6273988], [-0.04068088,-0.7761965,0.002615541,0.629172], [-0.04284947,-0.7736423,-0.001435369,0.6321706], [-0.04624634,-0.7687213,-0.00462877,0.6378931]]","collided":-1,"followDirection":false}, 
{"mainType":"Move","id":2,"target":3,"animations":[],"previousIcon":0,"nextIcon":4,"color":[],"holdingHand":-1,"trajectory":"[[-37.16938,0.9384958,-20.72427], [-37.48672,0.9393206,-20.80794], [-37.5092,0.939099,-20.80065], [-37.53561,0.9387317,-20.79405], [-37.55468,0.9360676,-20.78829], [-37.57589,0.9353519,-20.78382], [-37.60156,0.9366078,-20.78052], [-37.62683,0.9389962,-20.7798]]","rotations":"[[0.007695355,0.8342499,0.0007269308,-0.5513324], [-0.01758456,-0.8285596,0.01209843,0.559494], [-0.01913746,-0.8207392,0.01179286,0.5708608], [-0.01990121,-0.8115833,0.01179726,0.5837786], [-0.02047937,-0.8055862,0.01462105,0.5919441], [-0.02200968,-0.7990307,0.01597023,0.6006752], [-0.02347343,-0.7910783,0.01585971,0.6110587], [-0.0268136,-0.7841923,0.01303297,0.6198013]]","collided":-1,"followDirection":false}, 
{"mainType":"Move","id":0,"target":3,"animations":[],"previousIcon":-1,"nextIcon":2,"color":[],"holdingHand":-1,"trajectory":"[[-37.16938,0.9384958,-20.72427], [-37.2948,0.9406429,-20.74475], [-37.3092,0.9422086,-20.75267], [-37.32358,0.943786,-20.75871], [-37.33961,0.9479251,-20.76772], [-37.36083,0.942089,-20.77919], [-37.39481,0.9402741,-20.79487], [-37.42529,0.940498,-20.80724], [-37.46091,0.9387212,-20.81637]]","rotations":"[[-0.00518357,0.8975768,-0.04253806,-0.4387705], [-0.009647042,0.8881879,-0.03054066,-0.4583629], [-0.006958075,0.8825708,-0.02734442,-0.4693323], [-0.004207507,0.8775747,-0.02292973,-0.4788728], [-0.004407272,0.8719926,-0.01809226,-0.4891648], [-0.002613358,0.8646227,-0.012345,-0.5022634], [-0.0009547174,0.8577757,-0.006764524,-0.5139788], [4.740059E-05,0.8492677,-0.007787287,-0.5279052], [0.005884394,0.8411202,-0.0004633591,-0.5408162]]","collided":-1,"followDirection":false}]}