{"objects" : [
{"mainType":"Geometry","id":5,"subtype":"Sphere","position":[-35.139347076416019,0.9094833135604858,-16.755268096923829],"size":[0.09999999403953552,0.09999999403953552,0.10000000149011612],"rotation":[0.04409746080636978,-0.11962878704071045,0.09932124614715576,0.9868534803390503],"visible":true,"color":[1.0,1.0,1.0,1.0]}, 
{"mainType":"Geometry","id":4,"subtype":"Sphere","position":[-35.02219772338867,0.8881372213363648,-16.434097290039064],"size":[0.09999997913837433,0.10000003129243851,0.10000000149011612],"rotation":[0.0814632847905159,0.1883758008480072,-0.0017304120119661093,0.9787110090255737],"visible":true,"color":[1.0,1.0,1.0,1.0]}, 
{"mainType":"Geometry","id":3,"subtype":"Cube","position":[-35.39658737182617,1.0054924488067628,-16.40360450744629],"size":[0.10000002384185791,0.10000003129243851,0.1000000387430191],"rotation":[0.0017100573750212789,0.12496856600046158,0.015216940082609654,0.9920425415039063],"visible":true,"color":[1.0,1.0,1.0,1.0]} 
], 
 "events": [{"mainType":"Collision","id":2,"target":0,"animations":[],"previousIcon":-1,"nextIcon":-1,"color":[],"holdingHand":-1,"trajectory":"","rotations":"","collided":4,"followDirection":false}, 
{"mainType":"Collision","id":1,"target":0,"animations":[0],"previousIcon":-1,"nextIcon":-1,"color":[],"holdingHand":-1,"trajectory":"","rotations":"","collided":5,"followDirection":false}, 
{"mainType":"Color","id":0,"target":3,"animations":[],"previousIcon":-1,"nextIcon":-1,"color":[0.9089675545692444,0.11207788437604904,0.11207788437604904,1.0],"holdingHand":-1,"trajectory":"","rotations":"","collided":-1,"followDirection":false}]}