{"objects" : [
 
], 
 "events": [{"mainType":"Zone3DCollider","id":0,"target":-1,"animations":[],"previousIcon":-1,"nextIcon":-1,"color":[],"holdingHand":-1,"trajectory":"[[-35.19042,1.058512,-16.61674], [0,10.19515,0], [11.34815,10.19515,12.60424], [11.34815,0,12.60424], [18.09635,0,-16.5843], [18.09635,10.19515,-16.5843], [29.4445,10.287,-3.980064], [29.4445,0,-3.980064]]","rotations":"","collided":-1,"followDirection":false}]}