{"objects" : [
{"mainType":"Geometry","id":5,"subtype":"Sphere","position":[-34.45472717285156,1.136730670928955,-17.89335823059082],"size":[0.10000003129243851,0.10000002384185791,0.10000002384185791],"rotation":[-0.08374141156673432,-0.09888370335102081,-0.029669763520359994,0.991125226020813],"visible":true,"color":[1.0,1.0,1.0,1.0]}, 
{"mainType":"Geometry","id":4,"subtype":"Sphere","position":[-34.86109161376953,1.1499141454696656,-17.96611213684082],"size":[0.09999999403953552,0.10000000149011612,0.09999999403953552],"rotation":[-0.034975565969944,0.1885729879140854,0.005872589070349932,0.9814186096191406],"visible":true,"color":[1.0,1.0,1.0,1.0]}, 
{"mainType":"Geometry","id":3,"subtype":"Cube","position":[-34.49060821533203,1.345784068107605,-18.225666046142579],"size":[0.09999999403953552,0.09999999403953552,0.09999997913837433],"rotation":[-0.02504570409655571,0.006144821643829346,-0.027864497154951097,0.9992790222167969],"visible":true,"color":[1.0,1.0,1.0,1.0]} 
], 
 "events": [{"mainType":"Color","id":2,"target":3,"animations":[],"previousIcon":-1,"nextIcon":-1,"color":[0.720537543296814,0.07429338991641998,0.07429338991641998,1.0],"holdingHand":-1,"trajectory":"","rotations":"","collided":-1,"followDirection":false}, 
{"mainType":"Collision","id":1,"target":0,"animations":[],"previousIcon":-1,"nextIcon":-1,"color":[],"holdingHand":-1,"trajectory":"","rotations":"","collided":4,"followDirection":false}, 
{"mainType":"Collision","id":0,"target":0,"animations":[],"previousIcon":-1,"nextIcon":-1,"color":[],"holdingHand":-1,"trajectory":"","rotations":"","collided":5,"followDirection":false}]}