{"objects" : [
 
], 
 "events": [{"mainType":"Zone3DCollider","id":3,"target":-1,"animations":[],"previousIcon":-1,"nextIcon":-1,"color":[],"holdingHand":-1,"trajectory":"[[-35.10424,1.002544,-16.60043], [0,8.86963,0], [30.54695,8.86963,12.70971], [30.54695,0,12.70971], [-3.841591,0,9.233189], [-3.841591,8.86963,9.233189], [26.70536,8.955878,21.9429], [26.70536,0,21.9429]]","rotations":"","collided":-1,"followDirection":false}]}