{"objects" : [
 
], 
 "events": [{"mainType":"Zone3DCollider","id":0,"target":-1,"animations":[],"previousIcon":-1,"nextIcon":-1,"color":[],"holdingHand":-1,"trajectory":"[[-35.10615,1.100395,-16.47425], [0,9.504201,0], [-1.922613,9.504201,-22.87337], [-1.922613,0,-22.87337], [-3.151654,0,0.2649403], [-3.151654,9.504201,0.2649403], [-5.074266,9.504202,-22.60843], [-5.074266,0,-22.60843]]","rotations":"","collided":-1,"followDirection":false}]}