{"objects" : [
 
], 
 "events": [{"mainType":"Zone3DCollider","id":0,"target":-1,"animations":[],"previousIcon":-1,"nextIcon":-1,"color":[],"holdingHand":-1,"trajectory":"[[-34.80243,1.009335,-16.62267], [0,15.84654,0], [13.89622,15.84654,8.350079], [13.89622,0,8.350079], [-5.149868,0,8.570438], [-5.149868,15.84654,8.570438], [8.746349,15.85372,16.92052], [8.746349,0,16.92052]]","rotations":"","collided":-1,"followDirection":false}, 
{"mainType":"ExitZone","id":2,"target":0,"animations":[],"previousIcon":1,"nextIcon":-1,"color":[],"holdingHand":-1,"trajectory":"","rotations":"","collided":0,"followDirection":false}, 
{"mainType":"EnterZone","id":1,"target":0,"animations":[],"previousIcon":-1,"nextIcon":2,"color":[],"holdingHand":-1,"trajectory":"","rotations":"","collided":0,"followDirection":false}]}