# WaveFront *.obj file (generated by Autodesk ATF)

mtllib b378f9b4-c44e-4231-8722-a04087790ec7.mtl

g Body69

v -61.679453 0.000000 -24.560781
v -60.957549 0.000000 -23.470971
v -60.653731 0.000000 -22.906125
v -60.418354 0.000000 -22.317391
v -60.162831 0.000000 -21.064806
v -60.068125 0.000000 -19.756094
v -60.068125 5.000000 -19.756094
v -60.162831 5.000000 -21.064806
v -60.418354 5.000000 -22.317391
v -60.653731 5.000000 -22.906125
v -60.957549 5.000000 -23.470971
v -61.679453 5.000000 -24.560781
v -65.556406 0.000000 -26.338125
v -64.452351 0.000000 -26.190694
v -63.422721 0.000000 -25.879357
v -62.515068 0.000000 -25.299393
v -62.515068 5.000000 -25.299393
v -63.422721 5.000000 -25.879357
v -64.452351 5.000000 -26.190694
v -65.556406 5.000000 -26.338125
v -69.638437 0.000000 -24.424062
v -68.760237 0.000000 -25.211012
v -67.805940 0.000000 -25.833032
v -67.278761 0.000000 -26.035606
v -66.721408 0.000000 -26.172783
v -66.721408 5.000000 -26.172783
v -67.278761 5.000000 -26.035606
v -67.805940 5.000000 -25.833032
v -68.760237 5.000000 -25.211012
v -69.638437 5.000000 -24.424062
v -71.376719 0.000000 -19.463125
v -71.264585 0.000000 -20.819502
v -70.982068 0.000000 -22.114506
v -70.727751 0.000000 -22.721284
v -70.403515 0.000000 -23.302878
v -70.403515 5.000000 -23.302878
v -70.727751 5.000000 -22.721284
v -70.982068 5.000000 -22.114506
v -71.264585 5.000000 -20.819502
v -71.376719 5.000000 -19.463125
v -69.726328 0.000000 -15.019766
v -70.448524 0.000000 -16.012826
v -70.996820 0.000000 -17.072042
v -71.267173 0.000000 -18.236996
v -71.267173 5.000000 -18.236996
v -70.996820 5.000000 -17.072042
v -70.448524 5.000000 -16.012826
v -69.726328 5.000000 -15.019766
v -65.654062 0.000000 -13.310781
v -66.796955 0.000000 -13.441541
v -67.872027 0.000000 -13.733387
v -68.833458 0.000000 -14.295155
v -68.833458 5.000000 -14.295155
v -67.872027 5.000000 -13.733387
v -66.796955 5.000000 -13.441541
v -65.654062 5.000000 -13.310781
v -61.640391 0.000000 -15.019766
v -62.513537 0.000000 -14.289197
v -63.458488 0.000000 -13.725819
v -64.521380 0.000000 -13.437051
v -64.521380 5.000000 -13.437051
v -63.458488 5.000000 -13.725819
v -62.513537 5.000000 -14.289197
v -61.640391 5.000000 -15.019766
v -60.156161 0.000000 -18.465978
v -60.402475 0.000000 -17.230882
v -60.631926 0.000000 -16.650284
v -60.929909 0.000000 -16.093509
v -60.929909 5.000000 -16.093509
v -60.631926 5.000000 -16.650284
v -60.402475 5.000000 -17.230882
v -60.156161 5.000000 -18.465978
v -71.083750 0.000000 -7.431875
v -74.462656 0.000000 -7.119375
v -74.462656 5.000000 -7.119375
v -71.083750 5.000000 -7.431875
v -69.443125 0.000000 -3.974844
v -70.056162 0.000000 -4.738295
v -70.548941 0.000000 -5.561499
v -70.864926 0.000000 -6.472548
v -70.864926 5.000000 -6.472548
v -70.548941 5.000000 -5.561499
v -70.056162 5.000000 -4.738295
v -69.443125 5.000000 -3.974844
v -66.337656 0.000000 -2.900625
v -67.184546 0.000000 -2.970581
v -67.994119 0.000000 -3.145624
v -68.738966 0.000000 -3.502943
v -68.738966 5.000000 -3.502943
v -67.994119 5.000000 -3.145624
v -67.184546 5.000000 -2.970581
v -66.337656 5.000000 -2.900625
v -63.495859 0.000000 -3.642812
v -64.169725 0.000000 -3.319811
v -64.864048 0.000000 -3.073674
v -65.591283 0.000000 -2.951196
v -65.591283 5.000000 -2.951196
v -64.864048 5.000000 -3.073674
v -64.169725 5.000000 -3.319811
v -63.495859 5.000000 -3.642812
v -61.493906 0.000000 -5.625234
v -61.914407 0.000000 -5.048726
v -62.378327 0.000000 -4.516134
v -62.915091 0.000000 -4.057220
v -62.915091 5.000000 -4.057220
v -62.378327 5.000000 -4.516134
v -61.914407 5.000000 -5.048726
v -61.493906 5.000000 -5.625234
v -60.185312 0.000000 -8.974844
v -60.425839 0.000000 -8.102830
v -60.710584 0.000000 -7.248485
v -61.075334 0.000000 -6.426107
v -61.075334 5.000000 -6.426107
v -60.710584 5.000000 -7.248485
v -60.425839 5.000000 -8.102830
v -60.185312 5.000000 -8.974844
v -59.657969 0.000000 -13.271719
v -59.698928 0.000000 -12.186338
v -59.789401 0.000000 -11.107039
v -59.962524 0.000000 -10.037891
v -59.962524 5.000000 -10.037891
v -59.789401 5.000000 -11.107039
v -59.698928 5.000000 -12.186338
v -59.657969 5.000000 -13.271719
v -59.677500 0.000000 -13.974844
v -59.670426 0.000000 -13.799120
v -59.664428 0.000000 -13.623368
v -59.660453 0.000000 -13.447563
v -59.660453 5.000000 -13.447563
v -59.664428 5.000000 -13.623368
v -59.670426 5.000000 -13.799120
v -59.677500 5.000000 -13.974844
v -62.558359 0.000000 -11.250234
v -61.721303 0.000000 -11.808321
v -60.947275 0.000000 -12.432794
v -60.279885 0.000000 -13.169585
v -60.279885 5.000000 -13.169585
v -60.947275 5.000000 -12.432794
v -61.721303 5.000000 -11.808321
v -62.558359 5.000000 -11.250234
v -66.513437 0.000000 -10.205312
v -65.476886 0.000000 -10.285986
v -64.466338 0.000000 -10.464924
v -63.499266 0.000000 -10.808141
v -63.499266 5.000000 -10.808141
v -64.466338 5.000000 -10.464924
v -65.476886 5.000000 -10.285986
v -66.513437 5.000000 -10.205312
v -72.529062 0.000000 -12.783437
v -71.214656 0.000000 -11.696545
v -70.525169 0.000000 -11.228461
v -69.796942 0.000000 -10.850810
v -69.021330 0.000000 -10.583771
v -68.206921 0.000000 -10.407302
v -68.206921 5.000000 -10.407302
v -69.021330 5.000000 -10.583771
v -69.796942 5.000000 -10.850810
v -70.525169 5.000000 -11.228461
v -71.214656 5.000000 -11.696545
v -72.529062 5.000000 -12.783437
v -74.990000 0.000000 -19.580312
v -74.832412 0.000000 -17.710544
v -74.678124 0.000000 -16.803793
v -74.433245 0.000000 -15.930804
v -74.073238 0.000000 -15.100718
v -73.613795 0.000000 -14.307689
v -73.613795 5.000000 -14.307689
v -74.073238 5.000000 -15.100718
v -74.433245 5.000000 -15.930804
v -74.678124 5.000000 -16.803793
v -74.832412 5.000000 -17.710544
v -74.990000 5.000000 -19.580312
v -72.421641 0.000000 -26.592031
v -73.552590 0.000000 -25.023296
v -74.031795 0.000000 -24.206423
v -74.407543 0.000000 -23.350569
v -74.663349 0.000000 -22.449523
v -74.824705 0.000000 -21.512890
v -74.824705 5.000000 -21.512890
v -74.663349 5.000000 -22.449523
v -74.407543 5.000000 -23.350569
v -74.031795 5.000000 -24.206423
v -73.552590 5.000000 -25.023296
v -72.421641 5.000000 -26.592031
v -65.986094 0.000000 -29.248281
v -67.789107 0.000000 -29.050934
v -68.657828 0.000000 -28.873440
v -69.487208 0.000000 -28.601360
v -70.267911 0.000000 -28.212252
v -71.008247 0.000000 -27.726095
v -71.008247 5.000000 -27.726095
v -70.267911 5.000000 -28.212252
v -69.487208 5.000000 -28.601360
v -68.657828 5.000000 -28.873440
v -67.789107 5.000000 -29.050934
v -65.986094 5.000000 -29.248281
v -60.878672 0.000000 -27.744375
v -62.078738 0.000000 -28.380687
v -63.320786 0.000000 -28.874672
v -64.632581 0.000000 -29.132194
v -64.632581 5.000000 -29.132194
v -63.320786 5.000000 -28.874672
v -62.078738 5.000000 -28.380687
v -60.878672 5.000000 -27.744375
v -57.363047 0.000000 -23.457266
v -58.021805 0.000000 -24.710967
v -58.798527 0.000000 -25.867185
v -59.776598 0.000000 -26.857017
v -59.776598 5.000000 -26.857017
v -58.798527 5.000000 -25.867185
v -58.021805 5.000000 -24.710967
v -57.363047 5.000000 -23.457266
v -56.161875 0.000000 -15.400625
v -56.203731 0.000000 -17.456899
v -56.374431 0.000000 -19.492177
v -56.784049 0.000000 -21.488522
v -56.784049 5.000000 -21.488522
v -56.374431 5.000000 -19.492177
v -56.203731 5.000000 -17.456899
v -56.161875 5.000000 -15.400625
v -57.353281 0.000000 -6.660391
v -56.792166 0.000000 -8.806918
v -56.388090 0.000000 -10.976429
v -56.212510 0.000000 -13.179384
v -56.212510 5.000000 -13.179384
v -56.388090 5.000000 -10.976429
v -56.792166 5.000000 -8.806918
v -57.353281 5.000000 -6.660391
v -60.898203 0.000000 -1.709219
v -59.751108 0.000000 -2.757401
v -58.751425 0.000000 -3.912730
v -57.985250 0.000000 -5.237786
v -57.985250 5.000000 -5.237786
v -58.751425 5.000000 -3.912730
v -59.751108 5.000000 -2.757401
v -60.898203 5.000000 -1.709219
v -66.415781 0.000000 -0.010000
v -64.941580 0.000000 -0.130999
v -63.518244 0.000000 -0.414995
v -62.181585 0.000000 -0.976745
v -62.181585 5.000000 -0.976745
v -63.518244 5.000000 -0.414995
v -64.941580 5.000000 -0.130999
v -66.415781 5.000000 -0.010000
v -71.904062 0.000000 -1.875234
v -70.656484 0.000000 -1.052934
v -70.010704 0.000000 -0.704668
v -69.338553 0.000000 -0.431809
v -68.635879 0.000000 -0.246236
v -67.909189 0.000000 -0.129338
v -67.909189 5.000000 -0.129338
v -68.635879 5.000000 -0.246236
v -69.338553 5.000000 -0.431809
v -70.010704 5.000000 -0.704668
v -70.656484 5.000000 -1.052934
v -71.904062 5.000000 -1.875234
v -74.155960 0.000000 -5.641924
v -73.947836 0.000000 -4.930576
v -73.673980 0.000000 -4.252083
v -73.316369 0.000000 -3.615452
v -72.886036 0.000000 -3.015169
v -72.886036 5.000000 -3.015169
v -73.316369 5.000000 -3.615452
v -73.673980 5.000000 -4.252083
v -73.947836 5.000000 -4.930576
v -74.155960 5.000000 -5.641924
vt -0.506870 0.000000 0.000000
vt -0.380152 0.000000 0.000000
vt -0.506870 0.500000 0.000000
vt -0.380152 0.500000 0.000000
vt -0.316793 0.000000 0.000000
vt -0.316793 0.500000 0.000000
vt -0.253435 0.000000 0.000000
vt -0.253435 0.500000 0.000000
vt -0.126717 0.000000 0.000000
vt -0.126717 0.500000 0.000000
vt 0.000000 0.000000 0.000000
vt 0.000000 0.500000 0.000000
vt -0.426503 0.000000 0.000000
vt -0.319877 0.000000 0.000000
vt -0.426503 0.500000 0.000000
vt -0.319877 0.500000 0.000000
vt -0.213251 0.000000 0.000000
vt -0.213251 0.500000 0.000000
vt -0.106626 0.000000 0.000000
vt -0.106626 0.500000 0.000000
vt 0.000000 0.000000 0.000000
vt 0.000000 0.500000 0.000000
vt -0.450874 0.000000 0.000000
vt -0.338156 0.000000 0.000000
vt -0.450874 0.500000 0.000000
vt -0.338156 0.500000 0.000000
vt -0.225437 0.000000 0.000000
vt -0.225437 0.500000 0.000000
vt -0.169078 0.000000 0.000000
vt -0.169078 0.500000 0.000000
vt -0.112719 0.000000 0.000000
vt -0.112719 0.500000 0.000000
vt 0.000000 0.000000 0.000000
vt 0.000000 0.500000 0.000000
vt -0.525720 0.000000 0.000000
vt -0.394290 0.000000 0.000000
vt -0.525720 0.500000 0.000000
vt -0.394290 0.500000 0.000000
vt -0.262860 0.000000 0.000000
vt -0.262860 0.500000 0.000000
vt -0.197145 0.000000 0.000000
vt -0.197145 0.500000 0.000000
vt -0.131430 0.000000 0.000000
vt -0.131430 0.500000 0.000000
vt 0.000000 0.000000 0.000000
vt 0.000000 0.500000 0.000000
vt -0.474038 0.000000 0.000000
vt -0.355528 0.000000 0.000000
vt -0.474038 0.500000 0.000000
vt -0.355528 0.500000 0.000000
vt -0.237019 0.000000 0.000000
vt -0.237019 0.500000 0.000000
vt -0.118509 0.000000 0.000000
vt -0.118509 0.500000 0.000000
vt 0.000000 0.000000 0.000000
vt 0.000000 0.500000 0.000000
vt -0.441634 0.000000 0.000000
vt -0.331225 0.000000 0.000000
vt -0.441634 0.500000 0.000000
vt -0.331225 0.500000 0.000000
vt -0.220817 0.000000 0.000000
vt -0.220817 0.500000 0.000000
vt -0.110408 0.000000 0.000000
vt -0.110408 0.500000 0.000000
vt 0.000000 0.000000 0.000000
vt 0.000000 0.500000 0.000000
vt -0.436243 0.000000 0.000000
vt -0.327182 0.000000 0.000000
vt -0.436243 0.500000 0.000000
vt -0.327182 0.500000 0.000000
vt -0.218121 0.000000 0.000000
vt -0.218121 0.500000 0.000000
vt -0.109061 0.000000 0.000000
vt -0.109061 0.500000 0.000000
vt 0.000000 0.000000 0.000000
vt 0.000000 0.500000 0.000000
vt -0.499174 0.000000 0.000000
vt -0.374380 0.000000 0.000000
vt -0.499174 0.500000 0.000000
vt -0.374380 0.500000 0.000000
vt -0.249587 0.000000 0.000000
vt -0.249587 0.500000 0.000000
vt -0.187190 0.000000 0.000000
vt -0.187190 0.500000 0.000000
vt -0.124793 0.000000 0.000000
vt -0.124793 0.500000 0.000000
vt 0.000000 0.000000 0.000000
vt 0.000000 0.500000 0.000000
vt 0.000000 0.000000 0.000000
vt 0.339333 0.000000 0.000000
vt 0.000000 0.500000 0.000000
vt 0.339333 0.500000 0.000000
vt -0.382811 0.000000 0.000000
vt -0.287109 0.000000 0.000000
vt -0.382811 0.500000 0.000000
vt -0.287109 0.500000 0.000000
vt -0.191406 0.000000 0.000000
vt -0.191406 0.500000 0.000000
vt -0.095703 0.000000 0.000000
vt -0.095703 0.500000 0.000000
vt 0.000000 0.000000 0.000000
vt 0.000000 0.500000 0.000000
vt -0.328631 0.000000 0.000000
vt -0.246473 0.000000 0.000000
vt -0.328631 0.500000 0.000000
vt -0.246473 0.500000 0.000000
vt -0.164315 0.000000 0.000000
vt -0.164315 0.500000 0.000000
vt -0.082158 0.000000 0.000000
vt -0.082158 0.500000 0.000000
vt 0.000000 0.000000 0.000000
vt 0.000000 0.500000 0.000000
vt -0.293721 0.000000 0.000000
vt -0.220291 0.000000 0.000000
vt -0.293721 0.500000 0.000000
vt -0.220291 0.500000 0.000000
vt -0.146860 0.000000 0.000000
vt -0.146860 0.500000 0.000000
vt -0.073430 0.000000 0.000000
vt -0.073430 0.500000 0.000000
vt 0.000000 0.000000 0.000000
vt 0.000000 0.500000 0.000000
vt -0.281741 0.000000 0.000000
vt -0.211306 0.000000 0.000000
vt -0.281741 0.500000 0.000000
vt -0.211306 0.500000 0.000000
vt -0.140871 0.000000 0.000000
vt -0.140871 0.500000 0.000000
vt -0.070435 0.000000 0.000000
vt -0.070435 0.500000 0.000000
vt 0.000000 0.000000 0.000000
vt 0.000000 0.500000 0.000000
vt -0.359641 0.000000 0.000000
vt -0.269731 0.000000 0.000000
vt -0.359641 0.500000 0.000000
vt -0.269731 0.500000 0.000000
vt -0.179821 0.000000 0.000000
vt -0.179821 0.500000 0.000000
vt -0.089910 0.000000 0.000000
vt -0.089910 0.500000 0.000000
vt 0.000000 0.000000 0.000000
vt 0.000000 0.500000 0.000000
vt -0.432911 0.000000 0.000000
vt -0.324684 0.000000 0.000000
vt -0.432911 0.500000 0.000000
vt -0.324684 0.500000 0.000000
vt -0.216456 0.000000 0.000000
vt -0.216456 0.500000 0.000000
vt -0.108228 0.000000 0.000000
vt -0.108228 0.500000 0.000000
vt 0.000000 0.000000 0.000000
vt 0.000000 0.500000 0.000000
vt -0.070340 0.000000 0.000000
vt -0.052755 0.000000 0.000000
vt -0.070340 0.500000 0.000000
vt -0.052755 0.500000 0.000000
vt -0.035170 0.000000 0.000000
vt -0.035170 0.500000 0.000000
vt -0.017585 0.000000 0.000000
vt -0.017585 0.500000 0.000000
vt 0.000000 0.000000 0.000000
vt 0.000000 0.500000 0.000000
vt -0.396522 0.000000 0.000000
vt -0.297392 0.000000 0.000000
vt -0.396522 0.500000 0.000000
vt -0.297392 0.500000 0.000000
vt -0.198261 0.000000 0.000000
vt -0.198261 0.500000 0.000000
vt -0.099131 0.000000 0.000000
vt -0.099131 0.500000 0.000000
vt 0.000000 0.000000 0.000000
vt 0.000000 0.500000 0.000000
vt -0.409078 0.000000 0.000000
vt -0.306809 0.000000 0.000000
vt -0.409078 0.500000 0.000000
vt -0.306809 0.500000 0.000000
vt -0.204539 0.000000 0.000000
vt -0.204539 0.500000 0.000000
vt -0.102270 0.000000 0.000000
vt -0.102270 0.500000 0.000000
vt 0.000000 0.000000 0.000000
vt 0.000000 0.500000 0.000000
vt -0.654481 0.000000 0.000000
vt -0.490860 0.000000 0.000000
vt -0.654481 0.500000 0.000000
vt -0.490860 0.500000 0.000000
vt -0.409050 0.000000 0.000000
vt -0.409050 0.500000 0.000000
vt -0.327240 0.000000 0.000000
vt -0.327240 0.500000 0.000000
vt -0.245430 0.000000 0.000000
vt -0.245430 0.500000 0.000000
vt -0.163620 0.000000 0.000000
vt -0.163620 0.500000 0.000000
vt 0.000000 0.000000 0.000000
vt 0.000000 0.500000 0.000000
vt -0.722953 0.000000 0.000000
vt -0.542214 0.000000 0.000000
vt -0.722953 0.500000 0.000000
vt -0.542214 0.500000 0.000000
vt -0.451845 0.000000 0.000000
vt -0.451845 0.500000 0.000000
vt -0.361476 0.000000 0.000000
vt -0.361476 0.500000 0.000000
vt -0.271107 0.000000 0.000000
vt -0.271107 0.500000 0.000000
vt -0.180738 0.000000 0.000000
vt -0.180738 0.500000 0.000000
vt 0.000000 0.000000 0.000000
vt 0.000000 0.500000 0.000000
vt -0.746819 0.000000 0.000000
vt -0.560114 0.000000 0.000000
vt -0.746819 0.500000 0.000000
vt -0.560114 0.500000 0.000000
vt -0.466762 0.000000 0.000000
vt -0.466762 0.500000 0.000000
vt -0.373409 0.000000 0.000000
vt -0.373409 0.500000 0.000000
vt -0.280057 0.000000 0.000000
vt -0.280057 0.500000 0.000000
vt -0.186705 0.000000 0.000000
vt -0.186705 0.500000 0.000000
vt 0.000000 0.000000 0.000000
vt 0.000000 0.500000 0.000000
vt -0.696225 0.000000 0.000000
vt -0.522169 0.000000 0.000000
vt -0.696225 0.500000 0.000000
vt -0.522169 0.500000 0.000000
vt -0.435141 0.000000 0.000000
vt -0.435141 0.500000 0.000000
vt -0.348113 0.000000 0.000000
vt -0.348113 0.500000 0.000000
vt -0.261084 0.000000 0.000000
vt -0.261084 0.500000 0.000000
vt -0.174056 0.000000 0.000000
vt -0.174056 0.500000 0.000000
vt 0.000000 0.000000 0.000000
vt 0.000000 0.500000 0.000000
vt -0.532424 0.000000 0.000000
vt -0.399318 0.000000 0.000000
vt -0.532424 0.500000 0.000000
vt -0.399318 0.500000 0.000000
vt -0.266212 0.000000 0.000000
vt -0.266212 0.500000 0.000000
vt -0.133106 0.000000 0.000000
vt -0.133106 0.500000 0.000000
vt 0.000000 0.000000 0.000000
vt 0.000000 0.500000 0.000000
vt -0.554438 0.000000 0.000000
vt -0.415828 0.000000 0.000000
vt -0.554438 0.500000 0.000000
vt -0.415828 0.500000 0.000000
vt -0.277219 0.000000 0.000000
vt -0.277219 0.500000 0.000000
vt -0.138609 0.000000 0.000000
vt -0.138609 0.500000 0.000000
vt 0.000000 0.000000 0.000000
vt 0.000000 0.500000 0.000000
vt -0.814740 0.000000 0.000000
vt -0.611055 0.000000 0.000000
vt -0.814740 0.500000 0.000000
vt -0.611055 0.500000 0.000000
vt -0.407370 0.000000 0.000000
vt -0.407370 0.500000 0.000000
vt -0.203685 0.000000 0.000000
vt -0.203685 0.500000 0.000000
vt 0.000000 0.000000 0.000000
vt 0.000000 0.500000 0.000000
vt -0.882209 0.000000 0.000000
vt -0.661657 0.000000 0.000000
vt -0.882209 0.500000 0.000000
vt -0.661657 0.500000 0.000000
vt -0.441105 0.000000 0.000000
vt -0.441105 0.500000 0.000000
vt -0.220552 0.000000 0.000000
vt -0.220552 0.500000 0.000000
vt 0.000000 0.000000 0.000000
vt 0.000000 0.500000 0.000000
vt -0.608981 0.000000 0.000000
vt -0.456736 0.000000 0.000000
vt -0.608981 0.500000 0.000000
vt -0.456736 0.500000 0.000000
vt -0.304491 0.000000 0.000000
vt -0.304491 0.500000 0.000000
vt -0.152245 0.000000 0.000000
vt -0.152245 0.500000 0.000000
vt 0.000000 0.000000 0.000000
vt 0.000000 0.500000 0.000000
vt -0.577341 0.000000 0.000000
vt -0.433006 0.000000 0.000000
vt -0.577341 0.500000 0.000000
vt -0.433006 0.500000 0.000000
vt -0.288671 0.000000 0.000000
vt -0.288671 0.500000 0.000000
vt -0.144335 0.000000 0.000000
vt -0.144335 0.500000 0.000000
vt 0.000000 0.000000 0.000000
vt 0.000000 0.500000 0.000000
vt -0.579720 0.000000 0.000000
vt -0.434790 0.000000 0.000000
vt -0.579720 0.500000 0.000000
vt -0.434790 0.500000 0.000000
vt -0.362325 0.000000 0.000000
vt -0.362325 0.500000 0.000000
vt -0.289860 0.000000 0.000000
vt -0.289860 0.500000 0.000000
vt -0.217395 0.000000 0.000000
vt -0.217395 0.500000 0.000000
vt -0.144930 0.000000 0.000000
vt -0.144930 0.500000 0.000000
vt 0.000000 0.000000 0.000000
vt 0.000000 0.500000 0.000000
vt -0.583573 0.000000 0.000000
vt -0.437680 0.000000 0.000000
vt -0.583573 0.500000 0.000000
vt -0.437680 0.500000 0.000000
vt -0.364733 0.000000 0.000000
vt -0.364733 0.500000 0.000000
vt -0.291787 0.000000 0.000000
vt -0.291787 0.500000 0.000000
vt -0.218840 0.000000 0.000000
vt -0.218840 0.500000 0.000000
vt -0.145893 0.000000 0.000000
vt -0.145893 0.500000 0.000000
vt 0.000000 0.000000 0.000000
vt 0.000000 0.500000 0.000000
vt -0.888672 -0.750977 0.000000
vt -0.858002 -0.898722 0.000000
vt -0.550781 -0.719727 0.000000
vt -0.837190 -0.969856 0.000000
vt -0.528899 -0.815659 0.000000
vt -0.809804 -1.037706 0.000000
vt -0.774043 -1.101369 0.000000
vt -0.731010 -1.161397 0.000000
vt -0.497300 -0.906764 0.000000
vt -0.632812 -1.275391 0.000000
vt -0.448022 -0.989085 0.000000
vt -0.508055 -1.357621 0.000000
vt -0.386719 -1.065430 0.000000
vt -0.443477 -1.392447 0.000000
vt -0.316303 -1.112620 0.000000
vt -0.376262 -1.419733 0.000000
vt -0.305994 -1.438290 0.000000
vt -0.241818 -1.148352 0.000000
vt -0.233325 -1.449980 0.000000
vt -0.160861 -1.165856 0.000000
vt -0.083984 -1.461914 0.000000
vt -0.076172 -1.172852 0.000000
vt -0.001535 -1.167794 0.000000
vt 0.063436 -1.449814 0.000000
vt 0.071189 -1.155547 0.000000
vt 0.205769 -1.421415 0.000000
vt 0.140621 -1.130933 0.000000
vt 0.208008 -1.098633 0.000000
vt 0.339435 -1.365240 0.000000
vt 0.266085 -1.057192 0.000000
vt 0.319761 -1.011301 0.000000
vt 0.467773 -1.291992 0.000000
vt 0.366153 -0.958041 0.000000
vt 0.582483 -1.187174 0.000000
vt 0.408203 -0.900391 0.000000
vt 0.450060 -0.820303 0.000000
vt 0.682451 -1.071641 0.000000
vt 0.486535 -0.738066 0.000000
vt 0.759069 -0.939135 0.000000
vt 0.515010 -0.652631 0.000000
vt 0.822266 -0.796875 0.000000
vt 0.539062 -0.565430 0.000000
vt 0.878377 -0.582222 0.000000
vt 0.561341 -0.459125 0.000000
vt 0.578654 -0.352210 0.000000
vt 0.918785 -0.365271 0.000000
vt 0.587701 -0.244280 0.000000
vt 0.936343 -0.144976 0.000000
vt 0.591797 -0.135742 0.000000
vt 0.591548 -0.118158 0.000000
vt 0.591151 -0.100577 0.000000
vt 0.590551 -0.083002 0.000000
vt 0.589844 -0.065430 0.000000
vt 0.941406 0.077148 0.000000
vt 0.937221 0.282776 0.000000
vt 0.920151 0.486304 0.000000
vt 0.541978 0.383684 0.000000
vt 0.517346 0.260174 0.000000
vt 0.494401 0.202114 0.000000
vt 0.464603 0.146437 0.000000
vt 0.550781 0.512695 0.000000
vt 0.879189 0.685938 0.000000
vt 0.541311 0.643567 0.000000
vt 0.821289 0.882812 0.000000
vt 0.515758 0.768825 0.000000
vt 0.755413 1.008183 0.000000
vt 0.492221 0.827698 0.000000
vt 0.677741 1.123804 0.000000
vt 0.461839 0.884183 0.000000
vt 0.579934 1.222788 0.000000
vt 0.389648 0.993164 0.000000
vt 0.469727 1.311523 0.000000
vt 0.306087 1.067025 0.000000
vt 0.349720 1.375155 0.000000
vt 0.215322 1.125022 0.000000
vt 0.225515 1.424553 0.000000
vt 0.112359 1.156155 0.000000
vt 0.094336 1.450305 0.000000
vt 0.001953 1.170898 0.000000
vt -0.041016 1.461914 0.000000
vt -0.114547 1.154364 0.000000
vt -0.221317 1.442179 0.000000
vt -0.170282 1.140647 0.000000
vt -0.223000 1.120389 0.000000
vt -0.308189 1.424430 0.000000
vt -0.318430 1.058187 0.000000
vt -0.391127 1.397222 0.000000
vt -0.469197 1.358311 0.000000
vt -0.406250 0.979492 0.000000
vt -0.543231 1.309695 0.000000
vt -0.482758 0.867374 0.000000
vt -0.684570 1.196289 0.000000
vt -0.515181 0.809214 0.000000
vt -0.797665 1.039415 0.000000
vt -0.540613 0.748537 0.000000
vt -0.845586 0.957728 0.000000
vt -0.883161 0.872143 0.000000
vt -0.568865 0.619036 0.000000
vt -0.908741 0.782038 0.000000
vt -0.924877 0.688375 0.000000
vt -0.580078 0.483398 0.000000
vt -0.941406 0.495117 0.000000
vt -0.925647 0.308140 0.000000
vt -0.569124 0.360786 0.000000
vt -0.910219 0.217465 0.000000
vt -0.885731 0.130166 0.000000
vt -0.849730 0.047158 0.000000
vt -0.542088 0.244290 0.000000
vt -0.803786 -0.032145 0.000000
vt -0.695312 -0.184570 0.000000
vt -0.487259 0.138368 0.000000
vt -0.563872 -0.293260 0.000000
vt -0.415039 0.039062 0.000000
vt -0.494923 -0.340068 0.000000
vt -0.325752 -0.033399 0.000000
vt -0.422100 -0.377833 0.000000
vt -0.344539 -0.404537 0.000000
vt -0.229609 -0.089575 0.000000
vt -0.263098 -0.422184 0.000000
vt -0.122102 -0.118760 0.000000
vt -0.093750 -0.442383 0.000000
vt -0.007812 -0.131836 0.000000
vt 0.009905 -0.434315 0.000000
vt 0.110960 -0.416422 0.000000
vt 0.105456 -0.119209 0.000000
vt 0.207667 -0.382100 0.000000
vt 0.211745 -0.090332 0.000000
vt 0.301758 -0.337891 0.000000
vt 0.306240 -0.033994 0.000000
vt 0.385463 -0.282082 0.000000
vt 0.462866 -0.219635 0.000000
vt 0.393555 0.039062 0.000000
vt 0.529605 -0.145956 0.000000
vt 0.731010 -1.161397 0.000000
vt 0.497300 -0.906764 0.000000
vt 0.632812 -1.275391 0.000000
vt 0.448022 -0.989085 0.000000
vt 0.508055 -1.357621 0.000000
vt 0.386719 -1.065430 0.000000
vt 0.443477 -1.392447 0.000000
vt 0.316303 -1.112620 0.000000
vt 0.376262 -1.419733 0.000000
vt 0.305994 -1.438290 0.000000
vt 0.241818 -1.148352 0.000000
vt 0.233325 -1.449980 0.000000
vt 0.160861 -1.165856 0.000000
vt 0.083984 -1.461914 0.000000
vt 0.076172 -1.172852 0.000000
vt 0.001535 -1.167794 0.000000
vt 0.528899 -0.815659 0.000000
vt 0.774043 -1.101369 0.000000
vt 0.809804 -1.037706 0.000000
vt 0.837190 -0.969856 0.000000
vt 0.550781 -0.719727 0.000000
vt 0.858002 -0.898722 0.000000
vt 0.888672 -0.750977 0.000000
vt -0.063436 -1.449814 0.000000
vt -0.071189 -1.155547 0.000000
vt -0.205769 -1.421415 0.000000
vt -0.140621 -1.130933 0.000000
vt -0.208008 -1.098633 0.000000
vt -0.339435 -1.365240 0.000000
vt -0.266085 -1.057192 0.000000
vt -0.319761 -1.011301 0.000000
vt -0.467773 -1.291992 0.000000
vt -0.366153 -0.958041 0.000000
vt -0.582483 -1.187174 0.000000
vt -0.408203 -0.900391 0.000000
vt -0.450060 -0.820303 0.000000
vt -0.682451 -1.071641 0.000000
vt -0.486535 -0.738066 0.000000
vt -0.759069 -0.939135 0.000000
vt -0.515010 -0.652631 0.000000
vt -0.822266 -0.796875 0.000000
vt -0.539062 -0.565430 0.000000
vt -0.878377 -0.582222 0.000000
vt -0.561341 -0.459125 0.000000
vt -0.578654 -0.352210 0.000000
vt -0.918785 -0.365271 0.000000
vt -0.587701 -0.244280 0.000000
vt -0.936343 -0.144976 0.000000
vt -0.591797 -0.135742 0.000000
vt -0.591548 -0.118158 0.000000
vt -0.591151 -0.100577 0.000000
vt -0.590551 -0.083002 0.000000
vt -0.589844 -0.065430 0.000000
vt -0.529605 -0.145956 0.000000
vt -0.464603 0.146437 0.000000
vt -0.494401 0.202114 0.000000
vt -0.517346 0.260174 0.000000
vt -0.393555 0.039062 0.000000
vt -0.462866 -0.219635 0.000000
vt -0.306240 -0.033994 0.000000
vt -0.385463 -0.282082 0.000000
vt -0.301758 -0.337891 0.000000
vt -0.211745 -0.090332 0.000000
vt -0.207667 -0.382100 0.000000
vt -0.105456 -0.119209 0.000000
vt -0.110960 -0.416422 0.000000
vt 0.007812 -0.131836 0.000000
vt -0.009905 -0.434315 0.000000
vt 0.093750 -0.442383 0.000000
vt 0.122102 -0.118760 0.000000
vt 0.263098 -0.422184 0.000000
vt 0.229609 -0.089575 0.000000
vt 0.344539 -0.404537 0.000000
vt 0.325752 -0.033399 0.000000
vt 0.422100 -0.377833 0.000000
vt 0.494923 -0.340068 0.000000
vt 0.415039 0.039062 0.000000
vt 0.563872 -0.293260 0.000000
vt 0.487259 0.138368 0.000000
vt 0.695312 -0.184570 0.000000
vt 0.542088 0.244290 0.000000
vt 0.803786 -0.032145 0.000000
vt 0.849730 0.047158 0.000000
vt 0.569124 0.360786 0.000000
vt 0.885731 0.130166 0.000000
vt 0.910219 0.217465 0.000000
vt 0.925647 0.308140 0.000000
vt 0.580078 0.483398 0.000000
vt 0.941406 0.495117 0.000000
vt 0.924877 0.688375 0.000000
vt 0.568865 0.619036 0.000000
vt 0.908741 0.782038 0.000000
vt 0.883161 0.872143 0.000000
vt 0.540613 0.748537 0.000000
vt 0.845586 0.957728 0.000000
vt 0.797665 1.039415 0.000000
vt 0.515181 0.809214 0.000000
vt 0.684570 1.196289 0.000000
vt 0.482758 0.867374 0.000000
vt 0.543231 1.309695 0.000000
vt 0.406250 0.979492 0.000000
vt 0.469197 1.358311 0.000000
vt 0.318430 1.058187 0.000000
vt 0.391127 1.397222 0.000000
vt 0.308189 1.424430 0.000000
vt 0.223000 1.120389 0.000000
vt 0.221317 1.442179 0.000000
vt 0.170282 1.140647 0.000000
vt 0.114547 1.154364 0.000000
vt 0.041016 1.461914 0.000000
vt -0.001953 1.170898 0.000000
vt -0.094336 1.450305 0.000000
vt -0.112359 1.156155 0.000000
vt -0.225515 1.424553 0.000000
vt -0.215322 1.125022 0.000000
vt -0.349720 1.375155 0.000000
vt -0.306087 1.067025 0.000000
vt -0.469727 1.311523 0.000000
vt -0.389648 0.993164 0.000000
vt -0.579934 1.222788 0.000000
vt -0.461839 0.884183 0.000000
vt -0.677741 1.123804 0.000000
vt -0.492221 0.827698 0.000000
vt -0.755413 1.008183 0.000000
vt -0.515758 0.768825 0.000000
vt -0.821289 0.882812 0.000000
vt -0.541311 0.643567 0.000000
vt -0.879189 0.685938 0.000000
vt -0.550781 0.512695 0.000000
vt -0.920151 0.486304 0.000000
vt -0.541978 0.383684 0.000000
vt -0.937221 0.282776 0.000000
vt -0.941406 0.077148 0.000000
vn -0.082032 0.000000 0.057191
vn -0.085943 0.000000 0.051126
vn -0.082032 0.000000 0.057191
vn -0.085943 0.000000 0.051126
vn -0.090328 0.000000 0.042905
vn -0.090328 0.000000 0.042905
vn -0.095158 0.000000 0.030741
vn -0.095158 0.000000 0.030741
vn -0.099346 0.000000 0.011422
vn -0.099346 0.000000 0.011422
vn -0.099868 0.000000 0.005145
vn -0.099868 0.000000 0.005145
vn -0.010697 0.000000 0.099426
vn -0.018403 0.000000 0.098292
vn -0.010697 0.000000 0.099426
vn -0.018403 0.000000 0.098292
vn -0.041993 0.000000 0.090755
vn -0.041993 0.000000 0.090755
vn -0.062360 0.000000 0.078174
vn -0.062360 0.000000 0.078174
vn -0.068058 0.000000 0.073267
vn -0.068058 0.000000 0.073267
vn 0.068529 -0.000000 0.072827
vn 0.062947 -0.000000 0.077703
vn 0.068529 -0.000000 0.072827
vn 0.062947 -0.000000 0.077703
vn 0.042990 -0.000000 0.090288
vn 0.042990 -0.000000 0.090288
vn 0.029229 -0.000000 0.095633
vn 0.029229 -0.000000 0.095633
vn 0.019267 -0.000000 0.098126
vn 0.019267 -0.000000 0.098126
vn 0.011488 -0.000000 0.099338
vn 0.011488 -0.000000 0.099338
vn 0.099813 -0.000000 0.006116
vn 0.099210 -0.000000 0.012545
vn 0.099813 -0.000000 0.006116
vn 0.099210 -0.000000 0.012545
vn 0.094640 -0.000000 0.032299
vn 0.094640 -0.000000 0.032299
vn 0.089639 -0.000000 0.044327
vn 0.089639 -0.000000 0.044327
vn 0.085194 -0.000000 0.052363
vn 0.085194 -0.000000 0.052363
vn 0.081258 -0.000000 0.058285
vn 0.081258 -0.000000 0.058285
vn 0.079427 0.000000 -0.060756
vn 0.083678 0.000000 -0.054753
vn 0.079427 0.000000 -0.060756
vn 0.083678 0.000000 -0.054753
vn 0.093999 0.000000 -0.034120
vn 0.093999 0.000000 -0.034120
vn 0.099097 0.000000 -0.013409
vn 0.099097 0.000000 -0.013409
vn 0.099777 0.000000 -0.006678
vn 0.099777 0.000000 -0.006678
vn 0.008967 0.000000 -0.099597
vn 0.016246 0.000000 -0.098671
vn 0.008967 0.000000 -0.099597
vn 0.016246 0.000000 -0.098671
vn 0.038592 0.000000 -0.092253
vn 0.038592 0.000000 -0.092253
vn 0.059068 0.000000 -0.080691
vn 0.059068 0.000000 -0.080691
vn 0.064891 0.000000 -0.076086
vn 0.064891 0.000000 -0.076086
vn -0.066092 0.000000 -0.075046
vn -0.060115 0.000000 -0.079913
vn -0.066092 0.000000 -0.075046
vn -0.060115 0.000000 -0.079913
vn -0.038894 0.000000 -0.092126
vn -0.038894 0.000000 -0.092126
vn -0.016053 0.000000 -0.098703
vn -0.016053 0.000000 -0.098703
vn -0.008635 0.000000 -0.099626
vn -0.008635 0.000000 -0.099626
vn -0.099888 0.000000 -0.004740
vn -0.099393 0.000000 -0.011004
vn -0.099888 0.000000 -0.004740
vn -0.099393 0.000000 -0.011004
vn -0.095297 0.000000 -0.030307
vn -0.095297 0.000000 -0.030307
vn -0.090455 0.000000 -0.042637
vn -0.090455 0.000000 -0.042637
vn -0.086011 0.000000 -0.051011
vn -0.086011 0.000000 -0.051011
vn -0.082038 0.000000 -0.057182
vn -0.082038 0.000000 -0.057182
vn -0.009209 0.000000 -0.099575
vn -0.009209 0.000000 -0.099575
vn -0.009209 0.000000 -0.099575
vn -0.009209 0.000000 -0.099575
vn 0.076559 0.000000 -0.064333
vn 0.080723 0.000000 -0.059023
vn 0.076559 0.000000 -0.064333
vn 0.080723 0.000000 -0.059023
vn 0.090992 0.000000 -0.041478
vn 0.090992 0.000000 -0.041478
vn 0.096632 0.000000 -0.025736
vn 0.096632 0.000000 -0.025736
vn 0.097876 0.000000 -0.020502
vn 0.097876 0.000000 -0.020502
vn 0.006135 0.000000 -0.099812
vn 0.012483 0.000000 -0.099218
vn 0.006135 0.000000 -0.099812
vn 0.012483 0.000000 -0.099218
vn 0.031965 0.000000 -0.094754
vn 0.031965 0.000000 -0.094754
vn 0.051718 0.000000 -0.085588
vn 0.051718 0.000000 -0.085588
vn 0.057569 0.000000 -0.081767
vn 0.057569 0.000000 -0.081767
vn -0.044784 0.000000 -0.089411
vn -0.040034 0.000000 -0.091637
vn -0.044784 0.000000 -0.089411
vn -0.040034 0.000000 -0.091637
vn -0.024840 0.000000 -0.096866
vn -0.024840 0.000000 -0.096866
vn -0.010022 0.000000 -0.099496
vn -0.010022 0.000000 -0.099496
vn -0.005141 0.000000 -0.099868
vn -0.005141 0.000000 -0.099868
vn -0.081621 0.000000 -0.057776
vn -0.079074 0.000000 -0.061215
vn -0.081621 0.000000 -0.057776
vn -0.079074 0.000000 -0.061215
vn -0.070419 0.000000 -0.071002
vn -0.070419 0.000000 -0.071002
vn -0.060420 0.000000 -0.079684
vn -0.060420 0.000000 -0.079684
vn -0.056906 0.000000 -0.082230
vn -0.056906 0.000000 -0.082230
vn -0.096628 0.000000 -0.025749
vn -0.095921 0.000000 -0.028270
vn -0.096628 0.000000 -0.025749
vn -0.095921 0.000000 -0.028270
vn -0.093384 0.000000 -0.035768
vn -0.093384 0.000000 -0.035768
vn -0.089595 0.000000 -0.044416
vn -0.089595 0.000000 -0.044416
vn -0.088127 0.000000 -0.047261
vn -0.088127 0.000000 -0.047261
vn -0.099955 0.000000 -0.003009
vn -0.099860 0.000000 -0.005297
vn -0.099955 0.000000 -0.003009
vn -0.099860 0.000000 -0.005297
vn -0.099256 0.000000 -0.012172
vn -0.099256 0.000000 -0.012172
vn -0.098176 0.000000 -0.019010
vn -0.098176 0.000000 -0.019010
vn -0.097714 0.000000 -0.021260
vn -0.097714 0.000000 -0.021260
vn -0.099915 0.000000 0.004124
vn -0.099927 0.000000 0.003818
vn -0.099915 0.000000 0.004124
vn -0.099927 0.000000 0.003818
vn -0.099958 0.000000 0.002901
vn -0.099958 0.000000 0.002901
vn -0.099986 0.000000 0.001698
vn -0.099986 0.000000 0.001698
vn -0.099992 0.000000 0.001270
vn -0.099992 0.000000 0.001270
vn 0.054227 -0.000000 0.084020
vn 0.057947 -0.000000 0.081500
vn 0.054227 -0.000000 0.084020
vn 0.057947 -0.000000 0.081500
vn 0.068576 -0.000000 0.072783
vn 0.068576 -0.000000 0.072783
vn 0.078179 -0.000000 0.062354
vn 0.078179 -0.000000 0.062354
vn 0.080986 -0.000000 0.058662
vn 0.080986 -0.000000 0.058662
vn 0.006165 -0.000000 0.099810
vn 0.010969 -0.000000 0.099397
vn 0.006165 -0.000000 0.099810
vn 0.010969 -0.000000 0.099397
vn 0.025504 -0.000000 0.096693
vn 0.025504 -0.000000 0.096693
vn 0.039568 -0.000000 0.091839
vn 0.039568 -0.000000 0.091839
vn 0.043976 -0.000000 0.089812
vn 0.043976 -0.000000 0.089812
vn -0.065588 0.000000 0.075487
vn -0.059805 0.000000 0.080146
vn -0.065588 0.000000 0.075487
vn -0.059805 0.000000 0.080146
vn -0.051794 0.000000 0.085542
vn -0.051794 0.000000 0.085542
vn -0.039407 0.000000 0.091908
vn -0.039407 0.000000 0.091908
vn -0.026234 0.000000 0.096497
vn -0.026234 0.000000 0.096497
vn -0.016786 0.000000 0.098581
vn -0.016786 0.000000 0.098581
vn -0.009412 0.000000 0.099556
vn -0.009412 0.000000 0.099556
vn -0.099807 0.000000 0.006213
vn -0.099173 0.000000 0.012836
vn -0.099807 0.000000 0.006213
vn -0.099173 0.000000 0.012836
vn -0.097702 0.000000 0.021315
vn -0.097702 0.000000 0.021315
vn -0.094320 0.000000 0.033224
vn -0.094320 0.000000 0.033224
vn -0.088978 0.000000 0.045639
vn -0.088978 0.000000 0.045639
vn -0.084235 0.000000 0.053892
vn -0.084235 0.000000 0.053892
vn -0.080048 0.000000 0.059936
vn -0.080048 0.000000 0.059936
vn -0.079668 0.000000 -0.060440
vn -0.083923 0.000000 -0.054378
vn -0.079668 0.000000 -0.060440
vn -0.083923 0.000000 -0.054378
vn -0.088748 0.000000 -0.046085
vn -0.088748 0.000000 -0.046085
vn -0.094191 0.000000 -0.033585
vn -0.094191 0.000000 -0.033585
vn -0.097648 0.000000 -0.021562
vn -0.097648 0.000000 -0.021562
vn -0.099151 0.000000 -0.013001
vn -0.099151 0.000000 -0.013001
vn -0.099800 0.000000 -0.006317
vn -0.099800 0.000000 -0.006317
vn -0.008500 0.000000 -0.099638
vn -0.015719 0.000000 -0.098757
vn -0.008500 0.000000 -0.099638
vn -0.015719 0.000000 -0.098757
vn -0.024973 0.000000 -0.096832
vn -0.024973 0.000000 -0.096832
vn -0.037905 0.000000 -0.092538
vn -0.037905 0.000000 -0.092538
vn -0.050446 0.000000 -0.086343
vn -0.050446 0.000000 -0.086343
vn -0.058589 0.000000 -0.081039
vn -0.058589 0.000000 -0.081039
vn -0.064480 0.000000 -0.076435
vn -0.064480 0.000000 -0.076435
vn 0.048408 0.000000 -0.087502
vn 0.043641 0.000000 -0.089975
vn 0.048408 0.000000 -0.087502
vn 0.043641 0.000000 -0.089975
vn 0.028202 0.000000 -0.095941
vn 0.028202 0.000000 -0.095941
vn 0.012096 0.000000 -0.099266
vn 0.012096 0.000000 -0.099266
vn 0.006785 0.000000 -0.099770
vn 0.006785 0.000000 -0.099770
vn 0.089326 0.000000 -0.044953
vn 0.086817 0.000000 -0.049627
vn 0.089326 0.000000 -0.044953
vn 0.086817 0.000000 -0.049627
vn 0.077555 0.000000 -0.063129
vn 0.077555 0.000000 -0.063129
vn 0.065583 0.000000 -0.075491
vn 0.065583 0.000000 -0.075491
vn 0.061264 0.000000 -0.079036
vn 0.061264 0.000000 -0.079036
vn 0.099995 0.000000 -0.000989
vn 0.099914 0.000000 -0.004135
vn 0.099995 0.000000 -0.000989
vn 0.099914 0.000000 -0.004135
vn 0.099064 0.000000 -0.013652
vn 0.099064 0.000000 -0.013652
vn 0.096688 0.000000 -0.025525
vn 0.096688 0.000000 -0.025525
vn 0.095536 0.000000 -0.029545
vn 0.095536 0.000000 -0.029545
vn 0.096442 -0.000000 0.026438
vn 0.097325 -0.000000 0.022977
vn 0.096442 -0.000000 0.026438
vn 0.097325 -0.000000 0.022977
vn 0.099193 -0.000000 0.012682
vn 0.099193 -0.000000 0.012682
vn 0.099913 -0.000000 0.004162
vn 0.099913 -0.000000 0.004162
vn 0.099991 -0.000000 0.001340
vn 0.099991 -0.000000 0.001340
vn 0.066036 -0.000000 0.075095
vn 0.070254 -0.000000 0.071164
vn 0.066036 -0.000000 0.075095
vn 0.070254 -0.000000 0.071164
vn 0.081695 -0.000000 0.057671
vn 0.081695 -0.000000 0.057671
vn 0.089912 -0.000000 0.043770
vn 0.089912 -0.000000 0.043770
vn 0.092077 -0.000000 0.039010
vn 0.092077 -0.000000 0.039010
vn 0.006316 -0.000000 0.099800
vn 0.011946 -0.000000 0.099284
vn 0.006316 -0.000000 0.099800
vn 0.011946 -0.000000 0.099284
vn 0.029087 -0.000000 0.095676
vn 0.029087 -0.000000 0.095676
vn 0.046080 -0.000000 0.088750
vn 0.046080 -0.000000 0.088750
vn 0.051263 -0.000000 0.085861
vn 0.051263 -0.000000 0.085861
vn -0.056932 0.000000 0.082211
vn -0.051081 0.000000 0.085969
vn -0.056932 0.000000 0.082211
vn -0.051081 0.000000 0.085969
vn -0.043175 0.000000 0.090199
vn -0.043175 0.000000 0.090199
vn -0.031400 0.000000 0.094942
vn -0.031400 0.000000 0.094942
vn -0.020166 0.000000 0.097946
vn -0.020166 0.000000 0.097946
vn -0.012163 0.000000 0.099258
vn -0.012163 0.000000 0.099258
vn -0.005895 0.000000 0.099826
vn -0.005895 0.000000 0.099826
vn -0.098314 0.000000 0.018284
vn -0.096966 0.000000 0.024446
vn -0.098314 0.000000 0.018284
vn -0.096966 0.000000 0.024446
vn -0.094659 0.000000 0.032244
vn -0.094659 0.000000 0.032244
vn -0.090260 0.000000 0.043048
vn -0.090260 0.000000 0.043048
vn -0.084013 0.000000 0.054239
vn -0.084013 0.000000 0.054239
vn -0.078756 0.000000 0.061624
vn -0.078756 0.000000 0.061624
vn -0.074233 0.000000 0.067003
vn -0.074233 0.000000 0.067003
vn 0.000000 0.100000 0.000000
vn 0.000000 0.100000 0.000000
vn 0.000000 0.100000 0.000000
vn 0.000000 0.100000 0.000000
vn 0.000000 0.100000 0.000000
vn 0.000000 0.100000 0.000000
vn 0.000000 0.100000 0.000000
vn 0.000000 0.100000 0.000000
vn 0.000000 0.100000 0.000000
vn 0.000000 0.100000 0.000000
vn 0.000000 0.100000 0.000000
vn 0.000000 0.100000 0.000000
vn 0.000000 0.100000 0.000000
vn 0.000000 0.100000 0.000000
vn 0.000000 0.100000 0.000000
vn 0.000000 0.100000 0.000000
vn 0.000000 0.100000 0.000000
vn 0.000000 0.100000 0.000000
vn 0.000000 0.100000 0.000000
vn 0.000000 0.100000 0.000000
vn 0.000000 0.100000 0.000000
vn 0.000000 0.100000 0.000000
vn 0.000000 0.100000 0.000000
vn 0.000000 0.100000 0.000000
vn 0.000000 0.100000 0.000000
vn 0.000000 0.100000 0.000000
vn 0.000000 0.100000 0.000000
vn 0.000000 0.100000 0.000000
vn 0.000000 0.100000 0.000000
vn 0.000000 0.100000 0.000000
vn 0.000000 0.100000 0.000000
vn 0.000000 0.100000 0.000000
vn 0.000000 0.100000 0.000000
vn 0.000000 0.100000 0.000000
vn 0.000000 0.100000 0.000000
vn 0.000000 0.100000 0.000000
vn 0.000000 0.100000 0.000000
vn 0.000000 0.100000 0.000000
vn 0.000000 0.100000 0.000000
vn 0.000000 0.100000 0.000000
vn 0.000000 0.100000 0.000000
vn 0.000000 0.100000 0.000000
vn 0.000000 0.100000 0.000000
vn 0.000000 0.100000 0.000000
vn 0.000000 0.100000 0.000000
vn 0.000000 0.100000 0.000000
vn 0.000000 0.100000 0.000000
vn 0.000000 0.100000 0.000000
vn 0.000000 0.100000 0.000000
vn 0.000000 0.100000 0.000000
vn 0.000000 0.100000 0.000000
vn 0.000000 0.100000 0.000000
vn 0.000000 0.100000 0.000000
vn 0.000000 0.100000 0.000000
vn 0.000000 0.100000 0.000000
vn 0.000000 0.100000 0.000000
vn 0.000000 0.100000 0.000000
vn 0.000000 0.100000 0.000000
vn 0.000000 0.100000 0.000000
vn 0.000000 0.100000 0.000000
vn 0.000000 0.100000 0.000000
vn 0.000000 0.100000 0.000000
vn 0.000000 0.100000 0.000000
vn 0.000000 0.100000 0.000000
vn 0.000000 0.100000 0.000000
vn 0.000000 0.100000 0.000000
vn 0.000000 0.100000 0.000000
vn 0.000000 0.100000 0.000000
vn 0.000000 0.100000 0.000000
vn 0.000000 0.100000 0.000000
vn 0.000000 0.100000 0.000000
vn 0.000000 0.100000 0.000000
vn 0.000000 0.100000 0.000000
vn 0.000000 0.100000 0.000000
vn 0.000000 0.100000 0.000000
vn 0.000000 0.100000 0.000000
vn 0.000000 0.100000 0.000000
vn 0.000000 0.100000 0.000000
vn 0.000000 0.100000 0.000000
vn 0.000000 0.100000 0.000000
vn 0.000000 0.100000 0.000000
vn 0.000000 0.100000 0.000000
vn 0.000000 0.100000 0.000000
vn 0.000000 0.100000 0.000000
vn 0.000000 0.100000 0.000000
vn 0.000000 0.100000 0.000000
vn 0.000000 0.100000 0.000000
vn 0.000000 0.100000 0.000000
vn 0.000000 0.100000 0.000000
vn 0.000000 0.100000 0.000000
vn 0.000000 0.100000 0.000000
vn 0.000000 0.100000 0.000000
vn 0.000000 0.100000 0.000000
vn 0.000000 0.100000 0.000000
vn 0.000000 0.100000 0.000000
vn 0.000000 0.100000 0.000000
vn 0.000000 0.100000 0.000000
vn 0.000000 0.100000 0.000000
vn 0.000000 0.100000 0.000000
vn 0.000000 0.100000 0.000000
vn 0.000000 0.100000 0.000000
vn 0.000000 0.100000 0.000000
vn 0.000000 0.100000 0.000000
vn 0.000000 0.100000 0.000000
vn 0.000000 0.100000 0.000000
vn 0.000000 0.100000 0.000000
vn 0.000000 0.100000 0.000000
vn 0.000000 0.100000 0.000000
vn 0.000000 0.100000 0.000000
vn 0.000000 0.100000 0.000000
vn 0.000000 0.100000 0.000000
vn 0.000000 0.100000 0.000000
vn 0.000000 0.100000 0.000000
vn 0.000000 0.100000 0.000000
vn 0.000000 0.100000 0.000000
vn 0.000000 0.100000 0.000000
vn 0.000000 0.100000 0.000000
vn 0.000000 0.100000 0.000000
vn 0.000000 0.100000 0.000000
vn 0.000000 0.100000 0.000000
vn 0.000000 0.100000 0.000000
vn 0.000000 0.100000 0.000000
vn 0.000000 0.100000 0.000000
vn 0.000000 0.100000 0.000000
vn 0.000000 0.100000 0.000000
vn 0.000000 0.100000 0.000000
vn 0.000000 0.100000 0.000000
vn 0.000000 0.100000 0.000000
vn 0.000000 0.100000 0.000000
vn 0.000000 0.100000 0.000000
vn 0.000000 0.100000 0.000000
vn 0.000000 0.100000 0.000000
vn 0.000000 0.100000 0.000000
vn 0.000000 -0.100000 0.000000
vn 0.000000 -0.100000 0.000000
vn 0.000000 -0.100000 0.000000
vn 0.000000 -0.100000 0.000000
vn 0.000000 -0.100000 0.000000
vn 0.000000 -0.100000 0.000000
vn 0.000000 -0.100000 0.000000
vn 0.000000 -0.100000 0.000000
vn 0.000000 -0.100000 0.000000
vn 0.000000 -0.100000 0.000000
vn 0.000000 -0.100000 0.000000
vn 0.000000 -0.100000 0.000000
vn 0.000000 -0.100000 0.000000
vn 0.000000 -0.100000 0.000000
vn 0.000000 -0.100000 0.000000
vn 0.000000 -0.100000 0.000000
vn 0.000000 -0.100000 0.000000
vn 0.000000 -0.100000 0.000000
vn 0.000000 -0.100000 0.000000
vn 0.000000 -0.100000 0.000000
vn 0.000000 -0.100000 0.000000
vn 0.000000 -0.100000 0.000000
vn 0.000000 -0.100000 0.000000
vn 0.000000 -0.100000 0.000000
vn 0.000000 -0.100000 0.000000
vn 0.000000 -0.100000 0.000000
vn 0.000000 -0.100000 0.000000
vn 0.000000 -0.100000 0.000000
vn 0.000000 -0.100000 0.000000
vn 0.000000 -0.100000 0.000000
vn 0.000000 -0.100000 0.000000
vn 0.000000 -0.100000 0.000000
vn 0.000000 -0.100000 0.000000
vn 0.000000 -0.100000 0.000000
vn 0.000000 -0.100000 0.000000
vn 0.000000 -0.100000 0.000000
vn 0.000000 -0.100000 0.000000
vn 0.000000 -0.100000 0.000000
vn 0.000000 -0.100000 0.000000
vn 0.000000 -0.100000 0.000000
vn 0.000000 -0.100000 0.000000
vn 0.000000 -0.100000 0.000000
vn 0.000000 -0.100000 0.000000
vn 0.000000 -0.100000 0.000000
vn 0.000000 -0.100000 0.000000
vn 0.000000 -0.100000 0.000000
vn 0.000000 -0.100000 0.000000
vn 0.000000 -0.100000 0.000000
vn 0.000000 -0.100000 0.000000
vn 0.000000 -0.100000 0.000000
vn 0.000000 -0.100000 0.000000
vn 0.000000 -0.100000 0.000000
vn 0.000000 -0.100000 0.000000
vn 0.000000 -0.100000 0.000000
vn 0.000000 -0.100000 0.000000
vn 0.000000 -0.100000 0.000000
vn 0.000000 -0.100000 0.000000
vn 0.000000 -0.100000 0.000000
vn 0.000000 -0.100000 0.000000
vn 0.000000 -0.100000 0.000000
vn 0.000000 -0.100000 0.000000
vn 0.000000 -0.100000 0.000000
vn 0.000000 -0.100000 0.000000
vn 0.000000 -0.100000 0.000000
vn 0.000000 -0.100000 0.000000
vn 0.000000 -0.100000 0.000000
vn 0.000000 -0.100000 0.000000
vn 0.000000 -0.100000 0.000000
vn 0.000000 -0.100000 0.000000
vn 0.000000 -0.100000 0.000000
vn 0.000000 -0.100000 0.000000
vn 0.000000 -0.100000 0.000000
vn 0.000000 -0.100000 0.000000
vn 0.000000 -0.100000 0.000000
vn 0.000000 -0.100000 0.000000
vn 0.000000 -0.100000 0.000000
vn 0.000000 -0.100000 0.000000
vn 0.000000 -0.100000 0.000000
vn 0.000000 -0.100000 0.000000
vn 0.000000 -0.100000 0.000000
vn 0.000000 -0.100000 0.000000
vn 0.000000 -0.100000 0.000000
vn 0.000000 -0.100000 0.000000
vn 0.000000 -0.100000 0.000000
vn 0.000000 -0.100000 0.000000
vn 0.000000 -0.100000 0.000000
vn 0.000000 -0.100000 0.000000
vn 0.000000 -0.100000 0.000000
vn 0.000000 -0.100000 0.000000
vn 0.000000 -0.100000 0.000000
vn 0.000000 -0.100000 0.000000
vn 0.000000 -0.100000 0.000000
vn 0.000000 -0.100000 0.000000
vn 0.000000 -0.100000 0.000000
vn 0.000000 -0.100000 0.000000
vn 0.000000 -0.100000 0.000000
vn 0.000000 -0.100000 0.000000
vn 0.000000 -0.100000 0.000000
vn 0.000000 -0.100000 0.000000
vn 0.000000 -0.100000 0.000000
vn 0.000000 -0.100000 0.000000
vn 0.000000 -0.100000 0.000000
vn 0.000000 -0.100000 0.000000
vn 0.000000 -0.100000 0.000000
vn 0.000000 -0.100000 0.000000
vn 0.000000 -0.100000 0.000000
vn 0.000000 -0.100000 0.000000
vn 0.000000 -0.100000 0.000000
vn 0.000000 -0.100000 0.000000
vn 0.000000 -0.100000 0.000000
vn 0.000000 -0.100000 0.000000
vn 0.000000 -0.100000 0.000000
vn 0.000000 -0.100000 0.000000
vn 0.000000 -0.100000 0.000000
vn 0.000000 -0.100000 0.000000
vn 0.000000 -0.100000 0.000000
vn 0.000000 -0.100000 0.000000
vn 0.000000 -0.100000 0.000000
vn 0.000000 -0.100000 0.000000
vn 0.000000 -0.100000 0.000000
vn 0.000000 -0.100000 0.000000
vn 0.000000 -0.100000 0.000000
vn 0.000000 -0.100000 0.000000
vn 0.000000 -0.100000 0.000000
vn 0.000000 -0.100000 0.000000
vn 0.000000 -0.100000 0.000000
vn 0.000000 -0.100000 0.000000
vn 0.000000 -0.100000 0.000000
vn 0.000000 -0.100000 0.000000
vn 0.000000 -0.100000 0.000000
vn 0.000000 -0.100000 0.000000
vn 0.000000 -0.100000 0.000000
vn 0.000000 -0.100000 0.000000
usemtl Aluminum_-_Anodized_Glossy_(Red)
f 1/1/1 2/2/2 12/3/3
f 12/3/3 2/2/2 11/4/4
f 11/4/4 2/2/2 3/5/5
f 11/4/4 3/5/5 10/6/6
f 10/6/6 3/5/5 4/7/7
f 10/6/6 4/7/7 9/8/8
f 9/8/8 4/7/7 5/9/9
f 9/8/8 5/9/9 8/10/10
f 8/10/10 5/9/9 6/11/11
f 8/10/10 6/11/11 7/12/12
f 13/13/13 14/14/14 20/15/15
f 20/15/15 14/14/14 19/16/16
f 19/16/16 14/14/14 15/17/17
f 19/16/16 15/17/17 18/18/18
f 18/18/18 15/17/17 16/19/19
f 18/18/18 16/19/19 17/20/20
f 17/20/20 16/19/19 1/21/21
f 17/20/20 1/21/21 12/22/22
f 21/23/23 22/24/24 30/25/25
f 30/25/25 22/24/24 29/26/26
f 29/26/26 22/24/24 23/27/27
f 29/26/26 23/27/27 28/28/28
f 28/28/28 23/27/27 24/29/29
f 28/28/28 24/29/29 27/30/30
f 27/30/30 24/29/29 25/31/31
f 27/30/30 25/31/31 26/32/32
f 26/32/32 25/31/31 13/33/33
f 26/32/32 13/33/33 20/34/34
f 31/35/35 32/36/36 40/37/37
f 40/37/37 32/36/36 39/38/38
f 39/38/38 32/36/36 33/39/39
f 39/38/38 33/39/39 38/40/40
f 38/40/40 33/39/39 34/41/41
f 38/40/40 34/41/41 37/42/42
f 37/42/42 34/41/41 35/43/43
f 37/42/42 35/43/43 36/44/44
f 36/44/44 35/43/43 21/45/45
f 36/44/44 21/45/45 30/46/46
f 41/47/47 42/48/48 48/49/49
f 48/49/49 42/48/48 47/50/50
f 47/50/50 42/48/48 43/51/51
f 47/50/50 43/51/51 46/52/52
f 46/52/52 43/51/51 44/53/53
f 46/52/52 44/53/53 45/54/54
f 45/54/54 44/53/53 31/55/55
f 45/54/54 31/55/55 40/56/56
f 49/57/57 50/58/58 56/59/59
f 56/59/59 50/58/58 55/60/60
f 55/60/60 50/58/58 51/61/61
f 55/60/60 51/61/61 54/62/62
f 54/62/62 51/61/61 52/63/63
f 54/62/62 52/63/63 53/64/64
f 53/64/64 52/63/63 41/65/65
f 53/64/64 41/65/65 48/66/66
f 57/67/67 58/68/68 64/69/69
f 64/69/69 58/68/68 63/70/70
f 63/70/70 58/68/68 59/71/71
f 63/70/70 59/71/71 62/72/72
f 62/72/72 59/71/71 60/73/73
f 62/72/72 60/73/73 61/74/74
f 61/74/74 60/73/73 49/75/75
f 61/74/74 49/75/75 56/76/76
f 6/77/77 65/78/78 7/79/79
f 7/79/79 65/78/78 72/80/80
f 72/80/80 65/78/78 66/81/81
f 72/80/80 66/81/81 71/82/82
f 71/82/82 66/81/81 67/83/83
f 71/82/82 67/83/83 70/84/84
f 70/84/84 67/83/83 68/85/85
f 70/84/84 68/85/85 69/86/86
f 69/86/86 68/85/85 57/87/87
f 69/86/86 57/87/87 64/88/88
f 73/89/89 74/90/90 76/91/91
f 76/91/91 74/90/90 75/92/92
f 77/93/93 78/94/94 84/95/95
f 84/95/95 78/94/94 83/96/96
f 83/96/96 78/94/94 79/97/97
f 83/96/96 79/97/97 82/98/98
f 82/98/98 79/97/97 80/99/99
f 82/98/98 80/99/99 81/100/100
f 81/100/100 80/99/99 73/101/101
f 81/100/100 73/101/101 76/102/102
f 85/103/103 86/104/104 92/105/105
f 92/105/105 86/104/104 91/106/106
f 91/106/106 86/104/104 87/107/107
f 91/106/106 87/107/107 90/108/108
f 90/108/108 87/107/107 88/109/109
f 90/108/108 88/109/109 89/110/110
f 89/110/110 88/109/109 77/111/111
f 89/110/110 77/111/111 84/112/112
f 93/113/113 94/114/114 100/115/115
f 100/115/115 94/114/114 99/116/116
f 99/116/116 94/114/114 95/117/117
f 99/116/116 95/117/117 98/118/118
f 98/118/118 95/117/117 96/119/119
f 98/118/118 96/119/119 97/120/120
f 97/120/120 96/119/119 85/121/121
f 97/120/120 85/121/121 92/122/122
f 101/123/123 102/124/124 108/125/125
f 108/125/125 102/124/124 107/126/126
f 107/126/126 102/124/124 103/127/127
f 107/126/126 103/127/127 106/128/128
f 106/128/128 103/127/127 104/129/129
f 106/128/128 104/129/129 105/130/130
f 105/130/130 104/129/129 93/131/131
f 105/130/130 93/131/131 100/132/132
f 109/133/133 110/134/134 116/135/135
f 116/135/135 110/134/134 115/136/136
f 115/136/136 110/134/134 111/137/137
f 115/136/136 111/137/137 114/138/138
f 114/138/138 111/137/137 112/139/139
f 114/138/138 112/139/139 113/140/140
f 113/140/140 112/139/139 101/141/141
f 113/140/140 101/141/141 108/142/142
f 117/143/143 118/144/144 124/145/145
f 124/145/145 118/144/144 123/146/146
f 123/146/146 118/144/144 119/147/147
f 123/146/146 119/147/147 122/148/148
f 122/148/148 119/147/147 120/149/149
f 122/148/148 120/149/149 121/150/150
f 121/150/150 120/149/149 109/151/151
f 121/150/150 109/151/151 116/152/152
f 125/153/153 126/154/154 132/155/155
f 132/155/155 126/154/154 131/156/156
f 131/156/156 126/154/154 127/157/157
f 131/156/156 127/157/157 130/158/158
f 130/158/158 127/157/157 128/159/159
f 130/158/158 128/159/159 129/160/160
f 129/160/160 128/159/159 117/161/161
f 129/160/160 117/161/161 124/162/162
f 133/163/163 134/164/164 140/165/165
f 140/165/165 134/164/164 139/166/166
f 139/166/166 134/164/164 135/167/167
f 139/166/166 135/167/167 138/168/168
f 138/168/168 135/167/167 136/169/169
f 138/168/168 136/169/169 137/170/170
f 137/170/170 136/169/169 125/171/171
f 137/170/170 125/171/171 132/172/172
f 141/173/173 142/174/174 148/175/175
f 148/175/175 142/174/174 147/176/176
f 147/176/176 142/174/174 143/177/177
f 147/176/176 143/177/177 146/178/178
f 146/178/178 143/177/177 144/179/179
f 146/178/178 144/179/179 145/180/180
f 145/180/180 144/179/179 133/181/181
f 145/180/180 133/181/181 140/182/182
f 149/183/183 150/184/184 160/185/185
f 160/185/185 150/184/184 159/186/186
f 159/186/186 150/184/184 151/187/187
f 159/186/186 151/187/187 158/188/188
f 158/188/188 151/187/187 152/189/189
f 158/188/188 152/189/189 157/190/190
f 157/190/190 152/189/189 153/191/191
f 157/190/190 153/191/191 156/192/192
f 156/192/192 153/191/191 154/193/193
f 156/192/192 154/193/193 155/194/194
f 155/194/194 154/193/193 141/195/195
f 155/194/194 141/195/195 148/196/196
f 161/197/197 162/198/198 172/199/199
f 172/199/199 162/198/198 171/200/200
f 171/200/200 162/198/198 163/201/201
f 171/200/200 163/201/201 170/202/202
f 170/202/202 163/201/201 164/203/203
f 170/202/202 164/203/203 169/204/204
f 169/204/204 164/203/203 165/205/205
f 169/204/204 165/205/205 168/206/206
f 168/206/206 165/205/205 166/207/207
f 168/206/206 166/207/207 167/208/208
f 167/208/208 166/207/207 149/209/209
f 167/208/208 149/209/209 160/210/210
f 173/211/211 174/212/212 184/213/213
f 184/213/213 174/212/212 183/214/214
f 183/214/214 174/212/212 175/215/215
f 183/214/214 175/215/215 182/216/216
f 182/216/216 175/215/215 176/217/217
f 182/216/216 176/217/217 181/218/218
f 181/218/218 176/217/217 177/219/219
f 181/218/218 177/219/219 180/220/220
f 180/220/220 177/219/219 178/221/221
f 180/220/220 178/221/221 179/222/222
f 179/222/222 178/221/221 161/223/223
f 179/222/222 161/223/223 172/224/224
f 185/225/225 186/226/226 196/227/227
f 196/227/227 186/226/226 195/228/228
f 195/228/228 186/226/226 187/229/229
f 195/228/228 187/229/229 194/230/230
f 194/230/230 187/229/229 188/231/231
f 194/230/230 188/231/231 193/232/232
f 193/232/232 188/231/231 189/233/233
f 193/232/232 189/233/233 192/234/234
f 192/234/234 189/233/233 190/235/235
f 192/234/234 190/235/235 191/236/236
f 191/236/236 190/235/235 173/237/237
f 191/236/236 173/237/237 184/238/238
f 197/239/239 198/240/240 204/241/241
f 204/241/241 198/240/240 203/242/242
f 203/242/242 198/240/240 199/243/243
f 203/242/242 199/243/243 202/244/244
f 202/244/244 199/243/243 200/245/245
f 202/244/244 200/245/245 201/246/246
f 201/246/246 200/245/245 185/247/247
f 201/246/246 185/247/247 196/248/248
f 205/249/249 206/250/250 212/251/251
f 212/251/251 206/250/250 211/252/252
f 211/252/252 206/250/250 207/253/253
f 211/252/252 207/253/253 210/254/254
f 210/254/254 207/253/253 208/255/255
f 210/254/254 208/255/255 209/256/256
f 209/256/256 208/255/255 197/257/257
f 209/256/256 197/257/257 204/258/258
f 213/259/259 214/260/260 220/261/261
f 220/261/261 214/260/260 219/262/262
f 219/262/262 214/260/260 215/263/263
f 219/262/262 215/263/263 218/264/264
f 218/264/264 215/263/263 216/265/265
f 218/264/264 216/265/265 217/266/266
f 217/266/266 216/265/265 205/267/267
f 217/266/266 205/267/267 212/268/268
f 221/269/269 222/270/270 228/271/271
f 228/271/271 222/270/270 227/272/272
f 227/272/272 222/270/270 223/273/273
f 227/272/272 223/273/273 226/274/274
f 226/274/274 223/273/273 224/275/275
f 226/274/274 224/275/275 225/276/276
f 225/276/276 224/275/275 213/277/277
f 225/276/276 213/277/277 220/278/278
f 229/279/279 230/280/280 236/281/281
f 236/281/281 230/280/280 235/282/282
f 235/282/282 230/280/280 231/283/283
f 235/282/282 231/283/283 234/284/284
f 234/284/284 231/283/283 232/285/285
f 234/284/284 232/285/285 233/286/286
f 233/286/286 232/285/285 221/287/287
f 233/286/286 221/287/287 228/288/288
f 237/289/289 238/290/290 244/291/291
f 244/291/291 238/290/290 243/292/292
f 243/292/292 238/290/290 239/293/293
f 243/292/292 239/293/293 242/294/294
f 242/294/294 239/293/293 240/295/295
f 242/294/294 240/295/295 241/296/296
f 241/296/296 240/295/295 229/297/297
f 241/296/296 229/297/297 236/298/298
f 245/299/299 246/300/300 256/301/301
f 256/301/301 246/300/300 255/302/302
f 255/302/302 246/300/300 247/303/303
f 255/302/302 247/303/303 254/304/304
f 254/304/304 247/303/303 248/305/305
f 254/304/304 248/305/305 253/306/306
f 253/306/306 248/305/305 249/307/307
f 253/306/306 249/307/307 252/308/308
f 252/308/308 249/307/307 250/309/309
f 252/308/308 250/309/309 251/310/310
f 251/310/310 250/309/309 237/311/311
f 251/310/310 237/311/311 244/312/312
f 74/313/313 257/314/314 75/315/315
f 75/315/315 257/314/314 266/316/316
f 266/316/316 257/314/314 258/317/317
f 266/316/316 258/317/317 265/318/318
f 265/318/318 258/317/317 259/319/319
f 265/318/318 259/319/319 264/320/320
f 264/320/320 259/319/319 260/321/321
f 264/320/320 260/321/321 263/322/322
f 263/322/322 260/321/321 261/323/323
f 263/322/322 261/323/323 262/324/324
f 262/324/324 261/323/323 245/325/325
f 262/324/324 245/325/325 256/326/326
f 75/327/327 266/328/328 76/329/329
f 76/329/329 266/328/328 265/330/330
f 76/329/329 265/330/330 81/331/331
f 81/331/331 265/330/330 264/332/332
f 81/331/331 264/332/332 263/333/333
f 263/333/333 262/334/334 81/331/331
f 81/331/331 262/334/334 82/335/335
f 82/335/335 262/334/334 256/336/336
f 82/335/335 256/336/336 83/337/337
f 83/337/337 256/336/336 255/338/338
f 83/337/337 255/338/338 84/339/339
f 84/339/339 255/338/338 254/340/340
f 84/339/339 254/340/340 89/341/341
f 89/341/341 254/340/340 253/342/342
f 89/341/341 253/342/342 252/343/343
f 89/341/341 252/343/343 90/344/344
f 90/344/344 252/343/343 251/345/345
f 90/344/344 251/345/345 91/346/346
f 91/346/346 251/345/345 244/347/347
f 91/346/346 244/347/347 92/348/348
f 92/348/348 244/347/347 97/349/349
f 97/349/349 244/347/347 243/350/350
f 97/349/349 243/350/350 98/351/351
f 98/351/351 243/350/350 242/352/352
f 98/351/351 242/352/352 99/353/353
f 99/353/353 242/352/352 100/354/354
f 100/354/354 242/352/352 241/355/355
f 100/354/354 241/355/355 105/356/356
f 105/356/356 241/355/355 106/357/357
f 106/357/357 241/355/355 236/358/358
f 106/357/357 236/358/358 107/359/359
f 107/359/359 236/358/358 235/360/360
f 107/359/359 235/360/360 108/361/361
f 108/361/361 235/360/360 113/362/362
f 113/362/362 235/360/360 234/363/363
f 113/362/362 234/363/363 114/364/364
f 114/364/364 234/363/363 233/365/365
f 114/364/364 233/365/365 115/366/366
f 115/366/366 233/365/365 228/367/367
f 115/366/366 228/367/367 116/368/368
f 116/368/368 228/367/367 227/369/369
f 116/368/368 227/369/369 121/370/370
f 121/370/370 227/369/369 122/371/371
f 122/371/371 227/369/369 226/372/372
f 122/371/371 226/372/372 123/373/373
f 123/373/373 226/372/372 225/374/374
f 123/373/373 225/374/374 124/375/375
f 124/375/375 225/374/374 129/376/376
f 129/376/376 225/374/374 130/377/377
f 130/377/377 225/374/374 131/378/378
f 131/378/378 225/374/374 132/379/379
f 132/379/379 225/374/374 220/380/380
f 132/379/379 220/380/380 219/381/381
f 218/382/382 72/383/383 219/381/381
f 219/381/381 72/383/383 71/384/384
f 219/381/381 71/384/384 132/379/379
f 132/379/379 71/384/384 70/385/385
f 132/379/379 70/385/385 69/386/386
f 72/383/383 218/382/382 7/387/387
f 7/387/387 218/382/382 217/388/388
f 7/387/387 217/388/388 8/389/389
f 8/389/389 217/388/388 212/390/390
f 8/389/389 212/390/390 9/391/391
f 9/391/391 212/390/390 211/392/392
f 9/391/391 211/392/392 10/393/393
f 10/393/393 211/392/392 210/394/394
f 10/393/393 210/394/394 11/395/395
f 11/395/395 210/394/394 209/396/396
f 11/395/395 209/396/396 12/397/397
f 12/397/397 209/396/396 204/398/398
f 12/397/397 204/398/398 17/399/399
f 17/399/399 204/398/398 203/400/400
f 17/399/399 203/400/400 18/401/401
f 18/401/401 203/400/400 202/402/402
f 18/401/401 202/402/402 19/403/403
f 19/403/403 202/402/402 201/404/404
f 19/403/403 201/404/404 20/405/405
f 20/405/405 201/404/404 196/406/406
f 20/405/405 196/406/406 26/407/407
f 26/407/407 196/406/406 195/408/408
f 26/407/407 195/408/408 27/409/409
f 27/409/409 195/408/408 28/410/410
f 28/410/410 195/408/408 194/411/411
f 28/410/410 194/411/411 29/412/412
f 29/412/412 194/411/411 193/413/413
f 29/412/412 193/413/413 192/414/414
f 29/412/412 192/414/414 30/415/415
f 30/415/415 192/414/414 191/416/416
f 30/415/415 191/416/416 36/417/417
f 36/417/417 191/416/416 184/418/418
f 36/417/417 184/418/418 37/419/419
f 37/419/419 184/418/418 183/420/420
f 37/419/419 183/420/420 38/421/421
f 38/421/421 183/420/420 182/422/422
f 38/421/421 182/422/422 181/423/423
f 38/421/421 181/423/423 39/424/424
f 39/424/424 181/423/423 180/425/425
f 39/424/424 180/425/425 179/426/426
f 39/424/424 179/426/426 40/427/427
f 40/427/427 179/426/426 172/428/428
f 40/427/427 172/428/428 171/429/429
f 40/427/427 171/429/429 45/430/430
f 45/430/430 171/429/429 170/431/431
f 45/430/430 170/431/431 169/432/432
f 169/432/432 168/433/433 45/430/430
f 45/430/430 168/433/433 46/434/434
f 46/434/434 168/433/433 167/435/435
f 46/434/434 167/435/435 160/436/436
f 46/434/434 160/436/436 47/437/437
f 47/437/437 160/436/436 159/438/438
f 47/437/437 159/438/438 48/439/439
f 48/439/439 159/438/438 158/440/440
f 48/439/439 158/440/440 53/441/441
f 53/441/441 158/440/440 157/442/442
f 53/441/441 157/442/442 156/443/443
f 53/441/441 156/443/443 54/444/444
f 54/444/444 156/443/443 155/445/445
f 54/444/444 155/445/445 55/446/446
f 55/446/446 155/445/445 148/447/447
f 55/446/446 148/447/447 56/448/448
f 56/448/448 148/447/447 147/449/449
f 56/448/448 147/449/449 146/450/450
f 56/448/448 146/450/450 61/451/451
f 61/451/451 146/450/450 145/452/452
f 61/451/451 145/452/452 62/453/453
f 62/453/453 145/452/452 140/454/454
f 62/453/453 140/454/454 63/455/455
f 63/455/455 140/454/454 139/456/456
f 63/455/455 139/456/456 138/457/457
f 63/455/455 138/457/457 64/458/458
f 64/458/458 138/457/457 137/459/459
f 64/458/458 137/459/459 69/386/386
f 69/386/386 137/459/459 132/379/379
f 261/460/460 79/461/461 245/462/462
f 245/462/462 79/461/461 78/463/463
f 245/462/462 78/463/463 246/464/464
f 246/464/464 78/463/463 77/465/465
f 246/464/464 77/465/465 247/466/466
f 247/466/466 77/465/465 88/467/467
f 247/466/466 88/467/467 248/468/468
f 248/468/468 88/467/467 249/469/469
f 249/469/469 88/467/467 87/470/470
f 249/469/469 87/470/470 250/471/471
f 250/471/471 87/470/470 86/472/472
f 250/471/471 86/472/472 237/473/473
f 237/473/473 86/472/472 85/474/474
f 237/473/473 85/474/474 96/475/475
f 79/461/461 261/460/460 80/476/476
f 80/476/476 261/460/460 260/477/477
f 80/476/476 260/477/477 259/478/478
f 259/478/478 258/479/479 80/476/476
f 80/476/476 258/479/479 73/480/480
f 73/480/480 258/479/479 257/481/481
f 73/480/480 257/481/481 74/482/482
f 237/473/473 96/475/475 238/483/483
f 238/483/483 96/475/475 95/484/484
f 238/483/483 95/484/484 239/485/485
f 239/485/485 95/484/484 94/486/486
f 239/485/485 94/486/486 93/487/487
f 239/485/485 93/487/487 240/488/488
f 240/488/488 93/487/487 104/489/489
f 240/488/488 104/489/489 103/490/490
f 240/488/488 103/490/490 229/491/491
f 229/491/491 103/490/490 102/492/492
f 229/491/491 102/492/492 230/493/493
f 230/493/493 102/492/492 101/494/494
f 230/493/493 101/494/494 112/495/495
f 230/493/493 112/495/495 231/496/496
f 231/496/496 112/495/495 111/497/497
f 231/496/496 111/497/497 232/498/498
f 232/498/498 111/497/497 110/499/499
f 232/498/498 110/499/499 221/500/500
f 221/500/500 110/499/499 109/501/501
f 221/500/500 109/501/501 222/502/502
f 222/502/502 109/501/501 120/503/503
f 222/502/502 120/503/503 119/504/504
f 222/502/502 119/504/504 223/505/505
f 223/505/505 119/504/504 118/506/506
f 223/505/505 118/506/506 224/507/507
f 224/507/507 118/506/506 117/508/508
f 224/507/507 117/508/508 128/509/509
f 128/509/509 127/510/510 224/507/507
f 224/507/507 127/510/510 126/511/511
f 224/507/507 126/511/511 125/512/512
f 136/513/513 68/514/514 125/512/512
f 125/512/512 68/514/514 67/515/515
f 125/512/512 67/515/515 66/516/516
f 68/514/514 136/513/513 57/517/517
f 57/517/517 136/513/513 135/518/518
f 57/517/517 135/518/518 58/519/519
f 58/519/519 135/518/518 134/520/520
f 58/519/519 134/520/520 133/521/521
f 58/519/519 133/521/521 59/522/522
f 59/522/522 133/521/521 144/523/523
f 59/522/522 144/523/523 60/524/524
f 60/524/524 144/523/523 143/525/525
f 60/524/524 143/525/525 49/526/526
f 49/526/526 143/525/525 142/527/527
f 49/526/526 142/527/527 141/528/528
f 49/526/526 141/528/528 50/529/529
f 50/529/529 141/528/528 154/530/530
f 50/529/529 154/530/530 51/531/531
f 51/531/531 154/530/530 153/532/532
f 51/531/531 153/532/532 52/533/533
f 52/533/533 153/532/532 152/534/534
f 52/533/533 152/534/534 151/535/535
f 52/533/533 151/535/535 41/536/536
f 41/536/536 151/535/535 150/537/537
f 41/536/536 150/537/537 42/538/538
f 42/538/538 150/537/537 149/539/539
f 42/538/538 149/539/539 43/540/540
f 43/540/540 149/539/539 166/541/541
f 43/540/540 166/541/541 165/542/542
f 43/540/540 165/542/542 44/543/543
f 44/543/543 165/542/542 164/544/544
f 44/543/543 164/544/544 163/545/545
f 163/545/545 162/546/546 44/543/543
f 44/543/543 162/546/546 31/547/547
f 31/547/547 162/546/546 161/548/548
f 31/547/547 161/548/548 178/549/549
f 31/547/547 178/549/549 32/550/550
f 32/550/550 178/549/549 177/551/551
f 32/550/550 177/551/551 176/552/552
f 32/550/550 176/552/552 33/553/553
f 33/553/553 176/552/552 175/554/554
f 33/553/553 175/554/554 174/555/555
f 33/553/553 174/555/555 34/556/556
f 34/556/556 174/555/555 173/557/557
f 34/556/556 173/557/557 35/558/558
f 35/558/558 173/557/557 190/559/559
f 35/558/558 190/559/559 21/560/560
f 21/560/560 190/559/559 189/561/561
f 21/560/560 189/561/561 22/562/562
f 22/562/562 189/561/561 188/563/563
f 22/562/562 188/563/563 187/564/564
f 22/562/562 187/564/564 23/565/565
f 23/565/565 187/564/564 186/566/566
f 23/565/565 186/566/566 24/567/567
f 24/567/567 186/566/566 25/568/568
f 25/568/568 186/566/566 185/569/569
f 25/568/568 185/569/569 13/570/570
f 13/570/570 185/569/569 200/571/571
f 13/570/570 200/571/571 14/572/572
f 14/572/572 200/571/571 199/573/573
f 14/572/572 199/573/573 15/574/574
f 15/574/574 199/573/573 198/575/575
f 15/574/574 198/575/575 16/576/576
f 16/576/576 198/575/575 197/577/577
f 16/576/576 197/577/577 1/578/578
f 1/578/578 197/577/577 208/579/579
f 1/578/578 208/579/579 2/580/580
f 2/580/580 208/579/579 207/581/581
f 2/580/580 207/581/581 3/582/582
f 3/582/582 207/581/581 206/583/583
f 3/582/582 206/583/583 4/584/584
f 4/584/584 206/583/583 205/585/585
f 4/584/584 205/585/585 5/586/586
f 5/586/586 205/585/585 216/587/587
f 5/586/586 216/587/587 6/588/588
f 6/588/588 216/587/587 215/589/589
f 6/588/588 215/589/589 65/590/590
f 65/590/590 215/589/589 214/591/591
f 65/590/590 214/591/591 66/516/516
f 66/516/516 214/591/591 125/512/512
f 214/591/591 213/592/592 125/512/512
f 125/512/512 213/592/592 224/507/507

# 266 vertices
# 592 texture params
# 592 normals
# 532 facets

# 1 groups
