# WaveFront *.obj file (generated by Autodesk ATF)

mtllib b8fa277c-efc2-484a-b4d4-813019586461.mtl

g Body67

v -70.175547 0.000000 -6.299062
v -70.500408 0.000000 -7.138944
v -70.753380 0.000000 -7.994762
v -70.886296 0.000000 -8.877193
v -70.947031 0.000000 -9.775625
v -70.947031 5.000000 -9.775625
v -70.886296 5.000000 -8.877193
v -70.753380 5.000000 -7.994762
v -70.500408 5.000000 -7.138944
v -70.175547 5.000000 -6.299062
v -68.017344 0.000000 -3.769766
v -68.685877 0.000000 -4.291047
v -69.282480 0.000000 -4.874254
v -69.762900 0.000000 -5.557485
v -69.762900 5.000000 -5.557485
v -69.282480 5.000000 -4.874254
v -68.685877 5.000000 -4.291047
v -68.017344 5.000000 -3.769766
v -65.107187 0.000000 -2.900625
v -65.877454 0.000000 -2.973408
v -66.624086 0.000000 -3.126124
v -67.332092 0.000000 -3.409467
v -67.332092 5.000000 -3.409467
v -66.624086 5.000000 -3.126124
v -65.877454 5.000000 -2.973408
v -65.107187 5.000000 -2.900625
v -61.279062 0.000000 -4.697500
v -62.100143 0.000000 -3.954855
v -62.994210 0.000000 -3.369738
v -64.012545 0.000000 -3.052832
v -64.012545 5.000000 -3.052832
v -62.994210 5.000000 -3.369738
v -62.100143 5.000000 -3.954855
v -61.279062 5.000000 -4.697500
v -59.677500 0.000000 -9.580312
v -59.769578 0.000000 -8.254084
v -60.022138 0.000000 -6.982783
v -60.255989 0.000000 -6.383950
v -60.558685 0.000000 -5.808682
v -60.558685 5.000000 -5.808682
v -60.255989 5.000000 -6.383950
v -60.022138 5.000000 -6.982783
v -59.769578 5.000000 -8.254084
v -59.677500 5.000000 -9.580312
v -61.259531 0.000000 -14.258047
v -60.548751 0.000000 -13.199816
v -60.249950 0.000000 -12.650741
v -60.018922 0.000000 -12.077760
v -59.769040 0.000000 -10.856962
v -59.769040 5.000000 -10.856962
v -60.018922 5.000000 -12.077760
v -60.249950 5.000000 -12.650741
v -60.548751 5.000000 -13.199816
v -61.259531 5.000000 -14.258047
v -65.243906 0.000000 -15.967031
v -64.119218 0.000000 -15.838006
v -63.064226 0.000000 -15.547348
v -62.126409 0.000000 -14.984954
v -62.126409 5.000000 -14.984954
v -63.064226 5.000000 -15.547348
v -64.119218 5.000000 -15.838006
v -65.243906 5.000000 -15.967031
v -69.286875 0.000000 -14.258047
v -68.400304 0.000000 -14.979042
v -67.446002 0.000000 -15.539807
v -66.378818 0.000000 -15.833530
v -66.378818 5.000000 -15.833530
v -67.446002 5.000000 -15.539807
v -68.400304 5.000000 -14.979042
v -69.286875 5.000000 -14.258047
v -70.838439 0.000000 -11.012720
v -70.567589 0.000000 -12.188136
v -70.324655 0.000000 -12.734977
v -70.015524 0.000000 -13.256654
v -70.015524 5.000000 -13.256654
v -70.324655 5.000000 -12.734977
v -70.567589 5.000000 -12.188136
v -70.838439 5.000000 -11.012720
v -60.087656 0.000000 -21.845937
v -56.591562 0.000000 -22.119375
v -56.591562 5.000000 -22.119375
v -60.087656 5.000000 -21.845937
v -61.415781 0.000000 -24.853750
v -60.949911 0.000000 -24.163568
v -60.564896 0.000000 -23.436068
v -60.295081 0.000000 -22.655401
v -60.295081 5.000000 -22.655401
v -60.564896 5.000000 -23.436068
v -60.949911 5.000000 -24.163568
v -61.415781 5.000000 -24.853750
v -64.931406 0.000000 -26.357656
v -63.941314 0.000000 -26.241227
v -63.011764 0.000000 -25.983472
v -62.183357 0.000000 -25.489612
v -62.183357 5.000000 -25.489612
v -63.011764 5.000000 -25.983472
v -63.941314 5.000000 -26.241227
v -64.931406 5.000000 -26.357656
v -67.880625 0.000000 -25.420156
v -67.197030 0.000000 -25.821889
v -66.483774 0.000000 -26.131197
v -65.721930 0.000000 -26.289111
v -65.721930 5.000000 -26.289111
v -66.483774 5.000000 -26.131197
v -67.197030 5.000000 -25.821889
v -67.880625 5.000000 -25.420156
v -70.497812 0.000000 -21.885000
v -70.010138 0.000000 -22.894073
v -69.434872 0.000000 -23.837285
v -68.706439 0.000000 -24.665331
v -68.706439 5.000000 -24.665331
v -69.434872 5.000000 -23.837285
v -70.010138 5.000000 -22.894073
v -70.497812 5.000000 -21.885000
v -71.493906 0.000000 -15.263906
v -71.444510 0.000000 -16.951723
v -71.295323 0.000000 -18.623272
v -70.961580 0.000000 -20.264734
v -70.961580 5.000000 -20.264734
v -71.295323 5.000000 -18.623272
v -71.444510 5.000000 -16.951723
v -71.493906 5.000000 -15.263906
v -68.388437 0.000000 -18.135000
v -69.295623 0.000000 -17.559862
v -70.129828 0.000000 -16.905152
v -70.846217 0.000000 -16.121982
v -70.846217 5.000000 -16.121982
v -70.129828 5.000000 -16.905152
v -69.295623 5.000000 -17.559862
v -68.388437 5.000000 -18.135000
v -64.540781 0.000000 -19.072500
v -65.541396 0.000000 -18.997488
v -66.520802 0.000000 -18.835146
v -67.465090 0.000000 -18.528186
v -67.465090 5.000000 -18.528186
v -66.520802 5.000000 -18.835146
v -65.541396 5.000000 -18.997488
v -64.540781 5.000000 -19.072500
v -58.554453 0.000000 -16.484609
v -59.861469 0.000000 -17.571370
v -60.547174 0.000000 -18.040055
v -61.271514 0.000000 -18.419107
v -62.043306 0.000000 -18.688072
v -62.854119 0.000000 -18.866508
v -62.854119 5.000000 -18.866508
v -62.043306 5.000000 -18.688072
v -61.271514 5.000000 -18.419107
v -60.547174 5.000000 -18.040055
v -59.861469 5.000000 -17.571370
v -58.554453 5.000000 -16.484609
v -56.083750 0.000000 -9.795156
v -56.248620 0.000000 -11.638676
v -56.406200 0.000000 -12.532032
v -56.653952 0.000000 -13.391304
v -57.015586 0.000000 -14.207529
v -57.474485 0.000000 -14.986989
v -57.474485 5.000000 -14.986989
v -57.015586 5.000000 -14.207529
v -56.653952 5.000000 -13.391304
v -56.406200 5.000000 -12.532032
v -56.248620 5.000000 -11.638676
v -56.083750 5.000000 -9.795156
v -57.245859 0.000000 -4.785391
v -56.750844 0.000000 -5.990132
v -56.368222 0.000000 -7.221091
v -56.170946 0.000000 -8.495284
v -56.170946 5.000000 -8.495284
v -56.368222 5.000000 -7.221091
v -56.750844 5.000000 -5.990132
v -57.245859 5.000000 -4.785391
v -60.439219 0.000000 -1.240469
v -59.465108 0.000000 -1.967306
v -58.588517 0.000000 -2.782576
v -57.870617 0.000000 -3.741751
v -57.870617 5.000000 -3.741751
v -58.588517 5.000000 -2.782576
v -59.465108 5.000000 -1.967306
v -60.439219 5.000000 -1.240469
v -65.048594 0.000000 -0.010000
v -63.836956 0.000000 -0.098166
v -62.657163 0.000000 -0.304193
v -61.531563 0.000000 -0.710789
v -61.531563 5.000000 -0.710789
v -62.657163 5.000000 -0.304193
v -63.836956 5.000000 -0.098166
v -65.048594 5.000000 -0.010000
v -72.216562 0.000000 -3.242422
v -70.681673 0.000000 -1.867316
v -69.870114 0.000000 -1.277051
v -69.005618 0.000000 -0.803529
v -68.077021 0.000000 -0.471374
v -67.096430 0.000000 -0.253881
v -67.096430 5.000000 -0.253881
v -68.077021 5.000000 -0.471374
v -69.005618 5.000000 -0.803529
v -69.870114 5.000000 -1.277051
v -70.681673 5.000000 -1.867316
v -72.216562 5.000000 -3.242422
v -74.990000 0.000000 -13.896719
v -74.901699 0.000000 -11.058912
v -74.763763 0.000000 -9.667015
v -74.513285 0.000000 -8.307526
v -74.113746 0.000000 -6.990960
v -73.565603 0.000000 -5.717186
v -73.565603 5.000000 -5.717186
v -74.113746 5.000000 -6.990960
v -74.513285 5.000000 -8.307526
v -74.763763 5.000000 -9.667015
v -74.901699 5.000000 -11.058912
v -74.990000 5.000000 -13.896719
v -71.923594 0.000000 -25.967031
v -73.406261 0.000000 -23.149630
v -74.010345 0.000000 -21.702562
v -74.452675 0.000000 -20.210274
v -74.731340 0.000000 -18.672234
v -74.886290 0.000000 -17.099609
v -74.886290 5.000000 -17.099609
v -74.731340 5.000000 -18.672234
v -74.452675 5.000000 -20.210274
v -74.010345 5.000000 -21.702562
v -73.406261 5.000000 -23.149630
v -71.923594 5.000000 -25.967031
v -64.716562 0.000000 -29.248281
v -66.787141 0.000000 -29.011182
v -67.777248 0.000000 -28.794610
v -68.713138 0.000000 -28.460410
v -69.581542 0.000000 -27.979800
v -70.393556 0.000000 -27.376848
v -70.393556 5.000000 -27.376848
v -69.581542 5.000000 -27.979800
v -68.713138 5.000000 -28.460410
v -67.777248 5.000000 -28.794610
v -66.787141 5.000000 -29.011182
v -64.716562 5.000000 -29.248281
v -59.179453 0.000000 -27.353750
v -60.437277 0.000000 -28.187102
v -61.088485 0.000000 -28.540353
v -61.766432 0.000000 -28.817542
v -62.475422 0.000000 -29.006420
v -63.208877 0.000000 -29.125704
v -63.208877 5.000000 -29.125704
v -62.475422 5.000000 -29.006420
v -61.766432 5.000000 -28.817542
v -61.088485 5.000000 -28.540353
v -60.437277 5.000000 -28.187102
v -59.179453 5.000000 -27.353750
v -56.905914 0.000000 -23.595838
v -57.118074 0.000000 -24.306320
v -57.396214 0.000000 -24.983503
v -57.758025 0.000000 -25.618457
v -58.191821 0.000000 -26.217083
v -58.191821 5.000000 -26.217083
v -57.758025 5.000000 -25.618457
v -57.396214 5.000000 -24.983503
v -57.118074 5.000000 -24.306320
v -56.905914 5.000000 -23.595838
vt -0.356113 0.000000 0.000000
vt -0.267085 0.000000 0.000000
vt -0.356113 0.500000 0.000000
vt -0.267085 0.500000 0.000000
vt -0.178057 0.000000 0.000000
vt -0.178057 0.500000 0.000000
vt -0.089028 0.000000 0.000000
vt -0.089028 0.500000 0.000000
vt 0.000000 0.000000 0.000000
vt 0.000000 0.500000 0.000000
vt -0.332503 0.000000 0.000000
vt -0.249377 0.000000 0.000000
vt -0.332503 0.500000 0.000000
vt -0.249377 0.500000 0.000000
vt -0.166251 0.000000 0.000000
vt -0.166251 0.500000 0.000000
vt -0.083126 0.000000 0.000000
vt -0.083126 0.500000 0.000000
vt 0.000000 0.000000 0.000000
vt 0.000000 0.500000 0.000000
vt -0.303721 0.000000 0.000000
vt -0.227791 0.000000 0.000000
vt -0.303721 0.500000 0.000000
vt -0.227791 0.500000 0.000000
vt -0.151860 0.000000 0.000000
vt -0.151860 0.500000 0.000000
vt -0.075930 0.000000 0.000000
vt -0.075930 0.500000 0.000000
vt 0.000000 0.000000 0.000000
vt 0.000000 0.500000 0.000000
vt -0.422901 0.000000 0.000000
vt -0.317176 0.000000 0.000000
vt -0.422901 0.500000 0.000000
vt -0.317176 0.500000 0.000000
vt -0.211450 0.000000 0.000000
vt -0.211450 0.500000 0.000000
vt -0.105725 0.000000 0.000000
vt -0.105725 0.500000 0.000000
vt 0.000000 0.000000 0.000000
vt 0.000000 0.500000 0.000000
vt -0.513986 0.000000 0.000000
vt -0.385489 0.000000 0.000000
vt -0.513986 0.500000 0.000000
vt -0.385489 0.500000 0.000000
vt -0.256993 0.000000 0.000000
vt -0.256993 0.500000 0.000000
vt -0.192745 0.000000 0.000000
vt -0.192745 0.500000 0.000000
vt -0.128496 0.000000 0.000000
vt -0.128496 0.500000 0.000000
vt 0.000000 0.000000 0.000000
vt 0.000000 0.500000 0.000000
vt -0.493912 0.000000 0.000000
vt -0.370434 0.000000 0.000000
vt -0.493912 0.500000 0.000000
vt -0.370434 0.500000 0.000000
vt -0.308695 0.000000 0.000000
vt -0.308695 0.500000 0.000000
vt -0.246956 0.000000 0.000000
vt -0.246956 0.500000 0.000000
vt -0.123478 0.000000 0.000000
vt -0.123478 0.500000 0.000000
vt 0.000000 0.000000 0.000000
vt 0.000000 0.500000 0.000000
vt -0.433544 0.000000 0.000000
vt -0.325158 0.000000 0.000000
vt -0.433544 0.500000 0.000000
vt -0.325158 0.500000 0.000000
vt -0.216772 0.000000 0.000000
vt -0.216772 0.500000 0.000000
vt -0.108386 0.000000 0.000000
vt -0.108386 0.500000 0.000000
vt 0.000000 0.000000 0.000000
vt 0.000000 0.500000 0.000000
vt -0.438933 0.000000 0.000000
vt -0.329200 0.000000 0.000000
vt -0.438933 0.500000 0.000000
vt -0.329200 0.500000 0.000000
vt -0.219467 0.000000 0.000000
vt -0.219467 0.500000 0.000000
vt -0.109733 0.000000 0.000000
vt -0.109733 0.500000 0.000000
vt 0.000000 0.000000 0.000000
vt 0.000000 0.500000 0.000000
vt -0.478045 0.000000 0.000000
vt -0.358534 0.000000 0.000000
vt -0.478045 0.500000 0.000000
vt -0.358534 0.500000 0.000000
vt -0.239023 0.000000 0.000000
vt -0.239023 0.500000 0.000000
vt -0.179267 0.000000 0.000000
vt -0.179267 0.500000 0.000000
vt -0.119511 0.000000 0.000000
vt -0.119511 0.500000 0.000000
vt 0.000000 0.000000 0.000000
vt 0.000000 0.500000 0.000000
vt 0.000000 0.000000 0.000000
vt 0.350677 0.000000 0.000000
vt 0.000000 0.500000 0.000000
vt 0.350677 0.500000 0.000000
vt -0.328905 0.000000 0.000000
vt -0.246679 0.000000 0.000000
vt -0.328905 0.500000 0.000000
vt -0.246679 0.500000 0.000000
vt -0.164453 0.000000 0.000000
vt -0.164453 0.500000 0.000000
vt -0.082226 0.000000 0.000000
vt -0.082226 0.500000 0.000000
vt 0.000000 0.000000 0.000000
vt 0.000000 0.500000 0.000000
vt -0.382379 0.000000 0.000000
vt -0.286784 0.000000 0.000000
vt -0.382379 0.500000 0.000000
vt -0.286784 0.500000 0.000000
vt -0.191189 0.000000 0.000000
vt -0.191189 0.500000 0.000000
vt -0.095595 0.000000 0.000000
vt -0.095595 0.500000 0.000000
vt 0.000000 0.000000 0.000000
vt 0.000000 0.500000 0.000000
vt -0.309468 0.000000 0.000000
vt -0.232101 0.000000 0.000000
vt -0.309468 0.500000 0.000000
vt -0.232101 0.500000 0.000000
vt -0.154734 0.000000 0.000000
vt -0.154734 0.500000 0.000000
vt -0.077367 0.000000 0.000000
vt -0.077367 0.500000 0.000000
vt 0.000000 0.000000 0.000000
vt 0.000000 0.500000 0.000000
vt -0.439885 0.000000 0.000000
vt -0.329913 0.000000 0.000000
vt -0.439885 0.500000 0.000000
vt -0.329913 0.500000 0.000000
vt -0.219942 0.000000 0.000000
vt -0.219942 0.500000 0.000000
vt -0.109971 0.000000 0.000000
vt -0.109971 0.500000 0.000000
vt 0.000000 0.000000 0.000000
vt 0.000000 0.500000 0.000000
vt -0.669677 0.000000 0.000000
vt -0.502258 0.000000 0.000000
vt -0.669677 0.500000 0.000000
vt -0.502258 0.500000 0.000000
vt -0.334838 0.000000 0.000000
vt -0.334838 0.500000 0.000000
vt -0.167419 0.000000 0.000000
vt -0.167419 0.500000 0.000000
vt 0.000000 0.000000 0.000000
vt 0.000000 0.500000 0.000000
vt -0.422941 0.000000 0.000000
vt -0.317206 0.000000 0.000000
vt -0.422941 0.500000 0.000000
vt -0.317206 0.500000 0.000000
vt -0.211471 0.000000 0.000000
vt -0.211471 0.500000 0.000000
vt -0.105735 0.000000 0.000000
vt -0.105735 0.500000 0.000000
vt 0.000000 0.000000 0.000000
vt 0.000000 0.500000 0.000000
vt -0.396023 0.000000 0.000000
vt -0.297017 0.000000 0.000000
vt -0.396023 0.500000 0.000000
vt -0.297017 0.500000 0.000000
vt -0.198011 0.000000 0.000000
vt -0.198011 0.500000 0.000000
vt -0.099006 0.000000 0.000000
vt -0.099006 0.500000 0.000000
vt 0.000000 0.000000 0.000000
vt 0.000000 0.500000 0.000000
vt -0.652177 0.000000 0.000000
vt -0.489132 0.000000 0.000000
vt -0.652177 0.500000 0.000000
vt -0.489132 0.500000 0.000000
vt -0.407610 0.000000 0.000000
vt -0.407610 0.500000 0.000000
vt -0.326088 0.000000 0.000000
vt -0.326088 0.500000 0.000000
vt -0.244566 0.000000 0.000000
vt -0.244566 0.500000 0.000000
vt -0.163044 0.000000 0.000000
vt -0.163044 0.500000 0.000000
vt 0.000000 0.000000 0.000000
vt 0.000000 0.500000 0.000000
vt -0.713170 0.000000 0.000000
vt -0.534878 0.000000 0.000000
vt -0.713170 0.500000 0.000000
vt -0.534878 0.500000 0.000000
vt -0.445731 0.000000 0.000000
vt -0.445731 0.500000 0.000000
vt -0.356585 0.000000 0.000000
vt -0.356585 0.500000 0.000000
vt -0.267439 0.000000 0.000000
vt -0.267439 0.500000 0.000000
vt -0.178293 0.000000 0.000000
vt -0.178293 0.500000 0.000000
vt 0.000000 0.000000 0.000000
vt 0.000000 0.500000 0.000000
vt -0.514280 0.000000 0.000000
vt -0.385710 0.000000 0.000000
vt -0.514280 0.500000 0.000000
vt -0.385710 0.500000 0.000000
vt -0.257140 0.000000 0.000000
vt -0.257140 0.500000 0.000000
vt -0.128570 0.000000 0.000000
vt -0.128570 0.500000 0.000000
vt 0.000000 0.000000 0.000000
vt 0.000000 0.500000 0.000000
vt -0.477124 0.000000 0.000000
vt -0.357843 0.000000 0.000000
vt -0.477124 0.500000 0.000000
vt -0.357843 0.500000 0.000000
vt -0.238562 0.000000 0.000000
vt -0.238562 0.500000 0.000000
vt -0.119281 0.000000 0.000000
vt -0.119281 0.500000 0.000000
vt 0.000000 0.000000 0.000000
vt 0.000000 0.500000 0.000000
vt -0.477085 0.000000 0.000000
vt -0.357813 0.000000 0.000000
vt -0.477085 0.500000 0.000000
vt -0.357813 0.500000 0.000000
vt -0.238542 0.000000 0.000000
vt -0.238542 0.500000 0.000000
vt -0.119271 0.000000 0.000000
vt -0.119271 0.500000 0.000000
vt 0.000000 0.000000 0.000000
vt 0.000000 0.500000 0.000000
vt -0.786315 0.000000 0.000000
vt -0.589736 0.000000 0.000000
vt -0.786315 0.500000 0.000000
vt -0.589736 0.500000 0.000000
vt -0.491447 0.000000 0.000000
vt -0.491447 0.500000 0.000000
vt -0.393158 0.000000 0.000000
vt -0.393158 0.500000 0.000000
vt -0.294868 0.000000 0.000000
vt -0.294868 0.500000 0.000000
vt -0.196579 0.000000 0.000000
vt -0.196579 0.500000 0.000000
vt 0.000000 0.000000 0.000000
vt 0.000000 0.500000 0.000000
vt -1.101757 0.000000 0.000000
vt -0.826318 0.000000 0.000000
vt -1.101757 0.500000 0.000000
vt -0.826318 0.500000 0.000000
vt -0.688598 0.000000 0.000000
vt -0.688598 0.500000 0.000000
vt -0.550879 0.000000 0.000000
vt -0.550879 0.500000 0.000000
vt -0.413159 0.000000 0.000000
vt -0.413159 0.500000 0.000000
vt -0.275439 0.000000 0.000000
vt -0.275439 0.500000 0.000000
vt 0.000000 0.000000 0.000000
vt 0.000000 0.500000 0.000000
vt -1.246182 0.000000 0.000000
vt -0.934636 0.000000 0.000000
vt -1.246182 0.500000 0.000000
vt -0.934636 0.500000 0.000000
vt -0.778864 0.000000 0.000000
vt -0.778864 0.500000 0.000000
vt -0.623091 0.000000 0.000000
vt -0.623091 0.500000 0.000000
vt -0.467318 0.000000 0.000000
vt -0.467318 0.500000 0.000000
vt -0.311545 0.000000 0.000000
vt -0.311545 0.500000 0.000000
vt 0.000000 0.000000 0.000000
vt 0.000000 0.500000 0.000000
vt -0.791907 0.000000 0.000000
vt -0.593931 0.000000 0.000000
vt -0.791907 0.500000 0.000000
vt -0.593931 0.500000 0.000000
vt -0.494942 0.000000 0.000000
vt -0.494942 0.500000 0.000000
vt -0.395954 0.000000 0.000000
vt -0.395954 0.500000 0.000000
vt -0.296965 0.000000 0.000000
vt -0.296965 0.500000 0.000000
vt -0.197977 0.000000 0.000000
vt -0.197977 0.500000 0.000000
vt 0.000000 0.000000 0.000000
vt 0.000000 0.500000 0.000000
vt -0.585282 0.000000 0.000000
vt -0.438962 0.000000 0.000000
vt -0.585282 0.500000 0.000000
vt -0.438962 0.500000 0.000000
vt -0.365801 0.000000 0.000000
vt -0.365801 0.500000 0.000000
vt -0.292641 0.000000 0.000000
vt -0.292641 0.500000 0.000000
vt -0.219481 0.000000 0.000000
vt -0.219481 0.500000 0.000000
vt -0.146321 0.000000 0.000000
vt -0.146321 0.500000 0.000000
vt 0.000000 0.000000 0.000000
vt 0.000000 0.500000 0.000000
vt -0.583970 0.000000 0.000000
vt -0.437978 0.000000 0.000000
vt -0.583970 0.500000 0.000000
vt -0.437978 0.500000 0.000000
vt -0.364981 0.000000 0.000000
vt -0.364981 0.500000 0.000000
vt -0.291985 0.000000 0.000000
vt -0.291985 0.500000 0.000000
vt -0.218989 0.000000 0.000000
vt -0.218989 0.500000 0.000000
vt -0.145993 0.000000 0.000000
vt -0.145993 0.500000 0.000000
vt 0.000000 0.000000 0.000000
vt 0.000000 0.500000 0.000000
vt 0.894531 0.749023 0.000000
vt 0.863096 0.896670 0.000000
vt 0.544922 0.721680 0.000000
vt 0.841880 0.967718 0.000000
vt 0.524179 0.802626 0.000000
vt 0.814066 1.035436 0.000000
vt 0.777885 1.098932 0.000000
vt 0.497198 0.880693 0.000000
vt 0.734505 1.158794 0.000000
vt 0.635742 1.272461 0.000000
vt 0.509960 1.355796 0.000000
vt 0.412109 1.022461 0.000000
vt 0.458696 0.953443 0.000000
vt 0.444839 1.391121 0.000000
vt 0.335352 1.086047 0.000000
vt 0.377044 1.418840 0.000000
vt 0.252511 1.135433 0.000000
vt 0.306145 1.437728 0.000000
vt 0.232800 1.449656 0.000000
vt 0.159556 1.161209 0.000000
vt 0.082031 1.461914 0.000000
vt 0.060547 1.172852 0.000000
vt -0.018506 1.165997 0.000000
vt -0.125027 1.438204 0.000000
vt -0.094690 1.150206 0.000000
vt -0.224037 1.416547 0.000000
vt -0.166016 1.119275 0.000000
vt -0.234375 1.079102 0.000000
vt -0.317626 1.383127 0.000000
vt -0.404467 1.335066 0.000000
vt -0.316956 1.003619 0.000000
vt -0.485668 1.274771 0.000000
vt -0.389800 0.920814 0.000000
vt -0.638672 1.133789 0.000000
vt -0.447326 0.826493 0.000000
vt -0.496094 0.725586 0.000000
vt -0.786939 0.852049 0.000000
vt -0.542471 0.563559 0.000000
vt -0.847347 0.707342 0.000000
vt -0.575845 0.399413 0.000000
vt -0.891580 0.558113 0.000000
vt -0.919446 0.404309 0.000000
vt -0.590763 0.232258 0.000000
vt -0.934941 0.247047 0.000000
vt -0.595703 0.063477 0.000000
vt -0.945312 -0.073242 0.000000
vt -0.530156 -0.361642 0.000000
vt -0.936482 -0.357023 0.000000
vt -0.541016 -0.485352 0.000000
vt -0.922689 -0.496213 0.000000
vt -0.897641 -0.632161 0.000000
vt -0.534942 -0.575195 0.000000
vt -0.857687 -0.763818 0.000000
vt -0.521650 -0.663438 0.000000
vt -0.802873 -0.891195 0.000000
vt -0.496353 -0.749020 0.000000
vt -0.667969 -1.138672 0.000000
vt -0.463867 -0.833008 0.000000
vt -0.422603 -0.907166 0.000000
vt -0.514480 -1.276182 0.000000
vt -0.374560 -0.975489 0.000000
vt -0.433324 -1.335209 0.000000
vt -0.314900 -1.033809 0.000000
vt -0.346874 -1.382561 0.000000
vt -0.248047 -1.085937 0.000000
vt -0.254015 -1.415777 0.000000
vt -0.179522 -1.121967 0.000000
vt -0.155955 -1.437526 0.000000
vt -0.108721 -1.150302 0.000000
vt -0.034058 -1.165573 0.000000
vt 0.048828 -1.461914 0.000000
vt 0.042969 -1.172852 0.000000
vt 0.169992 -1.453097 0.000000
vt 0.152433 -1.157631 0.000000
vt 0.287971 -1.432495 0.000000
vt 0.254266 -1.125940 0.000000
vt 0.400531 -1.391835 0.000000
vt 0.343673 -1.067429 0.000000
vt 0.509766 -1.338867 0.000000
vt 0.425781 -0.993164 0.000000
vt 0.607177 -1.266183 0.000000
vt 0.497819 -0.882046 0.000000
vt 0.694836 -1.184656 0.000000
vt 0.528089 -0.824519 0.000000
vt 0.766626 -1.088739 0.000000
vt 0.551474 -0.764636 0.000000
vt 0.829102 -0.984375 0.000000
vt 0.878603 -0.863901 0.000000
vt 0.576730 -0.637506 0.000000
vt 0.916865 -0.740805 0.000000
vt 0.936593 -0.613386 0.000000
vt 0.585937 -0.504883 0.000000
vt 0.945312 -0.483398 0.000000
vt 0.928825 -0.299046 0.000000
vt 0.576783 -0.377218 0.000000
vt 0.913068 -0.209711 0.000000
vt 0.888292 -0.123784 0.000000
vt 0.551795 -0.255138 0.000000
vt 0.852129 -0.042161 0.000000
vt 0.806239 0.035785 0.000000
vt 0.528692 -0.197840 0.000000
vt 0.698242 0.185547 0.000000
vt 0.498812 -0.142932 0.000000
vt 0.427734 -0.037109 0.000000
vt 0.567541 0.294223 0.000000
vt 0.498970 0.341091 0.000000
vt 0.341047 0.035581 0.000000
vt 0.426536 0.378997 0.000000
vt 0.349357 0.405893 0.000000
vt 0.247265 0.091821 0.000000
vt 0.268276 0.423737 0.000000
vt 0.141766 0.120887 0.000000
vt 0.099609 0.444336 0.000000
vt 0.029297 0.133789 0.000000
vt -0.000452 0.436835 0.000000
vt -0.084194 0.120439 0.000000
vt -0.098393 0.420601 0.000000
vt -0.192821 0.389905 0.000000
vt -0.190913 0.091067 0.000000
vt -0.285156 0.350586 0.000000
vt -0.286343 0.034990 0.000000
vt -0.375875 0.293072 0.000000
vt -0.459295 0.227601 0.000000
vt -0.375000 -0.037109 0.000000
vt -0.530934 0.149284 0.000000
vt -0.447865 -0.137249 0.000000
vt -0.478778 -0.189416 0.000000
vt -0.503071 -0.244100 0.000000
vt -0.734505 1.158794 0.000000
vt -0.497198 0.880693 0.000000
vt -0.635742 1.272461 0.000000
vt -0.458696 0.953443 0.000000
vt -0.412109 1.022461 0.000000
vt -0.777885 1.098932 0.000000
vt -0.524179 0.802626 0.000000
vt -0.814066 1.035436 0.000000
vt -0.841880 0.967718 0.000000
vt -0.544922 0.721680 0.000000
vt -0.863096 0.896670 0.000000
vt -0.894531 0.749023 0.000000
vt -0.335352 1.086047 0.000000
vt -0.444839 1.391121 0.000000
vt -0.509960 1.355796 0.000000
vt -0.377044 1.418840 0.000000
vt -0.252511 1.135433 0.000000
vt -0.306145 1.437728 0.000000
vt -0.232800 1.449656 0.000000
vt -0.159556 1.161209 0.000000
vt -0.082031 1.461914 0.000000
vt -0.060547 1.172852 0.000000
vt 0.018506 1.165997 0.000000
vt 0.125027 1.438204 0.000000
vt 0.094690 1.150206 0.000000
vt 0.224037 1.416547 0.000000
vt 0.166016 1.119275 0.000000
vt 0.234375 1.079102 0.000000
vt 0.316956 1.003619 0.000000
vt 0.404467 1.335066 0.000000
vt 0.317626 1.383127 0.000000
vt 0.485668 1.274771 0.000000
vt 0.389800 0.920814 0.000000
vt 0.638672 1.133789 0.000000
vt 0.447326 0.826493 0.000000
vt 0.496094 0.725586 0.000000
vt 0.786939 0.852049 0.000000
vt 0.542471 0.563559 0.000000
vt 0.847347 0.707342 0.000000
vt 0.575845 0.399413 0.000000
vt 0.891580 0.558113 0.000000
vt 0.919446 0.404309 0.000000
vt 0.590763 0.232258 0.000000
vt 0.934941 0.247047 0.000000
vt 0.595703 0.063477 0.000000
vt 0.945312 -0.073242 0.000000
vt 0.530156 -0.361642 0.000000
vt 0.936482 -0.357023 0.000000
vt 0.541016 -0.485352 0.000000
vt 0.922689 -0.496213 0.000000
vt 0.897641 -0.632161 0.000000
vt 0.534942 -0.575195 0.000000
vt 0.857687 -0.763818 0.000000
vt 0.521650 -0.663438 0.000000
vt 0.802873 -0.891195 0.000000
vt 0.496353 -0.749020 0.000000
vt 0.667969 -1.138672 0.000000
vt 0.463867 -0.833008 0.000000
vt 0.422603 -0.907166 0.000000
vt 0.530934 0.149284 0.000000
vt 0.447865 -0.137249 0.000000
vt 0.478778 -0.189416 0.000000
vt 0.503071 -0.244100 0.000000
vt 0.375000 -0.037109 0.000000
vt 0.459295 0.227601 0.000000
vt 0.286343 0.034990 0.000000
vt 0.375875 0.293072 0.000000
vt 0.285156 0.350586 0.000000
vt 0.190913 0.091067 0.000000
vt 0.192821 0.389905 0.000000
vt 0.084194 0.120439 0.000000
vt 0.098393 0.420601 0.000000
vt 0.000452 0.436835 0.000000
vt -0.029297 0.133789 0.000000
vt -0.099609 0.444336 0.000000
vt -0.141766 0.120887 0.000000
vt -0.268276 0.423737 0.000000
vt -0.247265 0.091821 0.000000
vt -0.349357 0.405893 0.000000
vt -0.341047 0.035581 0.000000
vt -0.426536 0.378997 0.000000
vt -0.498970 0.341091 0.000000
vt -0.427734 -0.037109 0.000000
vt -0.567541 0.294223 0.000000
vt -0.698242 0.185547 0.000000
vt -0.806239 0.035785 0.000000
vt -0.528692 -0.197840 0.000000
vt -0.498812 -0.142932 0.000000
vt -0.551795 -0.255138 0.000000
vt -0.852129 -0.042161 0.000000
vt -0.888292 -0.123784 0.000000
vt -0.576783 -0.377218 0.000000
vt -0.913068 -0.209711 0.000000
vt -0.928825 -0.299046 0.000000
vt -0.585937 -0.504883 0.000000
vt -0.945312 -0.483398 0.000000
vt -0.936593 -0.613386 0.000000
vt -0.576730 -0.637506 0.000000
vt -0.916865 -0.740805 0.000000
vt -0.878603 -0.863901 0.000000
vt -0.551474 -0.764636 0.000000
vt -0.829102 -0.984375 0.000000
vt -0.766626 -1.088739 0.000000
vt -0.528089 -0.824519 0.000000
vt -0.694836 -1.184656 0.000000
vt -0.497819 -0.882046 0.000000
vt -0.607177 -1.266183 0.000000
vt -0.425781 -0.993164 0.000000
vt -0.509766 -1.338867 0.000000
vt -0.343673 -1.067429 0.000000
vt -0.400531 -1.391835 0.000000
vt -0.254266 -1.125940 0.000000
vt -0.287971 -1.432495 0.000000
vt -0.152433 -1.157631 0.000000
vt -0.169992 -1.453097 0.000000
vt -0.042969 -1.172852 0.000000
vt -0.048828 -1.461914 0.000000
vt 0.034058 -1.165573 0.000000
vt 0.155955 -1.437526 0.000000
vt 0.108721 -1.150302 0.000000
vt 0.179522 -1.121967 0.000000
vt 0.254015 -1.415777 0.000000
vt 0.248047 -1.085937 0.000000
vt 0.346874 -1.382561 0.000000
vt 0.314900 -1.033809 0.000000
vt 0.433324 -1.335209 0.000000
vt 0.374560 -0.975489 0.000000
vt 0.514480 -1.276182 0.000000
vn 0.092773 0.000000 -0.037325
vn 0.094208 0.000000 -0.033539
vn 0.092773 0.000000 -0.037325
vn 0.094208 0.000000 -0.033539
vn 0.097620 0.000000 -0.021686
vn 0.097620 0.000000 -0.021686
vn 0.099552 0.000000 -0.009452
vn 0.099552 0.000000 -0.009452
vn 0.099854 0.000000 -0.005397
vn 0.099854 0.000000 -0.005397
vn 0.060043 0.000000 -0.079968
vn 0.064354 0.000000 -0.076541
vn 0.060043 0.000000 -0.079968
vn 0.064354 0.000000 -0.076541
vn 0.076343 0.000000 -0.064589
vn 0.076343 0.000000 -0.064589
vn 0.085647 0.000000 -0.051620
vn 0.085647 0.000000 -0.051620
vn 0.088203 0.000000 -0.047119
vn 0.088203 0.000000 -0.047119
vn 0.007658 0.000000 -0.099706
vn 0.012932 0.000000 -0.099160
vn 0.007658 0.000000 -0.099706
vn 0.012932 0.000000 -0.099160
vn 0.028871 0.000000 -0.095742
vn 0.028871 0.000000 -0.095742
vn 0.043493 0.000000 -0.090046
vn 0.043493 0.000000 -0.090046
vn 0.048026 0.000000 -0.087713
vn 0.048026 0.000000 -0.087713
vn -0.068895 0.000000 -0.072481
vn -0.063238 0.000000 -0.077466
vn -0.068895 0.000000 -0.072481
vn -0.063238 0.000000 -0.077466
vn -0.042927 0.000000 -0.090318
vn -0.042927 0.000000 -0.090318
vn -0.019017 0.000000 -0.098175
vn -0.019017 0.000000 -0.098175
vn -0.011195 0.000000 -0.099371
vn -0.011195 0.000000 -0.099371
vn -0.099881 0.000000 -0.004887
vn -0.099386 0.000000 -0.011062
vn -0.099881 0.000000 -0.004887
vn -0.099386 0.000000 -0.011062
vn -0.095374 0.000000 -0.030062
vn -0.095374 0.000000 -0.030062
vn -0.090697 0.000000 -0.042120
vn -0.090697 0.000000 -0.042120
vn -0.086424 0.000000 -0.050308
vn -0.086424 0.000000 -0.050308
vn -0.082603 0.000000 -0.056363
vn -0.082603 0.000000 -0.056363
vn -0.081642 0.000000 0.057746
vn -0.085654 0.000000 0.051607
vn -0.081642 0.000000 0.057746
vn -0.085654 0.000000 0.051607
vn -0.090155 0.000000 0.043267
vn -0.090155 0.000000 0.043267
vn -0.095099 0.000000 0.030923
vn -0.095099 0.000000 0.030923
vn -0.099348 0.000000 0.011397
vn -0.099348 0.000000 0.011397
vn -0.099872 0.000000 0.005060
vn -0.099872 0.000000 0.005060
vn -0.008948 0.000000 0.099599
vn -0.016381 0.000000 0.098649
vn -0.008948 0.000000 0.099599
vn -0.016381 0.000000 0.098649
vn -0.039244 0.000000 0.091978
vn -0.039244 0.000000 0.091978
vn -0.060239 0.000000 0.079820
vn -0.060239 0.000000 0.079820
vn -0.066156 0.000000 0.074990
vn -0.066156 0.000000 0.074990
vn 0.064952 -0.000000 0.076035
vn 0.059187 -0.000000 0.080603
vn 0.064952 -0.000000 0.076035
vn 0.059187 -0.000000 0.080603
vn 0.038934 -0.000000 0.092109
vn 0.038934 -0.000000 0.092109
vn 0.016571 -0.000000 0.098617
vn 0.016571 -0.000000 0.098617
vn 0.009277 -0.000000 0.099569
vn 0.009277 -0.000000 0.099569
vn 0.099787 -0.000000 0.006524
vn 0.099118 -0.000000 0.013254
vn 0.099787 -0.000000 0.006524
vn 0.099118 -0.000000 0.013254
vn 0.094051 -0.000000 0.033977
vn 0.094051 -0.000000 0.033977
vn 0.088544 -0.000000 0.046476
vn 0.088544 -0.000000 0.046476
vn 0.083682 -0.000000 0.054747
vn 0.083682 -0.000000 0.054747
vn 0.079402 -0.000000 0.060789
vn 0.079402 -0.000000 0.060789
vn 0.007797 -0.000000 0.099696
vn 0.007797 -0.000000 0.099696
vn 0.007797 -0.000000 0.099696
vn 0.007797 -0.000000 0.099696
vn -0.081886 0.000000 0.057400
vn -0.084822 0.000000 0.052965
vn -0.081886 0.000000 0.057400
vn -0.084822 0.000000 0.052965
vn -0.092023 0.000000 0.039137
vn -0.092023 0.000000 0.039137
vn -0.096162 0.000000 0.027438
vn -0.096162 0.000000 0.027438
vn -0.097195 0.000000 0.023518
vn -0.097195 0.000000 0.023518
vn -0.009246 0.000000 0.099572
vn -0.016626 0.000000 0.098608
vn -0.009246 0.000000 0.099572
vn -0.016626 0.000000 0.098608
vn -0.039283 0.000000 0.091961
vn -0.039283 0.000000 0.091961
vn -0.059846 0.000000 0.080115
vn -0.059846 0.000000 0.080115
vn -0.065668 0.000000 0.075417
vn -0.065668 0.000000 0.075417
vn 0.052365 -0.000000 0.085194
vn 0.047164 -0.000000 0.088179
vn 0.052365 -0.000000 0.085194
vn 0.047164 -0.000000 0.088179
vn 0.030037 -0.000000 0.095382
vn 0.030037 -0.000000 0.095382
vn 0.012493 -0.000000 0.099217
vn 0.012493 -0.000000 0.099217
vn 0.006731 -0.000000 0.099773
vn 0.006731 -0.000000 0.099773
vn 0.090718 -0.000000 0.042073
vn 0.088590 -0.000000 0.046387
vn 0.090718 -0.000000 0.042073
vn 0.088590 -0.000000 0.046387
vn 0.080778 -0.000000 0.058948
vn 0.080778 -0.000000 0.058948
vn 0.070074 -0.000000 0.071342
vn 0.070074 -0.000000 0.071342
vn 0.066144 -0.000000 0.075000
vn 0.066144 -0.000000 0.075000
vn 0.099981 -0.000000 0.001938
vn 0.099880 -0.000000 0.004907
vn 0.099981 -0.000000 0.001938
vn 0.099880 -0.000000 0.004907
vn 0.099032 -0.000000 0.013878
vn 0.099032 -0.000000 0.013878
vn 0.096825 -0.000000 0.025000
vn 0.096825 -0.000000 0.025000
vn 0.095774 -0.000000 0.028765
vn 0.095774 -0.000000 0.028765
vn -0.052148 0.000000 -0.085326
vn -0.056316 0.000000 -0.082635
vn -0.052148 0.000000 -0.085326
vn -0.056316 0.000000 -0.082635
vn -0.068165 0.000000 -0.073167
vn -0.068165 0.000000 -0.073167
vn -0.077899 0.000000 -0.062703
vn -0.077899 0.000000 -0.062703
vn -0.080736 0.000000 -0.059005
vn -0.080736 0.000000 -0.059005
vn -0.006010 0.000000 -0.099819
vn -0.010423 0.000000 -0.099455
vn -0.006010 0.000000 -0.099819
vn -0.010423 0.000000 -0.099455
vn -0.023747 0.000000 -0.097140
vn -0.023747 0.000000 -0.097140
vn -0.036475 0.000000 -0.093111
vn -0.036475 0.000000 -0.093111
vn -0.040509 0.000000 -0.091428
vn -0.040509 0.000000 -0.091428
vn 0.065784 0.000000 -0.075316
vn 0.060041 0.000000 -0.079969
vn 0.065784 0.000000 -0.075316
vn 0.060041 0.000000 -0.079969
vn 0.052084 0.000000 -0.085365
vn 0.052084 0.000000 -0.085365
vn 0.039778 0.000000 -0.091748
vn 0.039778 0.000000 -0.091748
vn 0.026568 0.000000 -0.096406
vn 0.026568 0.000000 -0.096406
vn 0.017086 0.000000 -0.098530
vn 0.017086 0.000000 -0.098530
vn 0.009682 0.000000 -0.099530
vn 0.009682 0.000000 -0.099530
vn 0.099775 0.000000 -0.006699
vn 0.099099 0.000000 -0.013391
vn 0.099775 0.000000 -0.006699
vn 0.099099 0.000000 -0.013391
vn 0.097560 0.000000 -0.021958
vn 0.097560 0.000000 -0.021958
vn 0.094052 0.000000 -0.033973
vn 0.094052 0.000000 -0.033973
vn 0.088638 0.000000 -0.046296
vn 0.088638 0.000000 -0.046296
vn 0.083875 0.000000 -0.054452
vn 0.083875 0.000000 -0.054452
vn 0.079682 0.000000 -0.060421
vn 0.079682 0.000000 -0.060421
vn 0.091934 -0.000000 0.039347
vn 0.093569 -0.000000 0.035281
vn 0.091934 -0.000000 0.039347
vn 0.093569 -0.000000 0.035281
vn 0.097441 -0.000000 0.022479
vn 0.097441 -0.000000 0.022479
vn 0.099543 -0.000000 0.009550
vn 0.099543 -0.000000 0.009550
vn 0.099861 -0.000000 0.005272
vn 0.099861 -0.000000 0.005272
vn 0.058378 -0.000000 0.081191
vn 0.062623 -0.000000 0.077964
vn 0.058378 -0.000000 0.081191
vn 0.062623 -0.000000 0.077964
vn 0.074512 -0.000000 0.066693
vn 0.074512 -0.000000 0.066693
vn 0.084005 -0.000000 0.054251
vn 0.084005 -0.000000 0.054251
vn 0.086654 -0.000000 0.049911
vn 0.086654 -0.000000 0.049911
vn 0.005622 -0.000000 0.099842
vn 0.010553 -0.000000 0.099442
vn 0.005622 -0.000000 0.099842
vn 0.010553 -0.000000 0.099442
vn 0.025509 -0.000000 0.096692
vn 0.025509 -0.000000 0.096692
vn 0.040492 -0.000000 0.091435
vn 0.040492 -0.000000 0.091435
vn 0.045167 -0.000000 0.089218
vn 0.045167 -0.000000 0.089218
vn -0.068652 0.000000 0.072711
vn -0.062643 0.000000 0.077948
vn -0.068652 0.000000 0.072711
vn -0.062643 0.000000 0.077948
vn -0.054185 0.000000 0.084047
vn -0.054185 0.000000 0.084047
vn -0.040923 0.000000 0.091243
vn -0.040923 0.000000 0.091243
vn -0.026996 0.000000 0.096287
vn -0.026996 0.000000 0.096287
vn -0.017024 0.000000 0.098540
vn -0.017024 0.000000 0.098540
vn -0.009275 0.000000 0.099569
vn -0.009275 0.000000 0.099569
vn -0.099991 0.000000 0.001342
vn -0.099776 0.000000 0.006690
vn -0.099991 0.000000 0.001342
vn -0.099776 0.000000 0.006690
vn -0.099082 0.000000 0.013519
vn -0.099082 0.000000 0.013519
vn -0.097276 0.000000 0.023181
vn -0.097276 0.000000 0.023181
vn -0.093733 0.000000 0.034845
vn -0.093733 0.000000 0.034845
vn -0.090044 0.000000 0.043498
vn -0.090044 0.000000 0.043498
vn -0.086620 0.000000 0.049969
vn -0.086620 0.000000 0.049969
vn -0.087389 0.000000 -0.048612
vn -0.090589 0.000000 -0.042351
vn -0.087389 0.000000 -0.048612
vn -0.090589 0.000000 -0.042351
vn -0.094036 0.000000 -0.034018
vn -0.094036 0.000000 -0.034018
vn -0.097380 0.000000 -0.022743
vn -0.097380 0.000000 -0.022743
vn -0.099104 0.000000 -0.013360
vn -0.099104 0.000000 -0.013360
vn -0.099774 0.000000 -0.006721
vn -0.099774 0.000000 -0.006721
vn -0.099989 0.000000 -0.001514
vn -0.099989 0.000000 -0.001514
vn -0.008789 0.000000 -0.099613
vn -0.016658 0.000000 -0.098603
vn -0.008789 0.000000 -0.099613
vn -0.016658 0.000000 -0.098603
vn -0.026812 0.000000 -0.096339
vn -0.026812 0.000000 -0.096339
vn -0.041023 0.000000 -0.091198
vn -0.041023 0.000000 -0.091198
vn -0.054813 0.000000 -0.083639
vn -0.054813 0.000000 -0.083639
vn -0.063563 0.000000 -0.077199
vn -0.063563 0.000000 -0.077199
vn -0.069733 0.000000 -0.071675
vn -0.069733 0.000000 -0.071675
vn 0.057126 0.000000 -0.082077
vn 0.051289 0.000000 -0.085846
vn 0.057126 0.000000 -0.082077
vn 0.051289 0.000000 -0.085846
vn 0.043399 0.000000 -0.090092
vn 0.043399 0.000000 -0.090092
vn 0.031630 0.000000 -0.094866
vn 0.031630 0.000000 -0.094866
vn 0.020353 0.000000 -0.097907
vn 0.020353 0.000000 -0.097907
vn 0.012318 0.000000 -0.099238
vn 0.012318 0.000000 -0.099238
vn 0.006024 0.000000 -0.099818
vn 0.006024 0.000000 -0.099818
vn 0.098222 0.000000 -0.018773
vn 0.096834 0.000000 -0.024964
vn 0.098222 0.000000 -0.018773
vn 0.096834 0.000000 -0.024964
vn 0.094470 0.000000 -0.032792
vn 0.094470 0.000000 -0.032792
vn 0.089982 0.000000 -0.043627
vn 0.089982 0.000000 -0.043627
vn 0.083709 0.000000 -0.054707
vn 0.083709 0.000000 -0.054707
vn 0.078464 0.000000 -0.061995
vn 0.078464 0.000000 -0.061995
vn 0.073961 0.000000 -0.067303
vn 0.073961 0.000000 -0.067303
vn 0.000000 0.100000 0.000000
vn 0.000000 0.100000 0.000000
vn 0.000000 0.100000 0.000000
vn 0.000000 0.100000 0.000000
vn 0.000000 0.100000 0.000000
vn 0.000000 0.100000 0.000000
vn 0.000000 0.100000 0.000000
vn 0.000000 0.100000 0.000000
vn 0.000000 0.100000 0.000000
vn 0.000000 0.100000 0.000000
vn 0.000000 0.100000 0.000000
vn 0.000000 0.100000 0.000000
vn 0.000000 0.100000 0.000000
vn 0.000000 0.100000 0.000000
vn 0.000000 0.100000 0.000000
vn 0.000000 0.100000 0.000000
vn 0.000000 0.100000 0.000000
vn 0.000000 0.100000 0.000000
vn 0.000000 0.100000 0.000000
vn 0.000000 0.100000 0.000000
vn 0.000000 0.100000 0.000000
vn 0.000000 0.100000 0.000000
vn 0.000000 0.100000 0.000000
vn 0.000000 0.100000 0.000000
vn 0.000000 0.100000 0.000000
vn 0.000000 0.100000 0.000000
vn 0.000000 0.100000 0.000000
vn 0.000000 0.100000 0.000000
vn 0.000000 0.100000 0.000000
vn 0.000000 0.100000 0.000000
vn 0.000000 0.100000 0.000000
vn 0.000000 0.100000 0.000000
vn 0.000000 0.100000 0.000000
vn 0.000000 0.100000 0.000000
vn 0.000000 0.100000 0.000000
vn 0.000000 0.100000 0.000000
vn 0.000000 0.100000 0.000000
vn 0.000000 0.100000 0.000000
vn 0.000000 0.100000 0.000000
vn 0.000000 0.100000 0.000000
vn 0.000000 0.100000 0.000000
vn 0.000000 0.100000 0.000000
vn 0.000000 0.100000 0.000000
vn 0.000000 0.100000 0.000000
vn 0.000000 0.100000 0.000000
vn 0.000000 0.100000 0.000000
vn 0.000000 0.100000 0.000000
vn 0.000000 0.100000 0.000000
vn 0.000000 0.100000 0.000000
vn 0.000000 0.100000 0.000000
vn 0.000000 0.100000 0.000000
vn 0.000000 0.100000 0.000000
vn 0.000000 0.100000 0.000000
vn 0.000000 0.100000 0.000000
vn 0.000000 0.100000 0.000000
vn 0.000000 0.100000 0.000000
vn 0.000000 0.100000 0.000000
vn 0.000000 0.100000 0.000000
vn 0.000000 0.100000 0.000000
vn 0.000000 0.100000 0.000000
vn 0.000000 0.100000 0.000000
vn 0.000000 0.100000 0.000000
vn 0.000000 0.100000 0.000000
vn 0.000000 0.100000 0.000000
vn 0.000000 0.100000 0.000000
vn 0.000000 0.100000 0.000000
vn 0.000000 0.100000 0.000000
vn 0.000000 0.100000 0.000000
vn 0.000000 0.100000 0.000000
vn 0.000000 0.100000 0.000000
vn 0.000000 0.100000 0.000000
vn 0.000000 0.100000 0.000000
vn 0.000000 0.100000 0.000000
vn 0.000000 0.100000 0.000000
vn 0.000000 0.100000 0.000000
vn 0.000000 0.100000 0.000000
vn 0.000000 0.100000 0.000000
vn 0.000000 0.100000 0.000000
vn 0.000000 0.100000 0.000000
vn 0.000000 0.100000 0.000000
vn 0.000000 0.100000 0.000000
vn 0.000000 0.100000 0.000000
vn 0.000000 0.100000 0.000000
vn 0.000000 0.100000 0.000000
vn 0.000000 0.100000 0.000000
vn 0.000000 0.100000 0.000000
vn 0.000000 0.100000 0.000000
vn 0.000000 0.100000 0.000000
vn 0.000000 0.100000 0.000000
vn 0.000000 0.100000 0.000000
vn 0.000000 0.100000 0.000000
vn 0.000000 0.100000 0.000000
vn 0.000000 0.100000 0.000000
vn 0.000000 0.100000 0.000000
vn 0.000000 0.100000 0.000000
vn 0.000000 0.100000 0.000000
vn 0.000000 0.100000 0.000000
vn 0.000000 0.100000 0.000000
vn 0.000000 0.100000 0.000000
vn 0.000000 0.100000 0.000000
vn 0.000000 0.100000 0.000000
vn 0.000000 0.100000 0.000000
vn 0.000000 0.100000 0.000000
vn 0.000000 0.100000 0.000000
vn 0.000000 0.100000 0.000000
vn 0.000000 0.100000 0.000000
vn 0.000000 0.100000 0.000000
vn 0.000000 0.100000 0.000000
vn 0.000000 0.100000 0.000000
vn 0.000000 0.100000 0.000000
vn 0.000000 0.100000 0.000000
vn 0.000000 0.100000 0.000000
vn 0.000000 0.100000 0.000000
vn 0.000000 0.100000 0.000000
vn 0.000000 0.100000 0.000000
vn 0.000000 0.100000 0.000000
vn 0.000000 0.100000 0.000000
vn 0.000000 0.100000 0.000000
vn 0.000000 0.100000 0.000000
vn 0.000000 0.100000 0.000000
vn 0.000000 0.100000 0.000000
vn 0.000000 0.100000 0.000000
vn 0.000000 0.100000 0.000000
vn 0.000000 0.100000 0.000000
vn 0.000000 0.100000 0.000000
vn 0.000000 0.100000 0.000000
vn 0.000000 0.100000 0.000000
vn 0.000000 0.100000 0.000000
vn 0.000000 -0.100000 0.000000
vn 0.000000 -0.100000 0.000000
vn 0.000000 -0.100000 0.000000
vn 0.000000 -0.100000 0.000000
vn 0.000000 -0.100000 0.000000
vn 0.000000 -0.100000 0.000000
vn 0.000000 -0.100000 0.000000
vn 0.000000 -0.100000 0.000000
vn 0.000000 -0.100000 0.000000
vn 0.000000 -0.100000 0.000000
vn 0.000000 -0.100000 0.000000
vn 0.000000 -0.100000 0.000000
vn 0.000000 -0.100000 0.000000
vn 0.000000 -0.100000 0.000000
vn 0.000000 -0.100000 0.000000
vn 0.000000 -0.100000 0.000000
vn 0.000000 -0.100000 0.000000
vn 0.000000 -0.100000 0.000000
vn 0.000000 -0.100000 0.000000
vn 0.000000 -0.100000 0.000000
vn 0.000000 -0.100000 0.000000
vn 0.000000 -0.100000 0.000000
vn 0.000000 -0.100000 0.000000
vn 0.000000 -0.100000 0.000000
vn 0.000000 -0.100000 0.000000
vn 0.000000 -0.100000 0.000000
vn 0.000000 -0.100000 0.000000
vn 0.000000 -0.100000 0.000000
vn 0.000000 -0.100000 0.000000
vn 0.000000 -0.100000 0.000000
vn 0.000000 -0.100000 0.000000
vn 0.000000 -0.100000 0.000000
vn 0.000000 -0.100000 0.000000
vn 0.000000 -0.100000 0.000000
vn 0.000000 -0.100000 0.000000
vn 0.000000 -0.100000 0.000000
vn 0.000000 -0.100000 0.000000
vn 0.000000 -0.100000 0.000000
vn 0.000000 -0.100000 0.000000
vn 0.000000 -0.100000 0.000000
vn 0.000000 -0.100000 0.000000
vn 0.000000 -0.100000 0.000000
vn 0.000000 -0.100000 0.000000
vn 0.000000 -0.100000 0.000000
vn 0.000000 -0.100000 0.000000
vn 0.000000 -0.100000 0.000000
vn 0.000000 -0.100000 0.000000
vn 0.000000 -0.100000 0.000000
vn 0.000000 -0.100000 0.000000
vn 0.000000 -0.100000 0.000000
vn 0.000000 -0.100000 0.000000
vn 0.000000 -0.100000 0.000000
vn 0.000000 -0.100000 0.000000
vn 0.000000 -0.100000 0.000000
vn 0.000000 -0.100000 0.000000
vn 0.000000 -0.100000 0.000000
vn 0.000000 -0.100000 0.000000
vn 0.000000 -0.100000 0.000000
vn 0.000000 -0.100000 0.000000
vn 0.000000 -0.100000 0.000000
vn 0.000000 -0.100000 0.000000
vn 0.000000 -0.100000 0.000000
vn 0.000000 -0.100000 0.000000
vn 0.000000 -0.100000 0.000000
vn 0.000000 -0.100000 0.000000
vn 0.000000 -0.100000 0.000000
vn 0.000000 -0.100000 0.000000
vn 0.000000 -0.100000 0.000000
vn 0.000000 -0.100000 0.000000
vn 0.000000 -0.100000 0.000000
vn 0.000000 -0.100000 0.000000
vn 0.000000 -0.100000 0.000000
vn 0.000000 -0.100000 0.000000
vn 0.000000 -0.100000 0.000000
vn 0.000000 -0.100000 0.000000
vn 0.000000 -0.100000 0.000000
vn 0.000000 -0.100000 0.000000
vn 0.000000 -0.100000 0.000000
vn 0.000000 -0.100000 0.000000
vn 0.000000 -0.100000 0.000000
vn 0.000000 -0.100000 0.000000
vn 0.000000 -0.100000 0.000000
vn 0.000000 -0.100000 0.000000
vn 0.000000 -0.100000 0.000000
vn 0.000000 -0.100000 0.000000
vn 0.000000 -0.100000 0.000000
vn 0.000000 -0.100000 0.000000
vn 0.000000 -0.100000 0.000000
vn 0.000000 -0.100000 0.000000
vn 0.000000 -0.100000 0.000000
vn 0.000000 -0.100000 0.000000
vn 0.000000 -0.100000 0.000000
vn 0.000000 -0.100000 0.000000
vn 0.000000 -0.100000 0.000000
vn 0.000000 -0.100000 0.000000
vn 0.000000 -0.100000 0.000000
vn 0.000000 -0.100000 0.000000
vn 0.000000 -0.100000 0.000000
vn 0.000000 -0.100000 0.000000
vn 0.000000 -0.100000 0.000000
vn 0.000000 -0.100000 0.000000
vn 0.000000 -0.100000 0.000000
vn 0.000000 -0.100000 0.000000
vn 0.000000 -0.100000 0.000000
vn 0.000000 -0.100000 0.000000
vn 0.000000 -0.100000 0.000000
vn 0.000000 -0.100000 0.000000
vn 0.000000 -0.100000 0.000000
vn 0.000000 -0.100000 0.000000
vn 0.000000 -0.100000 0.000000
vn 0.000000 -0.100000 0.000000
vn 0.000000 -0.100000 0.000000
vn 0.000000 -0.100000 0.000000
vn 0.000000 -0.100000 0.000000
vn 0.000000 -0.100000 0.000000
vn 0.000000 -0.100000 0.000000
vn 0.000000 -0.100000 0.000000
vn 0.000000 -0.100000 0.000000
vn 0.000000 -0.100000 0.000000
vn 0.000000 -0.100000 0.000000
vn 0.000000 -0.100000 0.000000
vn 0.000000 -0.100000 0.000000
vn 0.000000 -0.100000 0.000000
vn 0.000000 -0.100000 0.000000
vn 0.000000 -0.100000 0.000000
vn 0.000000 -0.100000 0.000000
vn 0.000000 -0.100000 0.000000
vn 0.000000 -0.100000 0.000000
usemtl Aluminum_-_Anodized_Glossy_(Red)
f 1/1/1 2/2/2 10/3/3
f 10/3/3 2/2/2 9/4/4
f 9/4/4 2/2/2 3/5/5
f 9/4/4 3/5/5 8/6/6
f 8/6/6 3/5/5 4/7/7
f 8/6/6 4/7/7 7/8/8
f 7/8/8 4/7/7 5/9/9
f 7/8/8 5/9/9 6/10/10
f 11/11/11 12/12/12 18/13/13
f 18/13/13 12/12/12 17/14/14
f 17/14/14 12/12/12 13/15/15
f 17/14/14 13/15/15 16/16/16
f 16/16/16 13/15/15 14/17/17
f 16/16/16 14/17/17 15/18/18
f 15/18/18 14/17/17 1/19/19
f 15/18/18 1/19/19 10/20/20
f 19/21/21 20/22/22 26/23/23
f 26/23/23 20/22/22 25/24/24
f 25/24/24 20/22/22 21/25/25
f 25/24/24 21/25/25 24/26/26
f 24/26/26 21/25/25 22/27/27
f 24/26/26 22/27/27 23/28/28
f 23/28/28 22/27/27 11/29/29
f 23/28/28 11/29/29 18/30/30
f 27/31/31 28/32/32 34/33/33
f 34/33/33 28/32/32 33/34/34
f 33/34/34 28/32/32 29/35/35
f 33/34/34 29/35/35 32/36/36
f 32/36/36 29/35/35 30/37/37
f 32/36/36 30/37/37 31/38/38
f 31/38/38 30/37/37 19/39/39
f 31/38/38 19/39/39 26/40/40
f 35/41/41 36/42/42 44/43/43
f 44/43/43 36/42/42 43/44/44
f 43/44/44 36/42/42 37/45/45
f 43/44/44 37/45/45 42/46/46
f 42/46/46 37/45/45 38/47/47
f 42/46/46 38/47/47 41/48/48
f 41/48/48 38/47/47 39/49/49
f 41/48/48 39/49/49 40/50/50
f 40/50/50 39/49/49 27/51/51
f 40/50/50 27/51/51 34/52/52
f 45/53/53 46/54/54 54/55/55
f 54/55/55 46/54/54 53/56/56
f 53/56/56 46/54/54 47/57/57
f 53/56/56 47/57/57 52/58/58
f 52/58/58 47/57/57 48/59/59
f 52/58/58 48/59/59 51/60/60
f 51/60/60 48/59/59 49/61/61
f 51/60/60 49/61/61 50/62/62
f 50/62/62 49/61/61 35/63/63
f 50/62/62 35/63/63 44/64/64
f 55/65/65 56/66/66 62/67/67
f 62/67/67 56/66/66 61/68/68
f 61/68/68 56/66/66 57/69/69
f 61/68/68 57/69/69 60/70/70
f 60/70/70 57/69/69 58/71/71
f 60/70/70 58/71/71 59/72/72
f 59/72/72 58/71/71 45/73/73
f 59/72/72 45/73/73 54/74/74
f 63/75/75 64/76/76 70/77/77
f 70/77/77 64/76/76 69/78/78
f 69/78/78 64/76/76 65/79/79
f 69/78/78 65/79/79 68/80/80
f 68/80/80 65/79/79 66/81/81
f 68/80/80 66/81/81 67/82/82
f 67/82/82 66/81/81 55/83/83
f 67/82/82 55/83/83 62/84/84
f 5/85/85 71/86/86 6/87/87
f 6/87/87 71/86/86 78/88/88
f 78/88/88 71/86/86 72/89/89
f 78/88/88 72/89/89 77/90/90
f 77/90/90 72/89/89 73/91/91
f 77/90/90 73/91/91 76/92/92
f 76/92/92 73/91/91 74/93/93
f 76/92/92 74/93/93 75/94/94
f 75/94/94 74/93/93 63/95/95
f 75/94/94 63/95/95 70/96/96
f 79/97/97 80/98/98 82/99/99
f 82/99/99 80/98/98 81/100/100
f 83/101/101 84/102/102 90/103/103
f 90/103/103 84/102/102 89/104/104
f 89/104/104 84/102/102 85/105/105
f 89/104/104 85/105/105 88/106/106
f 88/106/106 85/105/105 86/107/107
f 88/106/106 86/107/107 87/108/108
f 87/108/108 86/107/107 79/109/109
f 87/108/108 79/109/109 82/110/110
f 91/111/111 92/112/112 98/113/113
f 98/113/113 92/112/112 97/114/114
f 97/114/114 92/112/112 93/115/115
f 97/114/114 93/115/115 96/116/116
f 96/116/116 93/115/115 94/117/117
f 96/116/116 94/117/117 95/118/118
f 95/118/118 94/117/117 83/119/119
f 95/118/118 83/119/119 90/120/120
f 99/121/121 100/122/122 106/123/123
f 106/123/123 100/122/122 105/124/124
f 105/124/124 100/122/122 101/125/125
f 105/124/124 101/125/125 104/126/126
f 104/126/126 101/125/125 102/127/127
f 104/126/126 102/127/127 103/128/128
f 103/128/128 102/127/127 91/129/129
f 103/128/128 91/129/129 98/130/130
f 107/131/131 108/132/132 114/133/133
f 114/133/133 108/132/132 113/134/134
f 113/134/134 108/132/132 109/135/135
f 113/134/134 109/135/135 112/136/136
f 112/136/136 109/135/135 110/137/137
f 112/136/136 110/137/137 111/138/138
f 111/138/138 110/137/137 99/139/139
f 111/138/138 99/139/139 106/140/140
f 115/141/141 116/142/142 122/143/143
f 122/143/143 116/142/142 121/144/144
f 121/144/144 116/142/142 117/145/145
f 121/144/144 117/145/145 120/146/146
f 120/146/146 117/145/145 118/147/147
f 120/146/146 118/147/147 119/148/148
f 119/148/148 118/147/147 107/149/149
f 119/148/148 107/149/149 114/150/150
f 123/151/151 124/152/152 130/153/153
f 130/153/153 124/152/152 129/154/154
f 129/154/154 124/152/152 125/155/155
f 129/154/154 125/155/155 128/156/156
f 128/156/156 125/155/155 126/157/157
f 128/156/156 126/157/157 127/158/158
f 127/158/158 126/157/157 115/159/159
f 127/158/158 115/159/159 122/160/160
f 131/161/161 132/162/162 138/163/163
f 138/163/163 132/162/162 137/164/164
f 137/164/164 132/162/162 133/165/165
f 137/164/164 133/165/165 136/166/166
f 136/166/166 133/165/165 134/167/167
f 136/166/166 134/167/167 135/168/168
f 135/168/168 134/167/167 123/169/169
f 135/168/168 123/169/169 130/170/170
f 139/171/171 140/172/172 150/173/173
f 150/173/173 140/172/172 149/174/174
f 149/174/174 140/172/172 141/175/175
f 149/174/174 141/175/175 148/176/176
f 148/176/176 141/175/175 142/177/177
f 148/176/176 142/177/177 147/178/178
f 147/178/178 142/177/177 143/179/179
f 147/178/178 143/179/179 146/180/180
f 146/180/180 143/179/179 144/181/181
f 146/180/180 144/181/181 145/182/182
f 145/182/182 144/181/181 131/183/183
f 145/182/182 131/183/183 138/184/184
f 151/185/185 152/186/186 162/187/187
f 162/187/187 152/186/186 161/188/188
f 161/188/188 152/186/186 153/189/189
f 161/188/188 153/189/189 160/190/190
f 160/190/190 153/189/189 154/191/191
f 160/190/190 154/191/191 159/192/192
f 159/192/192 154/191/191 155/193/193
f 159/192/192 155/193/193 158/194/194
f 158/194/194 155/193/193 156/195/195
f 158/194/194 156/195/195 157/196/196
f 157/196/196 156/195/195 139/197/197
f 157/196/196 139/197/197 150/198/198
f 163/199/199 164/200/200 170/201/201
f 170/201/201 164/200/200 169/202/202
f 169/202/202 164/200/200 165/203/203
f 169/202/202 165/203/203 168/204/204
f 168/204/204 165/203/203 166/205/205
f 168/204/204 166/205/205 167/206/206
f 167/206/206 166/205/205 151/207/207
f 167/206/206 151/207/207 162/208/208
f 171/209/209 172/210/210 178/211/211
f 178/211/211 172/210/210 177/212/212
f 177/212/212 172/210/210 173/213/213
f 177/212/212 173/213/213 176/214/214
f 176/214/214 173/213/213 174/215/215
f 176/214/214 174/215/215 175/216/216
f 175/216/216 174/215/215 163/217/217
f 175/216/216 163/217/217 170/218/218
f 179/219/219 180/220/220 186/221/221
f 186/221/221 180/220/220 185/222/222
f 185/222/222 180/220/220 181/223/223
f 185/222/222 181/223/223 184/224/224
f 184/224/224 181/223/223 182/225/225
f 184/224/224 182/225/225 183/226/226
f 183/226/226 182/225/225 171/227/227
f 183/226/226 171/227/227 178/228/228
f 187/229/229 188/230/230 198/231/231
f 198/231/231 188/230/230 197/232/232
f 197/232/232 188/230/230 189/233/233
f 197/232/232 189/233/233 196/234/234
f 196/234/234 189/233/233 190/235/235
f 196/234/234 190/235/235 195/236/236
f 195/236/236 190/235/235 191/237/237
f 195/236/236 191/237/237 194/238/238
f 194/238/238 191/237/237 192/239/239
f 194/238/238 192/239/239 193/240/240
f 193/240/240 192/239/239 179/241/241
f 193/240/240 179/241/241 186/242/242
f 199/243/243 200/244/244 210/245/245
f 210/245/245 200/244/244 209/246/246
f 209/246/246 200/244/244 201/247/247
f 209/246/246 201/247/247 208/248/248
f 208/248/248 201/247/247 202/249/249
f 208/248/248 202/249/249 207/250/250
f 207/250/250 202/249/249 203/251/251
f 207/250/250 203/251/251 206/252/252
f 206/252/252 203/251/251 204/253/253
f 206/252/252 204/253/253 205/254/254
f 205/254/254 204/253/253 187/255/255
f 205/254/254 187/255/255 198/256/256
f 211/257/257 212/258/258 222/259/259
f 222/259/259 212/258/258 221/260/260
f 221/260/260 212/258/258 213/261/261
f 221/260/260 213/261/261 220/262/262
f 220/262/262 213/261/261 214/263/263
f 220/262/262 214/263/263 219/264/264
f 219/264/264 214/263/263 215/265/265
f 219/264/264 215/265/265 218/266/266
f 218/266/266 215/265/265 216/267/267
f 218/266/266 216/267/267 217/268/268
f 217/268/268 216/267/267 199/269/269
f 217/268/268 199/269/269 210/270/270
f 223/271/271 224/272/272 234/273/273
f 234/273/273 224/272/272 233/274/274
f 233/274/274 224/272/272 225/275/275
f 233/274/274 225/275/275 232/276/276
f 232/276/276 225/275/275 226/277/277
f 232/276/276 226/277/277 231/278/278
f 231/278/278 226/277/277 227/279/279
f 231/278/278 227/279/279 230/280/280
f 230/280/280 227/279/279 228/281/281
f 230/280/280 228/281/281 229/282/282
f 229/282/282 228/281/281 211/283/283
f 229/282/282 211/283/283 222/284/284
f 235/285/285 236/286/286 246/287/287
f 246/287/287 236/286/286 245/288/288
f 245/288/288 236/286/286 237/289/289
f 245/288/288 237/289/289 244/290/290
f 244/290/290 237/289/289 238/291/291
f 244/290/290 238/291/291 243/292/292
f 243/292/292 238/291/291 239/293/293
f 243/292/292 239/293/293 242/294/294
f 242/294/294 239/293/293 240/295/295
f 242/294/294 240/295/295 241/296/296
f 241/296/296 240/295/295 223/297/297
f 241/296/296 223/297/297 234/298/298
f 80/299/299 247/300/300 81/301/301
f 81/301/301 247/300/300 256/302/302
f 256/302/302 247/300/300 248/303/303
f 256/302/302 248/303/303 255/304/304
f 255/304/304 248/303/303 249/305/305
f 255/304/304 249/305/305 254/306/306
f 254/306/306 249/305/305 250/307/307
f 254/306/306 250/307/307 253/308/308
f 253/308/308 250/307/307 251/309/309
f 253/308/308 251/309/309 252/310/310
f 252/310/310 251/309/309 235/311/311
f 252/310/310 235/311/311 246/312/312
f 81/313/313 256/314/314 82/315/315
f 82/315/315 256/314/314 255/316/316
f 82/315/315 255/316/316 87/317/317
f 87/317/317 255/316/316 254/318/318
f 87/317/317 254/318/318 253/319/319
f 87/317/317 253/319/319 88/320/320
f 88/320/320 253/319/319 252/321/321
f 88/320/320 252/321/321 246/322/322
f 245/323/323 90/324/324 246/322/322
f 246/322/322 90/324/324 89/325/325
f 246/322/322 89/325/325 88/320/320
f 245/323/323 244/326/326 90/324/324
f 90/324/324 244/326/326 95/327/327
f 95/327/327 244/326/326 243/328/328
f 95/327/327 243/328/328 96/329/329
f 96/329/329 243/328/328 242/330/330
f 96/329/329 242/330/330 241/331/331
f 96/329/329 241/331/331 97/332/332
f 97/332/332 241/331/331 234/333/333
f 97/332/332 234/333/333 98/334/334
f 98/334/334 234/333/333 103/335/335
f 103/335/335 234/333/333 233/336/336
f 103/335/335 233/336/336 104/337/337
f 104/337/337 233/336/336 232/338/338
f 104/337/337 232/338/338 105/339/339
f 105/339/339 232/338/338 106/340/340
f 106/340/340 232/338/338 231/341/341
f 106/340/340 231/341/341 230/342/342
f 106/340/340 230/342/342 111/343/343
f 111/343/343 230/342/342 229/344/344
f 111/343/343 229/344/344 112/345/345
f 112/345/345 229/344/344 222/346/346
f 112/345/345 222/346/346 113/347/347
f 113/347/347 222/346/346 114/348/348
f 114/348/348 222/346/346 221/349/349
f 114/348/348 221/349/349 119/350/350
f 119/350/350 221/349/349 220/351/351
f 119/350/350 220/351/351 120/352/352
f 120/352/352 220/351/351 219/353/353
f 120/352/352 219/353/353 218/354/354
f 120/352/352 218/354/354 121/355/355
f 121/355/355 218/354/354 217/356/356
f 121/355/355 217/356/356 122/357/357
f 122/357/357 217/356/356 210/358/358
f 122/357/357 210/358/358 78/359/359
f 78/359/359 210/358/358 209/360/360
f 78/359/359 209/360/360 6/361/361
f 6/361/361 209/360/360 208/362/362
f 6/361/361 208/362/362 207/363/363
f 6/361/361 207/363/363 7/364/364
f 7/364/364 207/363/363 206/365/365
f 7/364/364 206/365/365 8/366/366
f 8/366/366 206/365/365 205/367/367
f 8/366/366 205/367/367 9/368/368
f 9/368/368 205/367/367 198/369/369
f 9/368/368 198/369/369 10/370/370
f 10/370/370 198/369/369 15/371/371
f 15/371/371 198/369/369 197/372/372
f 15/371/371 197/372/372 16/373/373
f 16/373/373 197/372/372 196/374/374
f 16/373/373 196/374/374 17/375/375
f 17/375/375 196/374/374 195/376/376
f 17/375/375 195/376/376 18/377/377
f 18/377/377 195/376/376 194/378/378
f 18/377/377 194/378/378 23/379/379
f 23/379/379 194/378/378 193/380/380
f 23/379/379 193/380/380 24/381/381
f 24/381/381 193/380/380 25/382/382
f 25/382/382 193/380/380 186/383/383
f 25/382/382 186/383/383 26/384/384
f 26/384/384 186/383/383 185/385/385
f 26/384/384 185/385/385 31/386/386
f 31/386/386 185/385/385 184/387/387
f 31/386/386 184/387/387 32/388/388
f 32/388/388 184/387/387 183/389/389
f 32/388/388 183/389/389 33/390/390
f 33/390/390 183/389/389 178/391/391
f 33/390/390 178/391/391 34/392/392
f 34/392/392 178/391/391 177/393/393
f 34/392/392 177/393/393 40/394/394
f 40/394/394 177/393/393 176/395/395
f 40/394/394 176/395/395 41/396/396
f 41/396/396 176/395/395 175/397/397
f 41/396/396 175/397/397 42/398/398
f 42/398/398 175/397/397 170/399/399
f 42/398/398 170/399/399 169/400/400
f 42/398/398 169/400/400 43/401/401
f 43/401/401 169/400/400 168/402/402
f 43/401/401 168/402/402 167/403/403
f 43/401/401 167/403/403 44/404/404
f 44/404/404 167/403/403 162/405/405
f 44/404/404 162/405/405 161/406/406
f 44/404/404 161/406/406 50/407/407
f 50/407/407 161/406/406 160/408/408
f 50/407/407 160/408/408 159/409/409
f 50/407/407 159/409/409 51/410/410
f 51/410/410 159/409/409 158/411/411
f 51/410/410 158/411/411 157/412/412
f 51/410/410 157/412/412 52/413/413
f 52/413/413 157/412/412 150/414/414
f 52/413/413 150/414/414 53/415/415
f 53/415/415 150/414/414 54/416/416
f 54/416/416 150/414/414 149/417/417
f 54/416/416 149/417/417 148/418/418
f 54/416/416 148/418/418 59/419/419
f 59/419/419 148/418/418 147/420/420
f 59/419/419 147/420/420 146/421/421
f 59/419/419 146/421/421 60/422/422
f 60/422/422 146/421/421 145/423/423
f 60/422/422 145/423/423 61/424/424
f 61/424/424 145/423/423 138/425/425
f 61/424/424 138/425/425 62/426/426
f 62/426/426 138/425/425 137/427/427
f 62/426/426 137/427/427 67/428/428
f 67/428/428 137/427/427 136/429/429
f 67/428/428 136/429/429 135/430/430
f 67/428/428 135/430/430 68/431/431
f 68/431/431 135/430/430 130/432/432
f 68/431/431 130/432/432 69/433/433
f 69/433/433 130/432/432 129/434/434
f 69/433/433 129/434/434 128/435/435
f 69/433/433 128/435/435 70/436/436
f 70/436/436 128/435/435 127/437/437
f 70/436/436 127/437/437 75/438/438
f 75/438/438 127/437/437 122/357/357
f 75/438/438 122/357/357 76/439/439
f 76/439/439 122/357/357 77/440/440
f 77/440/440 122/357/357 78/359/359
f 251/441/441 85/442/442 235/443/443
f 235/443/443 85/442/442 84/444/444
f 235/443/443 84/444/444 83/445/445
f 251/441/441 250/446/446 85/442/442
f 85/442/442 250/446/446 86/447/447
f 86/447/447 250/446/446 249/448/448
f 86/447/447 249/448/448 248/449/449
f 86/447/447 248/449/449 79/450/450
f 79/450/450 248/449/449 247/451/451
f 79/450/450 247/451/451 80/452/452
f 94/453/453 237/454/454 83/445/445
f 83/445/445 237/454/454 236/455/455
f 83/445/445 236/455/455 235/443/443
f 237/454/454 94/453/453 238/456/456
f 238/456/456 94/453/453 93/457/457
f 238/456/456 93/457/457 239/458/458
f 239/458/458 93/457/457 240/459/459
f 240/459/459 93/457/457 92/460/460
f 240/459/459 92/460/460 223/461/461
f 223/461/461 92/460/460 91/462/462
f 223/461/461 91/462/462 102/463/463
f 223/461/461 102/463/463 224/464/464
f 224/464/464 102/463/463 101/465/465
f 224/464/464 101/465/465 225/466/466
f 225/466/466 101/465/465 100/467/467
f 225/466/466 100/467/467 99/468/468
f 110/469/469 227/470/470 99/468/468
f 99/468/468 227/470/470 226/471/471
f 99/468/468 226/471/471 225/466/466
f 227/470/470 110/469/469 228/472/472
f 228/472/472 110/469/469 109/473/473
f 228/472/472 109/473/473 211/474/474
f 211/474/474 109/473/473 108/475/475
f 211/474/474 108/475/475 107/476/476
f 211/474/474 107/476/476 212/477/477
f 212/477/477 107/476/476 118/478/478
f 212/477/477 118/478/478 213/479/479
f 213/479/479 118/478/478 117/480/480
f 213/479/479 117/480/480 214/481/481
f 214/481/481 117/480/480 215/482/482
f 215/482/482 117/480/480 116/483/483
f 215/482/482 116/483/483 216/484/484
f 216/484/484 116/483/483 115/485/485
f 216/484/484 115/485/485 199/486/486
f 199/486/486 115/485/485 71/487/487
f 199/486/486 71/487/487 200/488/488
f 200/488/488 71/487/487 5/489/489
f 200/488/488 5/489/489 201/490/490
f 201/490/490 5/489/489 202/491/491
f 202/491/491 5/489/489 4/492/492
f 202/491/491 4/492/492 203/493/493
f 203/493/493 4/492/492 3/494/494
f 203/493/493 3/494/494 204/495/495
f 204/495/495 3/494/494 2/496/496
f 204/495/495 2/496/496 187/497/497
f 187/497/497 2/496/496 1/498/498
f 187/497/497 1/498/498 14/499/499
f 126/500/500 74/501/501 115/485/485
f 115/485/485 74/501/501 73/502/502
f 115/485/485 73/502/502 72/503/503
f 74/501/501 126/500/500 63/504/504
f 63/504/504 126/500/500 125/505/505
f 63/504/504 125/505/505 64/506/506
f 64/506/506 125/505/505 124/507/507
f 64/506/506 124/507/507 123/508/508
f 64/506/506 123/508/508 65/509/509
f 65/509/509 123/508/508 134/510/510
f 65/509/509 134/510/510 66/511/511
f 66/511/511 134/510/510 133/512/512
f 66/511/511 133/512/512 132/513/513
f 66/511/511 132/513/513 55/514/514
f 55/514/514 132/513/513 131/515/515
f 55/514/514 131/515/515 56/516/516
f 56/516/516 131/515/515 144/517/517
f 56/516/516 144/517/517 57/518/518
f 57/518/518 144/517/517 143/519/519
f 57/518/518 143/519/519 58/520/520
f 58/520/520 143/519/519 142/521/521
f 58/520/520 142/521/521 141/522/522
f 58/520/520 141/522/522 45/523/523
f 45/523/523 141/522/522 140/524/524
f 45/523/523 140/524/524 139/525/525
f 156/526/526 47/527/527 139/525/525
f 139/525/525 47/527/527 46/528/528
f 139/525/525 46/528/528 45/523/523
f 47/527/527 156/526/526 48/529/529
f 48/529/529 156/526/526 155/530/530
f 48/529/529 155/530/530 154/531/531
f 48/529/529 154/531/531 49/532/532
f 49/532/532 154/531/531 153/533/533
f 49/532/532 153/533/533 152/534/534
f 49/532/532 152/534/534 35/535/535
f 35/535/535 152/534/534 151/536/536
f 35/535/535 151/536/536 166/537/537
f 35/535/535 166/537/537 36/538/538
f 36/538/538 166/537/537 165/539/539
f 36/538/538 165/539/539 164/540/540
f 36/538/538 164/540/540 37/541/541
f 37/541/541 164/540/540 163/542/542
f 37/541/541 163/542/542 174/543/543
f 37/541/541 174/543/543 38/544/544
f 38/544/544 174/543/543 173/545/545
f 38/544/544 173/545/545 39/546/546
f 39/546/546 173/545/545 172/547/547
f 39/546/546 172/547/547 27/548/548
f 27/548/548 172/547/547 171/549/549
f 27/548/548 171/549/549 28/550/550
f 28/550/550 171/549/549 182/551/551
f 28/550/550 182/551/551 29/552/552
f 29/552/552 182/551/551 181/553/553
f 29/552/552 181/553/553 30/554/554
f 30/554/554 181/553/553 180/555/555
f 30/554/554 180/555/555 19/556/556
f 19/556/556 180/555/555 179/557/557
f 19/556/556 179/557/557 20/558/558
f 20/558/558 179/557/557 192/559/559
f 20/558/558 192/559/559 21/560/560
f 21/560/560 192/559/559 22/561/561
f 22/561/561 192/559/559 191/562/562
f 22/561/561 191/562/562 11/563/563
f 11/563/563 191/562/562 190/564/564
f 11/563/563 190/564/564 12/565/565
f 12/565/565 190/564/564 189/566/566
f 12/565/565 189/566/566 13/567/567
f 13/567/567 189/566/566 188/568/568
f 13/567/567 188/568/568 14/499/499
f 14/499/499 188/568/568 187/497/497
f 72/503/503 71/487/487 115/485/485

# 256 vertices
# 568 texture params
# 568 normals
# 512 facets

# 1 groups
