%YAML 1.1
%TAG !u! tag:unity3d.com,2011:
--- !u!1001 &910743434608596687
PrefabInstance:
  m_ObjectHideFlags: 0
  serializedVersion: 2
  m_Modification:
    m_TransformParent: {fileID: 0}
    m_Modifications:
    - target: {fileID: 1717406733745140, guid: d03c4353fda446d4f8df56d422578d64, type: 3}
      propertyPath: m_Name
      value: Wooden Bow Variant
      objectReference: {fileID: 0}
    - target: {fileID: 4620178347958848, guid: d03c4353fda446d4f8df56d422578d64, type: 3}
      propertyPath: m_RootOrder
      value: 0
      objectReference: {fileID: 0}
    - target: {fileID: 4620178347958848, guid: d03c4353fda446d4f8df56d422578d64, type: 3}
      propertyPath: m_LocalScale.x
      value: 0.8
      objectReference: {fileID: 0}
    - target: {fileID: 4620178347958848, guid: d03c4353fda446d4f8df56d422578d64, type: 3}
      propertyPath: m_LocalScale.y
      value: 0.8
      objectReference: {fileID: 0}
    - target: {fileID: 4620178347958848, guid: d03c4353fda446d4f8df56d422578d64, type: 3}
      propertyPath: m_LocalScale.z
      value: 0.8
      objectReference: {fileID: 0}
    - target: {fileID: 4620178347958848, guid: d03c4353fda446d4f8df56d422578d64, type: 3}
      propertyPath: m_LocalPosition.x
      value: 9.108664
      objectReference: {fileID: 0}
    - target: {fileID: 4620178347958848, guid: d03c4353fda446d4f8df56d422578d64, type: 3}
      propertyPath: m_LocalPosition.y
      value: 0.727
      objectReference: {fileID: 0}
    - target: {fileID: 4620178347958848, guid: d03c4353fda446d4f8df56d422578d64, type: 3}
      propertyPath: m_LocalPosition.z
      value: -6.170147
      objectReference: {fileID: 0}
    - target: {fileID: 4620178347958848, guid: d03c4353fda446d4f8df56d422578d64, type: 3}
      propertyPath: m_LocalRotation.w
      value: 1
      objectReference: {fileID: 0}
    - target: {fileID: 4620178347958848, guid: d03c4353fda446d4f8df56d422578d64, type: 3}
      propertyPath: m_LocalRotation.x
      value: 0
      objectReference: {fileID: 0}
    - target: {fileID: 4620178347958848, guid: d03c4353fda446d4f8df56d422578d64, type: 3}
      propertyPath: m_LocalRotation.y
      value: 0
      objectReference: {fileID: 0}
    - target: {fileID: 4620178347958848, guid: d03c4353fda446d4f8df56d422578d64, type: 3}
      propertyPath: m_LocalRotation.z
      value: 0
      objectReference: {fileID: 0}
    - target: {fileID: 4620178347958848, guid: d03c4353fda446d4f8df56d422578d64, type: 3}
      propertyPath: m_LocalEulerAnglesHint.x
      value: 0
      objectReference: {fileID: 0}
    - target: {fileID: 4620178347958848, guid: d03c4353fda446d4f8df56d422578d64, type: 3}
      propertyPath: m_LocalEulerAnglesHint.y
      value: 0
      objectReference: {fileID: 0}
    - target: {fileID: 4620178347958848, guid: d03c4353fda446d4f8df56d422578d64, type: 3}
      propertyPath: m_LocalEulerAnglesHint.z
      value: 0
      objectReference: {fileID: 0}
    m_RemovedComponents: []
  m_SourcePrefab: {fileID: 100100000, guid: d03c4353fda446d4f8df56d422578d64, type: 3}
