%YAML 1.1
%TAG !u! tag:unity3d.com,2011:
--- !u!1001 &4010273570391485652
PrefabInstance:
  m_ObjectHideFlags: 0
  serializedVersion: 2
  m_Modification:
    m_TransformParent: {fileID: 0}
    m_Modifications:
    - target: {fileID: -8679921383154817045, guid: 3fb6fe76a5901d045bad5d59c3d02539,
        type: 3}
      propertyPath: m_RootOrder
      value: 0
      objectReference: {fileID: 0}
    - target: {fileID: -8679921383154817045, guid: 3fb6fe76a5901d045bad5d59c3d02539,
        type: 3}
      propertyPath: m_LocalPosition.x
      value: 5.417319
      objectReference: {fileID: 0}
    - target: {fileID: -8679921383154817045, guid: 3fb6fe76a5901d045bad5d59c3d02539,
        type: 3}
      propertyPath: m_LocalPosition.y
      value: -5.971923
      objectReference: {fileID: 0}
    - target: {fileID: -8679921383154817045, guid: 3fb6fe76a5901d045bad5d59c3d02539,
        type: 3}
      propertyPath: m_LocalPosition.z
      value: 0.6898117
      objectReference: {fileID: 0}
    - target: {fileID: -8679921383154817045, guid: 3fb6fe76a5901d045bad5d59c3d02539,
        type: 3}
      propertyPath: m_LocalRotation.w
      value: 1
      objectReference: {fileID: 0}
    - target: {fileID: -8679921383154817045, guid: 3fb6fe76a5901d045bad5d59c3d02539,
        type: 3}
      propertyPath: m_LocalRotation.x
      value: 0
      objectReference: {fileID: 0}
    - target: {fileID: -8679921383154817045, guid: 3fb6fe76a5901d045bad5d59c3d02539,
        type: 3}
      propertyPath: m_LocalRotation.y
      value: -0
      objectReference: {fileID: 0}
    - target: {fileID: -8679921383154817045, guid: 3fb6fe76a5901d045bad5d59c3d02539,
        type: 3}
      propertyPath: m_LocalRotation.z
      value: -0
      objectReference: {fileID: 0}
    - target: {fileID: -8679921383154817045, guid: 3fb6fe76a5901d045bad5d59c3d02539,
        type: 3}
      propertyPath: m_LocalEulerAnglesHint.x
      value: 0
      objectReference: {fileID: 0}
    - target: {fileID: -8679921383154817045, guid: 3fb6fe76a5901d045bad5d59c3d02539,
        type: 3}
      propertyPath: m_LocalEulerAnglesHint.y
      value: 0
      objectReference: {fileID: 0}
    - target: {fileID: -8679921383154817045, guid: 3fb6fe76a5901d045bad5d59c3d02539,
        type: 3}
      propertyPath: m_LocalEulerAnglesHint.z
      value: 0
      objectReference: {fileID: 0}
    - target: {fileID: -7511558181221131132, guid: 3fb6fe76a5901d045bad5d59c3d02539,
        type: 3}
      propertyPath: m_Materials.Array.data[0]
      value: 
      objectReference: {fileID: 2100000, guid: 5293cf3fd49dbe1469e8384bd49ae91a, type: 2}
    - target: {fileID: 919132149155446097, guid: 3fb6fe76a5901d045bad5d59c3d02539,
        type: 3}
      propertyPath: m_Name
      value: Trash_Bin_Blue
      objectReference: {fileID: 0}
    - target: {fileID: 5509048916075752202, guid: 3fb6fe76a5901d045bad5d59c3d02539,
        type: 3}
      propertyPath: m_Materials.Array.data[0]
      value: 
      objectReference: {fileID: 2100000, guid: 5293cf3fd49dbe1469e8384bd49ae91a, type: 2}
    - target: {fileID: 5768486817859361148, guid: 3fb6fe76a5901d045bad5d59c3d02539,
        type: 3}
      propertyPath: m_Materials.Array.data[0]
      value: 
      objectReference: {fileID: 2100000, guid: 5293cf3fd49dbe1469e8384bd49ae91a, type: 2}
    m_RemovedComponents: []
  m_SourcePrefab: {fileID: 100100000, guid: 3fb6fe76a5901d045bad5d59c3d02539, type: 3}
