%YAML 1.1
%TAG !u! tag:unity3d.com,2011:
--- !u!1045 &1
EditorBuildSettings:
  m_ObjectHideFlags: 0
  serializedVersion: 2
  m_Scenes:
  - enabled: 1
    path: Assets/Scenes/VrEnvironment.unity
    guid: 5134c80cfb5e5ac47a56055405ba31cf
  - enabled: 1
    path: Assets/Scenes/Museum.unity
    guid: 72a63dd32164ebd41b5910cec0c39d9f
  - enabled: 1
    path: Assets/Scenes/ArEnvironment.unity
    guid: 77303db9e7d922549be90ac5f8420ea5
  - enabled: 1
    path: Assets/Scenes/IntroScene.unity
    guid: 8d2cf8a7467b81948ae9575b8584217a
  - enabled: 1
    path: Assets/Scenes/VrKingsHall.unity
    guid: 87c1d32605abd2643a8654a68ccb31b6
  - enabled: 1
    path: Assets/Scenes/ArKingsHall.unity
    guid: 66a449bbc45aeae43a56b110d7beb632
  m_configObjects:
    Unity.XR.OpenVR.Settings: {fileID: 11400000, guid: 03b71266daadb384a8ad3498effc2d32,
      type: 2}
    com.unity.xr.management.loader_settings: {fileID: 11400000, guid: 068479ca5bf33944b8fc09825e7b9acc,
      type: 2}
