%YAML 1.1
%TAG !u! tag:unity3d.com,2011:
--- !u!1 &1150876982359688046
GameObject:
  m_ObjectHideFlags: 0
  m_CorrespondingSourceObject: {fileID: 0}
  m_PrefabInstance: {fileID: 0}
  m_PrefabAsset: {fileID: 0}
  serializedVersion: 6
  m_Component:
  - component: {fileID: 4928037239582228444}
  m_Layer: 0
  m_Name: WoodGhost
  m_TagString: Untagged
  m_Icon: {fileID: 0}
  m_NavMeshLayer: 0
  m_StaticEditorFlags: 0
  m_IsActive: 1
--- !u!4 &4928037239582228444
Transform:
  m_ObjectHideFlags: 0
  m_CorrespondingSourceObject: {fileID: 0}
  m_PrefabInstance: {fileID: 0}
  m_PrefabAsset: {fileID: 0}
  m_GameObject: {fileID: 1150876982359688046}
  m_LocalRotation: {x: 0, y: 0, z: 0, w: 1}
  m_LocalPosition: {x: 0, y: 0, z: 0}
  m_LocalScale: {x: 0.7, y: 0.7, z: 0.7}
  m_Children:
  - {fileID: 8233962630010520865}
  m_Father: {fileID: 0}
  m_RootOrder: 0
  m_LocalEulerAnglesHint: {x: 0, y: 0, z: 0}
--- !u!1001 &8233962630010134501
PrefabInstance:
  m_ObjectHideFlags: 0
  serializedVersion: 2
  m_Modification:
    m_TransformParent: {fileID: 4928037239582228444}
    m_Modifications:
    - target: {fileID: 100068, guid: 9251f384b071861468e65c0fc55b87e9, type: 3}
      propertyPath: m_Name
      value: Wood
      objectReference: {fileID: 0}
    - target: {fileID: 400068, guid: 9251f384b071861468e65c0fc55b87e9, type: 3}
      propertyPath: m_RootOrder
      value: 0
      objectReference: {fileID: 0}
    - target: {fileID: 400068, guid: 9251f384b071861468e65c0fc55b87e9, type: 3}
      propertyPath: m_LocalPosition.x
      value: 0
      objectReference: {fileID: 0}
    - target: {fileID: 400068, guid: 9251f384b071861468e65c0fc55b87e9, type: 3}
      propertyPath: m_LocalPosition.y
      value: -1.428
      objectReference: {fileID: 0}
    - target: {fileID: 400068, guid: 9251f384b071861468e65c0fc55b87e9, type: 3}
      propertyPath: m_LocalPosition.z
      value: 0
      objectReference: {fileID: 0}
    - target: {fileID: 400068, guid: 9251f384b071861468e65c0fc55b87e9, type: 3}
      propertyPath: m_LocalRotation.w
      value: 1
      objectReference: {fileID: 0}
    - target: {fileID: 400068, guid: 9251f384b071861468e65c0fc55b87e9, type: 3}
      propertyPath: m_LocalRotation.x
      value: 0
      objectReference: {fileID: 0}
    - target: {fileID: 400068, guid: 9251f384b071861468e65c0fc55b87e9, type: 3}
      propertyPath: m_LocalRotation.y
      value: 0
      objectReference: {fileID: 0}
    - target: {fileID: 400068, guid: 9251f384b071861468e65c0fc55b87e9, type: 3}
      propertyPath: m_LocalRotation.z
      value: 0
      objectReference: {fileID: 0}
    - target: {fileID: 400068, guid: 9251f384b071861468e65c0fc55b87e9, type: 3}
      propertyPath: m_LocalEulerAnglesHint.x
      value: 0
      objectReference: {fileID: 0}
    - target: {fileID: 400068, guid: 9251f384b071861468e65c0fc55b87e9, type: 3}
      propertyPath: m_LocalEulerAnglesHint.y
      value: 0
      objectReference: {fileID: 0}
    - target: {fileID: 400068, guid: 9251f384b071861468e65c0fc55b87e9, type: 3}
      propertyPath: m_LocalEulerAnglesHint.z
      value: 0
      objectReference: {fileID: 0}
    - target: {fileID: 13700000, guid: 9251f384b071861468e65c0fc55b87e9, type: 3}
      propertyPath: m_Materials.Array.data[0]
      value: 
      objectReference: {fileID: 2100000, guid: 12743e0487adc844489da2a40fc5d5b6, type: 2}
    m_RemovedComponents: []
  m_SourcePrefab: {fileID: 100100000, guid: 9251f384b071861468e65c0fc55b87e9, type: 3}
--- !u!4 &8233962630010520865 stripped
Transform:
  m_CorrespondingSourceObject: {fileID: 400068, guid: 9251f384b071861468e65c0fc55b87e9,
    type: 3}
  m_PrefabInstance: {fileID: 8233962630010134501}
  m_PrefabAsset: {fileID: 0}
