{
  "objects": [
    {
      "mainType": "3DProps",
      "id": 27,
      "subtype": "Rocket League Cup",
      "position": [ -12.898551940917969, 0.6929402947425842, -16.98423194885254 ],
      "size": [ 99.99996948242188, 100.00015258789063, 99.99996948242188 ],
      "rotation": [ -0.5110934376716614, -0.4953605830669403, -0.5056359171867371, 0.48757946491241457 ],
      "visible": false,
      "color": [ 0.6382719874382019, 0.5127812623977661, 0.04545433446764946, 1.0 ]
    },
    {
      "mainType": "3DProps",
      "id": 17,
      "subtype": "ClosedChest",
      "position": [ -28.746410369873048, 0.008497416973114014, -22.864036560058595 ],
      "size": [ 0.9999993443489075, 0.9999993443489075, 0.9999998807907105 ],
      "rotation": [ -0.030813807621598245, -0.0020440516527742149, -0.003013857174664736, 0.9995185136795044 ],
      "visible": true,
      "color": [ 0.0, 0.0, 0.0, 0.0 ]
    },
    {
      "mainType": "Images",
      "id": 16,
      "subtype": "Crack in concrete",
      "position": [ -25.807804107666017, 1.5541542768478394, -16.901718139648439 ],
      "size": [ 0.003632643958553672, 0.003632649779319763, 0.00363264256156981 ],
      "rotation": [ 0.013537374325096608, 0.6921718120574951, 0.003885469166561961, 0.7215954065322876 ],
      "visible": true,
      "color": [ 0.0, 0.0, 0.0, 0.0 ]
    },
    {
      "mainType": "Geometry",
      "id": 15,
      "subtype": "Cube",
      "position": [ -24.707059860229493, 1.6226049661636353, -16.917510986328126 ],
      "size": [ 1.888260841369629, 1.8882644176483155, 1.8882617950439454 ],
      "rotation": [ 0.011783221736550331, -0.0073507120832800869, 0.027337102219462396, 0.9995298385620117 ],
      "visible": true,
      "color": [ 1.0, 1.0, 1.0, 1.0 ]
    },
    {
      "mainType": "3DProps",
      "id": 14,
      "subtype": "Hammer",
      "position": [ -28.73101234436035, 0.10102494060993195, -22.89507484436035 ],
      "size": [ 0.9999998211860657, 1.0000009536743165, 1.0000011920928956 ],
      "rotation": [ 0.33084046840667727, -0.401618093252182, 0.5612399578094482, 0.6436281800270081 ],
      "visible": true,
      "color": [ 1.0, 1.0, 1.0, 1.0 ]
    },
    {
      "mainType": "3DProps",
      "id": 13,
      "subtype": "OpenedChest",
      "position": [ -28.74177360534668, 0.028862357139587404, -22.890756607055665 ],
      "size": [ 0.9999996423721314, 1.0000003576278687, 0.9999997615814209 ],
      "rotation": [ 0.008906777016818524, 0.009945034980773926, 0.0045754495076835159, -0.9999004006385803 ],
      "visible": false,
      "color": [ 0.0, 0.0, 0.0, 0.0 ]
    },
    {
      "mainType": "3DProps",
      "id": 12,
      "subtype": "Old Key",
      "position": [ -34.71499252319336, 1.0905095338821412, -22.03664207458496 ],
      "size": [ 1.0000008344650269, 1.0000005960464478, 1.0000007152557374 ],
      "rotation": [ -0.26348352432250979, 0.665921688079834, 0.6457245349884033, 0.26488620042800906 ],
      "visible": true,
      "color": [ 0.0, 0.0, 0.0, 0.0 ]
    },
    {
      "mainType": "Geometry",
      "id": 9,
      "subtype": "Cube",
      "position": [ -33.7061653137207, 0.27890390157699587, -18.24716567993164 ],
      "size": [ 0.8480610251426697, 0.8480608463287354, 0.848060667514801 ],
      "rotation": [ -0.003872014582157135, -0.6984955072402954, -0.01633593440055847, -0.7154175043106079 ],
      "visible": true,
      "color": [ 0.08301807194948197, 0.1507989764213562, 0.21199065446853639, 1.0 ]
    },
    {
      "mainType": "3DProps",
      "id": 8,
      "subtype": "C4",
      "position": [ -33.666969299316409, 0.7178089022636414, -18.07461166381836 ],
      "size": [ 1.000000238418579, 1.0000001192092896, 1.0 ],
      "rotation": [ -0.005880745593458414, 0.9995504021644592, 0.029353424906730653, 0.0016666946467012168 ],
      "visible": true,
      "color": [ 0.0, 0.0, 0.0, 0.0 ]
    },
    {
      "mainType": "3DProps",
      "id": 7,
      "subtype": "WireCutters",
      "position": [ -34.024227142333987, 0.7103193998336792, -17.9060115814209 ],
      "size": [ 1.000000238418579, 1.0000009536743165, 1.0000005960464478 ],
      "rotation": [ 0.8740847110748291, 0.026844024658203126, -0.48499709367752077, 0.005766993388533592 ],
      "visible": true,
      "color": [ 0.0, 0.0, 0.0, 0.0 ]
    },
    {
      "mainType": "3DProps",
      "id": 5,
      "subtype": "cable1Red",
      "position": [ -33.84873580932617, 0.6806648373603821, -17.876953125 ],
      "size": [ 0.9999996423721314, 1.0000007152557374, 1.0 ],
      "rotation": [ 0.3598492741584778, 0.6277285218238831, -0.45867982506752016, -0.5158277153968811 ],
      "visible": true,
      "color": [ 0.0, 0.0, 0.0, 0.0 ]
    },
    {
      "mainType": "3DProps",
      "id": 4,
      "subtype": "cable1Green",
      "position": [ -33.882747650146487, 0.6968523263931274, -18.171308517456056 ],
      "size": [ 1.0, 1.0000003576278687, 1.0000001192092896 ],
      "rotation": [ 0.5869659185409546, 0.7859870791435242, -0.18207699060440064, -0.06740348786115647 ],
      "visible": true,
      "color": [ 0.0, 0.0, 0.0, 0.0 ]
    },
    {
      "mainType": "3DProps",
      "id": 3,
      "subtype": "cable1Blue",
      "position": [ -33.63507080078125, 0.7199629545211792, -18.019161224365236 ],
      "size": [ 0.9999997019767761, 1.0, 0.9999997019767761 ],
      "rotation": [ -0.6518522500991821, -0.7058346271514893, 0.029471728950738908, 0.2757130265235901 ],
      "visible": true,
      "color": [ 0.0, 0.0, 0.0, 0.0 ]
    },
    {
      "mainType": "Geometry",
      "id": 10,
      "subtype": "Sphere",
      "position": [ -33.6945686340332, 0.6997964978218079, -18.3787784576416 ],
      "size": [ 0.09999999403953552, 0.10000003129243851, 0.09999997168779373 ],
      "rotation": [ -0.43281781673431399, 0.17658863961696626, 0.23259687423706056, 0.8528680801391602 ],
      "visible": true,
      "color": [ 1.0, 1.0, 1.0, 1.0 ]
    },
    {
      "mainType": "Geometry",
      "id": 11,
      "subtype": "Cube",
      "position": [ -25.36611557006836, 0.4901171922683716, -16.93138885498047 ],
      "size": [ 1.84079909324646, 1.8408010005950928, 1.840800166130066 ],
      "rotation": [ 0.008342072367668152, -0.021596580743789674, 0.0014974623918533326, 0.9997308254241943 ],
      "visible": true,
      "color": [ 1.0, 1.0, 1.0, 1.0 ]
    },
    {
      "mainType": "Images",
      "id": 28,
      "subtype": "Congrats",
      "position": [ -12.723623275756836, 1.6998237371444703, -17.010801315307618 ],
      "size": [ 0.0028525337111204864, 0.0028525337111204864, 0.0028525313828140499 ],
      "rotation": [ -0.017139123752713205, 0.7145074009895325, 0.030505657196044923, 0.6987523436546326 ],
      "visible": false,
      "color": [ 0.0, 0.0, 0.0, 0.0 ]
    }
  ],
  "events": [
    {
      "mainType": "Show",
      "id": 92,
      "target": 27,
      "animations": [],
      "previousIcon": -1,
      "nextIcon": -1,
      "color": [],
      "holdingHand": -1,
      "trajectory": "",
      "rotations": "",
      "collided": -1,
      "followDirection": false
    },
    {
      "mainType": "ZoneCollider",
      "id": 91,
      "target": -1,
      "animations": [ 92, 93 ],
      "previousIcon": -1,
      "nextIcon": -1,
      "color": [],
      "holdingHand": -1,
      "trajectory": "[[-14.41604,0.05,-16.04667], [-14.39382,0.05,-17.85009], [-12.89732,0.05,-17.89687], [-12.93387,0.05,-16.01129], [-14.41604,0.05,-16.04667]]",
      "rotations": "",
      "collided": -1,
      "followDirection": false
    },
    {
      "mainType": "Hide",
      "id": 44,
      "target": 17,
      "animations": [ 31 ],
      "previousIcon": -1,
      "nextIcon": -1,
      "color": [],
      "holdingHand": -1,
      "trajectory": "",
      "rotations": "",
      "collided": -1,
      "followDirection": false
    },
    {
      "mainType": "Collision",
      "id": 42,
      "target": 14,
      "animations": [ 40 ],
      "previousIcon": -1,
      "nextIcon": -1,
      "color": [],
      "holdingHand": -1,
      "trajectory": "",
      "rotations": "",
      "collided": 16,
      "followDirection": false
    },
    {
      "mainType": "Hide",
      "id": 40,
      "target": 16,
      "animations": [ 39 ],
      "previousIcon": -1,
      "nextIcon": -1,
      "color": [],
      "holdingHand": -1,
      "trajectory": "",
      "rotations": "",
      "collided": -1,
      "followDirection": false
    },
    {
      "mainType": "Hide",
      "id": 39,
      "target": 15,
      "animations": [],
      "previousIcon": -1,
      "nextIcon": -1,
      "color": [],
      "holdingHand": -1,
      "trajectory": "",
      "rotations": "",
      "collided": -1,
      "followDirection": false
    },
    {
      "mainType": "Grab",
      "id": 35,
      "target": 14,
      "animations": [],
      "previousIcon": -1,
      "nextIcon": -1,
      "color": [],
      "holdingHand": 0,
      "trajectory": "",
      "rotations": "",
      "collided": -1,
      "followDirection": false
    },
    {
      "mainType": "Show",
      "id": 31,
      "target": 13,
      "animations": [],
      "previousIcon": -1,
      "nextIcon": -1,
      "color": [],
      "holdingHand": -1,
      "trajectory": "",
      "rotations": "",
      "collided": -1,
      "followDirection": false
    },
    {
      "mainType": "Hide",
      "id": 21,
      "target": 8,
      "animations": [ 29 ],
      "previousIcon": -1,
      "nextIcon": -1,
      "color": [],
      "holdingHand": -1,
      "trajectory": "",
      "rotations": "",
      "collided": -1,
      "followDirection": false
    },
    {
      "mainType": "Collision",
      "id": 20,
      "target": 7,
      "animations": [ 2 ],
      "previousIcon": 18,
      "nextIcon": -1,
      "color": [],
      "holdingHand": -1,
      "trajectory": "",
      "rotations": "",
      "collided": 3,
      "followDirection": false
    },
    {
      "mainType": "Collision",
      "id": 18,
      "target": 7,
      "animations": [ 1 ],
      "previousIcon": 16,
      "nextIcon": 20,
      "color": [],
      "holdingHand": -1,
      "trajectory": "",
      "rotations": "",
      "collided": 4,
      "followDirection": false
    },
    {
      "mainType": "Collision",
      "id": 16,
      "target": 7,
      "animations": [ 0 ],
      "previousIcon": -1,
      "nextIcon": 18,
      "color": [],
      "holdingHand": -1,
      "trajectory": "",
      "rotations": "",
      "collided": 5,
      "followDirection": false
    },
    {
      "mainType": "Grab",
      "id": 12,
      "target": 7,
      "animations": [],
      "previousIcon": -1,
      "nextIcon": -1,
      "color": [],
      "holdingHand": 0,
      "trajectory": "",
      "rotations": "",
      "collided": -1,
      "followDirection": false
    },
    {
      "mainType": "Hide",
      "id": 2,
      "target": 3,
      "animations": [ 21 ],
      "previousIcon": -1,
      "nextIcon": -1,
      "color": [],
      "holdingHand": -1,
      "trajectory": "",
      "rotations": "",
      "collided": -1,
      "followDirection": false
    },
    {
      "mainType": "Hide",
      "id": 1,
      "target": 4,
      "animations": [],
      "previousIcon": -1,
      "nextIcon": -1,
      "color": [],
      "holdingHand": -1,
      "trajectory": "",
      "rotations": "",
      "collided": -1,
      "followDirection": false
    },
    {
      "mainType": "Hide",
      "id": 0,
      "target": 5,
      "animations": [],
      "previousIcon": -1,
      "nextIcon": -1,
      "color": [],
      "holdingHand": -1,
      "trajectory": "",
      "rotations": "",
      "collided": -1,
      "followDirection": false
    },
    {
      "mainType": "Collision",
      "id": 24,
      "target": 0,
      "animations": [ 26 ],
      "previousIcon": -1,
      "nextIcon": -1,
      "color": [],
      "holdingHand": -1,
      "trajectory": "",
      "rotations": "",
      "collided": 10,
      "followDirection": false
    },
    {
      "mainType": "Color",
      "id": 26,
      "target": 10,
      "animations": [ 27 ],
      "previousIcon": -1,
      "nextIcon": -1,
      "color": [ 0.6505130529403687, 0.1026749312877655, 0.1026749312877655, 1.0 ],
      "holdingHand": -1,
      "trajectory": "",
      "rotations": "",
      "collided": -1,
      "followDirection": false
    },
    {
      "mainType": "Color",
      "id": 27,
      "target": 10,
      "animations": [ 28 ],
      "previousIcon": -1,
      "nextIcon": -1,
      "color": [ 0.12088968604803086, 0.6494170427322388, 0.15683285892009736, 1.0 ],
      "holdingHand": -1,
      "trajectory": "",
      "rotations": "",
      "collided": -1,
      "followDirection": false
    },
    {
      "mainType": "Color",
      "id": 28,
      "target": 10,
      "animations": [],
      "previousIcon": -1,
      "nextIcon": -1,
      "color": [ 0.147414892911911, 0.19984318315982819, 0.5930666923522949, 1.0 ],
      "holdingHand": -1,
      "trajectory": "",
      "rotations": "",
      "collided": -1,
      "followDirection": false
    },
    {
      "mainType": "Hide",
      "id": 29,
      "target": 11,
      "animations": [],
      "previousIcon": -1,
      "nextIcon": -1,
      "color": [],
      "holdingHand": -1,
      "trajectory": "",
      "rotations": "",
      "collided": -1,
      "followDirection": false
    },
    {
      "mainType": "Grab",
      "id": 48,
      "target": 12,
      "animations": [],
      "previousIcon": -1,
      "nextIcon": -1,
      "color": [],
      "holdingHand": 0,
      "trajectory": "",
      "rotations": "",
      "collided": -1,
      "followDirection": false
    },
    {
      "mainType": "Drag",
      "id": 61,
      "target": 12,
      "animations": [ 44 ],
      "previousIcon": -1,
      "nextIcon": -1,
      "color": [],
      "holdingHand": 0,
      "trajectory": "[[-34.71499,1.09051,-22.03664], [-28.74236,0.5537339,-22.58355], [-28.75983,0.542911,-22.59364]]",
      "rotations": "[[-0.001831055,-0.9199324,-0.2034373,0.3351631], [-0.01666517,-0.9218278,-0.2076655,0.3268499], [-0.01409846,-0.9199072,-0.2154954,0.3273129]]",
      "collided": -1,
      "followDirection": false
    },
    {
      "mainType": "Show",
      "id": 93,
      "target": 28,
      "animations": [],
      "previousIcon": -1,
      "nextIcon": -1,
      "color": [],
      "holdingHand": -1,
      "trajectory": "",
      "rotations": "",
      "collided": -1,
      "followDirection": false
    }
  ]
}