{"objects" : [
{"mainType":"Geometry","id":3,"subtype":"Sphere","position":[-34.05830764770508,1.0252320766448975,-17.266843795776368],"size":[0.09999994933605194,0.09999993443489075,0.09999999403953552],"rotation":[3.15017491259173e-11,-5.960463766996327e-8,7.605197027693578e-11,1.0],"visible":true,"color":[1.0,1.0,1.0,1.0]} 
], 
 "events": [{"mainType":"ZoneCollider","id":12,"target":-1,"animations":[],"previousIcon":-1,"nextIcon":-1,"color":[],"holdingHand":-1,"trajectory":"[[0,0.05,0], [0.9380722,0,-0.6816673], [0.292778,0,-2.866295], [-0.7908554,0,-0.8383026], [0,0.05,0]]","rotations":"","collided":-1,"followDirection":false}, 
{"mainType":"ZoneCollider","id":0,"target":-1,"animations":[],"previousIcon":-1,"nextIcon":-1,"color":[],"holdingHand":-1,"trajectory":"[[0,0.05,0], [-1.058086,0,0.0935173], [-1.469128,0,-1.082798], [-0.03325653,0,-1.460493], [0,0.05,0]]","rotations":"","collided":-1,"followDirection":false}, 
{"mainType":"Collision","id":17,"target":0,"animations":[15],"previousIcon":-1,"nextIcon":-1,"color":[],"holdingHand":-1,"trajectory":"","rotations":"","collided":3,"followDirection":false}, 
{"mainType":"Color","id":15,"target":3,"animations":[],"previousIcon":-1,"nextIcon":-1,"color":[0.803046703338623,0.14158549904823304,0.14158549904823304,1.0],"holdingHand":-1,"trajectory":"","rotations":"","collided":-1,"followDirection":false}, 
{"mainType":"EnterZone","id":13,"target":2,"animations":[],"previousIcon":-1,"nextIcon":-1,"color":[],"holdingHand":-1,"trajectory":"","rotations":"","collided":12,"followDirection":false}, 
{"mainType":"ExitZone","id":10,"target":3,"animations":[],"previousIcon":8,"nextIcon":-1,"color":[],"holdingHand":-1,"trajectory":"","rotations":"","collided":0,"followDirection":false}, 
{"mainType":"EnterZone","id":8,"target":3,"animations":[],"previousIcon":-1,"nextIcon":10,"color":[],"holdingHand":-1,"trajectory":"","rotations":"","collided":0,"followDirection":false}]}