{"objects" : [
{"mainType":"Images","id":27,"subtype":"Congrats","position":[-41.75091552734375,1.1404136419296265,-16.119152069091798],"size":[0.0010000001639127732,0.0010000001639127732,0.0009999999310821295],"rotation":[-0.021769734099507333,-0.02464585192501545,-0.00741993123665452,-0.9994316697120667],"visible":false,"color":[0.0,0.0,0.0,0.0]}, 
{"mainType":"3DProps","id":4,"subtype":"NapoleonsMap","position":[-32.79978561401367,0.5602840185165405,-16.454736709594728],"size":[1.0,1.0,1.0],"rotation":[0.6984783411026001,-0.011937526986002922,-0.012831119820475579,-0.7154166102409363],"visible":false,"color":[0.0,0.0,0.0,0.0]}, 
{"mainType":"Images","id":5,"subtype":"Napoleaon Chronology 3","position":[-32.801979064941409,1.570495367050171,-16.122629165649415],"size":[0.0010000003967434168,0.0010000006295740605,0.0010000001639127732],"rotation":[0.02633892372250557,0.03262913227081299,0.015769779682159425,-0.9989959597587586],"visible":false,"color":[0.0,0.0,0.0,0.0]}, 
{"mainType":"3DProps","id":17,"subtype":"carrot","position":[-41.86787414550781,2.0120952129364015,-16.784832000732423],"size":[1.0000001192092896,1.0,1.0],"rotation":[0.570475161075592,0.3639969229698181,-0.11300182342529297,-0.7275266051292419],"visible":false,"color":[0.0,0.0,0.0,0.0]}, 
{"mainType":"Images","id":23,"subtype":"PlaceHolder1","position":[-32.77602005004883,2.078853130340576,-16.117958068847658],"size":[0.0010000001639127732,0.0010000001639127732,0.0009999999310821295],"rotation":[0.035074956715106967,0.002998033305630088,-0.006607246119529009,-0.9993584156036377],"visible":true,"color":[0.0,0.0,0.0,0.0]}, 
{"mainType":"Images","id":24,"subtype":"PlaceHolder2","position":[-41.73789978027344,1.6378917694091797,-16.103464126586915],"size":[0.001000000280328095,0.001000000280328095,0.0009999996982514859],"rotation":[0.004174456465989351,-0.04459959641098976,0.0011482423869892955,-0.9989956021308899],"visible":true,"color":[0.0,0.0,0.0,0.0]}, 
{"mainType":"3DProps","id":28,"subtype":"model","position":[-42.1201171875,1.635998010635376,-17.09676742553711],"size":[1.0000001192092896,1.0,1.0000001192092896],"rotation":[0.17998716235160829,0.5255932807922363,0.07076391577720642,-0.8284617066383362],"visible":false,"color":[0.0,0.0,0.0,0.0]}, 
{"mainType":"3DProps","id":29,"subtype":"sword_2h Variant","position":[-41.214012145996097,0.3615676164627075,-16.267276763916017],"size":[1.5000015497207642,1.500000238418579,1.499999761581421],"rotation":[-0.08575532585382462,0.09904251247644425,0.31899046897888186,0.9386595487594605],"visible":true,"color":[1.0,1.0,1.0,1.0]} 
], 
 "events": [{"mainType":"Move","id":47,"target":0,"animations":[],"previousIcon":46,"nextIcon":-1,"color":[],"holdingHand":-1,"trajectory":"[[-41.26902,1.227889,-16.99849]]","rotations":"[[0.1822692,-0.2325719,-0.1955296,0.9351237]]","collided":-1,"followDirection":false}, 
{"mainType":"Move","id":46,"target":0,"animations":[],"previousIcon":45,"nextIcon":47,"color":[],"holdingHand":-1,"trajectory":"[[-41.24264,1.217887,-17.01543], [-41.25557,1.234795,-17.00078]]","rotations":"[[0.2076372,-0.2275829,-0.2053575,0.9289355], [0.1769905,-0.2269821,-0.2185497,0.9324106]]","collided":-1,"followDirection":false}, 
{"mainType":"Grab","id":45,"target":-1,"animations":[],"previousIcon":44,"nextIcon":46,"color":[],"holdingHand":0,"trajectory":"[[-41.24264,1.217887,-17.01543]]","rotations":"","collided":-1,"followDirection":false}, 
{"mainType":"Move","id":44,"target":0,"animations":[],"previousIcon":43,"nextIcon":45,"color":[],"holdingHand":-1,"trajectory":"[[-41.23413,0.3691905,-16.23506], [-41.21997,0.3735893,-16.27132], [-41.20692,0.3834912,-16.303], [-41.19379,0.4129991,-16.38272], [-41.19331,0.4638638,-16.46328], [-41.20624,0.5661057,-16.5801], [-41.22532,0.6659636,-16.66562], [-41.2369,0.7872415,-16.73282], [-41.22058,0.92172,-16.75968], [-41.20506,1.059862,-16.79516], [-41.20978,1.146271,-16.82699], [-41.21928,1.191888,-16.83637], [-41.22818,1.228059,-16.85956], [-41.22309,1.249315,-16.88772], [-41.20179,1.267972,-16.91538], [-41.16694,1.287374,-16.93341], [-41.13962,1.302047,-16.94276], [-41.13848,1.308361,-16.94995], [-41.15755,1.296463,-16.96761], [-41.19285,1.260441,-16.99534], [-41.22156,1.231869,-17.02758], [-41.23703,1.220637,-17.03492], [-41.24264,1.217887,-17.01543]]","rotations":"[[-0.1810825,0.1019825,0.3139938,0.9263998], [-0.03619709,0.04691472,0.2665928,0.961986], [0.05240756,0.03965162,0.2402803,0.9684764], [0.1859354,0.02023718,0.187985,0.9641992], [0.2716752,0.004358782,0.1285996,0.9537483], [0.3581473,-0.02604163,0.05110403,0.9319017], [0.4418508,-0.04282059,-0.01748591,0.8958954], [0.4703217,-0.0585295,-0.1203115,0.8722941], [0.3466145,-0.05872775,-0.14871,0.9242807], [0.2313662,-0.08121971,-0.1793449,0.9527374], [0.1539891,-0.1301962,-0.1890809,0.9610332], [0.1003341,-0.1544395,-0.1739963,0.9673711], [0.07460464,-0.181671,-0.185645,0.9627906], [0.1250685,-0.1613312,-0.216841,0.9546257], [0.1336346,-0.1582129,-0.2420036,0.947916], [0.1039708,-0.1246395,-0.2684228,0.9495285], [0.07284622,-0.106396,-0.2898317,0.9483517], [0.06749683,-0.1277085,-0.3017239,0.9423892], [0.07844896,-0.1644833,-0.2831677,0.9415982], [0.1451762,-0.2159721,-0.2442754,0.9341357], [0.1973857,-0.2582178,-0.2258808,0.9183356], [0.2137988,-0.272877,-0.2070458,0.9148554], [0.2076372,-0.2275829,-0.2053575,0.9289355]]","collided":-1,"followDirection":false}, 
{"mainType":"Drop","id":43,"target":29,"animations":[],"previousIcon":42,"nextIcon":44,"color":[],"holdingHand":0,"trajectory":"","rotations":"","collided":-1,"followDirection":false}, 
{"mainType":"Drag","id":42,"target":29,"animations":[],"previousIcon":41,"nextIcon":43,"color":[],"holdingHand":0,"trajectory":"[[-41.21401,0.3615676,-16.26728], [-41.22379,0.3611272,-16.23424], [-41.23857,0.3672592,-16.23095], [-41.24431,0.3683714,-16.23181], [-41.24027,0.365521,-16.2305]]","rotations":"[[-0.08575533,0.09904251,0.3189905,0.9386595], [-0.1409594,0.1079786,0.3027764,0.9363747], [-0.1739236,0.09601635,0.3123178,0.928972], [-0.1886706,0.08744913,0.3215263,0.923784], [-0.1821616,0.0907691,0.319172,0.9255849]]","collided":-1,"followDirection":false}, 
{"mainType":"Grab","id":41,"target":29,"animations":[],"previousIcon":40,"nextIcon":42,"color":[],"holdingHand":0,"trajectory":"","rotations":"","collided":-1,"followDirection":false}, 
{"mainType":"Collision","id":40,"target":0,"animations":[],"previousIcon":39,"nextIcon":41,"color":[],"holdingHand":-1,"trajectory":"","rotations":"","collided":29,"followDirection":false}, 
{"mainType":"Move","id":39,"target":0,"animations":[],"previousIcon":-1,"nextIcon":40,"color":[],"holdingHand":-1,"trajectory":"[[-41.21427,0.7913018,-16.69505], [-41.22695,0.7421187,-16.63509], [-41.23357,0.7028818,-16.58579], [-41.2411,0.6895337,-16.55121], [-41.24114,0.6843605,-16.51111], [-41.24041,0.6689351,-16.46644], [-41.23867,0.630968,-16.42984], [-41.23973,0.5885675,-16.41039], [-41.23551,0.4932769,-16.37466], [-41.22915,0.4481328,-16.35412], [-41.21753,0.3903532,-16.31878], [-41.21422,0.3687815,-16.28267]]","rotations":"[[0.0901351,0.07024009,0.1263316,0.9853843], [0.0855625,0.07227119,0.117685,0.9867148], [0.108016,0.08714034,0.1475671,0.9792666], [0.09104015,0.07210368,0.182449,0.9763325], [0.07071739,0.08289625,0.202953,0.973107], [0.03686382,0.09566427,0.2114276,0.972002], [0.00744829,0.1072555,0.2253063,0.9683377], [-0.008838936,0.0951808,0.2507539,0.9633198], [-0.02878583,0.07740991,0.2944461,0.9520927], [-0.03280195,0.08275332,0.3016158,0.9492649], [-0.05326827,0.08989764,0.3057602,0.946357], [-0.07717837,0.0996535,0.3131795,0.9412924]]","collided":-1,"followDirection":false}, 
{"mainType":"ZoneCollider","id":38,"target":-1,"animations":[],"previousIcon":-1,"nextIcon":-1,"color":[],"holdingHand":-1,"trajectory":"[[-27.01651,0.05,-16.2697], [-27.41064,0.05,-17.56506], [-25.03942,0.05,-17.46855], [-25.09982,0.05,-15.98651], [-26.55032,0.05,-16.17492], [-27.01651,0.05,-16.2697]]","rotations":"","collided":-1,"followDirection":false}, 
{"mainType":"Show","id":37,"target":4,"animations":[],"previousIcon":36,"nextIcon":-1,"color":[],"holdingHand":-1,"trajectory":"","rotations":"","collided":-1,"followDirection":false}, 
{"mainType":"Show","id":36,"target":5,"animations":[],"previousIcon":-1,"nextIcon":37,"color":[],"holdingHand":-1,"trajectory":"","rotations":"","collided":-1,"followDirection":false}, 
{"mainType":"Move","id":32,"target":0,"animations":[],"previousIcon":31,"nextIcon":-1,"color":[],"holdingHand":-1,"trajectory":"[[-32.82053,1.930436,-16.03481], [-32.82789,1.925344,-16.07177], [-32.83766,1.913392,-16.13526], [-32.84535,1.887028,-16.20578], [-32.85433,1.801096,-16.3178], [-32.86426,1.68911,-16.409], [-32.88809,1.553194,-16.49958], [-32.90837,1.469392,-16.55099], [-32.92328,1.410253,-16.59137], [-32.91442,1.386051,-16.62306], [-32.89532,1.363924,-16.65139], [-32.8784,1.347276,-16.67203], [-32.86789,1.355522,-16.68835], [-32.86423,1.370303,-16.70361], [-32.85981,1.374435,-16.71568]]","rotations":"[[-0.2819263,0.1074473,0.5819472,0.7551889], [-0.3104377,0.0887586,0.5677587,0.7572321], [-0.3633762,0.06242654,0.5211644,0.7697067], [-0.4263195,0.04746437,0.4275323,0.795748], [-0.4918123,-0.01272649,0.2536038,0.8328528], [-0.4951828,-0.04995206,0.1706173,0.850405], [-0.4559707,-0.06542584,0.1471665,0.8753012], [-0.3721688,-0.08891091,0.06635139,0.9215112], [-0.2657135,-0.08959499,-0.01934527,0.9596848], [-0.2260773,-0.02352715,-0.07595554,0.9708586], [-0.1764981,0.0251587,-0.119667,0.9766756], [-0.144662,0.05113509,-0.1245258,0.9802814], [-0.1498488,0.0563136,-0.1311497,0.9783527], [-0.1671588,0.04820165,-0.1279301,0.9764059], [-0.1728729,0.05086267,-0.1226466,0.9759538]]","collided":-1,"followDirection":false}, 
{"mainType":"Move","id":31,"target":0,"animations":[],"previousIcon":30,"nextIcon":32,"color":[],"holdingHand":-1,"trajectory":"[[-32.81947,1.916915,-16.10904], [-32.82161,1.920108,-16.04769], [-32.82051,1.93113,-16.02132], [-32.8172,1.939881,-16.00242], [-32.82068,1.935935,-16.00358], [-32.82044,1.931185,-16.01608]]","rotations":"[[-0.262719,0.0601633,0.5978705,0.7549238], [-0.2463134,0.06305121,0.610965,0.7497174], [-0.2548125,0.08005872,0.6016639,0.7527694], [-0.2643397,0.110005,0.5887035,0.7559442], [-0.2645616,0.1057242,0.5925535,0.7534653], [-0.2690038,0.1032787,0.5874561,0.7562182]]","collided":-1,"followDirection":false}, 
{"mainType":"Collision","id":30,"target":0,"animations":[36,37],"previousIcon":-1,"nextIcon":31,"color":[],"holdingHand":-1,"trajectory":"","rotations":"","collided":23,"followDirection":false}, 
{"mainType":"Hide","id":28,"target":17,"animations":[],"previousIcon":-1,"nextIcon":-1,"color":[],"holdingHand":-1,"trajectory":"","rotations":"","collided":-1,"followDirection":false}, 
{"mainType":"Hide","id":27,"target":28,"animations":[9],"previousIcon":-1,"nextIcon":-1,"color":[],"holdingHand":-1,"trajectory":"","rotations":"","collided":-1,"followDirection":false}, 
{"mainType":"Show","id":5,"target":17,"animations":[],"previousIcon":-1,"nextIcon":-1,"color":[],"holdingHand":-1,"trajectory":"","rotations":"","collided":-1,"followDirection":false}, 
{"mainType":"Show","id":8,"target":28,"animations":[],"previousIcon":-1,"nextIcon":-1,"color":[],"holdingHand":-1,"trajectory":"","rotations":"","collided":-1,"followDirection":false}, 
{"mainType":"Show","id":9,"target":27,"animations":[],"previousIcon":-1,"nextIcon":-1,"color":[],"holdingHand":-1,"trajectory":"","rotations":"","collided":-1,"followDirection":false}, 
{"mainType":"Collision","id":11,"target":0,"animations":[8,5],"previousIcon":-1,"nextIcon":-1,"color":[],"holdingHand":-1,"trajectory":"","rotations":"","collided":24,"followDirection":false}, 
{"mainType":"Collision","id":22,"target":29,"animations":[27],"previousIcon":-1,"nextIcon":26,"color":[],"holdingHand":-1,"trajectory":"","rotations":"","collided":28,"followDirection":false}, 
{"mainType":"Collision","id":26,"target":29,"animations":[28],"previousIcon":22,"nextIcon":-1,"color":[],"holdingHand":-1,"trajectory":"","rotations":"","collided":17,"followDirection":false}]}