{"objects" : [
{"mainType": "Geometry",
"id":3,
"subtype" : "Cube",
"position": [7,1.5,-5],
"rotation": [0,0,0,0],
"visible": "false",
"color": [0,1,0,1]
},
{"mainType": "Geometry",
"id":4,
"subtype" : "Sphere",
"position": [6,1.5,-5],
"rotation": [0,0,0,0],
"visible": "true",
"color": [1,0,0,1]
},
{"mainType": "Geometry",
"id":5,
"subtype" : "Cylinder",
"position": [7,1.2,-5],
"rotation": [90,0,0,0],
"visible": "false",
"color": [0,0,1,1]
},
{"mainType": "Geometry",
"id":6,
"subtype" : "Capsule",
"position": [6,1.2,-5],
"rotation": [0,45,0,0],
"visible": "true",
"color": [1,0.92,0.016,1]
},
{"mainType": "Images",
"id":7,
"subtype" : "MontSaintMichel",
"position": [7,1.2,-7],
"rotation": [0,0,0,0],
"visible": "true",
"color": [0,0,0,0]
},
{"mainType": "3DProps",
"id":8,
"subtype" : "Barrell",
"position": [8,0.5,-7],
"rotation": [0,0,0,0],
"visible": "false",
"color": [0,0,0,0]
}
],
"events" : [
{"mainType": "Hide",
"id":0,
"target":3,
"animations":[],
"previousIcon":-1,
"nextIcon":-1,
"color"=[0,0,0,0],
"holdingHand":-1;
"trajectory":"[]",
"rotations":"[]",
"collided":-1
},
{"mainType": "Move",
"id":1,
"target":6,
"animations":[],
"previousIcon":-1,
"nextIcon":-1,
"color"=[0,0,0,0],
"holdingHand":-1,
"trajectory":"[[0,1,0,1],[0,1.5,0,1.5,1],[0,1.7,1.6,1]]",
"rotations":"[[45,45,45,45],[90,90,90,90],[10,20,25,35]]",
"collided":-1
}
],
"metaphors" : []
}